Academic license - for non-commercial use only
Gurobi Optimizer version 9.0.3 build v9.0.3rc0 (linux64)
Optimize a model with 156868 rows, 104835 columns and 593970 nonzeros
Model fingerprint: 0x0f4bff4b
Variable types: 52545 continuous, 52290 integer (52290 binary)
Coefficient statistics:
  Matrix range     [1e+00, 4e+06]
  Objective range  [3e+01, 4e+02]
  Bounds range     [1e+00, 2e+06]
  RHS range        [1e+00, 2e+06]

Loaded user MIP start with objective 6570

Presolve removed 145863 rows and 94252 columns
Presolve time: 2.57s
Presolved: 11005 rows, 10583 columns, 107465 nonzeros
Found heuristic solution: objective 6630.0000000
Variable types: 0 continuous, 10583 integer (7167 binary)

Root simplex log...

Iteration    Objective       Primal Inf.    Dual Inf.      Time
    6782    2.1209978e+04   2.180273e+06   0.000000e+00      5s
   13712    1.8359976e+04   3.907638e+06   0.000000e+00     10s
   20890    1.4099973e+04   5.169386e+05   0.000000e+00     15s
   27028    1.2239963e+04   2.045253e+06   0.000000e+00     20s
   32703    1.1879954e+04   1.533361e+05   0.000000e+00     25s
   38109    1.1849916e+04   7.295746e+05   0.000000e+00     30s
   39749    1.1850000e+04   0.000000e+00   0.000000e+00     31s
   39749    1.1850000e+04   0.000000e+00   0.000000e+00     31s

Root relaxation: objective 1.185000e+04, 39749 iterations, 28.77 seconds
Total elapsed time = 35.66s

    Nodes    |    Current Node    |     Objective Bounds      |     Work
 Expl Unexpl |  Obj  Depth IntInf | Incumbent    BestBd   Gap | It/Node Time

     0     0 11850.0000    0 2693 6630.00000 11850.0000  78.7%     -   35s
H    0     0                    10800.000000 11850.0000  9.72%     -   35s
     0     0 11850.0000    0 2687 10800.0000 11850.0000  9.72%     -   38s
     0     0 11850.0000    0 2656 10800.0000 11850.0000  9.72%     -   39s
     0     0 11850.0000    0 2396 10800.0000 11850.0000  9.72%     -   45s
H    0     0                    11310.000000 11850.0000  4.77%     -   45s
     0     0 11850.0000    0 2349 11310.0000 11850.0000  4.77%     -   46s
     0     0 11850.0000    0 2403 11310.0000 11850.0000  4.77%     -   50s
H    0     0                    11550.000000 11850.0000  2.60%     -   50s
     0     0 11850.0000    0 2381 11550.0000 11850.0000  2.60%     -   50s
     0     0 11850.0000    0 2303 11550.0000 11850.0000  2.60%     -   54s
     0     0 11850.0000    0 2276 11550.0000 11850.0000  2.60%     -   54s
     0     0 11850.0000    0 2264 11550.0000 11850.0000  2.60%     -   58s
     0     0 11850.0000    0 2264 11550.0000 11850.0000  2.60%     -   61s
H    0     0                    11850.000000 11850.0000  0.00%     -   63s
     0     0 11850.0000    0 2264 11850.0000 11850.0000  0.00%     -   63s

Cutting planes:
  Gomory: 2
  Implied bound: 96
  MIR: 7
  RLT: 49

Explored 1 nodes (83757 simplex iterations) in 63.27 seconds
Thread count was 1 (of 40 available processors)

Solution count 6: 11850 11550 11310 ... 6570

Optimal solution found (tolerance 1.00e-04)
Best objective 1.185000000000e+04, best bound 1.185000000000e+04, gap 0.0000%

----------

Best objective (UB): 11850.000
Best feasible solution (LB): 11850.000
Gap between the lower bound and upper bound: 0.000%

----------

Number of customers served: 86

Schedule for EV v0:
   [   0,  434) -> It remains parked at station s0, which was charging for charging.
   [ 434,  644) -> Service a request driving for customer c159 from s0 to s11.
   [ 644,  728) -> It remains parked at station s11, which was charging for charging.
   [ 728,  818) -> Service a request driving for customer c62 from s11 to s0.
   [ 818,  845) -> It remains parked at station s0, which was charging for charging.
   [ 845,  995) -> Service a request driving for customer c242 from s0 to s6.
   [ 995, 1031) -> It remains parked at station s6, which was charging for charging.
   [1031, 1211) -> Service a request driving for customer c213 from s6 to s3.
   [1211, 1274) -> It remains parked at station s3, which was charging for charging.
   [1274, 1364) -> Service a request driving for customer c263 from s3 to s1.
   [1364, 1451) -> It remains parked at station s1, which was charging for charging.
   [1451, 1691) -> Service a request driving for customer c115 from s1 to s3.

Schedule for EV v1:
   [   0,  430) -> It remains parked at station s1, which was charging for charging.
   [ 430,  700) -> Service a request driving for customer c186 from s1 to s3.
   [ 700,  733) -> It remains parked at station s3, which was charging for charging.
   [ 733,  823) -> Service a request driving for customer c122 from s3 to s1.
   [ 823,  850) -> It remains parked at station s1, which was charging for charging.
   [ 850,  910) -> Service a request driving for customer c78 from s1 to s11.
   [ 910,  913) -> It remains parked at station s11, which was charging for charging.
   [ 913, 1063) -> Service a request driving for customer c50 from s11 to s0.
   [1063, 1085) -> It remains parked at station s0, which was charging for charging.
   [1085, 1235) -> Service a request driving for customer c233 from s0 to s3.
   [1235, 1274) -> It remains parked at station s3, which was charging for charging.
   [1274, 1304) -> Service a request driving for customer c87 from s3 to s1.
   [1304, 1330) -> It remains parked at station s1, which was charging for charging.
   [1330, 1420) -> Service a request driving for customer c182 from s1 to s10.
   [1420, 1691) -> It remains parked at station s10, which was charging for charging.

Schedule for EV v2:
   [   0,  545) -> It remains parked at station s2, which was charging for charging.
   [ 545,  755) -> Service a request driving for customer c91 from s2 to s0.
   [ 755,  848) -> It remains parked at station s0, which was charging for charging.
   [ 848,  908) -> Service a request driving for customer c211 from s0 to s11.
   [ 908,  909) -> It remains parked at station s11, which was charging for charging.
   [ 909,  969) -> Service a request driving for customer c204 from s11 to s0.
   [ 969,  973) -> It remains parked at station s0, which was charging for charging.
   [ 973, 1123) -> Service a request driving for customer c19 from s0 to s8.
   [1123, 1146) -> It remains parked at station s8, which was charging for charging.
   [1146, 1326) -> Service a request driving for customer c99 from s8 to s8.
   [1326, 1390) -> It remains parked at station s8, which was charging for charging.
   [1390, 1480) -> Service a request driving for customer c132 from s8 to s3.
   [1480, 1691) -> It remains parked at station s3, which was charging for charging.

Schedule for EV v3:
   [   0,  490) -> It remains parked at station s2, which was charging for charging.
   [ 490,  550) -> Service a request driving for customer c119 from s2 to s4.
   [ 550,  640) -> Service a request driving for customer c206 from s4 to s4.
   [ 640,  670) -> It remains parked at station s4, which was charging for charging.
   [ 670,  730) -> Service a request driving for customer c28 from s4 to s3.
   [ 730,  788) -> It remains parked at station s3, which was charging for charging.
   [ 788,  848) -> Service a request driving for customer c260 from s3 to s1.
   [ 848,  851) -> It remains parked at station s1, which was charging for charging.
   [ 851, 1001) -> Service a request driving for customer c155 from s1 to s3.
   [1001, 1030) -> It remains parked at station s3, which was charging for charging.
   [1030, 1210) -> Service a request driving for customer c234 from s3 to s6.
   [1210, 1216) -> It remains parked at station s6, which was charging for charging.
   [1216, 1276) -> Service a request driving for customer c4 from s6 to s10.
   [1276, 1330) -> It remains parked at station s10, which was charging for charging.
   [1330, 1420) -> Service a request driving for customer c244 from s10 to s11.
   [1420, 1449) -> It remains parked at station s11, which was charging for charging.
   [1449, 1569) -> Service a request driving for customer c249 from s11 to s9.
   [1569, 1691) -> It remains parked at station s9, which was charging for charging.

Schedule for EV v4:
   [   0,  494) -> It remains parked at station s2, which was charging for charging.
   [ 494,  584) -> Service a request driving for customer c53 from s2 to s3.
   [ 584,  615) -> It remains parked at station s3, which was charging for charging.
   [ 615,  675) -> Service a request driving for customer c86 from s3 to s5.
   [ 675,  795) -> It remains parked at station s5, which was charging for charging.
   [ 795, 1155) -> Service a request driving for customer c68 from s5 to s3.
   [1155, 1208) -> It remains parked at station s3, which was charging for charging.
   [1208, 1358) -> Service a request driving for customer c46 from s3 to s5.
   [1358, 1691) -> It remains parked at station s5, which was charging for charging.

Schedule for EV v5:
   [   0,  496) -> It remains parked at station s3, which was charging for charging.
   [ 496,  586) -> Service a request driving for customer c243 from s3 to s0.
   [ 586,  612) -> It remains parked at station s0, which was charging for charging.
   [ 612,  852) -> Service a request driving for customer c255 from s0 to s5.
   [ 852,  905) -> It remains parked at station s5, which was charging for charging.
   [ 905, 1175) -> Service a request driving for customer c157 from s5 to s4.
   [1175, 1275) -> It remains parked at station s4, which was charging for charging.
   [1275, 1335) -> Service a request driving for customer c149 from s4 to s0.
   [1335, 1336) -> It remains parked at station s0, which was charging for charging.
   [1336, 1426) -> Service a request driving for customer c63 from s0 to s3.
   [1426, 1691) -> It remains parked at station s3, which was charging for charging.

Schedule for EV v6:
   [   0,  486) -> It remains parked at station s3, which was charging for charging.
   [ 486,  666) -> Service a request driving for customer c158 from s3 to s1.
   [ 666,  671) -> It remains parked at station s1, which was charging for charging.
   [ 671,  731) -> Service a request driving for customer c266 from s1 to s11.
   [ 731,  735) -> It remains parked at station s11, which was charging for charging.
   [ 735,  855) -> Service a request driving for customer c85 from s11 to s4.
   [ 855,  905) -> It remains parked at station s4, which was charging for charging.
   [ 905,  965) -> Service a request driving for customer c218 from s4 to s10.
   [ 965,  973) -> It remains parked at station s10, which was charging for charging.
   [ 973, 1033) -> Service a request driving for customer c193 from s10 to s4.
   [1033, 1123) -> Service a request driving for customer c264 from s4 to s3.
   [1123, 1146) -> It remains parked at station s3, which was charging for charging.
   [1146, 1386) -> Service a request driving for customer c196 from s3 to s5.
   [1386, 1691) -> It remains parked at station s5, which was charging for charging.

Schedule for EV v7:
   [   0,  435) -> It remains parked at station s4, which was charging for charging.
   [ 435,  585) -> Service a request driving for customer c246 from s4 to s1.
   [ 585,  613) -> It remains parked at station s1, which was charging for charging.
   [ 613,  763) -> Service a request driving for customer c205 from s1 to s4.
   [ 763,  793) -> It remains parked at station s4, which was charging for charging.
   [ 793,  823) -> Service a request driving for customer c23 from s4 to s11.
   [ 823,  851) -> It remains parked at station s11, which was charging for charging.
   [ 851,  911) -> Service a request driving for customer c94 from s11 to s6.
   [ 911,  968) -> It remains parked at station s6, which was charging for charging.
   [ 968,  998) -> Service a request driving for customer c138 from s6 to s5.
   [ 998, 1034) -> It remains parked at station s5, which was charging for charging.
   [1034, 1274) -> Service a request driving for customer c108 from s5 to s3.
   [1274, 1334) -> Service a request driving for customer c231 from s3 to s4.
   [1334, 1385) -> It remains parked at station s4, which was charging for charging.
   [1385, 1565) -> Service a request driving for customer c137 from s4 to s11.
   [1565, 1691) -> It remains parked at station s11, which was charging for charging.

Schedule for EV v8:
   [   0,  551) -> It remains parked at station s5, which was charging for charging.
   [ 551,  611) -> Service a request driving for customer c220 from s5 to s7.
   [ 611,  665) -> It remains parked at station s7, which was charging for charging.
   [ 665,  875) -> Service a request driving for customer c71 from s7 to s1.
   [ 875,  911) -> It remains parked at station s1, which was charging for charging.
   [ 911, 1151) -> Service a request driving for customer c215 from s1 to s10.
   [1151, 1154) -> It remains parked at station s10, which was charging for charging.
   [1154, 1364) -> Service a request driving for customer c26 from s10 to s11.
   [1364, 1386) -> It remains parked at station s11, which was charging for charging.
   [1386, 1446) -> Service a request driving for customer c189 from s11 to s8.
   [1446, 1691) -> It remains parked at station s8, which was charging for charging.

Schedule for EV v9:
   [   0,  611) -> It remains parked at station s7, which was charging for charging.
   [ 611,  881) -> Service a request driving for customer c120 from s7 to s1.
   [ 881,  908) -> It remains parked at station s1, which was charging for charging.
   [ 908, 1178) -> Service a request driving for customer c39 from s1 to s4.
   [1178, 1331) -> It remains parked at station s4, which was charging for charging.
   [1331, 1511) -> Service a request driving for customer c126 from s4 to s11.
   [1511, 1691) -> It remains parked at station s11, which was charging for charging.

Schedule for EV v10:
   [   0,  556) -> It remains parked at station s7, which was charging for charging.
   [ 556,  586) -> Service a request driving for customer c69 from s7 to s5.
   [ 586,  613) -> It remains parked at station s5, which was charging for charging.
   [ 613,  673) -> Service a request driving for customer c239 from s5 to s4.
   [ 673,  674) -> It remains parked at station s4, which was charging for charging.
   [ 674,  854) -> Service a request driving for customer c133 from s4 to s11.
   [ 854,  856) -> It remains parked at station s11, which was charging for charging.
   [ 856, 1066) -> Service a request driving for customer c241 from s11 to s4.
   [1066, 1088) -> It remains parked at station s4, which was charging for charging.
   [1088, 1268) -> Service a request driving for customer c36 from s4 to s1.
   [1268, 1272) -> It remains parked at station s1, which was charging for charging.
   [1272, 1332) -> Service a request driving for customer c0 from s1 to s3.
   [1332, 1335) -> It remains parked at station s3, which was charging for charging.
   [1335, 1545) -> Service a request driving for customer c214 from s3 to s5.
   [1545, 1691) -> It remains parked at station s5, which was charging for charging.

Schedule for EV v11:
   [   0,  552) -> It remains parked at station s8, which was charging for charging.
   [ 552,  642) -> Service a request driving for customer c88 from s8 to s9.
   [ 642,  670) -> It remains parked at station s9, which was charging for charging.
   [ 670, 1000) -> Service a request driving for customer c109 from s9 to s2.
   [1000, 1029) -> It remains parked at station s2, which was charging for charging.
   [1029, 1149) -> Service a request driving for customer c49 from s2 to s7.
   [1149, 1208) -> It remains parked at station s7, which was charging for charging.
   [1208, 1478) -> Service a request driving for customer c134 from s7 to s3.
   [1478, 1691) -> It remains parked at station s3, which was charging for charging.

Schedule for EV v12:
   [   0,  545) -> It remains parked at station s9, which was charging for charging.
   [ 545,  875) -> Service a request driving for customer c9 from s9 to s1.
   [ 875,  905) -> It remains parked at station s1, which was charging for charging.
   [ 905,  965) -> Service a request driving for customer c201 from s1 to s7.
   [ 965,  971) -> It remains parked at station s7, which was charging for charging.
   [ 971, 1091) -> Service a request driving for customer c105 from s7 to s1.
   [1091, 1095) -> It remains parked at station s1, which was charging for charging.
   [1095, 1125) -> Service a request driving for customer c38 from s1 to s3.
   [1125, 1153) -> It remains parked at station s3, which was charging for charging.
   [1153, 1213) -> Service a request driving for customer c27 from s3 to s7.
   [1213, 1394) -> It remains parked at station s7, which was charging for charging.
   [1394, 1634) -> Service a request driving for customer c195 from s7 to s7.
   [1634, 1691) -> It remains parked at station s7, which was charging for charging.

Schedule for EV v13:
   [   0,  850) -> It remains parked at station s10, which was charging for charging.
   [ 850,  910) -> Service a request driving for customer c253 from s10 to s4.
   [ 910,  976) -> It remains parked at station s4, which was charging for charging.
   [ 976, 1216) -> Service a request driving for customer c29 from s4 to s1.
   [1216, 1265) -> It remains parked at station s1, which was charging for charging.
   [1265, 1505) -> Service a request driving for customer c180 from s1 to s0.
   [1505, 1691) -> It remains parked at station s0, which was charging for charging.

Schedule for EV v14:
   [   0,  733) -> It remains parked at station s10, which was charging for charging.
   [ 733,  763) -> Service a request driving for customer c30 from s10 to s1.
   [ 763,  793) -> It remains parked at station s1, which was charging for charging.
   [ 793,  853) -> Service a request driving for customer c152 from s1 to s3.
   [ 853, 1033) -> Service a request driving for customer c162 from s3 to s1.
   [1033, 1087) -> It remains parked at station s1, which was charging for charging.
   [1087, 1147) -> Service a request driving for customer c259 from s1 to s11.
   [1147, 1151) -> It remains parked at station s11, which was charging for charging.
   [1151, 1451) -> Service a request driving for customer c11 from s11 to s0.
   [1451, 1511) -> Service a request driving for customer c123 from s0 to s2.
   [1511, 1691) -> It remains parked at station s2, which was charging for charging.

Set of satisfied customers
   {c0, c4, c9, c11, c19, c23, c26, c27, c28, c29, c30, c36, c38, c39, c46, c49, c50, c53, c62, c63, c68, c69, c71, c78, c85, c86, c87, c88, c91, c94, c99, c105, c108, c109, c115, c119, c120, c122, c123, c126, c132, c133, c134, c137, c138, c149, c152, c155, c157, c158, c159, c162, c180, c182, c186, c189, c193, c195, c196, c201, c204, c205, c206, c211, c213, c214, c215, c218, c220, c231, c233, c234, c239, c241, c242, c243, c244, c246, c249, c253, c255, c259, c260, c263, c264, c266}

