Academic license - for non-commercial use only
Gurobi Optimizer version 9.0.3 build v9.0.3rc0 (linux64)
Optimize a model with 167591 rows, 111905 columns and 636830 nonzeros
Model fingerprint: 0x8f81ce7a
Variable types: 56075 continuous, 55830 integer (55830 binary)
Coefficient statistics:
  Matrix range     [1e+00, 4e+06]
  Objective range  [3e+01, 4e+02]
  Bounds range     [1e+00, 2e+06]
  RHS range        [1e+00, 2e+06]

Loaded user MIP start with objective 6000

Presolve removed 154538 rows and 99358 columns
Presolve time: 3.12s
Presolved: 13053 rows, 12547 columns, 129335 nonzeros
Variable types: 0 continuous, 12547 integer (8705 binary)

Root simplex log...

Iteration    Objective       Primal Inf.    Dual Inf.      Time
    5757    2.8349981e+04   2.681904e+06   0.000000e+00      5s
   11782    2.6009981e+04   7.362110e+05   0.000000e+00     10s
   17137    2.1329982e+04   4.209012e+05   0.000000e+00     15s
   22103    1.8959967e+04   3.300386e+06   0.000000e+00     20s
Warning: Markowitz tolerance tightened to 0.03125
   27312    1.6529988e+04   2.273471e+06   0.000000e+00     25s
   32542    1.4039971e+04   1.315010e+06   0.000000e+00     30s
   37500    1.3349951e+04   9.250040e+05   0.000000e+00     35s
   42352    1.3079952e+04   7.146762e+06   0.000000e+00     40s
   47137    1.2959943e+04   1.551927e+05   0.000000e+00     45s
   51668    1.2929909e+04   5.347271e+05   0.000000e+00     50s
   56218    1.2929841e+04   3.359375e+06   0.000000e+00     55s
   58523    1.2930000e+04   0.000000e+00   0.000000e+00     57s
   58523    1.2930000e+04   0.000000e+00   0.000000e+00     57s

Root relaxation: objective 1.293000e+04, 58523 iterations, 54.22 seconds
Total elapsed time = 61.55s

    Nodes    |    Current Node    |     Objective Bounds      |     Work
 Expl Unexpl |  Obj  Depth IntInf | Incumbent    BestBd   Gap | It/Node Time

     0     0 12930.0000    0 3747 6000.00000 12930.0000   115%     -   62s
H    0     0                    11550.000000 12930.0000  11.9%     -   62s
     0     0 12930.0000    0 3654 11550.0000 12930.0000  11.9%     -   65s
     0     0 12930.0000    0 2842 11550.0000 12930.0000  11.9%     -   66s
     0     0 12930.0000    0 2360 11550.0000 12930.0000  11.9%     -   74s
H    0     0                    12480.000000 12930.0000  3.61%     -   74s
     0     0 12930.0000    0 2394 12480.0000 12930.0000  3.61%     -   76s
     0     0 12930.0000    0 2057 12480.0000 12930.0000  3.61%     -   82s
     0     0 12930.0000    0 2121 12480.0000 12930.0000  3.61%     -   83s
     0     0 12930.0000    0 2151 12480.0000 12930.0000  3.61%     -   88s
     0     0 12930.0000    0 2364 12480.0000 12930.0000  3.61%     -   89s
     0     0 12930.0000    0 2043 12480.0000 12930.0000  3.61%     -   93s
     0     0 12930.0000    0 2034 12480.0000 12930.0000  3.61%     -   93s
     0     0 12930.0000    0 2017 12480.0000 12930.0000  3.61%     -   98s
H    0     0                    12540.000000 12930.0000  3.11%     -   98s
     0     0 12930.0000    0 2583 12540.0000 12930.0000  3.11%     -   99s
     0     0 12930.0000    0 2388 12540.0000 12930.0000  3.11%     -  103s
     0     0 12930.0000    0 2383 12540.0000 12930.0000  3.11%     -  107s
H    0     0                    12930.000000 12930.0000  0.00%     -  108s
     0     0 12930.0000    0 2383 12930.0000 12930.0000  0.00%     -  108s

Cutting planes:
  Gomory: 2
  Implied bound: 24
  MIR: 9
  StrongCG: 1
  RLT: 11

Explored 1 nodes (123046 simplex iterations) in 108.70 seconds
Thread count was 1 (of 40 available processors)

Solution count 5: 12930 12540 12480 ... 6000

Optimal solution found (tolerance 1.00e-04)
Best objective 1.293000000000e+04, best bound 1.293000000000e+04, gap 0.0000%

----------

Best objective (UB): 12930.000
Best feasible solution (LB): 12930.000
Gap between the lower bound and upper bound: 0.000%

----------

Number of customers served: 85

Schedule for EV v0:
   [   0,  495) -> It remains parked at station s1, which was charging for charging.
   [ 495,  525) -> Service a request driving for customer c191 from s1 to s6.
   [ 525,  554) -> It remains parked at station s6, which was charging for charging.
   [ 554,  764) -> Service a request driving for customer c284 from s6 to s3.
   [ 764,  786) -> It remains parked at station s3, which was charging for charging.
   [ 786,  876) -> Service a request driving for customer c273 from s3 to s7.
   [ 876,  916) -> It remains parked at station s7, which was charging for charging.
   [ 916, 1246) -> Service a request driving for customer c249 from s7 to s8.
   [1246, 1267) -> It remains parked at station s8, which was charging for charging.
   [1267, 1507) -> Service a request driving for customer c111 from s8 to s4.
   [1507, 1719) -> It remains parked at station s4, which was charging for charging.

Schedule for EV v1:
   [   0,  608) -> It remains parked at station s1, which was charging for charging.
   [ 608,  818) -> Service a request driving for customer c132 from s1 to s3.
   [ 818,  848) -> It remains parked at station s3, which was charging for charging.
   [ 848,  908) -> Service a request driving for customer c195 from s3 to s10.
   [ 908,  910) -> It remains parked at station s10, which was charging for charging.
   [ 910,  970) -> Service a request driving for customer c96 from s10 to s1.
   [ 970,  972) -> It remains parked at station s1, which was charging for charging.
   [ 972, 1032) -> Service a request driving for customer c48 from s1 to s6.
   [1032, 1034) -> It remains parked at station s6, which was charging for charging.
   [1034, 1214) -> Service a request driving for customer c176 from s6 to s11.
   [1214, 1328) -> It remains parked at station s11, which was charging for charging.
   [1328, 1538) -> Service a request driving for customer c231 from s11 to s9.
   [1538, 1719) -> It remains parked at station s9, which was charging for charging.

Schedule for EV v2:
   [   0,  485) -> It remains parked at station s1, which was charging for charging.
   [ 485,  545) -> Service a request driving for customer c63 from s1 to s4.
   [ 545,  555) -> It remains parked at station s4, which was charging for charging.
   [ 555,  825) -> Service a request driving for customer c127 from s4 to s0.
   [ 825,  846) -> It remains parked at station s0, which was charging for charging.
   [ 846,  906) -> Service a request driving for customer c161 from s0 to s11.
   [ 906,  913) -> It remains parked at station s11, which was charging for charging.
   [ 913,  943) -> Service a request driving for customer c272 from s11 to s1.
   [ 943,  965) -> It remains parked at station s1, which was charging for charging.
   [ 965, 1205) -> Service a request driving for customer c226 from s1 to s4.
   [1205, 1207) -> It remains parked at station s4, which was charging for charging.
   [1207, 1327) -> Service a request driving for customer c84 from s4 to s6.
   [1327, 1335) -> It remains parked at station s6, which was charging for charging.
   [1335, 1575) -> Service a request driving for customer c239 from s6 to s0.
   [1575, 1719) -> It remains parked at station s0, which was charging for charging.

Schedule for EV v3:
   [   0,  612) -> It remains parked at station s2, which was charging for charging.
   [ 612,  732) -> Service a request driving for customer c41 from s2 to s2.
   [ 732,  736) -> It remains parked at station s2, which was charging for charging.
   [ 736, 1006) -> Service a request driving for customer c23 from s2 to s11.
   [1006, 1025) -> It remains parked at station s11, which was charging for charging.
   [1025, 1115) -> Service a request driving for customer c197 from s11 to s5.
   [1115, 1216) -> It remains parked at station s5, which was charging for charging.
   [1216, 1576) -> Service a request driving for customer c101 from s5 to s11.
   [1576, 1719) -> It remains parked at station s11, which was charging for charging.

Schedule for EV v4:
   [   0,  555) -> It remains parked at station s2, which was charging for charging.
   [ 555,  795) -> Service a request driving for customer c70 from s2 to s3.
   [ 795,  796) -> It remains parked at station s3, which was charging for charging.
   [ 796,  826) -> Service a request driving for customer c109 from s3 to s1.
   [ 826,  855) -> It remains parked at station s1, which was charging for charging.
   [ 855, 1035) -> Service a request driving for customer c186 from s1 to s1.
   [1035, 1215) -> Service a request driving for customer c232 from s1 to s9.
   [1215, 1330) -> It remains parked at station s9, which was charging for charging.
   [1330, 1540) -> Service a request driving for customer c130 from s9 to s9.
   [1540, 1719) -> It remains parked at station s9, which was charging for charging.

Schedule for EV v5:
   [   0,  486) -> It remains parked at station s3, which was charging for charging.
   [ 486,  666) -> Service a request driving for customer c103 from s3 to s7.
   [ 666,  676) -> It remains parked at station s7, which was charging for charging.
   [ 676, 1036) -> Service a request driving for customer c120 from s7 to s4.
   [1036, 1146) -> It remains parked at station s4, which was charging for charging.
   [1146, 1206) -> Service a request driving for customer c140 from s4 to s0.
   [1206, 1209) -> It remains parked at station s0, which was charging for charging.
   [1209, 1389) -> Service a request driving for customer c266 from s0 to s9.
   [1389, 1449) -> It remains parked at station s9, which was charging for charging.
   [1449, 1719) -> Service a request driving for customer c33 from s9 to s6.

Schedule for EV v6:
   [   0,  545) -> It remains parked at station s3, which was charging for charging.
   [ 545,  695) -> Service a request driving for customer c159 from s3 to s10.
   [ 695,  735) -> It remains parked at station s10, which was charging for charging.
   [ 735,  915) -> Service a request driving for customer c29 from s10 to s11.
   [ 915,  968) -> It remains parked at station s11, which was charging for charging.
   [ 968, 1028) -> Service a request driving for customer c141 from s11 to s0.
   [1028, 1032) -> It remains parked at station s0, which was charging for charging.
   [1032, 1332) -> Service a request driving for customer c168 from s0 to s9.
   [1332, 1390) -> It remains parked at station s9, which was charging for charging.
   [1390, 1510) -> Service a request driving for customer c2 from s9 to s11.
   [1510, 1719) -> It remains parked at station s11, which was charging for charging.

Schedule for EV v7:
   [   0,  428) -> It remains parked at station s4, which was charging for charging.
   [ 428,  488) -> Service a request driving for customer c82 from s4 to s0.
   [ 488,  489) -> It remains parked at station s0, which was charging for charging.
   [ 489,  699) -> Service a request driving for customer c76 from s0 to s1.
   [ 699,  733) -> It remains parked at station s1, which was charging for charging.
   [ 733,  853) -> Service a request driving for customer c218 from s1 to s0.
   [ 853,  906) -> It remains parked at station s0, which was charging for charging.
   [ 906, 1116) -> Service a request driving for customer c119 from s0 to s1.
   [1116, 1156) -> It remains parked at station s1, which was charging for charging.
   [1156, 1186) -> Service a request driving for customer c27 from s1 to s6.
   [1186, 1210) -> It remains parked at station s6, which was charging for charging.
   [1210, 1300) -> Service a request driving for customer c7 from s6 to s8.
   [1300, 1336) -> It remains parked at station s8, which was charging for charging.
   [1336, 1546) -> Service a request driving for customer c166 from s8 to s4.
   [1546, 1719) -> It remains parked at station s4, which was charging for charging.

Schedule for EV v8:
   [   0,  611) -> It remains parked at station s5, which was charging for charging.
   [ 611,  671) -> Service a request driving for customer c15 from s5 to s9.
   [ 671,  736) -> It remains parked at station s9, which was charging for charging.
   [ 736,  916) -> Service a request driving for customer c234 from s9 to s3.
   [ 916,  966) -> It remains parked at station s3, which was charging for charging.
   [ 966, 1206) -> Service a request driving for customer c149 from s3 to s11.
   [1206, 1211) -> It remains parked at station s11, which was charging for charging.
   [1211, 1511) -> Service a request driving for customer c248 from s11 to s3.
   [1511, 1719) -> It remains parked at station s3, which was charging for charging.

Schedule for EV v9:
   [   0,  487) -> It remains parked at station s5, which was charging for charging.
   [ 487,  547) -> Service a request driving for customer c147 from s5 to s6.
   [ 547,  549) -> It remains parked at station s6, which was charging for charging.
   [ 549,  639) -> Service a request driving for customer c21 from s6 to s4.
   [ 639,  667) -> It remains parked at station s4, which was charging for charging.
   [ 667,  727) -> Service a request driving for customer c86 from s4 to s4.
   [ 727,  730) -> It remains parked at station s4, which was charging for charging.
   [ 730,  940) -> Service a request driving for customer c1 from s4 to s0.
   [ 940,  965) -> It remains parked at station s0, which was charging for charging.
   [ 965, 1025) -> Service a request driving for customer c105 from s0 to s9.
   [1025, 1035) -> It remains parked at station s9, which was charging for charging.
   [1035, 1125) -> Service a request driving for customer c44 from s9 to s0.
   [1125, 1155) -> It remains parked at station s0, which was charging for charging.
   [1155, 1275) -> Service a request driving for customer c131 from s0 to s4.
   [1275, 1455) -> Service a request driving for customer c10 from s4 to s0.
   [1455, 1719) -> It remains parked at station s0, which was charging for charging.

Schedule for EV v10:
   [   0,  545) -> It remains parked at station s7, which was charging for charging.
   [ 545,  605) -> Service a request driving for customer c42 from s7 to s3.
   [ 605,  607) -> It remains parked at station s3, which was charging for charging.
   [ 607,  907) -> Service a request driving for customer c26 from s3 to s4.
   [ 907,  966) -> It remains parked at station s4, which was charging for charging.
   [ 966, 1086) -> Service a request driving for customer c79 from s4 to s1.
   [1086, 1087) -> It remains parked at station s1, which was charging for charging.
   [1087, 1117) -> Service a request driving for customer c289 from s1 to s8.
   [1117, 1146) -> It remains parked at station s8, which was charging for charging.
   [1146, 1446) -> Service a request driving for customer c268 from s8 to s1.
   [1446, 1447) -> It remains parked at station s1, which was charging for charging.
   [1447, 1507) -> Service a request driving for customer c138 from s1 to s9.
   [1507, 1719) -> It remains parked at station s9, which was charging for charging.

Schedule for EV v11:
   [   0,  671) -> It remains parked at station s10, which was charging for charging.
   [ 671,  731) -> Service a request driving for customer c155 from s10 to s6.
   [ 731,  735) -> It remains parked at station s6, which was charging for charging.
   [ 735,  915) -> Service a request driving for customer c183 from s6 to s10.
   [ 915,  967) -> It remains parked at station s10, which was charging for charging.
   [ 967, 1177) -> Service a request driving for customer c148 from s10 to s0.
   [1177, 1205) -> It remains parked at station s0, which was charging for charging.
   [1205, 1475) -> Service a request driving for customer c88 from s0 to s2.
   [1475, 1719) -> It remains parked at station s2, which was charging for charging.

Schedule for EV v12:
   [   0,  491) -> It remains parked at station s11, which was charging for charging.
   [ 491,  551) -> Service a request driving for customer c237 from s11 to s9.
   [ 551,  554) -> It remains parked at station s9, which was charging for charging.
   [ 554,  614) -> Service a request driving for customer c179 from s9 to s0.
   [ 614,  730) -> It remains parked at station s0, which was charging for charging.
   [ 730,  760) -> Service a request driving for customer c20 from s0 to s0.
   [ 760,  790) -> It remains parked at station s0, which was charging for charging.
   [ 790,  970) -> Service a request driving for customer c208 from s0 to s8.
   [ 970, 1090) -> Service a request driving for customer c9 from s8 to s3.
   [1090, 1095) -> It remains parked at station s3, which was charging for charging.
   [1095, 1305) -> Service a request driving for customer c150 from s3 to s10.
   [1305, 1336) -> It remains parked at station s10, which was charging for charging.
   [1336, 1486) -> Service a request driving for customer c199 from s10 to s5.
   [1486, 1719) -> It remains parked at station s5, which was charging for charging.

Schedule for EV v13:
   [   0,  434) -> It remains parked at station s11, which was charging for charging.
   [ 434,  524) -> Service a request driving for customer c87 from s11 to s8.
   [ 524,  553) -> It remains parked at station s8, which was charging for charging.
   [ 553,  613) -> Service a request driving for customer c227 from s8 to s4.
   [ 613,  669) -> It remains parked at station s4, which was charging for charging.
   [ 669,  849) -> Service a request driving for customer c22 from s4 to s11.
   [ 849,  854) -> It remains parked at station s11, which was charging for charging.
   [ 854, 1004) -> Service a request driving for customer c228 from s11 to s4.
   [1004, 1029) -> It remains parked at station s4, which was charging for charging.
   [1029, 1089) -> Service a request driving for customer c77 from s4 to s5.
   [1089, 1147) -> It remains parked at station s5, which was charging for charging.
   [1147, 1237) -> Service a request driving for customer c4 from s5 to s2.
   [1237, 1272) -> It remains parked at station s2, which was charging for charging.
   [1272, 1332) -> Service a request driving for customer c151 from s2 to s3.
   [1332, 1336) -> It remains parked at station s3, which was charging for charging.
   [1336, 1486) -> Service a request driving for customer c115 from s3 to s0.
   [1486, 1719) -> It remains parked at station s0, which was charging for charging.

Schedule for EV v14:
   [   0,  485) -> It remains parked at station s11, which was charging for charging.
   [ 485,  575) -> Service a request driving for customer c242 from s11 to s11.
   [ 575,  670) -> It remains parked at station s11, which was charging for charging.
   [ 670,  970) -> Service a request driving for customer c282 from s11 to s8.
   [ 970,  976) -> It remains parked at station s8, which was charging for charging.
   [ 976, 1216) -> Service a request driving for customer c219 from s8 to s8.
   [1216, 1270) -> It remains parked at station s8, which was charging for charging.
   [1270, 1510) -> Service a request driving for customer c157 from s8 to s9.
   [1510, 1719) -> It remains parked at station s9, which was charging for charging.

Set of satisfied customers
   {c1, c2, c4, c7, c9, c10, c15, c20, c21, c22, c23, c26, c27, c29, c33, c41, c42, c44, c48, c63, c70, c76, c77, c79, c82, c84, c86, c87, c88, c96, c101, c103, c105, c109, c111, c115, c119, c120, c127, c130, c131, c132, c138, c140, c141, c147, c148, c149, c150, c151, c155, c157, c159, c161, c166, c168, c176, c179, c183, c186, c191, c195, c197, c199, c208, c218, c219, c226, c227, c228, c231, c232, c234, c237, c239, c242, c248, c249, c266, c268, c272, c273, c282, c284, c289}

