Academic license - for non-commercial use only
Gurobi Optimizer version 9.0.3 build v9.0.3rc0 (linux64)
Optimize a model with 177893 rows, 118760 columns and 681020 nonzeros
Model fingerprint: 0xe75a4182
Variable types: 59420 continuous, 59340 integer (59340 binary)
Coefficient statistics:
  Matrix range     [1e+00, 4e+06]
  Objective range  [3e+01, 4e+02]
  Bounds range     [1e+00, 2e+06]
  RHS range        [1e+00, 2e+06]

Loaded user MIP start with objective 6510

Presolve removed 164996 rows and 106519 columns
Presolve time: 3.10s
Presolved: 12897 rows, 12241 columns, 123605 nonzeros
Found heuristic solution: objective 6540.0000000
Variable types: 1 continuous, 12240 integer (8376 binary)

Root simplex log...

Iteration    Objective       Primal Inf.    Dual Inf.      Time
    5383    2.7719992e+04   6.180430e+06   0.000000e+00      5s
   11443    2.5949988e+04   4.275362e+06   0.000000e+00     10s
   17043    2.1869981e+04   8.114145e+05   0.000000e+00     15s
Warning: Markowitz tolerance tightened to 0.03125
   22283    1.7699983e+04   1.430790e+07   0.000000e+00     20s
   27953    1.3679979e+04   1.126802e+06   0.000000e+00     25s
   33483    1.2689963e+04   2.465672e+06   0.000000e+00     30s
   38523    1.2539968e+04   2.420136e+06   0.000000e+00     35s
   43443    1.2539928e+04   1.363363e+06   0.000000e+00     40s
   48193    1.2509897e+04   6.753771e+04   0.000000e+00     45s
   51404    1.2510000e+04   0.000000e+00   0.000000e+00     48s
   51404    1.2510000e+04   0.000000e+00   0.000000e+00     48s

Root relaxation: objective 1.251000e+04, 51404 iterations, 45.09 seconds
Total elapsed time = 54.23s
Total elapsed time = 55.78s

    Nodes    |    Current Node    |     Objective Bounds      |     Work
 Expl Unexpl |  Obj  Depth IntInf | Incumbent    BestBd   Gap | It/Node Time

     0     0 12510.0000    0 2866 6540.00000 12510.0000  91.3%     -   57s
H    0     0                    10680.000000 12510.0000  17.1%     -   57s
     0     0 12510.0000    0 2874 10680.0000 12510.0000  17.1%     -   61s
H    0     0                    11280.000000 12510.0000  10.9%     -   61s
     0     0 12510.0000    0 2694 11280.0000 12510.0000  10.9%     -   64s
     0     0 12510.0000    0 2574 11280.0000 12510.0000  10.9%     -   74s
     0     0 12510.0000    0 2554 11280.0000 12510.0000  10.9%     -   74s
     0     0 12510.0000    0 2541 11280.0000 12510.0000  10.9%     -   81s
H    0     0                    11610.000000 12510.0000  7.75%     -   81s
     0     0 12510.0000    0 2597 11610.0000 12510.0000  7.75%     -   83s
     0     0 12510.0000    0 2452 11610.0000 12510.0000  7.75%     -   92s
H    0     0                    11700.000000 12510.0000  6.92%     -   92s
     0     0 12510.0000    0 2377 11700.0000 12510.0000  6.92%     -   92s
     0     0 12510.0000    0 2342 11700.0000 12510.0000  6.92%     -   99s
H    0     0                    12060.000000 12510.0000  3.73%     -   99s
     0     0 12510.0000    0 2334 12060.0000 12510.0000  3.73%     -   99s
     0     0 12510.0000    0 2331 12060.0000 12510.0000  3.73%     -  104s
     0     0 12510.0000    0 2331 12060.0000 12510.0000  3.73%     -  110s
H    0     0                    12180.000000 12510.0000  2.71%     -  111s
H    0     0                    12510.000000 12510.0000  0.00%     -  113s
     0     0 12510.0000    0 2331 12510.0000 12510.0000  0.00%     -  113s

Cutting planes:
  Implied bound: 97
  MIR: 2
  RLT: 19
  Relax-and-lift: 1

Explored 1 nodes (129438 simplex iterations) in 113.05 seconds
Thread count was 1 (of 40 available processors)

Solution count 9: 12510 12180 12060 ... 6510

Optimal solution found (tolerance 1.00e-04)
Best objective 1.251000000000e+04, best bound 1.251000000000e+04, gap 0.0000%

----------

Best objective (UB): 12510.000
Best feasible solution (LB): 12510.000
Gap between the lower bound and upper bound: 0.000%

----------

Number of customers served: 84

Schedule for EV v0:
   [   0,  546) -> It remains parked at station s1, which was charging for charging.
   [ 546,  696) -> Service a request driving for customer c276 from s1 to s5.
   [ 696,  734) -> It remains parked at station s5, which was charging for charging.
   [ 734, 1004) -> Service a request driving for customer c17 from s5 to s8.
   [1004, 1032) -> It remains parked at station s8, which was charging for charging.
   [1032, 1242) -> Service a request driving for customer c201 from s8 to s3.
   [1242, 1387) -> It remains parked at station s3, which was charging for charging.
   [1387, 1747) -> Service a request driving for customer c305 from s3 to s9.

Schedule for EV v1:
   [   0,  551) -> It remains parked at station s2, which was charging for charging.
   [ 551,  671) -> Service a request driving for customer c200 from s2 to s1.
   [ 671,  821) -> Service a request driving for customer c168 from s1 to s4.
   [ 821,  846) -> It remains parked at station s4, which was charging for charging.
   [ 846, 1026) -> Service a request driving for customer c171 from s4 to s11.
   [1026, 1034) -> It remains parked at station s11, which was charging for charging.
   [1034, 1094) -> Service a request driving for customer c42 from s11 to s11.
   [1094, 1149) -> It remains parked at station s11, which was charging for charging.
   [1149, 1359) -> Service a request driving for customer c256 from s11 to s0.
   [1359, 1388) -> It remains parked at station s0, which was charging for charging.
   [1388, 1568) -> Service a request driving for customer c101 from s0 to s1.
   [1568, 1747) -> It remains parked at station s1, which was charging for charging.

Schedule for EV v2:
   [   0,  548) -> It remains parked at station s2, which was charging for charging.
   [ 548,  608) -> Service a request driving for customer c265 from s2 to s3.
   [ 608,  698) -> Service a request driving for customer c111 from s3 to s3.
   [ 698,  732) -> It remains parked at station s3, which was charging for charging.
   [ 732,  942) -> Service a request driving for customer c60 from s3 to s6.
   [ 942,  966) -> It remains parked at station s6, which was charging for charging.
   [ 966, 1116) -> Service a request driving for customer c62 from s6 to s3.
   [1116, 1146) -> It remains parked at station s3, which was charging for charging.
   [1146, 1386) -> Service a request driving for customer c257 from s3 to s8.
   [1386, 1389) -> It remains parked at station s8, which was charging for charging.
   [1389, 1539) -> Service a request driving for customer c210 from s8 to s0.
   [1539, 1747) -> It remains parked at station s0, which was charging for charging.

Schedule for EV v3:
   [   0,  432) -> It remains parked at station s4, which was charging for charging.
   [ 432,  462) -> Service a request driving for customer c69 from s4 to s4.
   [ 462,  494) -> It remains parked at station s4, which was charging for charging.
   [ 494,  614) -> Service a request driving for customer c308 from s4 to s4.
   [ 614,  669) -> It remains parked at station s4, which was charging for charging.
   [ 669,  759) -> Service a request driving for customer c221 from s4 to s11.
   [ 759,  792) -> It remains parked at station s11, which was charging for charging.
   [ 792, 1032) -> Service a request driving for customer c197 from s11 to s2.
   [1032, 1086) -> It remains parked at station s2, which was charging for charging.
   [1086, 1146) -> Service a request driving for customer c284 from s2 to s1.
   [1146, 1149) -> It remains parked at station s1, which was charging for charging.
   [1149, 1479) -> Service a request driving for customer c55 from s1 to s3.
   [1479, 1747) -> It remains parked at station s3, which was charging for charging.

Schedule for EV v4:
   [   0,  546) -> It remains parked at station s4, which was charging for charging.
   [ 546,  576) -> Service a request driving for customer c137 from s4 to s5.
   [ 576,  605) -> It remains parked at station s5, which was charging for charging.
   [ 605,  665) -> Service a request driving for customer c13 from s5 to s1.
   [ 665,  672) -> It remains parked at station s1, which was charging for charging.
   [ 672, 1002) -> Service a request driving for customer c32 from s1 to s2.
   [1002, 1032) -> It remains parked at station s2, which was charging for charging.
   [1032, 1242) -> Service a request driving for customer c86 from s2 to s8.
   [1242, 1332) -> It remains parked at station s8, which was charging for charging.
   [1332, 1512) -> Service a request driving for customer c233 from s8 to s0.
   [1512, 1747) -> It remains parked at station s0, which was charging for charging.

Schedule for EV v5:
   [   0,  554) -> It remains parked at station s5, which was charging for charging.
   [ 554,  734) -> Service a request driving for customer c123 from s5 to s1.
   [ 734,  854) -> Service a request driving for customer c56 from s1 to s3.
   [ 854,  855) -> It remains parked at station s3, which was charging for charging.
   [ 855, 1125) -> Service a request driving for customer c14 from s3 to s3.
   [1125, 1145) -> It remains parked at station s3, which was charging for charging.
   [1145, 1205) -> Service a request driving for customer c184 from s3 to s6.
   [1205, 1336) -> It remains parked at station s6, which was charging for charging.
   [1336, 1606) -> Service a request driving for customer c151 from s6 to s0.
   [1606, 1747) -> It remains parked at station s0, which was charging for charging.

Schedule for EV v6:
   [   0,  549) -> It remains parked at station s5, which was charging for charging.
   [ 549,  609) -> Service a request driving for customer c242 from s5 to s3.
   [ 609,  610) -> It remains parked at station s3, which was charging for charging.
   [ 610,  730) -> Service a request driving for customer c277 from s3 to s0.
   [ 730,  732) -> It remains parked at station s0, which was charging for charging.
   [ 732,  972) -> Service a request driving for customer c291 from s0 to s3.
   [ 972, 1026) -> It remains parked at station s3, which was charging for charging.
   [1026, 1086) -> Service a request driving for customer c295 from s3 to s5.
   [1086, 1089) -> It remains parked at station s5, which was charging for charging.
   [1089, 1329) -> Service a request driving for customer c270 from s5 to s11.
   [1329, 1392) -> It remains parked at station s11, which was charging for charging.
   [1392, 1482) -> Service a request driving for customer c158 from s11 to s8.
   [1482, 1747) -> It remains parked at station s8, which was charging for charging.

Schedule for EV v7:
   [   0,  552) -> It remains parked at station s6, which was charging for charging.
   [ 552,  642) -> Service a request driving for customer c19 from s6 to s9.
   [ 642,  853) -> It remains parked at station s9, which was charging for charging.
   [ 853,  973) -> Service a request driving for customer c73 from s9 to s0.
   [ 973,  974) -> It remains parked at station s0, which was charging for charging.
   [ 974, 1094) -> Service a request driving for customer c300 from s0 to s4.
   [1094, 1096) -> It remains parked at station s4, which was charging for charging.
   [1096, 1306) -> Service a request driving for customer c319 from s4 to s3.
   [1306, 1333) -> It remains parked at station s3, which was charging for charging.
   [1333, 1393) -> Service a request driving for customer c280 from s3 to s9.
   [1393, 1396) -> It remains parked at station s9, which was charging for charging.
   [1396, 1546) -> Service a request driving for customer c34 from s9 to s2.
   [1546, 1747) -> It remains parked at station s2, which was charging for charging.

Schedule for EV v8:
   [   0,  496) -> It remains parked at station s7, which was charging for charging.
   [ 496,  556) -> Service a request driving for customer c191 from s7 to s1.
   [ 556,  608) -> It remains parked at station s1, which was charging for charging.
   [ 608,  788) -> Service a request driving for customer c105 from s1 to s6.
   [ 788,  794) -> It remains parked at station s6, which was charging for charging.
   [ 794,  824) -> Service a request driving for customer c241 from s6 to s1.
   [ 824,  851) -> It remains parked at station s1, which was charging for charging.
   [ 851,  911) -> Service a request driving for customer c126 from s1 to s1.
   [ 911,  914) -> It remains parked at station s1, which was charging for charging.
   [ 914, 1064) -> Service a request driving for customer c152 from s1 to s7.
   [1064, 1094) -> It remains parked at station s7, which was charging for charging.
   [1094, 1184) -> Service a request driving for customer c167 from s7 to s7.
   [1184, 1215) -> It remains parked at station s7, which was charging for charging.
   [1215, 1575) -> Service a request driving for customer c11 from s7 to s5.
   [1575, 1747) -> It remains parked at station s5, which was charging for charging.

Schedule for EV v9:
   [   0,  487) -> It remains parked at station s8, which was charging for charging.
   [ 487,  817) -> Service a request driving for customer c236 from s8 to s0.
   [ 817,  851) -> It remains parked at station s0, which was charging for charging.
   [ 851, 1151) -> Service a request driving for customer c89 from s0 to s4.
   [1151, 1152) -> It remains parked at station s4, which was charging for charging.
   [1152, 1182) -> Service a request driving for customer c31 from s4 to s6.
   [1182, 1214) -> It remains parked at station s6, which was charging for charging.
   [1214, 1424) -> Service a request driving for customer c224 from s6 to s11.
   [1424, 1451) -> It remains parked at station s11, which was charging for charging.
   [1451, 1541) -> Service a request driving for customer c29 from s11 to s0.
   [1541, 1747) -> It remains parked at station s0, which was charging for charging.

Schedule for EV v10:
   [   0,  851) -> It remains parked at station s8, which was charging for charging.
   [ 851,  971) -> Service a request driving for customer c9 from s8 to s8.
   [ 971,  973) -> It remains parked at station s8, which was charging for charging.
   [ 973, 1213) -> Service a request driving for customer c88 from s8 to s0.
   [1213, 1215) -> It remains parked at station s0, which was charging for charging.
   [1215, 1305) -> Service a request driving for customer c194 from s0 to s2.
   [1305, 1333) -> It remains parked at station s2, which was charging for charging.
   [1333, 1513) -> Service a request driving for customer c268 from s2 to s11.
   [1513, 1747) -> It remains parked at station s11, which was charging for charging.

Schedule for EV v11:
   [   0,  731) -> It remains parked at station s8, which was charging for charging.
   [ 731,  761) -> Service a request driving for customer c161 from s8 to s4.
   [ 761,  793) -> It remains parked at station s4, which was charging for charging.
   [ 793,  973) -> Service a request driving for customer c3 from s4 to s5.
   [ 973, 1029) -> It remains parked at station s5, which was charging for charging.
   [1029, 1089) -> Service a request driving for customer c244 from s5 to s9.
   [1089, 1211) -> It remains parked at station s9, which was charging for charging.
   [1211, 1511) -> Service a request driving for customer c245 from s9 to s5.
   [1511, 1747) -> It remains parked at station s5, which was charging for charging.

Schedule for EV v12:
   [   0,  674) -> It remains parked at station s8, which was charging for charging.
   [ 674,  884) -> Service a request driving for customer c296 from s8 to s0.
   [ 884,  910) -> It remains parked at station s0, which was charging for charging.
   [ 910,  940) -> Service a request driving for customer c314 from s0 to s3.
   [ 940,  971) -> It remains parked at station s3, which was charging for charging.
   [ 971, 1001) -> Service a request driving for customer c192 from s3 to s9.
   [1001, 1025) -> It remains parked at station s9, which was charging for charging.
   [1025, 1205) -> Service a request driving for customer c228 from s9 to s0.
   [1205, 1206) -> It remains parked at station s0, which was charging for charging.
   [1206, 1266) -> Service a request driving for customer c93 from s0 to s4.
   [1266, 1328) -> It remains parked at station s4, which was charging for charging.
   [1328, 1538) -> Service a request driving for customer c206 from s4 to s2.
   [1538, 1747) -> It remains parked at station s2, which was charging for charging.

Schedule for EV v13:
   [   0,  609) -> It remains parked at station s10, which was charging for charging.
   [ 609,  699) -> Service a request driving for customer c299 from s10 to s10.
   [ 699,  732) -> It remains parked at station s10, which was charging for charging.
   [ 732,  912) -> Service a request driving for customer c227 from s10 to s11.
   [ 912, 1152) -> Service a request driving for customer c116 from s11 to s3.
   [1152, 1302) -> Service a request driving for customer c121 from s3 to s0.
   [1302, 1328) -> It remains parked at station s0, which was charging for charging.
   [1328, 1388) -> Service a request driving for customer c154 from s0 to s6.
   [1388, 1445) -> It remains parked at station s6, which was charging for charging.
   [1445, 1655) -> Service a request driving for customer c286 from s6 to s1.
   [1655, 1747) -> It remains parked at station s1, which was charging for charging.

Schedule for EV v14:
   [   0,  491) -> It remains parked at station s10, which was charging for charging.
   [ 491,  581) -> Service a request driving for customer c302 from s10 to s4.
   [ 581,  607) -> It remains parked at station s4, which was charging for charging.
   [ 607,  697) -> Service a request driving for customer c54 from s4 to s3.
   [ 697,  734) -> It remains parked at station s3, which was charging for charging.
   [ 734,  764) -> Service a request driving for customer c92 from s3 to s3.
   [ 764,  789) -> It remains parked at station s3, which was charging for charging.
   [ 789,  969) -> Service a request driving for customer c95 from s3 to s5.
   [ 969, 1029) -> Service a request driving for customer c24 from s5 to s1.
   [1029, 1036) -> It remains parked at station s1, which was charging for charging.
   [1036, 1276) -> Service a request driving for customer c118 from s1 to s2.
   [1276, 1326) -> It remains parked at station s2, which was charging for charging.
   [1326, 1356) -> Service a request driving for customer c71 from s2 to s4.
   [1356, 1393) -> It remains parked at station s4, which was charging for charging.
   [1393, 1513) -> Service a request driving for customer c160 from s4 to s1.
   [1513, 1747) -> It remains parked at station s1, which was charging for charging.

Set of satisfied customers
   {c3, c9, c11, c13, c14, c17, c19, c24, c29, c31, c32, c34, c42, c54, c55, c56, c60, c62, c69, c71, c73, c86, c88, c89, c92, c93, c95, c101, c105, c111, c116, c118, c121, c123, c126, c137, c151, c152, c154, c158, c160, c161, c167, c168, c171, c184, c191, c192, c194, c197, c200, c201, c206, c210, c221, c224, c227, c228, c233, c236, c241, c242, c244, c245, c256, c257, c265, c268, c270, c276, c277, c280, c284, c286, c291, c295, c296, c299, c300, c302, c305, c308, c314, c319}

