Academic license - for non-commercial use only
Gurobi Optimizer version 9.0.3 build v9.0.3rc0 (linux64)
Optimize a model with 10772 rows, 7261 columns and 61953 nonzeros
Model fingerprint: 0x126c6176
Variable types: 3941 continuous, 3320 integer (3320 binary)
Coefficient statistics:
  Matrix range     [1e+00, 9e+06]
  Objective range  [3e+01, 6e+02]
  Bounds range     [1e+00, 2e+06]
  RHS range        [1e+00, 2e+06]

Loaded user MIP start with objective 2070

Presolve removed 7412 rows and 4016 columns
Presolve time: 0.11s
Presolved: 3360 rows, 3245 columns, 21811 nonzeros
Variable types: 829 continuous, 2416 integer (1893 binary)

Root relaxation: objective 5.549032e+03, 5672 iterations, 0.73 seconds

    Nodes    |    Current Node    |     Objective Bounds      |     Work
 Expl Unexpl |  Obj  Depth IntInf | Incumbent    BestBd   Gap | It/Node Time

     0     0 5549.03226    0  449 2070.00000 5549.03226   168%     -    1s
     0     0 5501.36160    0  655 2070.00000 5501.36160   166%     -    1s
H    0     0                    4440.0000000 5501.36160  23.9%     -    1s
     0     0 5496.72115    0  696 4440.00000 5496.72115  23.8%     -    1s
     0     0 5496.72115    0  693 4440.00000 5496.72115  23.8%     -    1s
     0     0 5481.73066    0  708 4440.00000 5481.73066  23.5%     -    1s
H    0     0                    4560.0000000 5481.73066  20.2%     -    1s
     0     0 5477.72969    0  604 4560.00000 5477.72969  20.1%     -    2s
     0     0 5477.19779    0  625 4560.00000 5477.19779  20.1%     -    2s
     0     0 5475.57354    0  576 4560.00000 5475.57354  20.1%     -    2s
     0     0 5475.57354    0  575 4560.00000 5475.57354  20.1%     -    2s
     0     0 5475.57354    0  696 4560.00000 5475.57354  20.1%     -    2s
H    0     0                    4920.0000000 5475.57354  11.3%     -    2s
     0     0 5475.57354    0  662 4920.00000 5475.57354  11.3%     -    2s
     0     0 5475.57354    0  731 4920.00000 5475.57354  11.3%     -    2s
     0     0 5475.57354    0  702 4920.00000 5475.57354  11.3%     -    2s
     0     0 5475.57354    0  441 4920.00000 5475.57354  11.3%     -    3s
H    0     0                    5340.0000000 5475.57354  2.54%     -    3s
     0     0 5475.57354    0  426 5340.00000 5475.57354  2.54%     -    3s
     0     0 5475.57354    0  413 5340.00000 5475.57354  2.54%     -    3s
     0     0 5475.57354    0  416 5340.00000 5475.57354  2.54%     -    3s
     0     0 5475.57354    0  451 5340.00000 5475.57354  2.54%     -    3s
     0     0 5475.57354    0  451 5340.00000 5475.57354  2.54%     -    3s
H    0     0                    5400.0000000 5475.57354  1.40%     -    3s
     0     0 5475.57354    0  378 5400.00000 5475.57354  1.40%     -    4s
     0     0 5475.57354    0  482 5400.00000 5475.57354  1.40%     -    4s
     0     0 5475.57354    0  479 5400.00000 5475.57354  1.40%     -    4s
     0     0 5475.57354    0  557 5400.00000 5475.57354  1.40%     -    5s
     0     0 5474.75774    0  534 5400.00000 5474.75774  1.38%     -    5s
     0     0 5474.75774    0  523 5400.00000 5474.75774  1.38%     -    5s
     0     0 5474.75774    0  465 5400.00000 5474.75774  1.38%     -    5s
     0     0 5474.75774    0  433 5400.00000 5474.75774  1.38%     -    5s
     0     0 5474.75774    0  473 5400.00000 5474.75774  1.38%     -    5s
     0     0 5474.75774    0  444 5400.00000 5474.75774  1.38%     -    5s
     0     0 5474.75774    0  406 5400.00000 5474.75774  1.38%     -    5s
     0     0 5474.75774    0  422 5400.00000 5474.75774  1.38%     -    5s
     0     0 5474.75774    0  424 5400.00000 5474.75774  1.38%     -    5s
     0     0 5474.75774    0  418 5400.00000 5474.75774  1.38%     -    6s
     0     2 5472.35128    0  369 5400.00000 5472.35128  1.34%     -    6s

Cutting planes:
  Gomory: 3
  Implied bound: 173
  Clique: 1
  MIR: 3
  Zero half: 1
  RLT: 6
  Relax-and-lift: 36

Explored 6 nodes (38542 simplex iterations) in 6.98 seconds
Thread count was 1 (of 40 available processors)

Solution count 6: 5400 5340 4920 ... 2070

Optimal solution found (tolerance 1.00e-04)
Best objective 5.400000000000e+03, best bound 5.400000000000e+03, gap 0.0000%

----------

Best objective (UB): 5400.000
Best feasible solution (LB): 5400.000
Gap between the lower bound and upper bound: 0.000%

----------

Number of customers served: 25

Schedule for EV v0:
   [   0,  430) -> It remains parked at station s0, which was charging for charging.
   [ 430,  460) -> Service a request driving for customer c61 from s0 to s0.
   [ 460, 1026) -> It remains parked at station s0, which was charging for charging.
   [1026, 1146) -> Service a request driving for customer c61 from s0 to s7.
   [1146, 1392) -> It remains parked at station s7, which was charging for charging.
   [1392, 1632) -> Service a request driving for customer c60 from s7 to s11.
   [1632, tmax) -> It remains parked at station s11, which was charging for charging.

Schedule for EV v1:
   [   0,  793) -> It remains parked at station s0, which was charging for charging.
   [ 793,  943) -> Service a request driving for customer c55 from s0 to s1.
   [ 943,  975) -> It remains parked at station s1, which was charging for charging.
   [ 975, 1065) -> Service a request driving for customer c13 from s1 to s4.
   [1065, 1210) -> It remains parked at station s4, which was charging for charging.
   [1210, 1240) -> Service a request driving for customer c56 from s4 to s3.
   [1240, 1267) -> It remains parked at station s3, which was charging for charging.
   [1267, 1327) -> Service a request driving for customer c2 from s3 to s4.
   [1327, tmax) -> It remains parked at station s4, which was charging for charging.

Schedule for EV v2:
   [   0,  674) -> It remains parked at station s0, which was charging for charging.
   [ 674,  734) -> Service a request driving for customer c49 from s0 to s5.
   [ 734,  906) -> It remains parked at station s5, which was charging for charging.
   [ 906, 1056) -> Service a request driving for customer c20 from s5 to s11.
   [1056, 1153) -> It remains parked at station s11, which was charging for charging.
   [1153, 1213) -> Service a request driving for customer c6 from s11 to s11.
   [1213, 1327) -> It remains parked at station s11, which was charging for charging.
   [1327, 1477) -> Service a request driving for customer c6 from s11 to s8.
   [1477, tmax) -> It remains parked at station s8, which was charging for charging.

Schedule for EV v3:
   [   0,  432) -> It remains parked at station s1, which was charging for charging.
   [ 432,  492) -> Service a request driving for customer c62 from s1 to s1.
   [ 492,  847) -> It remains parked at station s1, which was charging for charging.
   [ 847, 1147) -> Service a request driving for customer c62 from s1 to s1.
   [1147, 1211) -> It remains parked at station s1, which was charging for charging.
   [1211, 1271) -> Service a request driving for customer c34 from s1 to s8.
   [1271, tmax) -> It remains parked at station s8, which was charging for charging.

Schedule for EV v4:
   [   0,  728) -> It remains parked at station s1, which was charging for charging.
   [ 728,  758) -> Service a request driving for customer c41 from s1 to s9.
   [ 758,  847) -> It remains parked at station s9, which was charging for charging.
   [ 847,  967) -> Service a request driving for customer c13 from s9 to s3.
   [ 967, 1150) -> It remains parked at station s3, which was charging for charging.
   [1150, 1420) -> Service a request driving for customer c61 from s3 to s4.
   [1420, tmax) -> It remains parked at station s4, which was charging for charging.

Schedule for EV v5:
   [   0,  788) -> It remains parked at station s1, which was charging for charging.
   [ 788,  848) -> Service a request driving for customer c41 from s1 to s3.
   [ 848, 1152) -> It remains parked at station s3, which was charging for charging.
   [1152, 1272) -> Service a request driving for customer c62 from s3 to s7.
   [1272, tmax) -> It remains parked at station s7, which was charging for charging.

Schedule for EV v6:
   [   0,  554) -> It remains parked at station s2, which was charging for charging.
   [ 554,  584) -> Service a request driving for customer c10 from s2 to s5.
   [ 584,  606) -> It remains parked at station s5, which was charging for charging.
   [ 606,  756) -> Service a request driving for customer c10 from s5 to s10.
   [ 756, 1086) -> It remains parked at station s10, which was charging for charging.
   [1086, 1176) -> Service a request driving for customer c55 from s10 to s5.
   [1176, tmax) -> It remains parked at station s5, which was charging for charging.

Schedule for EV v7:
   [   0,  549) -> It remains parked at station s6, which was charging for charging.
   [ 549,  609) -> Service a request driving for customer c62 from s6 to s3.
   [ 609,  611) -> It remains parked at station s3, which was charging for charging.
   [ 611,  731) -> Service a request driving for customer c43 from s3 to s7.
   [ 731, 1087) -> It remains parked at station s7, which was charging for charging.
   [1087, 1357) -> Service a request driving for customer c51 from s7 to s11.
   [1357, 1394) -> It remains parked at station s11, which was charging for charging.
   [1394, 1514) -> Service a request driving for customer c5 from s11 to s1.
   [1514, tmax) -> It remains parked at station s1, which was charging for charging.

Schedule for EV v8:
   [   0,  855) -> It remains parked at station s6, which was charging for charging.
   [ 855,  915) -> Service a request driving for customer c21 from s6 to s4.
   [ 915, 1093) -> It remains parked at station s4, which was charging for charging.
   [1093, 1153) -> Service a request driving for customer c21 from s4 to s11.
   [1153, 1155) -> It remains parked at station s11, which was charging for charging.
   [1155, 1275) -> Service a request driving for customer c13 from s11 to s3.
   [1275, tmax) -> It remains parked at station s3, which was charging for charging.

Schedule for EV v9:
   [   0,  852) -> It remains parked at station s7, which was charging for charging.
   [ 852, 1092) -> Service a request driving for customer c12 from s7 to s2.
   [1092, 1154) -> It remains parked at station s2, which was charging for charging.
   [1154, 1484) -> Service a request driving for customer c26 from s2 to s11.
   [1484, tmax) -> It remains parked at station s11, which was charging for charging.

Schedule for EV v10:
   [   0,  609) -> It remains parked at station s8, which was charging for charging.
   [ 609,  699) -> Service a request driving for customer c60 from s8 to s9.
   [ 699,  855) -> It remains parked at station s9, which was charging for charging.
   [ 855,  885) -> Service a request driving for customer c3 from s9 to s4.
   [ 885,  912) -> It remains parked at station s4, which was charging for charging.
   [ 912, 1002) -> Service a request driving for customer c43 from s4 to s1.
   [1002, 1090) -> It remains parked at station s1, which was charging for charging.
   [1090, 1150) -> Service a request driving for customer c59 from s1 to s0.
   [1150, 1331) -> It remains parked at station s0, which was charging for charging.
   [1331, 1391) -> Service a request driving for customer c5 from s0 to s3.
   [1391, tmax) -> It remains parked at station s3, which was charging for charging.

Schedule for EV v11:
   [   0,  731) -> It remains parked at station s8, which was charging for charging.
   [ 731,  911) -> Service a request driving for customer c61 from s8 to s11.
   [ 911,  913) -> It remains parked at station s11, which was charging for charging.
   [ 913,  973) -> Service a request driving for customer c10 from s11 to s4.
   [ 973, 1096) -> It remains parked at station s4, which was charging for charging.
   [1096, 1186) -> Service a request driving for customer c49 from s4 to s4.
   [1186, tmax) -> It remains parked at station s4, which was charging for charging.

Schedule for EV v12:
   [   0, tmax) -> It remains parked at station s8, which was charging for charging.

Schedule for EV v13:
   [   0,  973) -> It remains parked at station s11, which was charging for charging.
   [ 973, 1123) -> Service a request driving for customer c14 from s11 to s1.
   [1123, 1395) -> It remains parked at station s1, which was charging for charging.
   [1395, 1575) -> Service a request driving for customer c49 from s1 to s9.
   [1575, tmax) -> It remains parked at station s9, which was charging for charging.

Schedule for EV v14:
   [   0,  615) -> It remains parked at station s11, which was charging for charging.
   [ 615,  825) -> Service a request driving for customer c33 from s11 to s4.
   [ 825,  849) -> It remains parked at station s4, which was charging for charging.
   [ 849,  909) -> Service a request driving for customer c16 from s4 to s6.
   [ 909,  968) -> It remains parked at station s6, which was charging for charging.
   [ 968, 1298) -> Service a request driving for customer c22 from s6 to s10.
   [1298, tmax) -> It remains parked at station s10, which was charging for charging.

Set of satisfied customers
   {c2, c3, c5, c6, c10, c12, c13, c14, c16, c20, c21, c22, c26, c33, c34, c41, c43, c49, c51, c55, c56, c59, c60, c61, c62}

