Academic license - for non-commercial use only
Gurobi Optimizer version 9.0.3 build v9.0.3rc0 (linux64)
Optimize a model with 14039 rows, 9457 columns and 80070 nonzeros
Model fingerprint: 0x2d7e6d5f
Variable types: 5040 continuous, 4417 integer (4417 binary)
Coefficient statistics:
  Matrix range     [1e+00, 9e+06]
  Objective range  [3e+01, 6e+02]
  Bounds range     [1e+00, 2e+06]
  RHS range        [1e+00, 2e+06]

Loaded user MIP start with objective 1650

Presolve removed 8926 rows and 4461 columns
Presolve time: 0.15s
Presolved: 5113 rows, 4996 columns, 33667 nonzeros
Variable types: 479 continuous, 4517 integer (3105 binary)

Root relaxation: objective 6.792857e+03, 13983 iterations, 3.98 seconds
Total elapsed time = 5.20s

    Nodes    |    Current Node    |     Objective Bounds      |     Work
 Expl Unexpl |  Obj  Depth IntInf | Incumbent    BestBd   Gap | It/Node Time

     0     0 6792.85714    0 1212 1650.00000 6792.85714   312%     -    5s
     0     0 6736.66667    0 1552 1650.00000 6736.66667   308%     -    7s
     0     0 6728.51613    0 1419 1650.00000 6728.51613   308%     -    8s
     0     0 6725.07628    0 1398 1650.00000 6725.07628   308%     -    9s
     0     0 6720.20507    0 1360 1650.00000 6720.20507   307%     -    9s
     0     0 6720.20507    0 1288 1650.00000 6720.20507   307%     -    9s
     0     0 6690.50396    0 1351 1650.00000 6690.50396   305%     -   11s
     0     0 6688.04763    0 1320 1650.00000 6688.04763   305%     -   11s
     0     0 6688.04763    0 1221 1650.00000 6688.04763   305%     -   11s
     0     0 6688.04763    0 1388 1650.00000 6688.04763   305%     -   12s
H    0     0                    5760.0000000 6688.04763  16.1%     -   12s
     0     0 6688.04763    0 1271 5760.00000 6688.04763  16.1%     -   12s
     0     0 6687.66274    0 1374 5760.00000 6687.66274  16.1%     -   14s
     0     0 6687.66274    0 1268 5760.00000 6687.66274  16.1%     -   14s
     0     0 6687.66274    0 1326 5760.00000 6687.66274  16.1%     -   15s
     0     0 6687.66274    0 1287 5760.00000 6687.66274  16.1%     -   15s
     0     0 6687.66274    0 1255 5760.00000 6687.66274  16.1%     -   16s
     0     0 6687.66274    0 1278 5760.00000 6687.66274  16.1%     -   17s
     0     0 6687.66274    0 1286 5760.00000 6687.66274  16.1%     -   19s
     0     0 6687.66274    0 1286 5760.00000 6687.66274  16.1%     -   20s
     0     2 6687.66274    0 1281 5760.00000 6687.66274  16.1%     -   23s
     2     4 6617.83077    2 1258 5760.00000 6687.66274  16.1%  5412   25s
H    8     8                    5850.0000000 6687.66274  14.3%  1876   27s
    18    20 6498.00001   12 1220 5850.00000 6687.66274  14.3%  1534   30s
*   29    20              22    6450.0000000 6687.66274  3.68%   996   30s
    44    21 6610.54899    2 1366 6450.00000 6682.15820  3.60%  1123   35s
    72    33 6563.03394    6 1263 6450.00000 6682.15820  3.60%   949   40s
   102    41 6682.15820    4 1181 6450.00000 6682.15820  3.60%   857   45s
   117    48 6578.57143   12 1004 6450.00000 6682.15820  3.60%   931   50s
   149    59     cutoff    6      6450.00000 6679.42846  3.56%   881   55s
   175    68 6551.25004   18 1085 6450.00000 6679.42846  3.56%   850   60s
   213    76 6582.00012   11 1157 6450.00000 6664.06130  3.32%   798   65s
   227    74 6637.64651    8 1105 6450.00000 6640.38469  2.95%   837   70s
   265    86 6639.93544    9 1281 6450.00000 6640.38469  2.95%   797   75s
   297    91 6637.64651   11 1104 6450.00000 6639.93544  2.94%   780   80s
   353   108 6578.57143   13 1125 6450.00000 6639.93544  2.94%   724   85s
   403   123 6578.57143   13 1113 6450.00000 6639.91929  2.94%   683   90s
   443   131 6554.20431   14 1191 6450.00000 6639.91929  2.94%   671   95s
   517   149 6561.00000   20  918 6450.00000 6639.81398  2.94%   619  100s
   589   154     cutoff   13      6450.00000 6639.78465  2.94%   584  105s
   627   154     cutoff   11      6450.00000 6639.76748  2.94%   585  110s
   651   149 6623.33344   11 1117 6450.00000 6639.73851  2.94%   598  115s
   686   156 6510.00000   18  827 6450.00000 6637.64651  2.91%   599  120s
   764   163 6552.00000   19 1048 6450.00000 6637.64651  2.91%   567  125s
   836   164 6484.53488   11 1123 6450.00000 6636.00008  2.88%   546  130s
   927   164     cutoff    8      6450.00000 6635.41189  2.87%   513  135s
   950   166 6570.00000   16  874 6450.00000 6628.75008  2.77%   521  140s
   967   163 6578.57143   13 1162 6450.00000 6625.00008  2.71%   532  145s
  1012   173 6609.29581    4 1345 6450.00000 6617.83077  2.60%   527  150s
  1039   182 6582.00012   13 1024 6450.00000 6609.65182  2.48%   531  155s
  1110   211 6582.54965    9 1143 6450.00000 6609.29581  2.47%   516  160s
  1167   228 6602.92699   10  943 6450.00000 6609.14069  2.47%   506  165s
  1222   236 infeasible   17      6450.00000 6608.90141  2.46%   500  170s
  1268   245 6544.54545   18 1262 6450.00000 6607.72228  2.45%   496  175s
  1332   246 6520.00000   13  733 6450.00000 6607.48965  2.44%   486  180s
  1379   253 6554.25017   13  938 6450.00000 6607.47400  2.44%   478  185s
  1441   268 6514.41176   13  800 6450.00000 6607.33396  2.44%   465  194s
  1445   267 6606.80148    5 1442 6450.00000 6607.10846  2.44%   466  195s
  1468   280 6582.54965   15  924 6450.00000 6607.10846  2.44%   468  203s
  1495   283 6562.50000   14 1003 6450.00000 6607.06900  2.44%   463  208s
  1534   293 6592.28137   11 1192 6450.00000 6607.04531  2.43%   457  210s
  1540   298 6570.00000   15 1286 6450.00000 6607.04531  2.43%   456  215s
  1542   299 6491.25000   15 1220 6450.00000 6607.04531  2.43%   455  221s
  1543   300 6572.50000   17 1187 6450.00000 6607.04531  2.43%   455  225s
  1550   305 6524.34783   15 1365 6450.00000 6607.04531  2.43%   453  230s
  1551   305 6520.00000   14 1355 6450.00000 6607.04531  2.43%   453  235s
  1556   309 6556.90029   10 1488 6450.00000 6607.04531  2.43%   451  240s
  1559   311 6520.00000   14 1344 6450.00000 6607.04531  2.43%   450  248s
  1561   312 6520.00000   10 1365 6450.00000 6607.04531  2.43%   450  254s
  1562   313 6524.00000   14 1499 6450.00000 6607.04531  2.43%   449  255s
  1565   315 6510.00000   19 1307 6450.00000 6607.04531  2.43%   449  261s
  1568   319 6607.04531   14 1401 6450.00000 6607.04531  2.43%   537  266s
  1571   320 6503.57146   15 1321 6450.00000 6607.04531  2.43%   545  271s
  1574   320     cutoff   17      6450.00000 6607.04531  2.43%   553  275s
  1581   322 6557.15558   21 1153 6450.00000 6607.04531  2.43%   559  280s
  1586   320     cutoff   15      6450.00000 6607.04531  2.43%   570  285s
  1591   315     cutoff   14      6450.00000 6597.32293  2.28%   582  290s
  1600   314     cutoff   16      6450.00000 6581.11977  2.03%   587  295s
  1615   306     cutoff   17      6450.00000 6568.11266  1.83%   595  300s

Cutting planes:
  Gomory: 7
  Implied bound: 412
  Projected implied bound: 3
  MIR: 2
  Flow cover: 62
  Zero half: 1
  RLT: 32
  Relax-and-lift: 30

Explored 1624 nodes (1037368 simplex iterations) in 304.98 seconds
Thread count was 1 (of 40 available processors)

Solution count 5: 6450 6450 5850 ... 1650

Optimal solution found (tolerance 1.00e-04)
Best objective 6.450000000000e+03, best bound 6.450000000000e+03, gap 0.0000%

----------

Best objective (UB): 6450.000
Best feasible solution (LB): 6450.000
Gap between the lower bound and upper bound: 0.000%

----------

Number of customers served: 25

Schedule for EV v0:
   [   0,  793) -> It remains parked at station s0, which was charging for charging.
   [ 793,  853) -> Service a request driving for customer c32 from s0 to s6.
   [ 853, 1089) -> It remains parked at station s6, which was charging for charging.
   [1089, 1179) -> Service a request driving for customer c33 from s6 to s7.
   [1179, 1205) -> It remains parked at station s7, which was charging for charging.
   [1205, 1235) -> Service a request driving for customer c38 from s7 to s0.
   [1235, 1330) -> It remains parked at station s0, which was charging for charging.
   [1330, 1690) -> Service a request driving for customer c44 from s0 to s6.
   [1690, tmax) -> It remains parked at station s6, which was charging for charging.

Schedule for EV v1:
   [   0,  434) -> It remains parked at station s0, which was charging for charging.
   [ 434,  494) -> Service a request driving for customer c54 from s0 to s1.
   [ 494,  545) -> It remains parked at station s1, which was charging for charging.
   [ 545,  755) -> Service a request driving for customer c53 from s1 to s4.
   [ 755,  849) -> It remains parked at station s4, which was charging for charging.
   [ 849, 1059) -> Service a request driving for customer c42 from s4 to s3.
   [1059, 1085) -> It remains parked at station s3, which was charging for charging.
   [1085, 1355) -> Service a request driving for customer c66 from s3 to s3.
   [1355, 1394) -> It remains parked at station s3, which was charging for charging.
   [1394, 1604) -> Service a request driving for customer c66 from s3 to s1.
   [1604, tmax) -> It remains parked at station s1, which was charging for charging.

Schedule for EV v2:
   [   0,  611) -> It remains parked at station s1, which was charging for charging.
   [ 611,  731) -> Service a request driving for customer c48 from s1 to s11.
   [ 731,  916) -> It remains parked at station s11, which was charging for charging.
   [ 916, 1036) -> Service a request driving for customer c48 from s11 to s9.
   [1036, 1265) -> It remains parked at station s9, which was charging for charging.
   [1265, 1295) -> Service a request driving for customer c57 from s9 to s10.
   [1295, tmax) -> It remains parked at station s10, which was charging for charging.

Schedule for EV v3:
   [   0,  426) -> It remains parked at station s1, which was charging for charging.
   [ 426,  606) -> Service a request driving for customer c38 from s1 to s7.
   [ 606,  615) -> It remains parked at station s7, which was charging for charging.
   [ 615,  795) -> Service a request driving for customer c22 from s7 to s3.
   [ 795,  974) -> It remains parked at station s3, which was charging for charging.
   [ 974, 1094) -> Service a request driving for customer c43 from s3 to s4.
   [1094, 1267) -> It remains parked at station s4, which was charging for charging.
   [1267, 1477) -> Service a request driving for customer c24 from s4 to s1.
   [1477, tmax) -> It remains parked at station s1, which was charging for charging.

Schedule for EV v4:
   [   0,  615) -> It remains parked at station s2, which was charging for charging.
   [ 615,  675) -> Service a request driving for customer c7 from s2 to s4.
   [ 675,  909) -> It remains parked at station s4, which was charging for charging.
   [ 909,  939) -> Service a request driving for customer c20 from s4 to s2.
   [ 939, 1087) -> It remains parked at station s2, which was charging for charging.
   [1087, 1177) -> Service a request driving for customer c57 from s2 to s4.
   [1177, 1210) -> It remains parked at station s4, which was charging for charging.
   [1210, 1270) -> Service a request driving for customer c3 from s4 to s1.
   [1270, tmax) -> It remains parked at station s1, which was charging for charging.

Schedule for EV v5:
   [   0,  492) -> It remains parked at station s2, which was charging for charging.
   [ 492,  582) -> Service a request driving for customer c50 from s2 to s4.
   [ 582,  665) -> It remains parked at station s4, which was charging for charging.
   [ 665,  695) -> Service a request driving for customer c60 from s4 to s7.
   [ 695,  726) -> It remains parked at station s7, which was charging for charging.
   [ 726,  786) -> Service a request driving for customer c32 from s7 to s0.
   [ 786,  849) -> It remains parked at station s0, which was charging for charging.
   [ 849,  909) -> Service a request driving for customer c45 from s0 to s1.
   [ 909,  916) -> It remains parked at station s1, which was charging for charging.
   [ 916,  946) -> Service a request driving for customer c57 from s1 to s11.
   [ 946,  976) -> It remains parked at station s11, which was charging for charging.
   [ 976, 1126) -> Service a request driving for customer c60 from s11 to s5.
   [1126, 1391) -> It remains parked at station s5, which was charging for charging.
   [1391, 1511) -> Service a request driving for customer c50 from s5 to s3.
   [1511, tmax) -> It remains parked at station s3, which was charging for charging.

Schedule for EV v6:
   [   0,  556) -> It remains parked at station s3, which was charging for charging.
   [ 556,  616) -> Service a request driving for customer c20 from s3 to s6.
   [ 616,  786) -> It remains parked at station s6, which was charging for charging.
   [ 786,  846) -> Service a request driving for customer c43 from s6 to s2.
   [ 846, 1036) -> It remains parked at station s2, which was charging for charging.
   [1036, 1096) -> Service a request driving for customer c20 from s2 to s2.
   [1096, 1326) -> It remains parked at station s2, which was charging for charging.
   [1326, 1446) -> Service a request driving for customer c7 from s2 to s4.
   [1446, tmax) -> It remains parked at station s4, which was charging for charging.

Schedule for EV v7:
   [   0,  607) -> It remains parked at station s3, which was charging for charging.
   [ 607,  667) -> Service a request driving for customer c66 from s3 to s1.
   [ 667,  675) -> It remains parked at station s1, which was charging for charging.
   [ 675,  765) -> Service a request driving for customer c66 from s1 to s11.
   [ 765, 1087) -> It remains parked at station s11, which was charging for charging.
   [1087, 1177) -> Service a request driving for customer c65 from s11 to s8.
   [1177, tmax) -> It remains parked at station s8, which was charging for charging.

Schedule for EV v8:
   [   0,  434) -> It remains parked at station s7, which was charging for charging.
   [ 434,  494) -> Service a request driving for customer c57 from s7 to s9.
   [ 494,  615) -> It remains parked at station s9, which was charging for charging.
   [ 615,  675) -> Service a request driving for customer c47 from s9 to s7.
   [ 675,  733) -> It remains parked at station s7, which was charging for charging.
   [ 733,  793) -> Service a request driving for customer c67 from s7 to s11.
   [ 793,  906) -> It remains parked at station s11, which was charging for charging.
   [ 906,  936) -> Service a request driving for customer c47 from s11 to s0.
   [ 936,  971) -> It remains parked at station s0, which was charging for charging.
   [ 971, 1001) -> Service a request driving for customer c45 from s0 to s11.
   [1001, 1025) -> It remains parked at station s11, which was charging for charging.
   [1025, 1265) -> Service a request driving for customer c67 from s11 to s11.
   [1265, 1336) -> It remains parked at station s11, which was charging for charging.
   [1336, 1516) -> Service a request driving for customer c67 from s11 to s9.
   [1516, tmax) -> It remains parked at station s9, which was charging for charging.

Schedule for EV v9:
   [   0,  793) -> It remains parked at station s7, which was charging for charging.
   [ 793,  883) -> Service a request driving for customer c33 from s7 to s0.
   [ 883, 1325) -> It remains parked at station s0, which was charging for charging.
   [1325, 1415) -> Service a request driving for customer c20 from s0 to s11.
   [1415, tmax) -> It remains parked at station s11, which was charging for charging.

Schedule for EV v10:
   [   0, 1094) -> It remains parked at station s7, which was charging for charging.
   [1094, 1184) -> Service a request driving for customer c42 from s7 to s1.
   [1184, tmax) -> It remains parked at station s1, which was charging for charging.

Schedule for EV v11:
   [   0, 1331) -> It remains parked at station s8, which was charging for charging.
   [1331, 1601) -> Service a request driving for customer c60 from s8 to s8.
   [1601, tmax) -> It remains parked at station s8, which was charging for charging.

Schedule for EV v12:
   [   0,  910) -> It remains parked at station s8, which was charging for charging.
   [ 910, 1090) -> Service a request driving for customer c7 from s8 to s1.
   [1090, 1095) -> It remains parked at station s1, which was charging for charging.
   [1095, 1245) -> Service a request driving for customer c7 from s1 to s0.
   [1245, 1328) -> It remains parked at station s0, which was charging for charging.
   [1328, 1628) -> Service a request driving for customer c65 from s0 to s8.
   [1628, tmax) -> It remains parked at station s8, which was charging for charging.

Schedule for EV v13:
   [   0,  554) -> It remains parked at station s9, which was charging for charging.
   [ 554,  614) -> Service a request driving for customer c1 from s9 to s11.
   [ 614,  852) -> It remains parked at station s11, which was charging for charging.
   [ 852,  912) -> Service a request driving for customer c67 from s11 to s10.
   [ 912, tmax) -> It remains parked at station s10, which was charging for charging.

Schedule for EV v14:
   [   0,  549) -> It remains parked at station s10, which was charging for charging.
   [ 549,  699) -> Service a request driving for customer c10 from s10 to s1.
   [ 699,  788) -> It remains parked at station s1, which was charging for charging.
   [ 788,  848) -> Service a request driving for customer c53 from s1 to s9.
   [ 848,  914) -> It remains parked at station s9, which was charging for charging.
   [ 914,  974) -> Service a request driving for customer c60 from s9 to s2.
   [ 974, 1086) -> It remains parked at station s2, which was charging for charging.
   [1086, 1146) -> Service a request driving for customer c10 from s2 to s6.
   [1146, 1329) -> It remains parked at station s6, which was charging for charging.
   [1329, 1389) -> Service a request driving for customer c4 from s6 to s6.
   [1389, 1391) -> It remains parked at station s6, which was charging for charging.
   [1391, 1721) -> Service a request driving for customer c3 from s6 to s10.
   [1721, tmax) -> It remains parked at station s10, which was charging for charging.

Set of satisfied customers
   {c1, c3, c4, c7, c10, c20, c22, c24, c32, c33, c38, c42, c43, c44, c45, c47, c48, c50, c53, c54, c57, c60, c65, c66, c67}

