Academic license - for non-commercial use only
Gurobi Optimizer version 9.0.3 build v9.0.3rc0 (linux64)
Optimize a model with 19756 rows, 13269 columns and 121709 nonzeros
Model fingerprint: 0x5733fe21
Variable types: 6905 continuous, 6364 integer (6364 binary)
Coefficient statistics:
  Matrix range     [1e+00, 7e+06]
  Objective range  [3e+01, 9e+02]
  Bounds range     [1e+00, 2e+06]
  RHS range        [1e+00, 2e+06]

Loaded user MIP start with objective 2520

Presolve removed 12172 rows and 5815 columns
Presolve time: 0.21s
Presolved: 7584 rows, 7454 columns, 53934 nonzeros
Variable types: 730 continuous, 6724 integer (4968 binary)

Root simplex log...

Iteration    Objective       Primal Inf.    Dual Inf.      Time
   14106    9.4965702e+03   1.068824e+06   0.000000e+00      5s
   23208    8.5852596e+03   2.712304e+05   0.000000e+00     10s
   26311    8.5841564e+03   0.000000e+00   0.000000e+00     12s

Root relaxation: objective 8.584156e+03, 26311 iterations, 11.58 seconds
Total elapsed time = 15.05s

    Nodes    |    Current Node    |     Objective Bounds      |     Work
 Expl Unexpl |  Obj  Depth IntInf | Incumbent    BestBd   Gap | It/Node Time

     0     0 8584.15638    0 2098 2520.00000 8584.15638   241%     -   16s
     0     0 8545.07732    0 2366 2520.00000 8545.07732   239%     -   20s
H    0     0                    6450.0000000 8545.07732  32.5%     -   20s
     0     0 8532.03826    0 2219 6450.00000 8532.03826  32.3%     -   26s
     0     0 8529.95459    0 2124 6450.00000 8529.95459  32.2%     -   27s
     0     0 8528.53765    0 2093 6450.00000 8528.53765  32.2%     -   29s
     0     0 8528.08991    0 2008 6450.00000 8528.08991  32.2%     -   29s
     0     0 8528.08991    0 2005 6450.00000 8528.08991  32.2%     -   29s
     0     0 8513.72009    0 2155 6450.00000 8513.72009  32.0%     -   34s
     0     0 8510.19294    0 2152 6450.00000 8510.19294  31.9%     -   37s
     0     0 8509.71803    0 2130 6450.00000 8509.71803  31.9%     -   38s
     0     0 8509.71410    0 2071 6450.00000 8509.71410  31.9%     -   38s
     0     0 8509.57479    0 2204 6450.00000 8509.57479  31.9%     -   39s
     0     0 8509.57479    0 2062 6450.00000 8509.57479  31.9%     -   40s
     0     0 8509.57479    0 2273 6450.00000 8509.57479  31.9%     -   41s
H    0     0                    6750.0000000 8509.57479  26.1%     -   41s
     0     0 8509.57479    0 2081 6750.00000 8509.57479  26.1%     -   41s
     0     0 8509.57479    0 2090 6750.00000 8509.57479  26.1%     -   45s
     0     0 8509.57479    0 1928 6750.00000 8509.57479  26.1%     -   48s
H    0     0                    6810.0000000 8509.57479  25.0%     -   48s
H    0     0                    8400.0000000 8509.57479  1.30%     -   50s
     0     0 8509.57479    0 1790 8400.00000 8509.57479  1.30%     -   60s
     0     0 8509.57479    0 2023 8400.00000 8509.57479  1.30%     -   63s
     0     0 8509.33282    0 1931 8400.00000 8509.33282  1.30%     -   65s
     0     0 8508.78828    0 1951 8400.00000 8508.78828  1.30%     -   66s
     0     0 8508.78828    0 1880 8400.00000 8508.78828  1.30%     -   66s
     0     0 8508.38457    0 1990 8400.00000 8508.38457  1.29%     -   68s
     0     0 8508.38457    0 1942 8400.00000 8508.38457  1.29%     -   68s
     0     0 8508.29236    0 1900 8400.00000 8508.29236  1.29%     -   69s
     0     0 8508.29236    0 2056 8400.00000 8508.29236  1.29%     -   70s
     0     0 8507.41697    0 2070 8400.00000 8507.41697  1.28%     -   72s
     0     0 8507.36875    0 2019 8400.00000 8507.36875  1.28%     -   72s
     0     0 8507.34546    0 2020 8400.00000 8507.34546  1.28%     -   73s
     0     0 8507.31900    0 1943 8400.00000 8507.31900  1.28%     -   73s
     0     0 8507.30358    0 1976 8400.00000 8507.30358  1.28%     -   74s
     0     0 8507.30358    0 2026 8400.00000 8507.30358  1.28%     -   74s
     0     0 8507.30358    0 1949 8400.00000 8507.30358  1.28%     -   75s
     0     0 8507.30358    0 2080 8400.00000 8507.30358  1.28%     -   75s
     0     0 8507.30358    0 1963 8400.00000 8507.30358  1.28%     -   77s
     0     2 8506.46715    0 1908 8400.00000 8506.46715  1.27%     -   81s
     3     3 8493.71969    2 1928 8400.00000 8494.71981  1.13%  4726   85s
    11     3     cutoff    6      8400.00000 8476.78604  0.91%  2986   90s

Cutting planes:
  Gomory: 1
  Implied bound: 581
  Clique: 4
  MIR: 6
  StrongCG: 2
  Zero half: 1
  RLT: 12
  Relax-and-lift: 62

Explored 15 nodes (198615 simplex iterations) in 94.93 seconds
Thread count was 1 (of 40 available processors)

Solution count 5: 8400 6810 6750 ... 2520

Optimal solution found (tolerance 1.00e-04)
Best objective 8.400000000000e+03, best bound 8.400000000000e+03, gap 0.0000%

----------

Best objective (UB): 8400.000
Best feasible solution (LB): 8400.000
Gap between the lower bound and upper bound: 0.000%

----------

Number of customers served: 36

Schedule for EV v0:
   [   0,  606) -> It remains parked at station s0, which was charging for charging.
   [ 606,  966) -> Service a request driving for customer c41 from s0 to s4.
   [ 966, 1026) -> Service a request driving for customer c91 from s4 to s4.
   [1026, 1086) -> It remains parked at station s4, which was charging for charging.
   [1086, 1176) -> Service a request driving for customer c107 from s4 to s0.
   [1176, 1208) -> It remains parked at station s0, which was charging for charging.
   [1208, 1268) -> Service a request driving for customer c83 from s0 to s5.
   [1268, tmax) -> It remains parked at station s5, which was charging for charging.

Schedule for EV v1:
   [   0,  494) -> It remains parked at station s0, which was charging for charging.
   [ 494,  554) -> Service a request driving for customer c74 from s0 to s9.
   [ 554,  729) -> It remains parked at station s9, which was charging for charging.
   [ 729,  849) -> Service a request driving for customer c47 from s9 to s1.
   [ 849,  916) -> It remains parked at station s1, which was charging for charging.
   [ 916,  946) -> Service a request driving for customer c54 from s1 to s11.
   [ 946, 1032) -> It remains parked at station s11, which was charging for charging.
   [1032, 1122) -> Service a request driving for customer c41 from s11 to s11.
   [1122, 1156) -> It remains parked at station s11, which was charging for charging.
   [1156, 1516) -> Service a request driving for customer c46 from s11 to s2.
   [1516, tmax) -> It remains parked at station s2, which was charging for charging.

Schedule for EV v2:
   [   0,  616) -> It remains parked at station s1, which was charging for charging.
   [ 616,  706) -> Service a request driving for customer c74 from s1 to s5.
   [ 706,  794) -> It remains parked at station s5, which was charging for charging.
   [ 794,  974) -> Service a request driving for customer c30 from s5 to s11.
   [ 974, 1034) -> It remains parked at station s11, which was charging for charging.
   [1034, 1124) -> Service a request driving for customer c14 from s11 to s7.
   [1124, 1148) -> It remains parked at station s7, which was charging for charging.
   [1148, 1238) -> Service a request driving for customer c43 from s7 to s6.
   [1238, 1393) -> It remains parked at station s6, which was charging for charging.
   [1393, 1483) -> Service a request driving for customer c0 from s6 to s9.
   [1483, tmax) -> It remains parked at station s9, which was charging for charging.

Schedule for EV v3:
   [   0,  734) -> It remains parked at station s1, which was charging for charging.
   [ 734,  974) -> Service a request driving for customer c94 from s1 to s4.
   [ 974, 1095) -> It remains parked at station s4, which was charging for charging.
   [1095, 1245) -> Service a request driving for customer c42 from s4 to s3.
   [1245, 1268) -> It remains parked at station s3, which was charging for charging.
   [1268, 1328) -> Service a request driving for customer c42 from s3 to s1.
   [1328, 1478) -> Service a request driving for customer c56 from s1 to s0.
   [1478, tmax) -> It remains parked at station s0, which was charging for charging.

Schedule for EV v4:
   [   0,  551) -> It remains parked at station s2, which was charging for charging.
   [ 551,  731) -> Service a request driving for customer c78 from s2 to s7.
   [ 731,  913) -> It remains parked at station s7, which was charging for charging.
   [ 913,  943) -> Service a request driving for customer c109 from s7 to s3.
   [ 943, 1033) -> It remains parked at station s3, which was charging for charging.
   [1033, 1093) -> Service a request driving for customer c47 from s3 to s0.
   [1093, 1155) -> It remains parked at station s0, which was charging for charging.
   [1155, 1245) -> Service a request driving for customer c41 from s0 to s9.
   [1245, 1335) -> It remains parked at station s9, which was charging for charging.
   [1335, 1485) -> Service a request driving for customer c14 from s9 to s9.
   [1485, tmax) -> It remains parked at station s9, which was charging for charging.

Schedule for EV v5:
   [   0,  668) -> It remains parked at station s2, which was charging for charging.
   [ 668,  728) -> Service a request driving for customer c63 from s2 to s2.
   [ 728,  736) -> It remains parked at station s2, which was charging for charging.
   [ 736,  796) -> Service a request driving for customer c76 from s2 to s2.
   [ 796, 1026) -> It remains parked at station s2, which was charging for charging.
   [1026, 1176) -> Service a request driving for customer c74 from s2 to s3.
   [1176, 1211) -> It remains parked at station s3, which was charging for charging.
   [1211, 1361) -> Service a request driving for customer c1 from s3 to s1.
   [1361, 1396) -> It remains parked at station s1, which was charging for charging.
   [1396, 1516) -> Service a request driving for customer c54 from s1 to s1.
   [1516, tmax) -> It remains parked at station s1, which was charging for charging.

Schedule for EV v6:
   [   0,  426) -> It remains parked at station s4, which was charging for charging.
   [ 426,  486) -> Service a request driving for customer c42 from s4 to s8.
   [ 486,  605) -> It remains parked at station s8, which was charging for charging.
   [ 605,  875) -> Service a request driving for customer c75 from s8 to s0.
   [ 875,  908) -> It remains parked at station s0, which was charging for charging.
   [ 908, 1028) -> Service a request driving for customer c64 from s0 to s4.
   [1028, 1032) -> It remains parked at station s4, which was charging for charging.
   [1032, 1152) -> Service a request driving for customer c97 from s4 to s9.
   [1152, 1327) -> It remains parked at station s9, which was charging for charging.
   [1327, 1477) -> Service a request driving for customer c60 from s9 to s1.
   [1477, tmax) -> It remains parked at station s1, which was charging for charging.

Schedule for EV v7:
   [   0,  673) -> It remains parked at station s5, which was charging for charging.
   [ 673,  853) -> Service a request driving for customer c86 from s5 to s11.
   [ 853,  911) -> It remains parked at station s11, which was charging for charging.
   [ 911, 1001) -> Service a request driving for customer c96 from s11 to s8.
   [1001, 1028) -> It remains parked at station s8, which was charging for charging.
   [1028, 1088) -> Service a request driving for customer c57 from s8 to s1.
   [1088, 1178) -> Service a request driving for customer c76 from s1 to s11.
   [1178, tmax) -> It remains parked at station s11, which was charging for charging.

Schedule for EV v8:
   [   0,  431) -> It remains parked at station s5, which was charging for charging.
   [ 431,  461) -> Service a request driving for customer c96 from s5 to s11.
   [ 461,  666) -> It remains parked at station s11, which was charging for charging.
   [ 666,  726) -> Service a request driving for customer c36 from s11 to s3.
   [ 726,  734) -> It remains parked at station s3, which was charging for charging.
   [ 734, 1064) -> Service a request driving for customer c98 from s3 to s1.
   [1064, 1087) -> It remains parked at station s1, which was charging for charging.
   [1087, 1117) -> Service a request driving for customer c46 from s1 to s1.
   [1117, 1145) -> It remains parked at station s1, which was charging for charging.
   [1145, 1235) -> Service a request driving for customer c36 from s1 to s3.
   [1235, 1276) -> It remains parked at station s3, which was charging for charging.
   [1276, 1366) -> Service a request driving for customer c91 from s3 to s6.
   [1366, 1396) -> It remains parked at station s6, which was charging for charging.
   [1396, 1486) -> Service a request driving for customer c83 from s6 to s4.
   [1486, tmax) -> It remains parked at station s4, which was charging for charging.

Schedule for EV v9:
   [   0,  556) -> It remains parked at station s7, which was charging for charging.
   [ 556,  586) -> Service a request driving for customer c49 from s7 to s0.
   [ 586,  673) -> It remains parked at station s0, which was charging for charging.
   [ 673,  733) -> Service a request driving for customer c76 from s0 to s8.
   [ 733,  786) -> It remains parked at station s8, which was charging for charging.
   [ 786,  816) -> Service a request driving for customer c109 from s8 to s10.
   [ 816,  910) -> It remains parked at station s10, which was charging for charging.
   [ 910, 1000) -> Service a request driving for customer c1 from s10 to s6.
   [1000, 1090) -> It remains parked at station s6, which was charging for charging.
   [1090, 1120) -> Service a request driving for customer c94 from s6 to s2.
   [1120, 1150) -> It remains parked at station s2, which was charging for charging.
   [1150, 1330) -> Service a request driving for customer c67 from s2 to s7.
   [1330, 1390) -> It remains parked at station s7, which was charging for charging.
   [1390, 1660) -> Service a request driving for customer c74 from s7 to s6.
   [1660, tmax) -> It remains parked at station s6, which was charging for charging.

Schedule for EV v10:
   [   0,  552) -> It remains parked at station s8, which was charging for charging.
   [ 552,  672) -> Service a request driving for customer c107 from s8 to s0.
   [ 672,  910) -> It remains parked at station s0, which was charging for charging.
   [ 910,  940) -> Service a request driving for customer c32 from s0 to s3.
   [ 940, 1148) -> It remains parked at station s3, which was charging for charging.
   [1148, 1508) -> Service a request driving for customer c108 from s3 to s11.
   [1508, tmax) -> It remains parked at station s11, which was charging for charging.

Schedule for EV v11:
   [   0,  849) -> It remains parked at station s9, which was charging for charging.
   [ 849,  999) -> Service a request driving for customer c43 from s9 to s8.
   [ 999, 1153) -> It remains parked at station s8, which was charging for charging.
   [1153, 1213) -> Service a request driving for customer c56 from s8 to s6.
   [1213, 1273) -> Service a request driving for customer c76 from s6 to s11.
   [1273, 1454) -> It remains parked at station s11, which was charging for charging.
   [1454, 1544) -> Service a request driving for customer c21 from s11 to s4.
   [1544, tmax) -> It remains parked at station s4, which was charging for charging.

Schedule for EV v12:
   [   0,  792) -> It remains parked at station s9, which was charging for charging.
   [ 792,  852) -> Service a request driving for customer c57 from s9 to s9.
   [ 852, 1090) -> It remains parked at station s9, which was charging for charging.
   [1090, 1390) -> Service a request driving for customer c109 from s9 to s4.
   [1390, tmax) -> It remains parked at station s4, which was charging for charging.

Schedule for EV v13:
   [   0,  672) -> It remains parked at station s10, which was charging for charging.
   [ 672,  732) -> Service a request driving for customer c94 from s10 to s4.
   [ 732,  847) -> It remains parked at station s4, which was charging for charging.
   [ 847,  967) -> Service a request driving for customer c63 from s4 to s4.
   [ 967,  970) -> It remains parked at station s4, which was charging for charging.
   [ 970, 1300) -> Service a request driving for customer c75 from s4 to s3.
   [1300, 1394) -> It remains parked at station s3, which was charging for charging.
   [1394, 1514) -> Service a request driving for customer c33 from s3 to s11.
   [1514, tmax) -> It remains parked at station s11, which was charging for charging.

Schedule for EV v14:
   [   0,  492) -> It remains parked at station s11, which was charging for charging.
   [ 492,  582) -> Service a request driving for customer c86 from s11 to s3.
   [ 582,  606) -> It remains parked at station s3, which was charging for charging.
   [ 606,  726) -> Service a request driving for customer c58 from s3 to s0.
   [ 726,  856) -> It remains parked at station s0, which was charging for charging.
   [ 856, 1096) -> Service a request driving for customer c33 from s0 to s8.
   [1096, 1156) -> It remains parked at station s8, which was charging for charging.
   [1156, 1276) -> Service a request driving for customer c60 from s8 to s11.
   [1276, tmax) -> It remains parked at station s11, which was charging for charging.

Set of satisfied customers
   {c0, c1, c14, c21, c30, c32, c33, c36, c41, c42, c43, c46, c47, c49, c54, c56, c57, c58, c60, c63, c64, c67, c74, c75, c76, c78, c83, c86, c91, c94, c96, c97, c98, c107, c108, c109}

