Academic license - for non-commercial use only
Gurobi Optimizer version 9.0.3 build v9.0.3rc0 (linux64)
Optimize a model with 21862 rows, 41868 columns and 159001 nonzeros
Model fingerprint: 0x33536a86
Variable types: 21660 continuous, 20208 integer (20208 binary)
Coefficient statistics:
  Matrix range     [1e+00, 4e+06]
  Objective range  [6e+01, 6e+02]
  Bounds range     [1e+00, 2e+06]
  RHS range        [1e+00, 2e+06]

Loaded user MIP start with objective 3300

Presolve removed 3610 rows and 5578 columns
Presolve time: 0.68s
Presolved: 18252 rows, 36290 columns, 152947 nonzeros
Variable types: 5267 continuous, 31023 integer (29168 binary)

Root simplex log...

Iteration    Objective       Primal Inf.    Dual Inf.      Time
    9300    1.0769986e+04   8.990746e+05   0.000000e+00      5s
   12439    1.0769983e+04   1.312067e+05   0.000000e+00     10s
   15109    1.0709980e+04   4.450950e+05   0.000000e+00     15s
   17629    1.0709980e+04   1.533865e+01   0.000000e+00     20s
   17740    1.0710000e+04   0.000000e+00   0.000000e+00     20s
   17740    1.0710000e+04   0.000000e+00   0.000000e+00     20s

Root relaxation: objective 1.071000e+04, 17740 iterations, 19.67 seconds
Total elapsed time = 30.61s
Total elapsed time = 56.19s
Total elapsed time = 63.92s
Total elapsed time = 69.71s

    Nodes    |    Current Node    |     Objective Bounds      |     Work
 Expl Unexpl |  Obj  Depth IntInf | Incumbent    BestBd   Gap | It/Node Time

     0     0 10710.0000    0  497 3300.00000 10710.0000   225%     -   75s
H    0     0                    10710.000000 10710.0000  0.00%     -   75s
     0     0 10710.0000    0  497 10710.0000 10710.0000  0.00%     -   75s

Explored 1 nodes (154646 simplex iterations) in 75.63 seconds
Thread count was 1 (of 40 available processors)

Solution count 2: 10710 3300 

Optimal solution found (tolerance 1.00e-04)
Best objective 1.071000000000e+04, best bound 1.071000000000e+04, gap 0.0000%

----------

Best objective (UB): 10710.000
Best feasible solution (LB): 10710.000
Gap between the lower bound and upper bound: 0.000%

----------

Number of customers served: 49

Schedule for EV v0:
   [   0,  492) -> It remains parked at station s0.
   [ 492,  552) -> Service a request driving for customer c31 from s0 to s3.
   [ 552,  665) -> It remains parked at station s3, which was charging for charging.
   [ 665,  965) -> Service a request driving for customer c44 from s3 to s0.
   [ 965,  967) -> It remains parked at station s0.
   [ 967, 1027) -> Service a request driving for customer c16 from s0 to s1.
   [1027, 1156) -> It remains parked at station s1, which was charging for charging.
   [1156, 1246) -> Service a request driving for customer c44 from s1 to s11.
   [1246, tmax) -> It remains parked at station s11.

Schedule for EV v1:
   [   0,  728) -> It remains parked at station s0.
   [ 728,  788) -> Service a request driving for customer c46 from s0 to s7.
   [ 788, 1092) -> It remains parked at station s7, which was charging for charging.
   [1092, 1182) -> Service a request driving for customer c34 from s7 to s2.
   [1182, tmax) -> It remains parked at station s2, which was charging for charging.

Schedule for EV v2:
   [   0,  730) -> It remains parked at station s0.
   [ 730,  880) -> Service a request driving for customer c30 from s0 to s6.
   [ 880, tmax) -> It remains parked at station s6, which was charging for charging.

Schedule for EV v3:
   [   0, tmax) -> It remains parked at station s0.

Schedule for EV v4:
   [   0,  967) -> It remains parked at station s0.
   [ 967, 1117) -> Service a request driving for customer c32 from s0 to s9.
   [1117, tmax) -> It remains parked at station s9, which was charging for charging.

Schedule for EV v5:
   [   0,  906) -> It remains parked at station s0.
   [ 906, 1026) -> Service a request driving for customer c6 from s0 to s4.
   [1026, tmax) -> It remains parked at station s4.

Schedule for EV v6:
   [   0,  674) -> It remains parked at station s1.
   [ 674,  764) -> Service a request driving for customer c1 from s1 to s3.
   [ 764, 1146) -> It remains parked at station s3, which was charging for charging.
   [1146, 1386) -> Service a request driving for customer c24 from s3 to s8.
   [1386, tmax) -> It remains parked at station s8.

Schedule for EV v7:
   [   0,  915) -> It remains parked at station s1.
   [ 915,  945) -> Service a request driving for customer c41 from s1 to s5.
   [ 945, tmax) -> It remains parked at station s5, which was charging for charging.

Schedule for EV v8:
   [   0, 1027) -> It remains parked at station s1.
   [1027, 1087) -> Service a request driving for customer c15 from s1 to s2.
   [1087, 1092) -> It remains parked at station s2, which was charging for charging.
   [1092, 1152) -> Service a request driving for customer c41 from s2 to s0.
   [1152, 1155) -> It remains parked at station s0.
   [1155, 1185) -> Service a request driving for customer c41 from s0 to s4.
   [1185, tmax) -> It remains parked at station s4.

Schedule for EV v9:
   [   0,  670) -> It remains parked at station s1.
   [ 670,  700) -> Service a request driving for customer c30 from s1 to s10.
   [ 700, tmax) -> It remains parked at station s10.

Schedule for EV v10:
   [   0,  612) -> It remains parked at station s1.
   [ 612,  672) -> Service a request driving for customer c0 from s1 to s5.
   [ 672, 1212) -> It remains parked at station s5, which was charging for charging.
   [1212, 1272) -> Service a request driving for customer c46 from s5 to s1.
   [1272, tmax) -> It remains parked at station s1.

Schedule for EV v11:
   [   0,  731) -> It remains parked at station s1.
   [ 731, 1001) -> Service a request driving for customer c43 from s1 to s3.
   [1001, tmax) -> It remains parked at station s3, which was charging for charging.

Schedule for EV v12:
   [   0,  967) -> It remains parked at station s1.
   [ 967,  997) -> Service a request driving for customer c22 from s1 to s5.
   [ 997, 1325) -> It remains parked at station s5.
   [1325, 1385) -> Service a request driving for customer c45 from s5 to s11.
   [1385, tmax) -> It remains parked at station s11.

Schedule for EV v13:
   [   0,  735) -> It remains parked at station s1.
   [ 735,  885) -> Service a request driving for customer c26 from s1 to s10.
   [ 885, tmax) -> It remains parked at station s10, which was charging for charging.

Schedule for EV v14:
   [   0, 1276) -> It remains parked at station s2.
   [1276, 1456) -> Service a request driving for customer c46 from s2 to s0.
   [1456, tmax) -> It remains parked at station s0.

Schedule for EV v15:
   [   0, tmax) -> It remains parked at station s2.

Schedule for EV v16:
   [   0,  787) -> It remains parked at station s2.
   [ 787,  847) -> Service a request driving for customer c14 from s2 to s8.
   [ 847,  855) -> It remains parked at station s8.
   [ 855,  915) -> Service a request driving for customer c5 from s8 to s8.
   [ 915, tmax) -> It remains parked at station s8, which was charging for charging.

Schedule for EV v17:
   [   0, tmax) -> It remains parked at station s2.

Schedule for EV v18:
   [   0, tmax) -> It remains parked at station s2.

Schedule for EV v19:
   [   0, tmax) -> It remains parked at station s2.

Schedule for EV v20:
   [   0, tmax) -> It remains parked at station s2.

Schedule for EV v21:
   [   0,  916) -> It remains parked at station s2.
   [ 916,  946) -> Service a request driving for customer c25 from s2 to s1.
   [ 946, 1153) -> It remains parked at station s1.
   [1153, 1243) -> Service a request driving for customer c48 from s1 to s11.
   [1243, 1386) -> It remains parked at station s11.
   [1386, 1446) -> Service a request driving for customer c11 from s11 to s2.
   [1446, tmax) -> It remains parked at station s2.

Schedule for EV v22:
   [   0, tmax) -> It remains parked at station s3.

Schedule for EV v23:
   [   0,  431) -> It remains parked at station s3.
   [ 431,  461) -> Service a request driving for customer c34 from s3 to s0.
   [ 461, tmax) -> It remains parked at station s0, which was charging for charging.

Schedule for EV v24:
   [   0, tmax) -> It remains parked at station s3.

Schedule for EV v25:
   [   0, tmax) -> It remains parked at station s3.

Schedule for EV v26:
   [   0, tmax) -> It remains parked at station s3.

Schedule for EV v27:
   [   0, 1151) -> It remains parked at station s3.
   [1151, 1211) -> Service a request driving for customer c27 from s3 to s9.
   [1211, tmax) -> It remains parked at station s9.

Schedule for EV v28:
   [   0, tmax) -> It remains parked at station s3.

Schedule for EV v29:
   [   0, tmax) -> It remains parked at station s3.

Schedule for EV v30:
   [   0, tmax) -> It remains parked at station s3.

Schedule for EV v31:
   [   0, tmax) -> It remains parked at station s3.

Schedule for EV v32:
   [   0, tmax) -> It remains parked at station s3.

Schedule for EV v33:
   [   0, tmax) -> It remains parked at station s3.

Schedule for EV v34:
   [   0,  672) -> It remains parked at station s3.
   [ 672,  732) -> Service a request driving for customer c41 from s3 to s10.
   [ 732, tmax) -> It remains parked at station s10.

Schedule for EV v35:
   [   0, 1094) -> It remains parked at station s3, which was charging for charging.
   [1094, 1154) -> Service a request driving for customer c38 from s3 to s6.
   [1154, 1389) -> It remains parked at station s6.
   [1389, 1449) -> Service a request driving for customer c4 from s6 to s1.
   [1449, tmax) -> It remains parked at station s1.

Schedule for EV v36:
   [   0,  553) -> It remains parked at station s3, which was charging for charging.
   [ 553,  583) -> Service a request driving for customer c19 from s3 to s0.
   [ 583, 1036) -> It remains parked at station s0, which was charging for charging.
   [1036, 1216) -> Service a request driving for customer c13 from s0 to s3.
   [1216, tmax) -> It remains parked at station s3, which was charging for charging.

Schedule for EV v37:
   [   0,  790) -> It remains parked at station s4.
   [ 790,  880) -> Service a request driving for customer c32 from s4 to s5.
   [ 880,  911) -> It remains parked at station s5, which was charging for charging.
   [ 911,  971) -> Service a request driving for customer c1 from s5 to s9.
   [ 971, 1089) -> It remains parked at station s9.
   [1089, 1389) -> Service a request driving for customer c22 from s9 to s10.
   [1389, tmax) -> It remains parked at station s10.

Schedule for EV v38:
   [   0, tmax) -> It remains parked at station s4.

Schedule for EV v39:
   [   0, 1152) -> It remains parked at station s4.
   [1152, 1482) -> Service a request driving for customer c36 from s4 to s8.
   [1482, tmax) -> It remains parked at station s8.

Schedule for EV v40:
   [   0, tmax) -> It remains parked at station s4.

Schedule for EV v41:
   [   0, tmax) -> It remains parked at station s4.

Schedule for EV v42:
   [   0, 1087) -> It remains parked at station s4.
   [1087, 1297) -> Service a request driving for customer c23 from s4 to s1.
   [1297, tmax) -> It remains parked at station s1.

Schedule for EV v43:
   [   0, tmax) -> It remains parked at station s4.

Schedule for EV v44:
   [   0, tmax) -> It remains parked at station s4.

Schedule for EV v45:
   [   0, tmax) -> It remains parked at station s4.

Schedule for EV v46:
   [   0, tmax) -> It remains parked at station s4.

Schedule for EV v47:
   [   0, tmax) -> It remains parked at station s4.

Schedule for EV v48:
   [   0, 1146) -> It remains parked at station s5.
   [1146, 1236) -> Service a request driving for customer c30 from s5 to s5.
   [1236, 1326) -> It remains parked at station s5, which was charging for charging.
   [1326, 1386) -> Service a request driving for customer c14 from s5 to s3.
   [1386, tmax) -> It remains parked at station s3.

Schedule for EV v49:
   [   0, tmax) -> It remains parked at station s5.

Schedule for EV v50:
   [   0, tmax) -> It remains parked at station s5.

Schedule for EV v51:
   [   0,  610) -> It remains parked at station s5.
   [ 610,  700) -> Service a request driving for customer c36 from s5 to s3.
   [ 700, tmax) -> It remains parked at station s3, which was charging for charging.

Schedule for EV v52:
   [   0,  726) -> It remains parked at station s5.
   [ 726,  786) -> Service a request driving for customer c14 from s5 to s1.
   [ 786, 1092) -> It remains parked at station s1, which was charging for charging.
   [1092, 1182) -> Service a request driving for customer c33 from s1 to s11.
   [1182, tmax) -> It remains parked at station s11, which was charging for charging.

Schedule for EV v53:
   [   0, tmax) -> It remains parked at station s5.

Schedule for EV v54:
   [   0,  972) -> It remains parked at station s6.
   [ 972, 1062) -> Service a request driving for customer c26 from s6 to s5.
   [1062, tmax) -> It remains parked at station s5, which was charging for charging.

Schedule for EV v55:
   [   0, tmax) -> It remains parked at station s6.

Schedule for EV v56:
   [   0, 1153) -> It remains parked at station s6.
   [1153, 1273) -> Service a request driving for customer c10 from s6 to s4.
   [1273, tmax) -> It remains parked at station s4.

Schedule for EV v57:
   [   0,  975) -> It remains parked at station s6.
   [ 975, 1035) -> Service a request driving for customer c35 from s6 to s11.
   [1035, 1212) -> It remains parked at station s11.
   [1212, 1272) -> Service a request driving for customer c45 from s11 to s2.
   [1272, 1333) -> It remains parked at station s2.
   [1333, 1483) -> Service a request driving for customer c40 from s2 to s8.
   [1483, tmax) -> It remains parked at station s8.

Schedule for EV v58:
   [   0, tmax) -> It remains parked at station s6.

Schedule for EV v59:
   [   0, tmax) -> It remains parked at station s6.

Schedule for EV v60:
   [   0, 1032) -> It remains parked at station s6.
   [1032, 1182) -> Service a request driving for customer c17 from s6 to s1.
   [1182, tmax) -> It remains parked at station s1, which was charging for charging.

Schedule for EV v61:
   [   0, 1090) -> It remains parked at station s6.
   [1090, 1150) -> Service a request driving for customer c29 from s6 to s6.
   [1150, 1214) -> It remains parked at station s6.
   [1214, 1304) -> Service a request driving for customer c3 from s6 to s0.
   [1304, tmax) -> It remains parked at station s0.

Schedule for EV v62:
   [   0, tmax) -> It remains parked at station s6.

Schedule for EV v63:
   [   0,  666) -> It remains parked at station s6.
   [ 666,  696) -> Service a request driving for customer c21 from s6 to s3.
   [ 696, tmax) -> It remains parked at station s3, which was charging for charging.

Schedule for EV v64:
   [   0, tmax) -> It remains parked at station s7.

Schedule for EV v65:
   [   0, tmax) -> It remains parked at station s7.

Schedule for EV v66:
   [   0,  436) -> It remains parked at station s7.
   [ 436,  526) -> Service a request driving for customer c3 from s7 to s4.
   [ 526,  614) -> It remains parked at station s4, which was charging for charging.
   [ 614,  644) -> Service a request driving for customer c8 from s4 to s8.
   [ 644, 1269) -> It remains parked at station s8, which was charging for charging.
   [1269, 1569) -> Service a request driving for customer c17 from s8 to s5.
   [1569, tmax) -> It remains parked at station s5.

Schedule for EV v67:
   [   0,  605) -> It remains parked at station s7.
   [ 605,  815) -> Service a request driving for customer c31 from s7 to s0.
   [ 815, 1032) -> It remains parked at station s0.
   [1032, 1212) -> Service a request driving for customer c12 from s0 to s11.
   [1212, tmax) -> It remains parked at station s11, which was charging for charging.

Schedule for EV v68:
   [   0, tmax) -> It remains parked at station s7.

Schedule for EV v69:
   [   0,  845) -> It remains parked at station s8.
   [ 845,  935) -> Service a request driving for customer c23 from s8 to s4.
   [ 935,  970) -> It remains parked at station s4.
   [ 970, 1030) -> Service a request driving for customer c38 from s4 to s9.
   [1030, tmax) -> It remains parked at station s9, which was charging for charging.

Schedule for EV v70:
   [   0, 1273) -> It remains parked at station s8.
   [1273, 1333) -> Service a request driving for customer c18 from s8 to s0.
   [1333, 1449) -> It remains parked at station s0.
   [1449, 1599) -> Service a request driving for customer c18 from s0 to s7.
   [1599, tmax) -> It remains parked at station s7, which was charging for charging.

Schedule for EV v71:
   [   0,  792) -> It remains parked at station s8.
   [ 792, 1062) -> Service a request driving for customer c27 from s8 to s3.
   [1062, 1215) -> It remains parked at station s3, which was charging for charging.
   [1215, 1485) -> Service a request driving for customer c9 from s3 to s5.
   [1485, tmax) -> It remains parked at station s5.

Schedule for EV v72:
   [   0, 1148) -> It remains parked at station s8.
   [1148, 1208) -> Service a request driving for customer c28 from s8 to s3.
   [1208, 1214) -> It remains parked at station s3.
   [1214, 1304) -> Service a request driving for customer c8 from s3 to s4.
   [1304, tmax) -> It remains parked at station s4.

Schedule for EV v73:
   [   0, 1036) -> It remains parked at station s8.
   [1036, 1096) -> Service a request driving for customer c40 from s8 to s4.
   [1096, 1153) -> It remains parked at station s4.
   [1153, 1213) -> Service a request driving for customer c31 from s4 to s0.
   [1213, tmax) -> It remains parked at station s0, which was charging for charging.

Schedule for EV v74:
   [   0,  727) -> It remains parked at station s8.
   [ 727,  907) -> Service a request driving for customer c36 from s8 to s1.
   [ 907, 1145) -> It remains parked at station s1.
   [1145, 1175) -> Service a request driving for customer c21 from s1 to s1.
   [1175, tmax) -> It remains parked at station s1.

Schedule for EV v75:
   [   0, 1156) -> It remains parked at station s8.
   [1156, 1246) -> Service a request driving for customer c20 from s8 to s4.
   [1246, 1273) -> It remains parked at station s4.
   [1273, 1393) -> Service a request driving for customer c19 from s4 to s7.
   [1393, tmax) -> It remains parked at station s7, which was charging for charging.

Schedule for EV v76:
   [   0,  856) -> It remains parked at station s8.
   [ 856,  946) -> Service a request driving for customer c11 from s8 to s10.
   [ 946, tmax) -> It remains parked at station s10, which was charging for charging.

Schedule for EV v77:
   [   0,  726) -> It remains parked at station s8.
   [ 726,  936) -> Service a request driving for customer c42 from s8 to s11.
   [ 936, 1096) -> It remains parked at station s11.
   [1096, 1156) -> Service a request driving for customer c15 from s11 to s10.
   [1156, tmax) -> It remains parked at station s10.

Schedule for EV v78:
   [   0,  375) -> It remains parked at station s8.
   [ 375,  435) -> Service a request driving for customer c26 from s8 to s4.
   [ 435,  795) -> It remains parked at station s4.
   [ 795,  915) -> Service a request driving for customer c21 from s4 to s6.
   [ 915, 1092) -> It remains parked at station s6.
   [1092, 1182) -> Service a request driving for customer c43 from s6 to s10.
   [1182, 1334) -> It remains parked at station s10.
   [1334, 1394) -> Service a request driving for customer c26 from s10 to s8.
   [1394, tmax) -> It remains parked at station s8, which was charging for charging.

Schedule for EV v79:
   [   0, tmax) -> It remains parked at station s8, which was charging for charging.

Schedule for EV v80:
   [   0,  555) -> It remains parked at station s8, which was charging for charging.
   [ 555,  705) -> Service a request driving for customer c15 from s8 to s3.
   [ 705, 1088) -> It remains parked at station s3.
   [1088, 1238) -> Service a request driving for customer c35 from s3 to s4.
   [1238, tmax) -> It remains parked at station s4.

Schedule for EV v81:
   [   0, tmax) -> It remains parked at station s8, which was charging for charging.

Schedule for EV v82:
   [   0, 1087) -> It remains parked at station s9.
   [1087, 1417) -> Service a request driving for customer c37 from s9 to s6.
   [1417, tmax) -> It remains parked at station s6.

Schedule for EV v83:
   [   0,  671) -> It remains parked at station s9.
   [ 671,  821) -> Service a request driving for customer c29 from s9 to s7.
   [ 821,  974) -> It remains parked at station s7, which was charging for charging.
   [ 974, 1094) -> Service a request driving for customer c8 from s7 to s10.
   [1094, tmax) -> It remains parked at station s10.

Schedule for EV v84:
   [   0,  966) -> It remains parked at station s9.
   [ 966, 1086) -> Service a request driving for customer c5 from s9 to s4.
   [1086, tmax) -> It remains parked at station s4.

Schedule for EV v85:
   [   0, tmax) -> It remains parked at station s9.

Schedule for EV v86:
   [   0,  605) -> It remains parked at station s9.
   [ 605,  665) -> Service a request driving for customer c25 from s9 to s5.
   [ 665,  673) -> It remains parked at station s5, which was charging for charging.
   [ 673,  703) -> Service a request driving for customer c46 from s5 to s11.
   [ 703, 1085) -> It remains parked at station s11, which was charging for charging.
   [1085, 1115) -> Service a request driving for customer c36 from s11 to s0.
   [1115, tmax) -> It remains parked at station s0, which was charging for charging.

Schedule for EV v87:
   [   0,  672) -> It remains parked at station s10.
   [ 672,  732) -> Service a request driving for customer c7 from s10 to s7.
   [ 732, 1150) -> It remains parked at station s7.
   [1150, 1180) -> Service a request driving for customer c3 from s7 to s11.
   [1180, tmax) -> It remains parked at station s11.

Schedule for EV v88:
   [   0, tmax) -> It remains parked at station s10.

Schedule for EV v89:
   [   0, tmax) -> It remains parked at station s10.

Schedule for EV v90:
   [   0, tmax) -> It remains parked at station s10.

Schedule for EV v91:
   [   0, 1093) -> It remains parked at station s10.
   [1093, 1243) -> Service a request driving for customer c47 from s10 to s3.
   [1243, 1391) -> It remains parked at station s3.
   [1391, 1481) -> Service a request driving for customer c7 from s3 to s1.
   [1481, tmax) -> It remains parked at station s1.

Schedule for EV v92:
   [   0,  610) -> It remains parked at station s10.
   [ 610,  790) -> Service a request driving for customer c38 from s10 to s5.
   [ 790, tmax) -> It remains parked at station s5.

Schedule for EV v93:
   [   0, tmax) -> It remains parked at station s11.

Schedule for EV v94:
   [   0, tmax) -> It remains parked at station s11.

Schedule for EV v95:
   [   0, tmax) -> It remains parked at station s11.

Schedule for EV v96:
   [   0, tmax) -> It remains parked at station s11.

Schedule for EV v97:
   [   0,  610) -> It remains parked at station s11.
   [ 610,  670) -> Service a request driving for customer c13 from s11 to s4.
   [ 670, tmax) -> It remains parked at station s4, which was charging for charging.

Schedule for EV v98:
   [   0,  914) -> It remains parked at station s11.
   [ 914, 1154) -> Service a request driving for customer c39 from s11 to s4.
   [1154, tmax) -> It remains parked at station s4.

Schedule for EV v99:
   [   0, tmax) -> It remains parked at station s11.

Schedule for EV v100:
   [   0, tmax) -> It remains parked at station s11.

Schedule for EV v101:
   [   0,  793) -> It remains parked at station s11.
   [ 793,  853) -> Service a request driving for customer c10 from s11 to s11.
   [ 853, 1155) -> It remains parked at station s11.
   [1155, 1305) -> Service a request driving for customer c2 from s11 to s4.
   [1305, tmax) -> It remains parked at station s4.

Schedule for EV v102:
   [   0, 1145) -> It remains parked at station s11.
   [1145, 1175) -> Service a request driving for customer c8 from s11 to s9.
   [1175, 1214) -> It remains parked at station s9.
   [1214, 1244) -> Service a request driving for customer c17 from s9 to s3.
   [1244, tmax) -> It remains parked at station s3, which was charging for charging.

Set of satisfied customers
   {c0, c1, c2, c3, c4, c5, c6, c7, c8, c9, c10, c11, c12, c13, c14, c15, c16, c17, c18, c19, c20, c21, c22, c23, c24, c25, c26, c27, c28, c29, c30, c31, c32, c33, c34, c35, c36, c37, c38, c39, c40, c41, c42, c43, c44, c45, c46, c47, c48}

