Academic license - for non-commercial use only
Gurobi Optimizer version 9.0.3 build v9.0.3rc0 (linux64)
Optimize a model with 41127 rows, 83199 columns and 327484 nonzeros
Model fingerprint: 0x4e087bd2
Variable types: 40785 continuous, 42414 integer (42414 binary)
Coefficient statistics:
  Matrix range     [1e+00, 7e+06]
  Objective range  [3e+01, 6e+02]
  Bounds range     [1e+00, 2e+06]
  RHS range        [1e+00, 2e+06]

Loaded user MIP start with objective 2760

Presolve removed 5463 rows and 7743 columns
Presolve time: 1.20s
Presolved: 35664 rows, 75456 columns, 320843 nonzeros
Variable types: 6102 continuous, 69354 integer (62269 binary)

Root simplex log...

Iteration    Objective       Primal Inf.    Dual Inf.      Time
   10096    1.9019990e+04   4.569802e+05   0.000000e+00      5s
   13704    1.8959986e+04   1.031657e+06   0.000000e+00     10s
   15534    1.8959984e+04   6.938927e+06   0.000000e+00     15s
   17014    1.8959982e+04   9.033000e+05   0.000000e+00     20s
   18484    1.8959980e+04   6.125279e+06   0.000000e+00     25s
   19824    1.8959978e+04   3.368389e+06   0.000000e+00     30s
   21114    1.8959976e+04   2.503786e+06   0.000000e+00     35s
   22344    1.8959974e+04   3.168658e+06   0.000000e+00     40s
   23676    1.8959972e+04   2.031710e+06   0.000000e+00     45s
   24736    1.8959971e+04   5.938678e+05   0.000000e+00     50s
   25896    1.8899969e+04   3.736278e+06   0.000000e+00     55s
   27776    1.8809935e+04   1.709231e+07   0.000000e+00     60s
   29770    1.8809907e+04   2.526987e+06   0.000000e+00     65s
   31352    1.8809901e+04   3.270143e+07   0.000000e+00     70s
   32838    1.8809896e+04   1.966003e+07   0.000000e+00     75s
   34054    1.8809893e+04   3.075481e+06   0.000000e+00     80s
   35194    1.8809889e+04   1.823884e+06   0.000000e+00     85s
   36326    1.8809885e+04   1.644726e+06   0.000000e+00     91s
   37276    1.8809882e+04   3.343763e+06   0.000000e+00     96s
   38168    1.8809878e+04   7.315795e+06   0.000000e+00    100s
   39078    1.8809874e+04   2.690842e+07   0.000000e+00    105s
   39978    1.8809867e+04   1.807831e+07   0.000000e+00    110s
   41076    1.8809845e+04   1.566062e+07   0.000000e+00    115s
   42138    1.7279897e+04   4.031242e+06   0.000000e+00    120s
   43120    1.7279895e+04   4.145326e+06   0.000000e+00    126s
   43942    1.7279893e+04   3.323784e+06   0.000000e+00    130s
   44812    1.7279891e+04   1.298785e+06   0.000000e+00    135s
   45796    1.7279890e+04   3.957700e+06   0.000000e+00    140s
   46816    1.7279888e+04   1.225547e+07   0.000000e+00    146s
   47536    1.7279886e+04   1.321090e+06   0.000000e+00    150s
   48628    1.7279884e+04   1.463449e+06   0.000000e+00    156s
   49388    1.7279883e+04   1.801908e+06   0.000000e+00    160s
   50358    1.7279881e+04   1.243963e+07   0.000000e+00    166s
   51110    1.7279880e+04   1.271315e+06   0.000000e+00    170s
   51990    1.7279879e+04   9.334062e+05   0.000000e+00    175s
   52830    1.7279878e+04   5.502236e+06   0.000000e+00    180s
   53702    1.7279876e+04   4.538878e+06   0.000000e+00    185s
   54522    1.7279875e+04   2.066575e+06   0.000000e+00    190s
   55514    1.7279874e+04   1.927468e+06   0.000000e+00    196s
   56314    1.7279873e+04   1.056800e+06   0.000000e+00    200s
   57154    1.7279872e+04   9.260365e+05   0.000000e+00    206s
   57954    1.7279871e+04   3.997806e+06   0.000000e+00    211s
   58784    1.7279870e+04   1.401497e+06   0.000000e+00    216s
   59584    1.7279870e+04   1.156459e+06   0.000000e+00    220s
   60394    1.7279869e+04   2.214287e+06   0.000000e+00    226s
   61224    1.7279868e+04   1.825395e+06   0.000000e+00    230s
   62094    1.7279867e+04   3.928798e+05   0.000000e+00    236s
   62884    1.7279867e+04   5.642343e+05   0.000000e+00    241s
   63604    1.7279866e+04   3.615185e+05   0.000000e+00    245s
   64464    1.7279866e+04   4.130594e+05   0.000000e+00    250s
   65334    1.7279865e+04   1.246562e+06   0.000000e+00    255s
   66174    1.7279865e+04   9.413911e+05   0.000000e+00    260s
   66974    1.7279864e+04   2.845874e+05   0.000000e+00    265s
   67784    1.7279864e+04   4.430508e+05   0.000000e+00    270s
   68514    1.7279864e+04   9.371316e+05   0.000000e+00    275s
   69344    1.7279863e+04   4.350173e+05   0.000000e+00    280s
   70264    1.7279863e+04   2.486692e+05   0.000000e+00    286s
   71124    1.7279863e+04   7.879349e+05   0.000000e+00    291s
   71924    1.7279862e+04   3.143096e+05   0.000000e+00    295s
   72724    1.7279862e+04   2.370412e+06   0.000000e+00    300s
   73524    1.7279861e+04   7.811887e+05   0.000000e+00    305s
   74324    1.7279861e+04   1.070737e+06   0.000000e+00    310s
   75134    1.7279860e+04   1.084670e+07   0.000000e+00    315s
   76168    1.7279858e+04   5.532506e+07   0.000000e+00    321s
   76848    1.7249862e+04   2.683798e+05   0.000000e+00    325s
   77708    1.7249861e+04   5.685976e+05   0.000000e+00    331s
   78378    1.7249861e+04   2.692884e+05   0.000000e+00    335s
   79238    1.7249861e+04   1.741783e+05   0.000000e+00    341s
   80038    1.7249861e+04   8.696666e+04   0.000000e+00    345s
   80868    1.7249861e+04   8.146355e+04   0.000000e+00    351s
   81668    1.7249861e+04   7.845824e+04   0.000000e+00    356s
   82458    1.7249860e+04   3.347544e+04   0.000000e+00    361s
   83298    1.7249860e+04   5.408505e+03   0.000000e+00    366s
   84158    1.7249860e+04   1.083341e+04   0.000000e+00    371s
   84878    1.7249860e+04   7.142927e+02   0.000000e+00    375s
   85414    1.7250000e+04   0.000000e+00   0.000000e+00    378s
   85414    1.7250000e+04   0.000000e+00   0.000000e+00    378s

Root relaxation: objective 1.725000e+04, 85414 iterations, 376.98 seconds
Total elapsed time = 528.16s
Total elapsed time = 825.68s

    Nodes    |    Current Node    |     Objective Bounds      |     Work
 Expl Unexpl |  Obj  Depth IntInf | Incumbent    BestBd   Gap | It/Node Time

     0     0 17250.0000    0 3663 2760.00000 17250.0000   525%     -  933s
     0     0 17250.0000    0 5204 2760.00000 17250.0000   525%     - 1038s
     0     0 17250.0000    0 5009 2760.00000 17250.0000   525%     - 1084s
     0     0 17250.0000    0 3077 2760.00000 17250.0000   525%     - 1743s
     0     0 17250.0000    0 3353 2760.00000 17250.0000   525%     - 1780s
     0     0 17250.0000    0 2874 2760.00000 17250.0000   525%     - 2833s
H    0     0                    16860.000000 17250.0000  2.31%     - 2834s
     0     0 17250.0000    0 3592 16860.0000 17250.0000  2.31%     - 2899s
     0     0 17250.0000    0 3174 16860.0000 17250.0000  2.31%     - 3600s

Cutting planes:
  Gomory: 2
  Implied bound: 1351
  MIR: 42
  StrongCG: 3
  RLT: 439
  Relax-and-lift: 483

Explored 1 nodes (1854584 simplex iterations) in 3600.01 seconds
Thread count was 1 (of 40 available processors)

Solution count 2: 16860 2760 

Time limit reached
Best objective 1.686000000000e+04, best bound 1.725000000000e+04, gap 2.3132%

----------

Best objective (UB): 17250.000
Best feasible solution (LB): 16860.000
Gap between the lower bound and upper bound: 2.313%

----------

Number of customers served: 73

Schedule for EV v0:
   [   0, tmax) -> It remains parked at station s0.

Schedule for EV v1:
   [   0,  494) -> It remains parked at station s0.
   [ 494,  644) -> Service a request driving for customer c85 from s0 to s1.
   [ 644,  665) -> It remains parked at station s1, which was charging for charging.
   [ 665,  695) -> Service a request driving for customer c64 from s1 to s1.
   [ 695,  794) -> It remains parked at station s1.
   [ 794, 1004) -> Service a request driving for customer c76 from s1 to s0.
   [1004, 1089) -> It remains parked at station s0.
   [1089, 1149) -> Service a request driving for customer c79 from s0 to s5.
   [1149, tmax) -> It remains parked at station s5, which was charging for charging.

Schedule for EV v2:
   [   0,  725) -> It remains parked at station s0.
   [ 725,  785) -> Service a request driving for customer c48 from s0 to s6.
   [ 785, 1267) -> It remains parked at station s6, which was charging for charging.
   [1267, 1327) -> Service a request driving for customer c88 from s6 to s8.
   [1327, tmax) -> It remains parked at station s8, which was charging for charging.

Schedule for EV v3:
   [   0,  429) -> It remains parked at station s0.
   [ 429,  579) -> Service a request driving for customer c83 from s0 to s1.
   [ 579,  672) -> It remains parked at station s1, which was charging for charging.
   [ 672,  702) -> Service a request driving for customer c85 from s1 to s4.
   [ 702, 1274) -> It remains parked at station s4, which was charging for charging.
   [1274, 1334) -> Service a request driving for customer c1 from s4 to s2.
   [1334, tmax) -> It remains parked at station s2.

Schedule for EV v4:
   [   0,  547) -> It remains parked at station s0.
   [ 547,  667) -> Service a request driving for customer c84 from s0 to s3.
   [ 667,  790) -> It remains parked at station s3.
   [ 790,  970) -> Service a request driving for customer c24 from s3 to s3.
   [ 970,  972) -> It remains parked at station s3, which was charging for charging.
   [ 972, 1032) -> Service a request driving for customer c26 from s3 to s4.
   [1032, tmax) -> It remains parked at station s4.

Schedule for EV v5:
   [   0,  853) -> It remains parked at station s0.
   [ 853,  913) -> Service a request driving for customer c60 from s0 to s3.
   [ 913,  968) -> It remains parked at station s3, which was charging for charging.
   [ 968, 1118) -> Service a request driving for customer c41 from s3 to s10.
   [1118, tmax) -> It remains parked at station s10.

Schedule for EV v6:
   [   0,  730) -> It remains parked at station s0.
   [ 730,  760) -> Service a request driving for customer c65 from s0 to s10.
   [ 760, tmax) -> It remains parked at station s10, which was charging for charging.

Schedule for EV v7:
   [   0,  667) -> It remains parked at station s0.
   [ 667,  817) -> Service a request driving for customer c70 from s0 to s11.
   [ 817, 1090) -> It remains parked at station s11, which was charging for charging.
   [1090, 1240) -> Service a request driving for customer c27 from s11 to s7.
   [1240, tmax) -> It remains parked at station s7.

Schedule for EV v8:
   [   0,  845) -> It remains parked at station s1.
   [ 845,  875) -> Service a request driving for customer c61 from s1 to s11.
   [ 875,  911) -> It remains parked at station s11, which was charging for charging.
   [ 911,  971) -> Service a request driving for customer c45 from s11 to s1.
   [ 971, 1088) -> It remains parked at station s1.
   [1088, 1178) -> Service a request driving for customer c67 from s1 to s0.
   [1178, 1216) -> It remains parked at station s0, which was charging for charging.
   [1216, 1306) -> Service a request driving for customer c56 from s0 to s5.
   [1306, tmax) -> It remains parked at station s5, which was charging for charging.

Schedule for EV v9:
   [   0,  966) -> It remains parked at station s1.
   [ 966, 1026) -> Service a request driving for customer c30 from s1 to s3.
   [1026, 1207) -> It remains parked at station s3.
   [1207, 1267) -> Service a request driving for customer c82 from s3 to s3.
   [1267, 1273) -> It remains parked at station s3.
   [1273, 1393) -> Service a request driving for customer c71 from s3 to s11.
   [1393, tmax) -> It remains parked at station s11.

Schedule for EV v10:
   [   0,  856) -> It remains parked at station s1.
   [ 856, 1036) -> Service a request driving for customer c18 from s1 to s3.
   [1036, tmax) -> It remains parked at station s3.

Schedule for EV v11:
   [   0, tmax) -> It remains parked at station s1.

Schedule for EV v12:
   [   0, tmax) -> It remains parked at station s1.

Schedule for EV v13:
   [   0,  609) -> It remains parked at station s1.
   [ 609,  819) -> Service a request driving for customer c25 from s1 to s9.
   [ 819,  846) -> It remains parked at station s9.
   [ 846,  906) -> Service a request driving for customer c39 from s9 to s7.
   [ 906,  911) -> It remains parked at station s7.
   [ 911, 1241) -> Service a request driving for customer c2 from s7 to s1.
   [1241, 1327) -> It remains parked at station s1, which was charging for charging.
   [1327, 1357) -> Service a request driving for customer c21 from s1 to s3.
   [1357, tmax) -> It remains parked at station s3, which was charging for charging.

Schedule for EV v14:
   [   0,  914) -> It remains parked at station s1, which was charging for charging.
   [ 914,  974) -> Service a request driving for customer c66 from s1 to s3.
   [ 974, tmax) -> It remains parked at station s3, which was charging for charging.

Schedule for EV v15:
   [   0,  793) -> It remains parked at station s2.
   [ 793,  943) -> Service a request driving for customer c37 from s2 to s0.
   [ 943, 1033) -> It remains parked at station s0.
   [1033, 1093) -> Service a request driving for customer c53 from s0 to s3.
   [1093, 1155) -> It remains parked at station s3.
   [1155, 1455) -> Service a request driving for customer c51 from s3 to s0.
   [1455, tmax) -> It remains parked at station s0, which was charging for charging.

Schedule for EV v16:
   [   0,  789) -> It remains parked at station s2.
   [ 789,  819) -> Service a request driving for customer c5 from s2 to s10.
   [ 819, 1272) -> It remains parked at station s10.
   [1272, 1422) -> Service a request driving for customer c45 from s10 to s4.
   [1422, tmax) -> It remains parked at station s4.

Schedule for EV v17:
   [   0,  733) -> It remains parked at station s2.
   [ 733,  793) -> Service a request driving for customer c31 from s2 to s10.
   [ 793, tmax) -> It remains parked at station s10, which was charging for charging.

Schedule for EV v18:
   [   0,  667) -> It remains parked at station s2.
   [ 667,  697) -> Service a request driving for customer c35 from s2 to s4.
   [ 697, 1153) -> It remains parked at station s4.
   [1153, 1513) -> Service a request driving for customer c76 from s4 to s1.
   [1513, tmax) -> It remains parked at station s1, which was charging for charging.

Schedule for EV v19:
   [   0,  855) -> It remains parked at station s2.
   [ 855,  915) -> Service a request driving for customer c25 from s2 to s3.
   [ 915, tmax) -> It remains parked at station s3, which was charging for charging.

Schedule for EV v20:
   [   0,  672) -> It remains parked at station s2.
   [ 672,  732) -> Service a request driving for customer c51 from s2 to s2.
   [ 732, tmax) -> It remains parked at station s2.

Schedule for EV v21:
   [   0,  794) -> It remains parked at station s2.
   [ 794,  824) -> Service a request driving for customer c52 from s2 to s6.
   [ 824,  916) -> It remains parked at station s6.
   [ 916,  976) -> Service a request driving for customer c32 from s6 to s7.
   [ 976, 1272) -> It remains parked at station s7.
   [1272, 1362) -> Service a request driving for customer c10 from s7 to s10.
   [1362, tmax) -> It remains parked at station s10.

Schedule for EV v22:
   [   0,  427) -> It remains parked at station s3.
   [ 427,  547) -> Service a request driving for customer c58 from s3 to s0.
   [ 547,  796) -> It remains parked at station s0, which was charging for charging.
   [ 796,  916) -> Service a request driving for customer c75 from s0 to s4.
   [ 916, tmax) -> It remains parked at station s4.

Schedule for EV v23:
   [   0,  613) -> It remains parked at station s3.
   [ 613,  673) -> Service a request driving for customer c19 from s3 to s11.
   [ 673, 1088) -> It remains parked at station s11, which was charging for charging.
   [1088, 1118) -> Service a request driving for customer c15 from s11 to s7.
   [1118, 1209) -> It remains parked at station s7.
   [1209, 1239) -> Service a request driving for customer c88 from s7 to s4.
   [1239, tmax) -> It remains parked at station s4.

Schedule for EV v24:
   [   0,  545) -> It remains parked at station s3.
   [ 545,  785) -> Service a request driving for customer c73 from s3 to s0.
   [ 785, 1027) -> It remains parked at station s0, which was charging for charging.
   [1027, 1087) -> Service a request driving for customer c45 from s0 to s3.
   [1087, tmax) -> It remains parked at station s3.

Schedule for EV v25:
   [   0,  734) -> It remains parked at station s3.
   [ 734,  914) -> Service a request driving for customer c16 from s3 to s2.
   [ 914, 1156) -> It remains parked at station s2.
   [1156, 1366) -> Service a request driving for customer c34 from s2 to s3.
   [1366, tmax) -> It remains parked at station s3.

Schedule for EV v26:
   [   0,  731) -> It remains parked at station s3.
   [ 731, 1001) -> Service a request driving for customer c55 from s3 to s3.
   [1001, 1028) -> It remains parked at station s3.
   [1028, 1088) -> Service a request driving for customer c79 from s3 to s5.
   [1088, tmax) -> It remains parked at station s5, which was charging for charging.

Schedule for EV v27:
   [   0,  434) -> It remains parked at station s3.
   [ 434,  464) -> Service a request driving for customer c45 from s3 to s6.
   [ 464, tmax) -> It remains parked at station s6, which was charging for charging.

Schedule for EV v28:
   [   0,  613) -> It remains parked at station s4.
   [ 613,  763) -> Service a request driving for customer c24 from s4 to s4.
   [ 763, tmax) -> It remains parked at station s4, which was charging for charging.

Schedule for EV v29:
   [   0,  495) -> It remains parked at station s4.
   [ 495,  585) -> Service a request driving for customer c64 from s4 to s1.
   [ 585, tmax) -> It remains parked at station s1, which was charging for charging.

Schedule for EV v30:
   [   0,  675) -> It remains parked at station s4.
   [ 675,  735) -> Service a request driving for customer c19 from s4 to s4.
   [ 735,  906) -> It remains parked at station s4.
   [ 906,  966) -> Service a request driving for customer c77 from s4 to s6.
   [ 966, tmax) -> It remains parked at station s6.

Schedule for EV v31:
   [   0, 1393) -> It remains parked at station s4.
   [1393, 1453) -> Service a request driving for customer c21 from s4 to s6.
   [1453, tmax) -> It remains parked at station s6.

Schedule for EV v32:
   [   0, tmax) -> It remains parked at station s5.

Schedule for EV v33:
   [   0,  970) -> It remains parked at station s5.
   [ 970, 1150) -> Service a request driving for customer c63 from s5 to s5.
   [1150, tmax) -> It remains parked at station s5.

Schedule for EV v34:
   [   0, tmax) -> It remains parked at station s5.

Schedule for EV v35:
   [   0,  671) -> It remains parked at station s5.
   [ 671,  821) -> Service a request driving for customer c1 from s5 to s4.
   [ 821,  975) -> It remains parked at station s4, which was charging for charging.
   [ 975, 1095) -> Service a request driving for customer c83 from s4 to s4.
   [1095, tmax) -> It remains parked at station s4.

Schedule for EV v36:
   [   0, tmax) -> It remains parked at station s5.

Schedule for EV v37:
   [   0, tmax) -> It remains parked at station s5.

Schedule for EV v38:
   [   0, tmax) -> It remains parked at station s5.

Schedule for EV v39:
   [   0, tmax) -> It remains parked at station s5.

Schedule for EV v40:
   [   0, tmax) -> It remains parked at station s5.

Schedule for EV v41:
   [   0, tmax) -> It remains parked at station s5.

Schedule for EV v42:
   [   0,  675) -> It remains parked at station s5.
   [ 675,  885) -> Service a request driving for customer c44 from s5 to s0.
   [ 885,  911) -> It remains parked at station s0, which was charging for charging.
   [ 911, 1001) -> Service a request driving for customer c89 from s0 to s3.
   [1001, tmax) -> It remains parked at station s3, which was charging for charging.

Schedule for EV v43:
   [   0,  965) -> It remains parked at station s5.
   [ 965, 1145) -> Service a request driving for customer c64 from s5 to s0.
   [1145, tmax) -> It remains parked at station s0.

Schedule for EV v44:
   [   0, tmax) -> It remains parked at station s5, which was charging for charging.

Schedule for EV v45:
   [   0, 1035) -> It remains parked at station s5, which was charging for charging.
   [1035, 1095) -> Service a request driving for customer c61 from s5 to s1.
   [1095, 1214) -> It remains parked at station s1.
   [1214, 1334) -> Service a request driving for customer c23 from s1 to s1.
   [1334, tmax) -> It remains parked at station s1, which was charging for charging.

Schedule for EV v46:
   [   0, 1085) -> It remains parked at station s6.
   [1085, 1115) -> Service a request driving for customer c26 from s6 to s0.
   [1115, 1327) -> It remains parked at station s0, which was charging for charging.
   [1327, 1417) -> Service a request driving for customer c25 from s0 to s1.
   [1417, tmax) -> It remains parked at station s1.

Schedule for EV v47:
   [   0, tmax) -> It remains parked at station s6.

Schedule for EV v48:
   [   0, tmax) -> It remains parked at station s6.

Schedule for EV v49:
   [   0,  972) -> It remains parked at station s6.
   [ 972, 1242) -> Service a request driving for customer c25 from s6 to s11.
   [1242, 1325) -> It remains parked at station s11, which was charging for charging.
   [1325, 1475) -> Service a request driving for customer c18 from s11 to s0.
   [1475, tmax) -> It remains parked at station s0, which was charging for charging.

Schedule for EV v50:
   [   0, 1146) -> It remains parked at station s6.
   [1146, 1416) -> Service a request driving for customer c68 from s6 to s11.
   [1416, tmax) -> It remains parked at station s11.

Schedule for EV v51:
   [   0, tmax) -> It remains parked at station s6.

Schedule for EV v52:
   [   0,  668) -> It remains parked at station s6.
   [ 668,  878) -> Service a request driving for customer c34 from s6 to s11.
   [ 878, 1025) -> It remains parked at station s11, which was charging for charging.
   [1025, 1085) -> Service a request driving for customer c50 from s11 to s11.
   [1085, 1146) -> It remains parked at station s11.
   [1146, 1386) -> Service a request driving for customer c17 from s11 to s3.
   [1386, tmax) -> It remains parked at station s3.

Schedule for EV v53:
   [   0, tmax) -> It remains parked at station s6.

Schedule for EV v54:
   [   0,  608) -> It remains parked at station s6.
   [ 608,  848) -> Service a request driving for customer c47 from s6 to s11.
   [ 848,  974) -> It remains parked at station s11.
   [ 974, 1124) -> Service a request driving for customer c42 from s11 to s9.
   [1124, 1268) -> It remains parked at station s9, which was charging for charging.
   [1268, 1298) -> Service a request driving for customer c63 from s9 to s8.
   [1298, 1392) -> It remains parked at station s8.
   [1392, 1482) -> Service a request driving for customer c47 from s8 to s11.
   [1482, tmax) -> It remains parked at station s11.

Schedule for EV v55:
   [   0, 1087) -> It remains parked at station s6.
   [1087, 1147) -> Service a request driving for customer c56 from s6 to s10.
   [1147, tmax) -> It remains parked at station s10, which was charging for charging.

Schedule for EV v56:
   [   0,  608) -> It remains parked at station s7.
   [ 608,  668) -> Service a request driving for customer c9 from s7 to s3.
   [ 668,  726) -> It remains parked at station s3.
   [ 726,  786) -> Service a request driving for customer c22 from s3 to s0.
   [ 786,  974) -> It remains parked at station s0, which was charging for charging.
   [ 974, 1094) -> Service a request driving for customer c43 from s0 to s9.
   [1094, 1394) -> It remains parked at station s9.
   [1394, 1574) -> Service a request driving for customer c33 from s9 to s0.
   [1574, tmax) -> It remains parked at station s0.

Schedule for EV v57:
   [   0, tmax) -> It remains parked at station s7.

Schedule for EV v58:
   [   0, 1330) -> It remains parked at station s7.
   [1330, 1360) -> Service a request driving for customer c15 from s7 to s2.
   [1360, 1389) -> It remains parked at station s2.
   [1389, 1689) -> Service a request driving for customer c59 from s2 to s11.
   [1689, tmax) -> It remains parked at station s11.

Schedule for EV v59:
   [   0, tmax) -> It remains parked at station s7.

Schedule for EV v60:
   [   0, tmax) -> It remains parked at station s7.

Schedule for EV v61:
   [   0,  856) -> It remains parked at station s7.
   [ 856,  916) -> Service a request driving for customer c65 from s7 to s0.
   [ 916, 1394) -> It remains parked at station s0, which was charging for charging.
   [1394, 1454) -> Service a request driving for customer c39 from s0 to s3.
   [1454, tmax) -> It remains parked at station s3.

Schedule for EV v62:
   [   0,  549) -> It remains parked at station s7.
   [ 549,  819) -> Service a request driving for customer c8 from s7 to s0.
   [ 819,  909) -> It remains parked at station s0.
   [ 909, 1239) -> Service a request driving for customer c52 from s0 to s0.
   [1239, 1326) -> It remains parked at station s0.
   [1326, 1476) -> Service a request driving for customer c6 from s0 to s0.
   [1476, tmax) -> It remains parked at station s0.

Schedule for EV v63:
   [   0, 1091) -> It remains parked at station s7.
   [1091, 1211) -> Service a request driving for customer c72 from s7 to s11.
   [1211, 1216) -> It remains parked at station s11.
   [1216, 1306) -> Service a request driving for customer c66 from s11 to s1.
   [1306, 1333) -> It remains parked at station s1, which was charging for charging.
   [1333, 1513) -> Service a request driving for customer c44 from s1 to s1.
   [1513, tmax) -> It remains parked at station s1, which was charging for charging.

Schedule for EV v64:
   [   0,  676) -> It remains parked at station s7.
   [ 676,  796) -> Service a request driving for customer c80 from s7 to s5.
   [ 796, tmax) -> It remains parked at station s5.

Schedule for EV v65:
   [   0,  612) -> It remains parked at station s7.
   [ 612,  672) -> Service a request driving for customer c75 from s7 to s11.
   [ 672,  673) -> It remains parked at station s11, which was charging for charging.
   [ 673,  763) -> Service a request driving for customer c2 from s11 to s2.
   [ 763,  976) -> It remains parked at station s2.
   [ 976, 1036) -> Service a request driving for customer c19 from s2 to s0.
   [1036, 1089) -> It remains parked at station s0.
   [1089, 1179) -> Service a request driving for customer c4 from s0 to s5.
   [1179, 1214) -> It remains parked at station s5, which was charging for charging.
   [1214, 1394) -> Service a request driving for customer c40 from s5 to s3.
   [1394, tmax) -> It remains parked at station s3.

Schedule for EV v66:
   [   0,  485) -> It remains parked at station s8.
   [ 485,  545) -> Service a request driving for customer c54 from s8 to s6.
   [ 545,  612) -> It remains parked at station s6.
   [ 612,  852) -> Service a request driving for customer c58 from s6 to s2.
   [ 852,  856) -> It remains parked at station s2.
   [ 856,  916) -> Service a request driving for customer c84 from s2 to s3.
   [ 916, 1329) -> It remains parked at station s3, which was charging for charging.
   [1329, 1389) -> Service a request driving for customer c5 from s3 to s11.
   [1389, tmax) -> It remains parked at station s11, which was charging for charging.

Schedule for EV v67:
   [   0,  966) -> It remains parked at station s8.
   [ 966, 1056) -> Service a request driving for customer c68 from s8 to s11.
   [1056, tmax) -> It remains parked at station s11.

Schedule for EV v68:
   [   0,  667) -> It remains parked at station s8.
   [ 667,  727) -> Service a request driving for customer c71 from s8 to s10.
   [ 727,  785) -> It remains parked at station s10, which was charging for charging.
   [ 785,  845) -> Service a request driving for customer c56 from s10 to s2.
   [ 845,  972) -> It remains parked at station s2, which was charging for charging.
   [ 972, 1242) -> Service a request driving for customer c31 from s2 to s4.
   [1242, 1276) -> It remains parked at station s4.
   [1276, 1426) -> Service a request driving for customer c42 from s4 to s3.
   [1426, tmax) -> It remains parked at station s3.

Schedule for EV v69:
   [   0,  910) -> It remains parked at station s8.
   [ 910,  970) -> Service a request driving for customer c73 from s8 to s0.
   [ 970, 1206) -> It remains parked at station s0, which was charging for charging.
   [1206, 1326) -> Service a request driving for customer c3 from s0 to s0.
   [1326, tmax) -> It remains parked at station s0.

Schedule for EV v70:
   [   0,  915) -> It remains parked at station s8.
   [ 915,  975) -> Service a request driving for customer c29 from s8 to s1.
   [ 975, 1272) -> It remains parked at station s1.
   [1272, 1362) -> Service a request driving for customer c35 from s1 to s1.
   [1362, tmax) -> It remains parked at station s1.

Schedule for EV v71:
   [   0, tmax) -> It remains parked at station s9.

Schedule for EV v72:
   [   0, tmax) -> It remains parked at station s9.

Schedule for EV v73:
   [   0, tmax) -> It remains parked at station s9.

Schedule for EV v74:
   [   0,  611) -> It remains parked at station s9.
   [ 611,  671) -> Service a request driving for customer c77 from s9 to s0.
   [ 671,  855) -> It remains parked at station s0, which was charging for charging.
   [ 855,  885) -> Service a request driving for customer c42 from s0 to s0.
   [ 885, tmax) -> It remains parked at station s0.

Schedule for EV v75:
   [   0, tmax) -> It remains parked at station s9.

Schedule for EV v76:
   [   0, tmax) -> It remains parked at station s9.

Schedule for EV v77:
   [   0, tmax) -> It remains parked at station s9.

Schedule for EV v78:
   [   0, tmax) -> It remains parked at station s9.

Schedule for EV v79:
   [   0, tmax) -> It remains parked at station s9.

Schedule for EV v80:
   [   0, tmax) -> It remains parked at station s9.

Schedule for EV v81:
   [   0, tmax) -> It remains parked at station s9.

Schedule for EV v82:
   [   0, tmax) -> It remains parked at station s10.

Schedule for EV v83:
   [   0, tmax) -> It remains parked at station s10.

Schedule for EV v84:
   [   0,  913) -> It remains parked at station s10.
   [ 913, 1243) -> Service a request driving for customer c70 from s10 to s1.
   [1243, tmax) -> It remains parked at station s1.

Schedule for EV v85:
   [   0,  486) -> It remains parked at station s10.
   [ 486,  516) -> Service a request driving for customer c17 from s10 to s10.
   [ 516, tmax) -> It remains parked at station s10, which was charging for charging.

Schedule for EV v86:
   [   0, tmax) -> It remains parked at station s10.

Schedule for EV v87:
   [   0, tmax) -> It remains parked at station s10.

Schedule for EV v88:
   [   0, tmax) -> It remains parked at station s10.

Schedule for EV v89:
   [   0, tmax) -> It remains parked at station s10.

Schedule for EV v90:
   [   0,  427) -> It remains parked at station s10.
   [ 427,  487) -> Service a request driving for customer c27 from s10 to s4.
   [ 487, 1091) -> It remains parked at station s4, which was charging for charging.
   [1091, 1181) -> Service a request driving for customer c19 from s4 to s2.
   [1181, tmax) -> It remains parked at station s2.

Schedule for EV v91:
   [   0, tmax) -> It remains parked at station s10, which was charging for charging.

Schedule for EV v92:
   [   0,  667) -> It remains parked at station s11.
   [ 667,  907) -> Service a request driving for customer c32 from s11 to s10.
   [ 907, tmax) -> It remains parked at station s10.

Schedule for EV v93:
   [   0,  966) -> It remains parked at station s11.
   [ 966,  996) -> Service a request driving for customer c82 from s11 to s9.
   [ 996, 1095) -> It remains parked at station s9.
   [1095, 1215) -> Service a request driving for customer c55 from s9 to s1.
   [1215, 1273) -> It remains parked at station s1.
   [1273, 1453) -> Service a request driving for customer c67 from s1 to s7.
   [1453, tmax) -> It remains parked at station s7, which was charging for charging.

Schedule for EV v94:
   [   0,  789) -> It remains parked at station s11.
   [ 789,  819) -> Service a request driving for customer c59 from s11 to s5.
   [ 819, 1273) -> It remains parked at station s5.
   [1273, 1333) -> Service a request driving for customer c84 from s5 to s7.
   [1333, tmax) -> It remains parked at station s7.

Schedule for EV v95:
   [   0,  854) -> It remains parked at station s11.
   [ 854,  944) -> Service a request driving for customer c1 from s11 to s9.
   [ 944, 1212) -> It remains parked at station s9, which was charging for charging.
   [1212, 1452) -> Service a request driving for customer c29 from s9 to s6.
   [1452, tmax) -> It remains parked at station s6.

Schedule for EV v96:
   [   0,  676) -> It remains parked at station s11.
   [ 676,  706) -> Service a request driving for customer c76 from s11 to s7.
   [ 706,  850) -> It remains parked at station s7.
   [ 850, 1060) -> Service a request driving for customer c38 from s7 to s11.
   [1060, 1086) -> It remains parked at station s11.
   [1086, 1236) -> Service a request driving for customer c35 from s11 to s9.
   [1236, tmax) -> It remains parked at station s9.

Schedule for EV v97:
   [   0,  605) -> It remains parked at station s11.
   [ 605,  785) -> Service a request driving for customer c33 from s11 to s1.
   [ 785,  794) -> It remains parked at station s1, which was charging for charging.
   [ 794,  824) -> Service a request driving for customer c31 from s1 to s10.
   [ 824,  973) -> It remains parked at station s10, which was charging for charging.
   [ 973, 1063) -> Service a request driving for customer c8 from s10 to s4.
   [1063, 1326) -> It remains parked at station s4, which was charging for charging.
   [1326, 1416) -> Service a request driving for customer c12 from s4 to s11.
   [1416, tmax) -> It remains parked at station s11, which was charging for charging.

Schedule for EV v98:
   [   0,  608) -> It remains parked at station s11.
   [ 608,  758) -> Service a request driving for customer c28 from s11 to s3.
   [ 758,  907) -> It remains parked at station s3, which was charging for charging.
   [ 907, 1177) -> Service a request driving for customer c40 from s3 to s8.
   [1177, 1273) -> It remains parked at station s8, which was charging for charging.
   [1273, 1303) -> Service a request driving for customer c44 from s8 to s11.
   [1303, tmax) -> It remains parked at station s11, which was charging for charging.

Schedule for EV v99:
   [   0,  787) -> It remains parked at station s11.
   [ 787,  967) -> Service a request driving for customer c50 from s11 to s8.
   [ 967, 1149) -> It remains parked at station s8.
   [1149, 1209) -> Service a request driving for customer c39 from s8 to s8.
   [1209, tmax) -> It remains parked at station s8.

Schedule for EV v100:
   [   0,  427) -> It remains parked at station s11.
   [ 427,  697) -> Service a request driving for customer c60 from s11 to s1.
   [ 697,  911) -> It remains parked at station s1, which was charging for charging.
   [ 911, 1031) -> Service a request driving for customer c80 from s1 to s9.
   [1031, 1274) -> It remains parked at station s9, which was charging for charging.
   [1274, 1334) -> Service a request driving for customer c89 from s9 to s5.
   [1334, tmax) -> It remains parked at station s5.

Set of satisfied customers
   {c1, c2, c3, c4, c5, c6, c8, c9, c10, c12, c15, c16, c17, c18, c19, c21, c22, c23, c24, c25, c26, c27, c28, c29, c30, c31, c32, c33, c34, c35, c37, c38, c39, c40, c41, c42, c43, c44, c45, c47, c48, c50, c51, c52, c53, c54, c55, c56, c58, c59, c60, c61, c63, c64, c65, c66, c67, c68, c70, c71, c72, c73, c75, c76, c77, c79, c80, c82, c83, c84, c85, c88, c89}

