Academic license - for non-commercial use only
Gurobi Optimizer version 9.0.3 build v9.0.3rc0 (linux64)
Optimize a model with 61214 rows, 126201 columns and 501264 nonzeros
Model fingerprint: 0x47786101
Variable types: 60815 continuous, 65386 integer (65386 binary)
Coefficient statistics:
  Matrix range     [1e+00, 4e+06]
  Objective range  [3e+01, 6e+02]
  Bounds range     [1e+00, 2e+06]
  RHS range        [1e+00, 2e+06]

Loaded user MIP start with objective 5550

Presolve removed 8242 rows and 11142 columns
Presolve time: 1.90s
Presolved: 52972 rows, 115059 columns, 493757 nonzeros
Variable types: 4162 continuous, 110897 integer (96015 binary)

Root simplex log...

Iteration    Objective       Primal Inf.    Dual Inf.      Time
   10968    2.0609993e+04   3.732300e+05   0.000000e+00      5s
   14833    2.0609991e+04   1.839520e+05   0.000000e+00     10s
   17299    2.0609990e+04   1.250373e+05   0.000000e+00     15s
   19605    2.0609989e+04   2.803757e+05   0.000000e+00     20s
   21303    2.0609988e+04   4.583864e+05   0.000000e+00     25s
   22303    2.0609988e+04   1.361796e+06   0.000000e+00     31s
   23183    2.0609987e+04   3.772203e+06   0.000000e+00     36s
   23923    2.0609987e+04   1.077856e+06   0.000000e+00     40s
   24763    2.0609986e+04   5.405908e+06   0.000000e+00     45s
   25573    2.0609985e+04   2.893649e+06   0.000000e+00     50s
   26393    2.0609985e+04   1.821225e+06   0.000000e+00     56s
   27123    2.0609984e+04   1.195625e+06   0.000000e+00     61s
   27863    2.0609983e+04   2.040854e+06   0.000000e+00     65s
   28593    2.0609983e+04   1.374865e+06   0.000000e+00     70s
   29313    2.0609982e+04   2.686261e+06   0.000000e+00     75s
   30053    2.0609982e+04   2.535116e+06   0.000000e+00     81s
   30713    2.0609981e+04   2.424822e+06   0.000000e+00     86s
   31263    2.0609980e+04   2.022446e+06   0.000000e+00     90s
   31953    2.0609980e+04   2.358475e+07   0.000000e+00     96s
   32523    2.0609979e+04   9.534987e+05   0.000000e+00    100s
   33273    2.0609979e+04   2.108028e+06   0.000000e+00    106s
   33873    2.0609978e+04   3.004547e+06   0.000000e+00    111s
   34503    2.0609978e+04   3.697442e+06   0.000000e+00    116s
   35133    2.0609977e+04   1.354702e+06   0.000000e+00    121s
   35623    2.0609977e+04   3.718834e+06   0.000000e+00    125s
   36263    2.0609976e+04   7.886141e+06   0.000000e+00    131s
   36903    2.0609976e+04   5.064458e+05   0.000000e+00    136s
   37383    2.0609976e+04   1.397942e+06   0.000000e+00    140s
   38023    2.0609975e+04   9.007734e+05   0.000000e+00    145s
   38593    2.0609975e+04   2.206323e+06   0.000000e+00    150s
   39243    2.0609974e+04   4.416579e+06   0.000000e+00    156s
   39723    2.0609974e+04   1.466960e+06   0.000000e+00    160s
   40383    2.0609974e+04   4.583657e+06   0.000000e+00    166s
   41023    2.0609973e+04   3.923141e+06   0.000000e+00    172s
   41563    2.0609973e+04   3.623909e+06   0.000000e+00    176s
   42033    2.0609973e+04   2.642110e+06   0.000000e+00    181s
   42523    2.0609972e+04   2.559989e+06   0.000000e+00    185s
   43223    2.0609972e+04   1.621015e+06   0.000000e+00    192s
   43593    2.0609972e+04   2.320291e+06   0.000000e+00    195s
   44173    2.0609971e+04   4.128776e+06   0.000000e+00    201s
   44673    2.0609971e+04   1.259411e+06   0.000000e+00    205s
   45183    2.0609971e+04   4.438349e+06   0.000000e+00    210s
   45823    2.0609970e+04   6.040046e+05   0.000000e+00    216s
   46353    2.0609970e+04   3.679028e+06   0.000000e+00    221s
   46853    2.0609970e+04   4.289289e+06   0.000000e+00    226s
   47383    2.0609970e+04   1.910658e+06   0.000000e+00    231s
   47923    2.0609969e+04   1.007117e+06   0.000000e+00    236s
   48363    2.0609969e+04   1.201351e+06   0.000000e+00    240s
   49013    2.0609969e+04   8.452457e+05   0.000000e+00    246s
   49563    2.0609968e+04   1.416275e+06   0.000000e+00    251s
   50113    2.0609968e+04   6.109717e+06   0.000000e+00    256s
   50553    2.0609968e+04   1.635189e+06   0.000000e+00    260s
   51103    2.0609967e+04   4.661177e+06   0.000000e+00    265s
   51683    2.0609967e+04   2.600851e+06   0.000000e+00    271s
   52173    2.0609966e+04   2.319491e+07   0.000000e+00    276s
   52633    2.0609966e+04   2.235693e+07   0.000000e+00    280s
   53193    2.0609965e+04   3.828710e+06   0.000000e+00    286s
   53753    2.0609965e+04   9.200860e+06   0.000000e+00    291s
   54193    2.0609964e+04   8.678478e+06   0.000000e+00    295s
   54753    2.0609964e+04   4.071900e+06   0.000000e+00    301s
   55173    2.0609963e+04   2.410974e+06   0.000000e+00    305s
   55793    2.0609962e+04   6.000487e+06   0.000000e+00    311s
   56223    2.0609962e+04   3.276751e+06   0.000000e+00    315s
   56783    2.0609961e+04   1.880670e+07   0.000000e+00    321s
   57263    2.0609960e+04   3.178203e+07   0.000000e+00    325s
   57753    2.0609960e+04   2.694177e+07   0.000000e+00    330s
   58253    2.0609959e+04   5.439810e+07   0.000000e+00    335s
   58733    2.0609959e+04   2.884102e+06   0.000000e+00    340s
   59203    2.0609958e+04   4.933705e+06   0.000000e+00    345s
   59763    2.0609958e+04   1.098040e+07   0.000000e+00    351s
   60203    2.0609957e+04   3.720170e+06   0.000000e+00    355s
   60753    2.0609956e+04   6.262949e+06   0.000000e+00    361s
   61203    2.0609956e+04   8.281072e+06   0.000000e+00    365s
   61723    2.0479963e+04   3.366626e+06   0.000000e+00    371s
   62263    2.0444960e+04   1.387049e+07   0.000000e+00    376s
   62713    2.0444960e+04   5.901164e+06   0.000000e+00    380s
   63263    2.0444959e+04   2.563554e+06   0.000000e+00    386s
   63783    2.0444959e+04   4.099817e+06   0.000000e+00    391s
   64303    2.0444958e+04   4.540634e+07   0.000000e+00    396s
   64843    2.0444958e+04   1.098117e+07   0.000000e+00    401s
   65353    2.0444957e+04   1.250751e+07   0.000000e+00    406s
   65863    2.0444957e+04   3.570434e+06   0.000000e+00    411s
   66403    2.0444957e+04   5.181177e+06   0.000000e+00    416s
   66923    2.0444956e+04   5.717366e+07   0.000000e+00    421s
   67353    2.0444955e+04   2.150899e+07   0.000000e+00    425s
   67883    2.0444955e+04   1.033969e+08   0.000000e+00    431s
   68323    2.0444954e+04   2.587937e+06   0.000000e+00    435s
   68843    2.0444954e+04   1.011835e+07   0.000000e+00    440s
   69343    2.0444953e+04   1.039407e+07   0.000000e+00    446s
   69783    2.0444953e+04   1.624366e+08   0.000000e+00    450s
   70373    2.0444952e+04   4.705268e+07   0.000000e+00    456s
   70833    2.0444951e+04   1.104912e+07   0.000000e+00    460s
   71575    2.0279964e+04   3.127512e+07   0.000000e+00    466s
   72049    2.0279964e+04   5.068643e+06   0.000000e+00    470s
   72629    2.0279964e+04   1.784324e+06   0.000000e+00    476s
   73109    2.0279964e+04   1.148465e+06   0.000000e+00    481s
   73589    2.0279963e+04   8.073592e+05   0.000000e+00    486s
   74069    2.0279963e+04   1.144127e+06   0.000000e+00    490s
   74619    2.0279963e+04   1.229530e+07   0.000000e+00    496s
   75079    2.0279963e+04   1.049139e+06   0.000000e+00    500s
   75653    2.0279963e+04   4.202299e+06   0.000000e+00    506s
   76237    2.0279963e+04   5.884523e+05   0.000000e+00    511s
   76727    2.0279962e+04   4.567697e+05   0.000000e+00    516s
   77227    2.0279962e+04   5.165489e+05   0.000000e+00    521s
   77707    2.0279962e+04   1.034188e+06   0.000000e+00    526s
   78191    2.0279962e+04   1.013085e+06   0.000000e+00    531s
   78661    2.0279962e+04   4.773375e+05   0.000000e+00    535s
   79211    2.0279962e+04   1.407725e+06   0.000000e+00    541s
   79681    2.0279962e+04   2.438560e+05   0.000000e+00    545s
   80271    2.0279962e+04   7.665073e+05   0.000000e+00    551s
   80731    2.0279962e+04   1.292839e+06   0.000000e+00    555s
   81221    2.0279961e+04   2.828225e+05   0.000000e+00    560s
   81831    2.0279961e+04   7.572194e+05   0.000000e+00    566s
   82311    2.0279961e+04   9.784769e+05   0.000000e+00    570s
   82791    2.0279961e+04   8.637419e+05   0.000000e+00    575s
   83271    2.0279961e+04   2.614222e+05   0.000000e+00    580s
   83771    2.0279961e+04   5.180582e+05   0.000000e+00    585s
   84271    2.0279961e+04   3.777444e+05   0.000000e+00    591s
   84761    2.0279961e+04   4.810196e+05   0.000000e+00    595s
   85241    2.0279961e+04   3.818936e+05   0.000000e+00    600s
   85731    2.0279961e+04   2.702260e+05   0.000000e+00    605s
   86221    2.0279961e+04   3.394413e+05   0.000000e+00    610s
   86725    2.0279961e+04   6.022219e+05   0.000000e+00    615s
   87239    2.0279961e+04   9.665819e+05   0.000000e+00    620s
   87849    2.0279960e+04   8.515662e+05   0.000000e+00    626s
   88349    2.0279960e+04   8.826598e+05   0.000000e+00    631s
   88859    2.0279960e+04   4.803311e+05   0.000000e+00    636s
   89369    2.0279960e+04   4.753591e+05   0.000000e+00    641s
   89819    2.0279960e+04   7.494516e+04   0.000000e+00    645s
   90329    2.0279960e+04   2.862350e+05   0.000000e+00    651s
   90849    2.0279960e+04   1.332526e+05   0.000000e+00    656s
   91339    2.0279960e+04   2.668281e+05   0.000000e+00    661s
   91809    2.0279960e+04   6.632356e+05   0.000000e+00    665s
   92369    2.0279960e+04   1.114607e+05   0.000000e+00    671s
   92809    2.0279960e+04   9.262187e+04   0.000000e+00    675s
   93333    2.0279960e+04   4.046223e+05   0.000000e+00    680s
   93823    2.0279960e+04   9.747932e+04   0.000000e+00    685s
   94313    2.0279960e+04   1.025361e+05   0.000000e+00    690s
   94803    2.0279960e+04   3.468839e+05   0.000000e+00    695s
   95293    2.0279960e+04   1.433395e+05   0.000000e+00    700s
   95793    2.0279960e+04   1.013193e+06   0.000000e+00    705s
   96393    2.0279960e+04   9.053941e+04   0.000000e+00    711s
   96883    2.0279960e+04   1.548572e+05   0.000000e+00    716s
   97333    2.0279960e+04   7.038965e+04   0.000000e+00    721s
   97803    2.0279960e+04   5.812380e+04   0.000000e+00    726s
   98303    2.0279960e+04   4.943917e+04   0.000000e+00    731s
   98783    2.0279960e+04   5.698783e+05   0.000000e+00    736s
   99333    2.0279960e+04   1.442958e+05   0.000000e+00    741s
   99803    2.0279959e+04   6.892954e+04   0.000000e+00    746s
  100283    2.0279959e+04   5.900884e+05   0.000000e+00    751s
  100793    2.0279959e+04   1.110753e+05   0.000000e+00    756s
  101293    2.0279959e+04   5.051823e+04   0.000000e+00    761s
  101773    2.0279959e+04   8.073003e+04   0.000000e+00    766s
  102263    2.0279959e+04   2.611723e+05   0.000000e+00    771s
  102733    2.0279959e+04   6.173602e+04   0.000000e+00    776s
  103213    2.0279959e+04   3.031612e+04   0.000000e+00    780s
  103803    2.0279959e+04   3.842606e+04   0.000000e+00    786s
  104343    2.0279959e+04   1.018826e+05   0.000000e+00    791s
  104793    2.0279959e+04   7.930252e+04   0.000000e+00    795s
  105293    2.0279959e+04   1.154328e+04   0.000000e+00    800s
  105793    2.0279959e+04   2.876982e+04   0.000000e+00    805s
  106393    2.0279959e+04   8.424957e+04   0.000000e+00    811s
  106833    2.0279959e+04   1.333596e+05   0.000000e+00    815s
  107423    2.0279959e+04   8.898795e+03   0.000000e+00    821s
  107903    2.0279959e+04   2.125145e+05   0.000000e+00    826s
  108383    2.0279959e+04   3.175190e+03   0.000000e+00    830s
  109017    2.0279959e+04   1.138083e+03   0.000000e+00    836s
  109527    2.0279959e+04   4.064377e+01   0.000000e+00    841s
  109960    2.0280000e+04   0.000000e+00   0.000000e+00    845s
  109960    2.0280000e+04   0.000000e+00   0.000000e+00    845s

Root relaxation: objective 2.028000e+04, 109960 iterations, 842.94 seconds
Total elapsed time = 845.04s
Total elapsed time = 1305.74s
Total elapsed time = 2083.56s
Total elapsed time = 2629.53s
Total elapsed time = 2816.26s

    Nodes    |    Current Node    |     Objective Bounds      |     Work
 Expl Unexpl |  Obj  Depth IntInf | Incumbent    BestBd   Gap | It/Node Time

     0     0 20280.0000    0 6968 5550.00000 20280.0000   265%     - 2936s
H    0     0                    5760.0000000 20280.0000   252%     - 2937s
     0     0 20280.0000    0 10684 5760.00000 20280.0000   252%     - 3406s
     0     0          -    0      5760.00000 20280.0000   252%     - 3600s

Cutting planes:
  Gomory: 2
  Implied bound: 254
  MIR: 31
  StrongCG: 1
  RLT: 437
  Relax-and-lift: 121

Explored 1 nodes (871817 simplex iterations) in 3600.02 seconds
Thread count was 1 (of 40 available processors)

Solution count 2: 5760 5550 

Time limit reached
Best objective 5.760000000000e+03, best bound 2.028000000000e+04, gap 252.0833%

----------

Best objective (UB): 20280.000
Best feasible solution (LB): 5760.000
Gap between the lower bound and upper bound: 252.083%

----------

Number of customers served: 42

Schedule for EV v0:
   [   0,  854) -> It remains parked at station s0.
   [ 854, 1004) -> Service a request driving for customer c15 from s0 to s2.
   [1004, tmax) -> It remains parked at station s2.

Schedule for EV v1:
   [   0, 1332) -> It remains parked at station s0.
   [1332, 1482) -> Service a request driving for customer c61 from s0 to s5.
   [1482, tmax) -> It remains parked at station s5.

Schedule for EV v2:
   [   0, 1152) -> It remains parked at station s0.
   [1152, 1272) -> Service a request driving for customer c50 from s0 to s1.
   [1272, tmax) -> It remains parked at station s1.

Schedule for EV v3:
   [   0, 1155) -> It remains parked at station s0.
   [1155, 1215) -> Service a request driving for customer c84 from s0 to s11.
   [1215, tmax) -> It remains parked at station s11.

Schedule for EV v4:
   [   0, tmax) -> It remains parked at station s0.

Schedule for EV v5:
   [   0, tmax) -> It remains parked at station s0.

Schedule for EV v6:
   [   0, 1032) -> It remains parked at station s1.
   [1032, 1212) -> Service a request driving for customer c93 from s1 to s4.
   [1212, tmax) -> It remains parked at station s4, which was charging for charging.

Schedule for EV v7:
   [   0,  856) -> It remains parked at station s1.
   [ 856, 1036) -> Service a request driving for customer c46 from s1 to s0.
   [1036, 1090) -> It remains parked at station s0, which was charging for charging.
   [1090, 1120) -> Service a request driving for customer c46 from s0 to s0.
   [1120, tmax) -> It remains parked at station s0, which was charging for charging.

Schedule for EV v8:
   [   0, 1272) -> It remains parked at station s1.
   [1272, 1332) -> Service a request driving for customer c21 from s1 to s0.
   [1332, tmax) -> It remains parked at station s0.

Schedule for EV v9:
   [   0, 1206) -> It remains parked at station s1.
   [1206, 1266) -> Service a request driving for customer c30 from s1 to s2.
   [1266, tmax) -> It remains parked at station s2.

Schedule for EV v10:
   [   0, 1148) -> It remains parked at station s1.
   [1148, 1178) -> Service a request driving for customer c85 from s1 to s4.
   [1178, tmax) -> It remains parked at station s4.

Schedule for EV v11:
   [   0, tmax) -> It remains parked at station s1.

Schedule for EV v12:
   [   0, tmax) -> It remains parked at station s1.

Schedule for EV v13:
   [   0, tmax) -> It remains parked at station s1.

Schedule for EV v14:
   [   0, tmax) -> It remains parked at station s1.

Schedule for EV v15:
   [   0,  427) -> It remains parked at station s2.
   [ 427,  487) -> Service a request driving for customer c25 from s2 to s9.
   [ 487,  735) -> It remains parked at station s9.
   [ 735,  975) -> Service a request driving for customer c25 from s9 to s0.
   [ 975, 1151) -> It remains parked at station s0, which was charging for charging.
   [1151, 1391) -> Service a request driving for customer c25 from s0 to s1.
   [1391, tmax) -> It remains parked at station s1, which was charging for charging.

Schedule for EV v16:
   [   0,  492) -> It remains parked at station s2.
   [ 492,  612) -> Service a request driving for customer c41 from s2 to s2.
   [ 612,  666) -> It remains parked at station s2.
   [ 666,  726) -> Service a request driving for customer c41 from s2 to s1.
   [ 726, tmax) -> It remains parked at station s1, which was charging for charging.

Schedule for EV v17:
   [   0,  736) -> It remains parked at station s2.
   [ 736,  796) -> Service a request driving for customer c49 from s2 to s3.
   [ 796, tmax) -> It remains parked at station s3.

Schedule for EV v18:
   [   0,  485) -> It remains parked at station s2.
   [ 485,  515) -> Service a request driving for customer c79 from s2 to s3.
   [ 515, 1329) -> It remains parked at station s3.
   [1329, 1359) -> Service a request driving for customer c79 from s3 to s7.
   [1359, tmax) -> It remains parked at station s7.

Schedule for EV v19:
   [   0, tmax) -> It remains parked at station s2.

Schedule for EV v20:
   [   0, tmax) -> It remains parked at station s2.

Schedule for EV v21:
   [   0, tmax) -> It remains parked at station s2.

Schedule for EV v22:
   [   0, tmax) -> It remains parked at station s2.

Schedule for EV v23:
   [   0, tmax) -> It remains parked at station s2.

Schedule for EV v24:
   [   0, tmax) -> It remains parked at station s2.

Schedule for EV v25:
   [   0,  605) -> It remains parked at station s3.
   [ 605,  785) -> Service a request driving for customer c31 from s3 to s0.
   [ 785, tmax) -> It remains parked at station s0, which was charging for charging.

Schedule for EV v26:
   [   0,  973) -> It remains parked at station s3.
   [ 973, 1093) -> Service a request driving for customer c82 from s3 to s1.
   [1093, tmax) -> It remains parked at station s1, which was charging for charging.

Schedule for EV v27:
   [   0,  554) -> It remains parked at station s3.
   [ 554,  614) -> Service a request driving for customer c22 from s3 to s0.
   [ 614,  726) -> It remains parked at station s0, which was charging for charging.
   [ 726,  876) -> Service a request driving for customer c22 from s0 to s0.
   [ 876, 1266) -> It remains parked at station s0.
   [1266, 1356) -> Service a request driving for customer c70 from s0 to s0.
   [1356, 1389) -> It remains parked at station s0.
   [1389, 1419) -> Service a request driving for customer c24 from s0 to s8.
   [1419, tmax) -> It remains parked at station s8.

Schedule for EV v28:
   [   0, tmax) -> It remains parked at station s3.

Schedule for EV v29:
   [   0, tmax) -> It remains parked at station s3.

Schedule for EV v30:
   [   0, tmax) -> It remains parked at station s3.

Schedule for EV v31:
   [   0, 1150) -> It remains parked at station s4.
   [1150, 1270) -> Service a request driving for customer c74 from s4 to s3.
   [1270, tmax) -> It remains parked at station s3.

Schedule for EV v32:
   [   0,  854) -> It remains parked at station s4.
   [ 854,  974) -> Service a request driving for customer c98 from s4 to s3.
   [ 974, 1153) -> It remains parked at station s3.
   [1153, 1213) -> Service a request driving for customer c98 from s3 to s11.
   [1213, tmax) -> It remains parked at station s11.

Schedule for EV v33:
   [   0,  796) -> It remains parked at station s4.
   [ 796,  826) -> Service a request driving for customer c76 from s4 to s0.
   [ 826, 1388) -> It remains parked at station s0, which was charging for charging.
   [1388, 1508) -> Service a request driving for customer c76 from s0 to s3.
   [1508, tmax) -> It remains parked at station s3.

Schedule for EV v34:
   [   0,  847) -> It remains parked at station s4.
   [ 847,  877) -> Service a request driving for customer c63 from s4 to s4.
   [ 877, tmax) -> It remains parked at station s4.

Schedule for EV v35:
   [   0, tmax) -> It remains parked at station s4.

Schedule for EV v36:
   [   0, tmax) -> It remains parked at station s4.

Schedule for EV v37:
   [   0, tmax) -> It remains parked at station s4.

Schedule for EV v38:
   [   0, tmax) -> It remains parked at station s4.

Schedule for EV v39:
   [   0, tmax) -> It remains parked at station s4.

Schedule for EV v40:
   [   0, tmax) -> It remains parked at station s4, which was charging for charging.

Schedule for EV v41:
   [   0, tmax) -> It remains parked at station s4, which was charging for charging.

Schedule for EV v42:
   [   0, 1096) -> It remains parked at station s5.
   [1096, 1456) -> Service a request driving for customer c29 from s5 to s0.
   [1456, tmax) -> It remains parked at station s0.

Schedule for EV v43:
   [   0,  906) -> It remains parked at station s5.
   [ 906, 1116) -> Service a request driving for customer c77 from s5 to s2.
   [1116, tmax) -> It remains parked at station s2.

Schedule for EV v44:
   [   0, 1150) -> It remains parked at station s5.
   [1150, 1210) -> Service a request driving for customer c42 from s5 to s11.
   [1210, tmax) -> It remains parked at station s11.

Schedule for EV v45:
   [   0,  854) -> It remains parked at station s5.
   [ 854,  884) -> Service a request driving for customer c34 from s5 to s2.
   [ 884, tmax) -> It remains parked at station s2.

Schedule for EV v46:
   [   0,  915) -> It remains parked at station s5.
   [ 915,  945) -> Service a request driving for customer c59 from s5 to s4.
   [ 945, tmax) -> It remains parked at station s4.

Schedule for EV v47:
   [   0, tmax) -> It remains parked at station s5.

Schedule for EV v48:
   [   0, tmax) -> It remains parked at station s5.

Schedule for EV v49:
   [   0, tmax) -> It remains parked at station s5.

Schedule for EV v50:
   [   0, tmax) -> It remains parked at station s5.

Schedule for EV v51:
   [   0, tmax) -> It remains parked at station s5.

Schedule for EV v52:
   [   0,  907) -> It remains parked at station s6.
   [ 907, 1147) -> Service a request driving for customer c75 from s6 to s0.
   [1147, tmax) -> It remains parked at station s0.

Schedule for EV v53:
   [   0, 1335) -> It remains parked at station s6.
   [1335, 1425) -> Service a request driving for customer c17 from s6 to s9.
   [1425, tmax) -> It remains parked at station s9.

Schedule for EV v54:
   [   0, tmax) -> It remains parked at station s6.

Schedule for EV v55:
   [   0, tmax) -> It remains parked at station s6.

Schedule for EV v56:
   [   0, tmax) -> It remains parked at station s6.

Schedule for EV v57:
   [   0, tmax) -> It remains parked at station s6.

Schedule for EV v58:
   [   0, tmax) -> It remains parked at station s6.

Schedule for EV v59:
   [   0, tmax) -> It remains parked at station s6.

Schedule for EV v60:
   [   0, tmax) -> It remains parked at station s6.

Schedule for EV v61:
   [   0, tmax) -> It remains parked at station s6.

Schedule for EV v62:
   [   0, tmax) -> It remains parked at station s6.

Schedule for EV v63:
   [   0, tmax) -> It remains parked at station s6.

Schedule for EV v64:
   [   0, tmax) -> It remains parked at station s6.

Schedule for EV v65:
   [   0,  427) -> It remains parked at station s7.
   [ 427,  667) -> Service a request driving for customer c18 from s7 to s6.
   [ 667, tmax) -> It remains parked at station s6.

Schedule for EV v66:
   [   0,  914) -> It remains parked at station s7.
   [ 914, 1094) -> Service a request driving for customer c96 from s7 to s3.
   [1094, 1330) -> It remains parked at station s3.
   [1330, 1390) -> Service a request driving for customer c7 from s3 to s3.
   [1390, tmax) -> It remains parked at station s3.

Schedule for EV v67:
   [   0, tmax) -> It remains parked at station s7.

Schedule for EV v68:
   [   0, tmax) -> It remains parked at station s7.

Schedule for EV v69:
   [   0, tmax) -> It remains parked at station s7.

Schedule for EV v70:
   [   0, tmax) -> It remains parked at station s7.

Schedule for EV v71:
   [   0, tmax) -> It remains parked at station s7.

Schedule for EV v72:
   [   0, tmax) -> It remains parked at station s7.

Schedule for EV v73:
   [   0, tmax) -> It remains parked at station s7, which was charging for charging.

Schedule for EV v74:
   [   0,  910) -> It remains parked at station s8.
   [ 910, 1120) -> Service a request driving for customer c27 from s8 to s11.
   [1120, 1206) -> It remains parked at station s11.
   [1206, 1386) -> Service a request driving for customer c27 from s11 to s2.
   [1386, tmax) -> It remains parked at station s2.

Schedule for EV v75:
   [   0,  489) -> It remains parked at station s8.
   [ 489,  609) -> Service a request driving for customer c33 from s8 to s9.
   [ 609, tmax) -> It remains parked at station s9.

Schedule for EV v76:
   [   0, 1330) -> It remains parked at station s8.
   [1330, 1420) -> Service a request driving for customer c23 from s8 to s1.
   [1420, tmax) -> It remains parked at station s1.

Schedule for EV v77:
   [   0, 1032) -> It remains parked at station s8.
   [1032, 1122) -> Service a request driving for customer c35 from s8 to s1.
   [1122, tmax) -> It remains parked at station s1, which was charging for charging.

Schedule for EV v78:
   [   0,  850) -> It remains parked at station s8.
   [ 850,  880) -> Service a request driving for customer c11 from s8 to s9.
   [ 880, tmax) -> It remains parked at station s9, which was charging for charging.

Schedule for EV v79:
   [   0,  729) -> It remains parked at station s8.
   [ 729,  759) -> Service a request driving for customer c43 from s8 to s11.
   [ 759, tmax) -> It remains parked at station s11.

Schedule for EV v80:
   [   0, tmax) -> It remains parked at station s8.

Schedule for EV v81:
   [   0, tmax) -> It remains parked at station s8.

Schedule for EV v82:
   [   0, tmax) -> It remains parked at station s8.

Schedule for EV v83:
   [   0, tmax) -> It remains parked at station s8.

Schedule for EV v84:
   [   0, tmax) -> It remains parked at station s8, which was charging for charging.

Schedule for EV v85:
   [   0, tmax) -> It remains parked at station s8, which was charging for charging.

Schedule for EV v86:
   [   0, tmax) -> It remains parked at station s9.

Schedule for EV v87:
   [   0, tmax) -> It remains parked at station s9.

Schedule for EV v88:
   [   0, tmax) -> It remains parked at station s9.

Schedule for EV v89:
   [   0, tmax) -> It remains parked at station s9.

Schedule for EV v90:
   [   0, tmax) -> It remains parked at station s9.

Schedule for EV v91:
   [   0,  555) -> It remains parked at station s9.
   [ 555,  585) -> Service a request driving for customer c19 from s9 to s8.
   [ 585, tmax) -> It remains parked at station s8, which was charging for charging.

Schedule for EV v92:
   [   0, 1092) -> It remains parked at station s9.
   [1092, 1272) -> Service a request driving for customer c19 from s9 to s3.
   [1272, tmax) -> It remains parked at station s3.

Schedule for EV v93:
   [   0,  435) -> It remains parked at station s10.
   [ 435,  615) -> Service a request driving for customer c16 from s10 to s3.
   [ 615, tmax) -> It remains parked at station s3.

Schedule for EV v94:
   [   0, tmax) -> It remains parked at station s10.

Schedule for EV v95:
   [   0, tmax) -> It remains parked at station s10.

Schedule for EV v96:
   [   0, tmax) -> It remains parked at station s10.

Schedule for EV v97:
   [   0, tmax) -> It remains parked at station s10.

Schedule for EV v98:
   [   0, tmax) -> It remains parked at station s10.

Schedule for EV v99:
   [   0, tmax) -> It remains parked at station s10.

Schedule for EV v100:
   [   0, tmax) -> It remains parked at station s10.

Schedule for EV v101:
   [   0, tmax) -> It remains parked at station s10.

Schedule for EV v102:
   [   0, tmax) -> It remains parked at station s10.

Schedule for EV v103:
   [   0, tmax) -> It remains parked at station s10.

Schedule for EV v104:
   [   0, tmax) -> It remains parked at station s10.

Schedule for EV v105:
   [   0, tmax) -> It remains parked at station s10.

Schedule for EV v106:
   [   0, tmax) -> It remains parked at station s10.

Schedule for EV v107:
   [   0, tmax) -> It remains parked at station s10, which was charging for charging.

Schedule for EV v108:
   [   0,  909) -> It remains parked at station s11.
   [ 909,  999) -> Service a request driving for customer c55 from s11 to s4.
   [ 999, tmax) -> It remains parked at station s4, which was charging for charging.

Schedule for EV v109:
   [   0,  550) -> It remains parked at station s11.
   [ 550,  610) -> Service a request driving for customer c48 from s11 to s11.
   [ 610, tmax) -> It remains parked at station s11.

Schedule for EV v110:
   [   0, tmax) -> It remains parked at station s11.

Schedule for EV v111:
   [   0, tmax) -> It remains parked at station s11.

Schedule for EV v112:
   [   0, tmax) -> It remains parked at station s11.

Schedule for EV v113:
   [   0, tmax) -> It remains parked at station s11.

Schedule for EV v114:
   [   0, tmax) -> It remains parked at station s11.

Schedule for EV v115:
   [   0, tmax) -> It remains parked at station s11.

Schedule for EV v116:
   [   0, tmax) -> It remains parked at station s11.

Set of satisfied customers
   {c7, c11, c15, c16, c17, c18, c19, c21, c22, c23, c24, c25, c27, c29, c30, c31, c33, c34, c35, c41, c42, c43, c46, c48, c49, c50, c55, c59, c61, c63, c70, c74, c75, c76, c77, c79, c82, c84, c85, c93, c96, c98}

