Academic license - for non-commercial use only
Gurobi Optimizer version 9.0.3 build v9.0.3rc0 (linux64)
Optimize a model with 14330 rows, 9988 columns and 126805 nonzeros
Model fingerprint: 0x969b1cab
Variable types: 5575 continuous, 4413 integer (4413 binary)
Coefficient statistics:
  Matrix range     [1e+00, 5e+06]
  Objective range  [3e+01, 2e+02]
  Bounds range     [1e+00, 2e+06]
  RHS range        [1e+00, 2e+06]

Loaded user MIP start with objective 2341

Presolve removed 979 rows and 565 columns
Presolve time: 0.32s
Presolved: 13351 rows, 9423 columns, 122213 nonzeros
Variable types: 69 continuous, 9354 integer (7014 binary)

Root simplex log...

Iteration    Objective       Primal Inf.    Dual Inf.      Time
   11057    3.0399843e+03   9.714795e+04   0.000000e+00      5s
   16247    3.0399805e+03   4.195730e+05   0.000000e+00     10s
   21377    2.8999817e+03   5.706408e+05   0.000000e+00     15s
   23916    2.9000000e+03   0.000000e+00   0.000000e+00     18s

Root relaxation: objective 2.900000e+03, 23916 iterations, 17.34 seconds
Total elapsed time = 25.08s
Total elapsed time = 33.59s
Total elapsed time = 36.58s

    Nodes    |    Current Node    |     Objective Bounds      |     Work
 Expl Unexpl |  Obj  Depth IntInf | Incumbent    BestBd   Gap | It/Node Time

     0     0 2900.00000    0 2018 2341.00000 2900.00000  23.9%     -   38s
     0     0 2900.00000    0 2905 2341.00000 2900.00000  23.9%     -   46s
H    0     0                    2597.0000000 2900.00000  11.7%     -   46s
     0     0 2900.00000    0 3103 2597.00000 2900.00000  11.7%     -   52s
     0     0 2900.00000    0 2059 2597.00000 2900.00000  11.7%     -   78s
     0     0 2900.00000    0 2271 2597.00000 2900.00000  11.7%     -   81s
     0     0 2900.00000    0 2285 2597.00000 2900.00000  11.7%     -  112s
     0     0 2900.00000    0 2529 2597.00000 2900.00000  11.7%     -  116s
     0     0 2900.00000    0 2459 2597.00000 2900.00000  11.7%     -  142s
     0     0 2900.00000    0 2458 2597.00000 2900.00000  11.7%     -  150s
     0     2 2900.00000    0 2101 2597.00000 2900.00000  11.7%     -  178s
     1     3 2900.00000    1 2512 2597.00000 2900.00000  11.7% 18285  181s
     3     5 2900.00000    2 2262 2597.00000 2900.00000  11.7%  8994  185s
     7     7 2900.00000    4 2033 2597.00000 2900.00000  11.7%  4985  190s
    14    14 2900.00000    9 1871 2597.00000 2900.00000  11.7%  3479  195s
    20    20 2870.00000   13 1938 2597.00000 2900.00000  11.7%  3200  200s
    26    26 2846.00000   17 1934 2597.00000 2900.00000  11.7%  2975  205s
    34    34 2846.00000   23 1382 2597.00000 2900.00000  11.7%  2731  210s
    42    42 2846.00000   27 1638 2597.00000 2900.00000  11.7%  2552  215s
H   54    52                    2743.0000000 2900.00000  5.72%  2227  219s
    55    55 2846.00000   36 1098 2743.00000 2900.00000  5.72%  2240  220s
    80    80 2846.00000   59  357 2743.00000 2900.00000  5.72%  1810  225s
*  103    26              80    2846.0000000 2900.00000  1.90%  1559  228s
   108    27 2898.00000    9 1881 2846.00000 2900.00000  1.90%  1546  230s
   116    35 2898.00000   15 1701 2846.00000 2900.00000  1.90%  1539  235s
   128    47 2898.00000   22 1382 2846.00000 2900.00000  1.90%  1520  240s
   149    68 2898.00000   38  585 2846.00000 2900.00000  1.90%  1422  245s
*  152    22              40    2898.0000000 2900.00000  0.07%  1396  245s
   169    31 2900.00000   19 1775 2898.00000 2900.00000  0.07%  1331  250s
*  203     3              45    2900.0000000 2900.00000  0.00%  1197  254s

Cutting planes:
  Gomory: 9
  Implied bound: 351
  MIR: 23
  Mod-K: 3
  RLT: 242
  Relax-and-lift: 14

Explored 204 nodes (474414 simplex iterations) in 254.53 seconds
Thread count was 1 (of 40 available processors)

Solution count 6: 2900 2898 2846 ... 2341

Optimal solution found (tolerance 1.00e-04)
Best objective 2.900000000000e+03, best bound 2.900000000000e+03, gap 0.0000%

----------

Best objective (UB): 2900.000
Best feasible solution (LB): 2900.000
Gap between the lower bound and upper bound: 0.000%

----------

Number of customers served: 26

Schedule for EV v0:
   [   0,  420) -> It remains parked at station s0.
   [ 420,  478) -> Service a request driving for customer c21 from s0 to s3.
   [ 478, tmax) -> It remains parked at station s3.

Schedule for EV v1:
   [   0,  480) -> It remains parked at station s0.
   [ 480,  521) -> Service a request driving for customer c8 from s0 to s1.
   [ 521, 1110) -> It remains parked at station s1, which was charging for charging.
   [1110, 1186) -> Service a request driving for customer c14 from s1 to s3.
   [1186, tmax) -> It remains parked at station s3.

Schedule for EV v2:
   [   0,  500) -> It remains parked at station s0.
   [ 500,  543) -> Service a request driving for customer c10 from s0 to s2.
   [ 543,  895) -> It remains parked at station s2, which was charging for charging.
   [ 895,  934) -> Service a request driving for customer c24 from s2 to s3.
   [ 934, 1100) -> It remains parked at station s3.
   [1100, 1159) -> Service a request driving for customer c16 from s3 to s2.
   [1159, tmax) -> It remains parked at station s2.

Schedule for EV v3:
   [   0,  335) -> It remains parked at station s0.
   [ 335,  376) -> Service a request driving for customer c19 from s0 to s1.
   [ 376,  450) -> It remains parked at station s1, which was charging for charging.
   [ 450,  521) -> Service a request driving for customer c13 from s1 to s3.
   [ 521, tmax) -> It remains parked at station s3.

Schedule for EV v4:
   [   0,  320) -> It remains parked at station s0.
   [ 320,  378) -> Service a request driving for customer c17 from s0 to s3.
   [ 378,  470) -> It remains parked at station s3.
   [ 470,  533) -> Service a request driving for customer c23 from s3 to s0.
   [ 533,  795) -> It remains parked at station s0.
   [ 795,  848) -> Service a request driving for customer c0 from s0 to s3.
   [ 848, tmax) -> It remains parked at station s3.

Schedule for EV v5:
   [   0,  870) -> It remains parked at station s0.
   [ 870,  901) -> Service a request driving for customer c1 from s0 to s1.
   [ 901, tmax) -> It remains parked at station s1.

Schedule for EV v6:
   [   0,  470) -> It remains parked at station s0.
   [ 470,  506) -> Service a request driving for customer c3 from s0 to s1.
   [ 506,  910) -> It remains parked at station s1, which was charging for charging.
   [ 910,  941) -> Service a request driving for customer c12 from s1 to s0.
   [ 941, 1155) -> It remains parked at station s0, which was charging for charging.
   [1155, 1198) -> Service a request driving for customer c3 from s0 to s2.
   [1198, 1210) -> It remains parked at station s2.
   [1210, 1253) -> Service a request driving for customer c12 from s2 to s0.
   [1253, 1285) -> It remains parked at station s0.
   [1285, 1308) -> Service a request driving for customer c12 from s0 to s2.
   [1308, tmax) -> It remains parked at station s2.

Schedule for EV v7:
   [   0, tmax) -> It remains parked at station s1.

Schedule for EV v8:
   [   0,  535) -> It remains parked at station s1.
   [ 535,  566) -> Service a request driving for customer c3 from s1 to s0.
   [ 566, 1170) -> It remains parked at station s0, which was charging for charging.
   [1170, 1203) -> Service a request driving for customer c12 from s0 to s2.
   [1203, tmax) -> It remains parked at station s2.

Schedule for EV v9:
   [   0,  430) -> It remains parked at station s1.
   [ 430,  476) -> Service a request driving for customer c1 from s1 to s0.
   [ 476,  740) -> It remains parked at station s0.
   [ 740,  776) -> Service a request driving for customer c28 from s0 to s1.
   [ 776,  990) -> It remains parked at station s1, which was charging for charging.
   [ 990, 1056) -> Service a request driving for customer c7 from s1 to s3.
   [1056, 1090) -> It remains parked at station s3, which was charging for charging.
   [1090, 1139) -> Service a request driving for customer c24 from s3 to s2.
   [1139, tmax) -> It remains parked at station s2, which was charging for charging.

Schedule for EV v10:
   [   0, tmax) -> It remains parked at station s1.

Schedule for EV v11:
   [   0,  700) -> It remains parked at station s1.
   [ 700,  753) -> Service a request driving for customer c2 from s1 to s2.
   [ 753,  940) -> It remains parked at station s2, which was charging for charging.
   [ 940,  994) -> Service a request driving for customer c10 from s2 to s3.
   [ 994, 1320) -> It remains parked at station s3, which was charging for charging.
   [1320, 1363) -> Service a request driving for customer c21 from s3 to s0.
   [1363, tmax) -> It remains parked at station s0.

Schedule for EV v12:
   [   0, tmax) -> It remains parked at station s1.

Schedule for EV v13:
   [   0, tmax) -> It remains parked at station s1.

Schedule for EV v14:
   [   0,  835) -> It remains parked at station s1.
   [ 835,  903) -> Service a request driving for customer c28 from s1 to s2.
   [ 903, 1080) -> It remains parked at station s2.
   [1080, 1124) -> Service a request driving for customer c22 from s2 to s3.
   [1124, 1135) -> It remains parked at station s3.
   [1135, 1179) -> Service a request driving for customer c28 from s3 to s2.
   [1179, tmax) -> It remains parked at station s2.

Schedule for EV v15:
   [   0,  815) -> It remains parked at station s1.
   [ 815,  878) -> Service a request driving for customer c22 from s1 to s2.
   [ 878, 1075) -> It remains parked at station s2, which was charging for charging.
   [1075, 1124) -> Service a request driving for customer c28 from s2 to s3.
   [1124, 1250) -> It remains parked at station s3, which was charging for charging.
   [1250, 1304) -> Service a request driving for customer c17 from s3 to s2.
   [1304, tmax) -> It remains parked at station s2.

Schedule for EV v16:
   [   0,  805) -> It remains parked at station s1.
   [ 805,  866) -> Service a request driving for customer c29 from s1 to s3.
   [ 866, 1100) -> It remains parked at station s3, which was charging for charging.
   [1100, 1166) -> Service a request driving for customer c7 from s3 to s1.
   [1166, tmax) -> It remains parked at station s1.

Schedule for EV v17:
   [   0,  710) -> It remains parked at station s2.
   [ 710,  773) -> Service a request driving for customer c20 from s2 to s1.
   [ 773, 1140) -> It remains parked at station s1, which was charging for charging.
   [1140, 1216) -> Service a request driving for customer c19 from s1 to s3.
   [1216, tmax) -> It remains parked at station s3.

Schedule for EV v18:
   [   0, tmax) -> It remains parked at station s2.

Schedule for EV v19:
   [   0, tmax) -> It remains parked at station s2.

Schedule for EV v20:
   [   0,  460) -> It remains parked at station s2.
   [ 460,  494) -> Service a request driving for customer c27 from s2 to s3.
   [ 494,  965) -> It remains parked at station s3.
   [ 965,  999) -> Service a request driving for customer c0 from s3 to s2.
   [ 999, 1095) -> It remains parked at station s2, which was charging for charging.
   [1095, 1139) -> Service a request driving for customer c2 from s2 to s3.
   [1139, tmax) -> It remains parked at station s3.

Schedule for EV v21:
   [   0, tmax) -> It remains parked at station s2.

Schedule for EV v22:
   [   0,  475) -> It remains parked at station s2.
   [ 475,  509) -> Service a request driving for customer c9 from s2 to s3.
   [ 509, 1085) -> It remains parked at station s3.
   [1085, 1146) -> Service a request driving for customer c29 from s3 to s1.
   [1146, tmax) -> It remains parked at station s1, which was charging for charging.

Schedule for EV v23:
   [   0, tmax) -> It remains parked at station s2.

Schedule for EV v24:
   [   0,  515) -> It remains parked at station s2.
   [ 515,  564) -> Service a request driving for customer c5 from s2 to s3.
   [ 564, 1045) -> It remains parked at station s3, which was charging for charging.
   [1045, 1106) -> Service a request driving for customer c5 from s3 to s1.
   [1106, 1170) -> It remains parked at station s1.
   [1170, 1246) -> Service a request driving for customer c27 from s1 to s3.
   [1246, tmax) -> It remains parked at station s3, which was charging for charging.

Schedule for EV v25:
   [   0,  430) -> It remains parked at station s2.
   [ 430,  498) -> Service a request driving for customer c14 from s2 to s1.
   [ 498, 1015) -> It remains parked at station s1, which was charging for charging.
   [1015, 1086) -> Service a request driving for customer c16 from s1 to s3.
   [1086, 1105) -> It remains parked at station s3.
   [1105, 1181) -> Service a request driving for customer c4 from s3 to s1.
   [1181, tmax) -> It remains parked at station s1.

Schedule for EV v26:
   [   0,  450) -> It remains parked at station s2.
   [ 450,  494) -> Service a request driving for customer c4 from s2 to s3.
   [ 494,  805) -> It remains parked at station s3.
   [ 805,  864) -> Service a request driving for customer c9 from s3 to s2.
   [ 864, tmax) -> It remains parked at station s2, which was charging for charging.

Schedule for EV v27:
   [   0,  520) -> It remains parked at station s3.
   [ 520,  581) -> Service a request driving for customer c27 from s3 to s1.
   [ 581, tmax) -> It remains parked at station s1.

Schedule for EV v28:
   [   0,  490) -> It remains parked at station s3.
   [ 490,  543) -> Service a request driving for customer c21 from s3 to s0.
   [ 543,  635) -> It remains parked at station s0.
   [ 635,  663) -> Service a request driving for customer c15 from s0 to s2.
   [ 663,  740) -> It remains parked at station s2, which was charging for charging.
   [ 740,  798) -> Service a request driving for customer c6 from s2 to s1.
   [ 798,  835) -> It remains parked at station s1.
   [ 835,  866) -> Service a request driving for customer c6 from s1 to s0.
   [ 866, 1095) -> It remains parked at station s0, which was charging for charging.
   [1095, 1153) -> Service a request driving for customer c21 from s0 to s3.
   [1153, tmax) -> It remains parked at station s3.

Schedule for EV v29:
   [   0,  505) -> It remains parked at station s3.
   [ 505,  544) -> Service a request driving for customer c20 from s3 to s2.
   [ 544, 1125) -> It remains parked at station s2, which was charging for charging.
   [1125, 1178) -> Service a request driving for customer c9 from s2 to s1.
   [1178, tmax) -> It remains parked at station s1.

Set of satisfied customers
   {c0, c1, c2, c3, c4, c5, c6, c7, c8, c9, c10, c12, c13, c14, c15, c16, c17, c19, c20, c21, c22, c23, c24, c27, c28, c29}

