Academic license - for non-commercial use only
Gurobi Optimizer version 9.0.3 build v9.0.3rc0 (linux64)
Optimize a model with 13765 rows, 9551 columns and 100128 nonzeros
Model fingerprint: 0xde17c5f9
Variable types: 5350 continuous, 4201 integer (4201 binary)
Coefficient statistics:
  Matrix range     [1e+00, 4e+06]
  Objective range  [7e+01, 3e+02]
  Bounds range     [1e+00, 2e+06]
  RHS range        [1e+00, 2e+06]

Loaded user MIP start with objective 4263

Presolve removed 753 rows and 482 columns
Presolve time: 0.23s
Presolved: 13012 rows, 9069 columns, 96434 nonzeros
Variable types: 30 continuous, 9039 integer (6724 binary)

Root simplex log...

Iteration    Objective       Primal Inf.    Dual Inf.      Time
   11703    6.7639941e+03   2.177461e+04   0.000000e+00      5s
   16403    6.6849920e+03   1.564285e+04   0.000000e+00     10s
   20643    6.6849913e+03   1.040260e+05   0.000000e+00     15s
   24643    6.6159907e+03   3.038100e+04   0.000000e+00     20s
   28793    6.6159903e+03   9.577489e+03   0.000000e+00     25s
   32763    6.6159902e+03   3.026551e+03   0.000000e+00     30s
   34233    6.6160000e+03   0.000000e+00   0.000000e+00     32s

Root relaxation: objective 6.616000e+03, 34233 iterations, 31.70 seconds
Total elapsed time = 41.12s
Total elapsed time = 49.41s
Total elapsed time = 51.42s

    Nodes    |    Current Node    |     Objective Bounds      |     Work
 Expl Unexpl |  Obj  Depth IntInf | Incumbent    BestBd   Gap | It/Node Time

     0     0 6616.00000    0 3364 4263.00000 6616.00000  55.2%     -   52s
     0     0 6616.00000    0 3758 4263.00000 6616.00000  55.2%     -   62s
     0     0 6616.00000    0 3584 4263.00000 6616.00000  55.2%     -   67s
     0     0 6616.00000    0 3050 4263.00000 6616.00000  55.2%     -   86s
     0     0 6616.00000    0 3131 4263.00000 6616.00000  55.2%     -   89s
     0     0 6616.00000    0 2750 4263.00000 6616.00000  55.2%     -  108s
     0     0 6616.00000    0 2903 4263.00000 6616.00000  55.2%     -  111s
     0     0 6616.00000    0 2666 4263.00000 6616.00000  55.2%     -  131s
     0     0 6616.00000    0 2666 4263.00000 6616.00000  55.2%     -  145s
H    0     0                    6616.0000000 6616.00000  0.00%     -  150s
     0     0 6616.00000    0 2666 6616.00000 6616.00000  0.00%     -  150s

Cutting planes:
  Implied bound: 607
  MIR: 24
  StrongCG: 1
  Zero half: 1
  RLT: 228
  Relax-and-lift: 19

Explored 1 nodes (183060 simplex iterations) in 150.44 seconds
Thread count was 1 (of 40 available processors)

Solution count 2: 6616 4263 

Optimal solution found (tolerance 1.00e-04)
Best objective 6.616000000000e+03, best bound 6.616000000000e+03, gap 0.0000%

----------

Best objective (UB): 6616.000
Best feasible solution (LB): 6616.000
Gap between the lower bound and upper bound: 0.000%

----------

Number of customers served: 38

Schedule for EV v0:
   [   0,  410) -> It remains parked at station s0.
   [ 410,  508) -> Service a request driving for customer c21 from s0 to s1.
   [ 508,  510) -> It remains parked at station s1.
   [ 510,  608) -> Service a request driving for customer c34 from s1 to s0.
   [ 608,  965) -> It remains parked at station s0, which was charging for charging.
   [ 965, 1048) -> Service a request driving for customer c26 from s0 to s1.
   [1048, 1125) -> It remains parked at station s1, which was charging for charging.
   [1125, 1189) -> Service a request driving for customer c22 from s1 to s2.
   [1189, 1225) -> It remains parked at station s2, which was charging for charging.
   [1225, 1316) -> Service a request driving for customer c10 from s2 to s0.
   [1316, tmax) -> It remains parked at station s0, which was charging for charging.

Schedule for EV v1:
   [   0,  850) -> It remains parked at station s0.
   [ 850,  948) -> Service a request driving for customer c34 from s0 to s1.
   [ 948, 1060) -> It remains parked at station s1, which was charging for charging.
   [1060, 1144) -> Service a request driving for customer c8 from s1 to s2.
   [1144, 1165) -> It remains parked at station s2, which was charging for charging.
   [1165, 1244) -> Service a request driving for customer c20 from s2 to s1.
   [1244, 1365) -> It remains parked at station s1.
   [1365, 1463) -> Service a request driving for customer c16 from s1 to s0.
   [1463, tmax) -> It remains parked at station s0.

Schedule for EV v2:
   [   0,  505) -> It remains parked at station s0.
   [ 505,  596) -> Service a request driving for customer c18 from s0 to s2.
   [ 596,  955) -> It remains parked at station s2.
   [ 955, 1046) -> Service a request driving for customer c37 from s2 to s0.
   [1046, tmax) -> It remains parked at station s0, which was charging for charging.

Schedule for EV v3:
   [   0,  440) -> It remains parked at station s0.
   [ 440,  531) -> Service a request driving for customer c31 from s0 to s2.
   [ 531,  545) -> It remains parked at station s2.
   [ 545,  624) -> Service a request driving for customer c29 from s2 to s1.
   [ 624,  925) -> It remains parked at station s1, which was charging for charging.
   [ 925, 1018) -> Service a request driving for customer c13 from s1 to s0.
   [1018, 1125) -> It remains parked at station s0, which was charging for charging.
   [1125, 1223) -> Service a request driving for customer c16 from s0 to s1.
   [1223, 1260) -> It remains parked at station s1.
   [1260, 1363) -> Service a request driving for customer c17 from s1 to s0.
   [1363, tmax) -> It remains parked at station s0.

Schedule for EV v4:
   [   0,  795) -> It remains parked at station s0.
   [ 795,  881) -> Service a request driving for customer c23 from s0 to s2.
   [ 881, 1090) -> It remains parked at station s2, which was charging for charging.
   [1090, 1174) -> Service a request driving for customer c4 from s2 to s1.
   [1174, tmax) -> It remains parked at station s1, which was charging for charging.

Schedule for EV v5:
   [   0,  980) -> It remains parked at station s0.
   [ 980, 1086) -> Service a request driving for customer c25 from s0 to s2.
   [1086, 1105) -> It remains parked at station s2.
   [1105, 1174) -> Service a request driving for customer c30 from s2 to s1.
   [1174, tmax) -> It remains parked at station s1, which was charging for charging.

Schedule for EV v6:
   [   0,  500) -> It remains parked at station s0.
   [ 500,  583) -> Service a request driving for customer c36 from s0 to s1.
   [ 583,  910) -> It remains parked at station s1, which was charging for charging.
   [ 910,  993) -> Service a request driving for customer c36 from s1 to s0.
   [ 993, 1190) -> It remains parked at station s0.
   [1190, 1278) -> Service a request driving for customer c36 from s0 to s1.
   [1278, tmax) -> It remains parked at station s1.

Schedule for EV v7:
   [   0,  335) -> It remains parked at station s0.
   [ 335,  441) -> Service a request driving for customer c12 from s0 to s2.
   [ 441,  465) -> It remains parked at station s2, which was charging for charging.
   [ 465,  576) -> Service a request driving for customer c7 from s2 to s0.
   [ 576,  590) -> It remains parked at station s0.
   [ 590,  668) -> Service a request driving for customer c35 from s0 to s1.
   [ 668,  800) -> It remains parked at station s1, which was charging for charging.
   [ 800,  893) -> Service a request driving for customer c25 from s1 to s0.
   [ 893,  960) -> It remains parked at station s0, which was charging for charging.
   [ 960, 1066) -> Service a request driving for customer c10 from s0 to s2.
   [1066, 1090) -> It remains parked at station s2, which was charging for charging.
   [1090, 1164) -> Service a request driving for customer c31 from s2 to s1.
   [1164, 1240) -> It remains parked at station s1, which was charging for charging.
   [1240, 1324) -> Service a request driving for customer c14 from s1 to s2.
   [1324, tmax) -> It remains parked at station s2.

Schedule for EV v8:
   [   0,  585) -> It remains parked at station s0.
   [ 585,  671) -> Service a request driving for customer c20 from s0 to s2.
   [ 671, 1070) -> It remains parked at station s2, which was charging for charging.
   [1070, 1154) -> Service a request driving for customer c5 from s2 to s1.
   [1154, tmax) -> It remains parked at station s1, which was charging for charging.

Schedule for EV v9:
   [   0,  475) -> It remains parked at station s0.
   [ 475,  553) -> Service a request driving for customer c15 from s0 to s1.
   [ 553,  560) -> It remains parked at station s1.
   [ 560,  643) -> Service a request driving for customer c21 from s1 to s0.
   [ 643,  860) -> It remains parked at station s0.
   [ 860,  938) -> Service a request driving for customer c19 from s0 to s1.
   [ 938,  990) -> It remains parked at station s1, which was charging for charging.
   [ 990, 1079) -> Service a request driving for customer c29 from s1 to s2.
   [1079, 1140) -> It remains parked at station s2, which was charging for charging.
   [1140, 1214) -> Service a request driving for customer c3 from s2 to s1.
   [1214, 1340) -> It remains parked at station s1.
   [1340, 1433) -> Service a request driving for customer c19 from s1 to s0.
   [1433, tmax) -> It remains parked at station s0.

Schedule for EV v10:
   [   0,  455) -> It remains parked at station s1.
   [ 455,  524) -> Service a request driving for customer c0 from s1 to s2.
   [ 524,  530) -> It remains parked at station s2.
   [ 530,  621) -> Service a request driving for customer c33 from s2 to s0.
   [ 621, 1060) -> It remains parked at station s0, which was charging for charging.
   [1060, 1143) -> Service a request driving for customer c17 from s0 to s1.
   [1143, 1190) -> It remains parked at station s1.
   [1190, 1288) -> Service a request driving for customer c34 from s1 to s0.
   [1288, tmax) -> It remains parked at station s0.

Schedule for EV v11:
   [   0,  520) -> It remains parked at station s1.
   [ 520,  613) -> Service a request driving for customer c2 from s1 to s0.
   [ 613, tmax) -> It remains parked at station s0, which was charging for charging.

Schedule for EV v12:
   [   0,  490) -> It remains parked at station s1.
   [ 490,  568) -> Service a request driving for customer c20 from s1 to s0.
   [ 568,  625) -> It remains parked at station s0, which was charging for charging.
   [ 625,  736) -> Service a request driving for customer c3 from s0 to s2.
   [ 736,  955) -> It remains parked at station s2, which was charging for charging.
   [ 955, 1019) -> Service a request driving for customer c23 from s2 to s1.
   [1019, 1045) -> It remains parked at station s1, which was charging for charging.
   [1045, 1143) -> Service a request driving for customer c6 from s1 to s0.
   [1143, tmax) -> It remains parked at station s0, which was charging for charging.

Schedule for EV v13:
   [   0,  390) -> It remains parked at station s1.
   [ 390,  488) -> Service a request driving for customer c3 from s1 to s0.
   [ 488, 1025) -> It remains parked at station s0, which was charging for charging.
   [1025, 1123) -> Service a request driving for customer c7 from s0 to s1.
   [1123, 1220) -> It remains parked at station s1.
   [1220, 1323) -> Service a request driving for customer c11 from s1 to s0.
   [1323, tmax) -> It remains parked at station s0, which was charging for charging.

Schedule for EV v14:
   [   0,  550) -> It remains parked at station s1.
   [ 550,  633) -> Service a request driving for customer c38 from s1 to s0.
   [ 633, tmax) -> It remains parked at station s0, which was charging for charging.

Schedule for EV v15:
   [   0,  525) -> It remains parked at station s1.
   [ 525,  618) -> Service a request driving for customer c19 from s1 to s0.
   [ 618, 1370) -> It remains parked at station s0.
   [1370, 1463) -> Service a request driving for customer c11 from s0 to s1.
   [1463, tmax) -> It remains parked at station s1.

Schedule for EV v16:
   [   0,  405) -> It remains parked at station s1, which was charging for charging.
   [ 405,  493) -> Service a request driving for customer c24 from s1 to s0.
   [ 493,  790) -> It remains parked at station s0, which was charging for charging.
   [ 790,  878) -> Service a request driving for customer c33 from s0 to s1.
   [ 878,  915) -> It remains parked at station s1, which was charging for charging.
   [ 915,  994) -> Service a request driving for customer c35 from s1 to s2.
   [ 994, 1075) -> It remains parked at station s2, which was charging for charging.
   [1075, 1144) -> Service a request driving for customer c0 from s2 to s1.
   [1144, tmax) -> It remains parked at station s1, which was charging for charging.

Schedule for EV v17:
   [   0,  520) -> It remains parked at station s2.
   [ 520,  604) -> Service a request driving for customer c8 from s2 to s1.
   [ 604,  905) -> It remains parked at station s1, which was charging for charging.
   [ 905,  988) -> Service a request driving for customer c27 from s1 to s0.
   [ 988, 1065) -> It remains parked at station s0, which was charging for charging.
   [1065, 1176) -> Service a request driving for customer c13 from s0 to s2.
   [1176, tmax) -> It remains parked at station s2, which was charging for charging.

Schedule for EV v18:
   [   0,  415) -> It remains parked at station s2.
   [ 415,  484) -> Service a request driving for customer c14 from s2 to s1.
   [ 484,  485) -> It remains parked at station s1, which was charging for charging.
   [ 485,  554) -> Service a request driving for customer c5 from s1 to s2.
   [ 554,  950) -> It remains parked at station s2, which was charging for charging.
   [ 950, 1029) -> Service a request driving for customer c22 from s2 to s1.
   [1029, 1065) -> It remains parked at station s1, which was charging for charging.
   [1065, 1153) -> Service a request driving for customer c15 from s1 to s0.
   [1153, 1360) -> It remains parked at station s0.
   [1360, 1458) -> Service a request driving for customer c2 from s0 to s1.
   [1458, tmax) -> It remains parked at station s1, which was charging for charging.

Schedule for EV v19:
   [   0,  480) -> It remains parked at station s2.
   [ 480,  586) -> Service a request driving for customer c28 from s2 to s0.
   [ 586,  865) -> It remains parked at station s0, which was charging for charging.
   [ 865,  943) -> Service a request driving for customer c28 from s0 to s1.
   [ 943, 1080) -> It remains parked at station s1, which was charging for charging.
   [1080, 1154) -> Service a request driving for customer c9 from s1 to s2.
   [1154, 1155) -> It remains parked at station s2, which was charging for charging.
   [1155, 1244) -> Service a request driving for customer c12 from s2 to s1.
   [1244, tmax) -> It remains parked at station s1.

Schedule for EV v20:
   [   0,  325) -> It remains parked at station s2.
   [ 325,  414) -> Service a request driving for customer c27 from s2 to s1.
   [ 414,  485) -> It remains parked at station s1, which was charging for charging.
   [ 485,  588) -> Service a request driving for customer c23 from s1 to s0.
   [ 588,  680) -> It remains parked at station s0.
   [ 680,  786) -> Service a request driving for customer c22 from s0 to s2.
   [ 786,  915) -> It remains parked at station s2.
   [ 915, 1006) -> Service a request driving for customer c32 from s2 to s0.
   [1006, 1010) -> It remains parked at station s0, which was charging for charging.
   [1010, 1088) -> Service a request driving for customer c27 from s0 to s1.
   [1088, 1125) -> It remains parked at station s1, which was charging for charging.
   [1125, 1214) -> Service a request driving for customer c26 from s1 to s2.
   [1214, tmax) -> It remains parked at station s2, which was charging for charging.

Set of satisfied customers
   {c0, c2, c3, c4, c5, c6, c7, c8, c9, c10, c11, c12, c13, c14, c15, c16, c17, c18, c19, c20, c21, c22, c23, c24, c25, c26, c27, c28, c29, c30, c31, c32, c33, c34, c35, c36, c37, c38}

