Academic license - for non-commercial use only
Gurobi Optimizer version 9.0.3 build v9.0.3rc0 (linux64)
Optimize a model with 23357 rows, 16207 columns and 211999 nonzeros
Model fingerprint: 0x2e0d93a5
Variable types: 8965 continuous, 7242 integer (7242 binary)
Coefficient statistics:
  Matrix range     [1e+00, 5e+06]
  Objective range  [4e+01, 3e+02]
  Bounds range     [1e+00, 2e+06]
  RHS range        [1e+00, 2e+06]

Loaded user MIP start with objective 4687

Presolve removed 1282 rows and 836 columns
Presolve time: 0.64s
Presolved: 22075 rows, 15371 columns, 204639 nonzeros
Variable types: 18 continuous, 15353 integer (11480 binary)

Root simplex log...

Iteration    Objective       Primal Inf.    Dual Inf.      Time
   11835    7.4969936e+03   6.583996e+04   0.000000e+00      5s
   17647    7.4969924e+03   2.608015e+03   0.000000e+00     10s
   22542    7.4969911e+03   1.805267e+04   0.000000e+00     15s
   27517    7.2619927e+03   5.352032e+03   0.000000e+00     20s
   32031    7.2619922e+03   5.703365e+03   0.000000e+00     25s
   36115    7.2619919e+03   1.752310e+04   0.000000e+00     30s
   40210    7.2619916e+03   8.870320e+03   0.000000e+00     35s
   44214    7.2619913e+03   3.791997e+04   0.000000e+00     40s
   48035    7.2619911e+03   1.768161e+03   0.000000e+00     45s
   51948    7.2619908e+03   2.028828e+03   0.000000e+00     50s
   55497    7.2619906e+03   9.400361e+03   0.000000e+00     55s
   59228    7.2619904e+03   1.256363e+03   0.000000e+00     60s
   62959    7.2619903e+03   5.941068e+02   0.000000e+00     65s
   66415    7.2619901e+03   1.298114e+04   0.000000e+00     70s
   69051    7.2619896e+03   1.719975e+05   0.000000e+00     75s
   71417    7.2619894e+03   3.987546e+04   0.000000e+00     80s
   73692    7.2619893e+03   1.367854e+00   0.000000e+00     85s
   73861    7.2620000e+03   0.000000e+00   0.000000e+00     86s
   73861    7.2620000e+03   0.000000e+00   0.000000e+00     86s

Root relaxation: objective 7.262000e+03, 73861 iterations, 85.17 seconds
Total elapsed time = 168.55s
Total elapsed time = 204.35s
Total elapsed time = 233.62s
Total elapsed time = 244.35s

    Nodes    |    Current Node    |     Objective Bounds      |     Work
 Expl Unexpl |  Obj  Depth IntInf | Incumbent    BestBd   Gap | It/Node Time

     0     0 7262.00000    0 5411 4687.00000 7262.00000  54.9%     -  248s
     0     0 7262.00000    0 6859 4687.00000 7262.00000  54.9%     -  298s
     0     0 7262.00000    0 6797 4687.00000 7262.00000  54.9%     -  317s
     0     0 7262.00000    0 4567 4687.00000 7262.00000  54.9%     -  515s
     0     0 7262.00000    0 4735 4687.00000 7262.00000  54.9%     -  531s
     0     0 7262.00000    0 4453 4687.00000 7262.00000  54.9%     -  663s
     0     0 7262.00000    0 4878 4687.00000 7262.00000  54.9%     -  677s
     0     0 7262.00000    0 4281 4687.00000 7262.00000  54.9%     -  822s
     0     0 7262.00000    0 4280 4687.00000 7262.00000  54.9%     -  910s
     0     2 7262.00000    0 4280 4687.00000 7262.00000  54.9%     - 1127s
     1     3 7262.00000    1 4474 4687.00000 7262.00000  54.9% 44833 1144s
     2     4 7262.00000    1 4502 4687.00000 7262.00000  54.9% 28003 1160s
     3     5 7262.00000    2 4441 4687.00000 7262.00000  54.9% 21228 1170s
     4     6 7262.00000    3 4024 4687.00000 7262.00000  54.9% 17968 1179s
     5     7 7262.00000    4 3812 4687.00000 7262.00000  54.9% 14960 1183s
     6     8 7262.00000    4 3779 4687.00000 7262.00000  54.9% 13236 1187s
     7     9 7262.00000    5 3441 4687.00000 7262.00000  54.9% 11863 1191s
     8    10 7262.00000    5 4047 4687.00000 7262.00000  54.9% 10875 1195s
    10    12 7262.00000    7 3257 4687.00000 7262.00000  54.9%  9269 1200s
    13    15 7262.00000    9 4402 4687.00000 7262.00000  54.9%  8279 1208s
    14    16 7262.00000   10 3538 4687.00000 7262.00000  54.9%  7906 1212s
    15    17 7262.00000   11 3297 4687.00000 7262.00000  54.9%  7623 1216s
    17    19 7262.00000   12 3285 4687.00000 7262.00000  54.9%  7136 1220s
    19    21 7262.00000   13 3199 4687.00000 7262.00000  54.9%  6677 1225s
    22    24 7262.00000   15 3200 4687.00000 7262.00000  54.9%  6715 1239s
    23    25 7262.00000   16 3196 4687.00000 7262.00000  54.9%  6494 1240s
H   27    27                    4922.0000000 7262.00000  47.5%  5671 1244s
    28    30 7262.00000   20 2919 4922.00000 7262.00000  47.5%  5626 1245s
    33    35 7262.00000   24 2883 4922.00000 7262.00000  47.5%  5015 1250s
    38    40 7262.00000   28 2865 4922.00000 7262.00000  47.5%  4593 1255s
    44    46 7262.00000   33 3008 4922.00000 7262.00000  47.5%  4179 1260s
    48    50 7262.00000   37 2868 4922.00000 7262.00000  47.5%  3962 1265s
    54    56 7262.00000   43 2706 4922.00000 7262.00000  47.5%  3677 1271s
    58    60 7262.00000   47 3073 4922.00000 7262.00000  47.5%  3560 1276s
    61    63 7262.00000   50 2671 4922.00000 7262.00000  47.5%  3441 1280s
    69    71 7262.00000   57 3308 4922.00000 7262.00000  47.5%  3165 1285s
    76    78 7262.00000   63 3125 4922.00000 7262.00000  47.5%  3000 1291s
    80    82 7262.00000   67 2986 4922.00000 7262.00000  47.5%  2945 1296s
    83    85 7262.00000   69 3179 4922.00000 7262.00000  47.5%  2908 1300s
    87    89 7262.00000   72 2857 4922.00000 7262.00000  47.5%  2855 1305s
    97    99 7262.00000   82 2803 4922.00000 7262.00000  47.5%  2641 1310s
   104   106 7262.00000   88 2935 4922.00000 7262.00000  47.5%  2547 1315s
   111   113 7262.00000   95 3013 4922.00000 7262.00000  47.5%  2463 1320s
   115   117 7262.00000   97 2958 4922.00000 7262.00000  47.5%  2439 1325s
   121   123 7262.00000  103 3003 4922.00000 7262.00000  47.5%  2382 1330s
   129   131 7262.00000  111 3360 4922.00000 7262.00000  47.5%  2299 1336s
   132   134 7262.00000  114 3079 4922.00000 7262.00000  47.5%  2287 1340s
   135   137 7262.00000  117 2978 4922.00000 7262.00000  47.5%  2277 1345s
   141   143 7262.00000  123 3197 4922.00000 7262.00000  47.5%  2241 1350s
   148   150 7262.00000  129 2838 4922.00000 7262.00000  47.5%  2184 1355s
   154   156 7262.00000  133 2667 4922.00000 7262.00000  47.5%  2151 1360s
   159   161 7262.00000  137 2460 4922.00000 7262.00000  47.5%  2136 1365s
   164   166 7262.00000  142 2150 4922.00000 7262.00000  47.5%  2124 1370s
   169   171 7262.00000  145 2328 4922.00000 7262.00000  47.5%  2113 1375s
   175   177 7262.00000  149 2070 4922.00000 7262.00000  47.5%  2094 1380s
   179   181 7262.00000  152 1881 4922.00000 7262.00000  47.5%  2105 1385s
   186   188 7262.00000  159 1920 4922.00000 7262.00000  47.5%  2060 1390s
   208   210 7262.00000  180  562 4922.00000 7262.00000  47.5%  1882 1395s
H  221     2                    7262.0000000 7262.00000  0.00%  1789 1397s

Cutting planes:
  Gomory: 1
  Implied bound: 1425
  MIR: 20
  StrongCG: 2
  RLT: 392
  Relax-and-lift: 42

Explored 222 nodes (1099046 simplex iterations) in 1397.25 seconds
Thread count was 1 (of 40 available processors)

Solution count 3: 7262 4922 4687 

Optimal solution found (tolerance 1.00e-04)
Best objective 7.262000000000e+03, best bound 7.262000000000e+03, gap 0.0000%

----------

Best objective (UB): 7262.000
Best feasible solution (LB): 7262.000
Gap between the lower bound and upper bound: 0.000%

----------

Number of customers served: 45

Schedule for EV v0:
   [   0,  495) -> It remains parked at station s0.
   [ 495,  573) -> Service a request driving for customer c24 from s0 to s2.
   [ 573,  935) -> It remains parked at station s2, which was charging for charging.
   [ 935, 1011) -> Service a request driving for customer c6 from s2 to s1.
   [1011, 1035) -> It remains parked at station s1.
   [1035, 1126) -> Service a request driving for customer c28 from s1 to s2.
   [1126, tmax) -> It remains parked at station s2.

Schedule for EV v1:
   [   0,  425) -> It remains parked at station s0.
   [ 425,  523) -> Service a request driving for customer c6 from s0 to s2.
   [ 523, tmax) -> It remains parked at station s2.

Schedule for EV v2:
   [   0,  435) -> It remains parked at station s0.
   [ 435,  492) -> Service a request driving for customer c12 from s0 to s1.
   [ 492,  515) -> It remains parked at station s1, which was charging for charging.
   [ 515,  596) -> Service a request driving for customer c13 from s1 to s2.
   [ 596, 1060) -> It remains parked at station s2.
   [1060, 1138) -> Service a request driving for customer c9 from s2 to s0.
   [1138, 1340) -> It remains parked at station s0, which was charging for charging.
   [1340, 1402) -> Service a request driving for customer c22 from s0 to s1.
   [1402, tmax) -> It remains parked at station s1.

Schedule for EV v3:
   [   0,  420) -> It remains parked at station s0.
   [ 420,  518) -> Service a request driving for customer c37 from s0 to s2.
   [ 518,  540) -> It remains parked at station s2.
   [ 540,  636) -> Service a request driving for customer c43 from s2 to s1.
   [ 636,  680) -> It remains parked at station s1, which was charging for charging.
   [ 680,  717) -> Service a request driving for customer c43 from s1 to s0.
   [ 717,  740) -> It remains parked at station s0, which was charging for charging.
   [ 740,  833) -> Service a request driving for customer c44 from s0 to s2.
   [ 833, 1285) -> It remains parked at station s2, which was charging for charging.
   [1285, 1378) -> Service a request driving for customer c45 from s2 to s0.
   [1378, tmax) -> It remains parked at station s0, which was charging for charging.

Schedule for EV v4:
   [   0,  435) -> It remains parked at station s0.
   [ 435,  533) -> Service a request driving for customer c22 from s0 to s2.
   [ 533,  730) -> It remains parked at station s2, which was charging for charging.
   [ 730,  826) -> Service a request driving for customer c19 from s2 to s1.
   [ 826, tmax) -> It remains parked at station s1, which was charging for charging.

Schedule for EV v5:
   [   0,  555) -> It remains parked at station s0.
   [ 555,  602) -> Service a request driving for customer c7 from s0 to s1.
   [ 602,  885) -> It remains parked at station s1, which was charging for charging.
   [ 885,  961) -> Service a request driving for customer c9 from s1 to s2.
   [ 961, tmax) -> It remains parked at station s2.

Schedule for EV v6:
   [   0,  540) -> It remains parked at station s0.
   [ 540,  643) -> Service a request driving for customer c2 from s0 to s2.
   [ 643,  745) -> It remains parked at station s2, which was charging for charging.
   [ 745,  833) -> Service a request driving for customer c30 from s2 to s0.
   [ 833, 1065) -> It remains parked at station s0, which was charging for charging.
   [1065, 1163) -> Service a request driving for customer c27 from s0 to s2.
   [1163, tmax) -> It remains parked at station s2.

Schedule for EV v7:
   [   0,  425) -> It remains parked at station s0.
   [ 425,  467) -> Service a request driving for customer c48 from s0 to s1.
   [ 467,  535) -> It remains parked at station s1, which was charging for charging.
   [ 535,  611) -> Service a request driving for customer c12 from s1 to s2.
   [ 611, tmax) -> It remains parked at station s2.

Schedule for EV v8:
   [   0,  410) -> It remains parked at station s0, which was charging for charging.
   [ 410,  513) -> Service a request driving for customer c14 from s0 to s2.
   [ 513,  515) -> It remains parked at station s2.
   [ 515,  598) -> Service a request driving for customer c27 from s2 to s0.
   [ 598,  960) -> It remains parked at station s0, which was charging for charging.
   [ 960, 1063) -> Service a request driving for customer c37 from s0 to s2.
   [1063, 1110) -> It remains parked at station s2, which was charging for charging.
   [1110, 1196) -> Service a request driving for customer c29 from s2 to s1.
   [1196, tmax) -> It remains parked at station s1.

Schedule for EV v9:
   [   0,  445) -> It remains parked at station s1.
   [ 445,  521) -> Service a request driving for customer c1 from s1 to s2.
   [ 521,  535) -> It remains parked at station s2.
   [ 535,  621) -> Service a request driving for customer c41 from s2 to s1.
   [ 621,  665) -> It remains parked at station s1, which was charging for charging.
   [ 665,  751) -> Service a request driving for customer c21 from s1 to s2.
   [ 751,  980) -> It remains parked at station s2, which was charging for charging.
   [ 980, 1073) -> Service a request driving for customer c2 from s2 to s0.
   [1073, 1075) -> It remains parked at station s0, which was charging for charging.
   [1075, 1112) -> Service a request driving for customer c20 from s0 to s1.
   [1112, 1115) -> It remains parked at station s1.
   [1115, 1167) -> Service a request driving for customer c39 from s1 to s0.
   [1167, 1175) -> It remains parked at station s0.
   [1175, 1258) -> Service a request driving for customer c15 from s0 to s2.
   [1258, tmax) -> It remains parked at station s2.

Schedule for EV v10:
   [   0,  380) -> It remains parked at station s1.
   [ 380,  432) -> Service a request driving for customer c12 from s1 to s0.
   [ 432,  470) -> It remains parked at station s0.
   [ 470,  558) -> Service a request driving for customer c30 from s0 to s2.
   [ 558, 1005) -> It remains parked at station s2.
   [1005, 1096) -> Service a request driving for customer c4 from s2 to s1.
   [1096, tmax) -> It remains parked at station s1, which was charging for charging.

Schedule for EV v11:
   [   0,  490) -> It remains parked at station s1.
   [ 490,  547) -> Service a request driving for customer c48 from s1 to s0.
   [ 547,  555) -> It remains parked at station s0, which was charging for charging.
   [ 555,  612) -> Service a request driving for customer c47 from s0 to s1.
   [ 612, 1030) -> It remains parked at station s1, which was charging for charging.
   [1030, 1126) -> Service a request driving for customer c47 from s1 to s2.
   [1126, 1170) -> It remains parked at station s2, which was charging for charging.
   [1170, 1248) -> Service a request driving for customer c1 from s2 to s0.
   [1248, tmax) -> It remains parked at station s0, which was charging for charging.

Schedule for EV v12:
   [   0,  400) -> It remains parked at station s1.
   [ 400,  486) -> Service a request driving for customer c41 from s1 to s2.
   [ 486,  495) -> It remains parked at station s2, which was charging for charging.
   [ 495,  588) -> Service a request driving for customer c42 from s2 to s0.
   [ 588, 1030) -> It remains parked at station s0.
   [1030, 1077) -> Service a request driving for customer c17 from s0 to s1.
   [1077, 1080) -> It remains parked at station s1.
   [1080, 1122) -> Service a request driving for customer c17 from s1 to s0.
   [1122, 1135) -> It remains parked at station s0.
   [1135, 1182) -> Service a request driving for customer c36 from s0 to s1.
   [1182, 1235) -> It remains parked at station s1.
   [1235, 1306) -> Service a request driving for customer c29 from s1 to s2.
   [1306, tmax) -> It remains parked at station s2.

Schedule for EV v13:
   [   0,  340) -> It remains parked at station s1.
   [ 340,  426) -> Service a request driving for customer c4 from s1 to s2.
   [ 426,  505) -> It remains parked at station s2, which was charging for charging.
   [ 505,  583) -> Service a request driving for customer c18 from s2 to s0.
   [ 583, 1030) -> It remains parked at station s0, which was charging for charging.
   [1030, 1092) -> Service a request driving for customer c48 from s0 to s1.
   [1092, 1105) -> It remains parked at station s1, which was charging for charging.
   [1105, 1196) -> Service a request driving for customer c7 from s1 to s2.
   [1196, tmax) -> It remains parked at station s2, which was charging for charging.

Schedule for EV v14:
   [   0,  450) -> It remains parked at station s1.
   [ 450,  497) -> Service a request driving for customer c47 from s1 to s0.
   [ 497,  505) -> It remains parked at station s0, which was charging for charging.
   [ 505,  603) -> Service a request driving for customer c25 from s0 to s2.
   [ 603,  855) -> It remains parked at station s2, which was charging for charging.
   [ 855,  951) -> Service a request driving for customer c44 from s2 to s1.
   [ 951,  995) -> It remains parked at station s1, which was charging for charging.
   [ 995, 1057) -> Service a request driving for customer c15 from s1 to s0.
   [1057, 1110) -> It remains parked at station s0.
   [1110, 1172) -> Service a request driving for customer c30 from s0 to s1.
   [1172, 1325) -> It remains parked at station s1.
   [1325, 1362) -> Service a request driving for customer c5 from s1 to s0.
   [1362, tmax) -> It remains parked at station s0, which was charging for charging.

Schedule for EV v15:
   [   0,  435) -> It remains parked at station s1.
   [ 435,  497) -> Service a request driving for customer c39 from s1 to s0.
   [ 497,  530) -> It remains parked at station s0, which was charging for charging.
   [ 530,  577) -> Service a request driving for customer c49 from s0 to s1.
   [ 577,  580) -> It remains parked at station s1, which was charging for charging.
   [ 580,  622) -> Service a request driving for customer c32 from s1 to s0.
   [ 622, 1045) -> It remains parked at station s0, which was charging for charging.
   [1045, 1107) -> Service a request driving for customer c5 from s0 to s1.
   [1107, 1145) -> It remains parked at station s1.
   [1145, 1192) -> Service a request driving for customer c38 from s1 to s0.
   [1192, 1360) -> It remains parked at station s0, which was charging for charging.
   [1360, 1463) -> Service a request driving for customer c19 from s0 to s2.
   [1463, tmax) -> It remains parked at station s2.

Schedule for EV v16:
   [   0,  520) -> It remains parked at station s2.
   [ 520,  618) -> Service a request driving for customer c14 from s2 to s0.
   [ 618, 1075) -> It remains parked at station s0, which was charging for charging.
   [1075, 1132) -> Service a request driving for customer c13 from s0 to s1.
   [1132, 1185) -> It remains parked at station s1.
   [1185, 1271) -> Service a request driving for customer c13 from s1 to s2.
   [1271, tmax) -> It remains parked at station s2, which was charging for charging.

Schedule for EV v17:
   [   0,  935) -> It remains parked at station s2.
   [ 935, 1028) -> Service a request driving for customer c13 from s2 to s0.
   [1028, 1110) -> It remains parked at station s0, which was charging for charging.
   [1110, 1162) -> Service a request driving for customer c18 from s0 to s1.
   [1162, tmax) -> It remains parked at station s1, which was charging for charging.

Schedule for EV v18:
   [   0,  480) -> It remains parked at station s2.
   [ 480,  571) -> Service a request driving for customer c15 from s2 to s1.
   [ 571,  760) -> It remains parked at station s1.
   [ 760,  802) -> Service a request driving for customer c49 from s1 to s0.
   [ 802, 1030) -> It remains parked at station s0.
   [1030, 1072) -> Service a request driving for customer c46 from s0 to s1.
   [1072, 1125) -> It remains parked at station s1.
   [1125, 1167) -> Service a request driving for customer c0 from s1 to s0.
   [1167, tmax) -> It remains parked at station s0.

Schedule for EV v19:
   [   0,  470) -> It remains parked at station s2.
   [ 470,  558) -> Service a request driving for customer c5 from s2 to s0.
   [ 558, 1090) -> It remains parked at station s0, which was charging for charging.
   [1090, 1152) -> Service a request driving for customer c2 from s0 to s1.
   [1152, 1175) -> It remains parked at station s1.
   [1175, 1251) -> Service a request driving for customer c10 from s1 to s2.
   [1251, tmax) -> It remains parked at station s2, which was charging for charging.

Schedule for EV v20:
   [   0,  490) -> It remains parked at station s2.
   [ 490,  571) -> Service a request driving for customer c11 from s2 to s1.
   [ 571,  635) -> It remains parked at station s1, which was charging for charging.
   [ 635,  726) -> Service a request driving for customer c8 from s1 to s2.
   [ 726,  735) -> It remains parked at station s2.
   [ 735,  818) -> Service a request driving for customer c37 from s2 to s0.
   [ 818,  900) -> It remains parked at station s0.
   [ 900,  937) -> Service a request driving for customer c39 from s0 to s1.
   [ 937,  960) -> It remains parked at station s1, which was charging for charging.
   [ 960, 1041) -> Service a request driving for customer c45 from s1 to s2.
   [1041, 1130) -> It remains parked at station s2, which was charging for charging.
   [1130, 1228) -> Service a request driving for customer c47 from s2 to s0.
   [1228, tmax) -> It remains parked at station s0, which was charging for charging.

Schedule for EV v21:
   [   0, tmax) -> It remains parked at station s2.

Schedule for EV v22:
   [   0,  695) -> It remains parked at station s2.
   [ 695,  776) -> Service a request driving for customer c38 from s2 to s1.
   [ 776, 1295) -> It remains parked at station s1, which was charging for charging.
   [1295, 1386) -> Service a request driving for customer c2 from s1 to s2.
   [1386, tmax) -> It remains parked at station s2.

Schedule for EV v23:
   [   0, tmax) -> It remains parked at station s2.

Schedule for EV v24:
   [   0,  535) -> It remains parked at station s2.
   [ 535,  633) -> Service a request driving for customer c46 from s2 to s0.
   [ 633,  955) -> It remains parked at station s0, which was charging for charging.
   [ 955, 1002) -> Service a request driving for customer c42 from s0 to s1.
   [1002, 1050) -> It remains parked at station s1.
   [1050, 1087) -> Service a request driving for customer c19 from s1 to s0.
   [1087, 1090) -> It remains parked at station s0.
   [1090, 1147) -> Service a request driving for customer c10 from s0 to s1.
   [1147, 1160) -> It remains parked at station s1.
   [1160, 1207) -> Service a request driving for customer c11 from s1 to s0.
   [1207, 1270) -> It remains parked at station s0.
   [1270, 1373) -> Service a request driving for customer c0 from s0 to s2.
   [1373, tmax) -> It remains parked at station s2.

Schedule for EV v25:
   [   0,  735) -> It remains parked at station s2.
   [ 735,  821) -> Service a request driving for customer c22 from s2 to s1.
   [ 821, 1075) -> It remains parked at station s1, which was charging for charging.
   [1075, 1112) -> Service a request driving for customer c22 from s1 to s0.
   [1112, 1135) -> It remains parked at station s0.
   [1135, 1233) -> Service a request driving for customer c31 from s0 to s2.
   [1233, tmax) -> It remains parked at station s2.

Schedule for EV v26:
   [   0,  485) -> It remains parked at station s2.
   [ 485,  566) -> Service a request driving for customer c34 from s2 to s1.
   [ 566,  570) -> It remains parked at station s1.
   [ 570,  641) -> Service a request driving for customer c34 from s1 to s2.
   [ 641, 1140) -> It remains parked at station s2.
   [1140, 1236) -> Service a request driving for customer c24 from s2 to s1.
   [1236, tmax) -> It remains parked at station s1, which was charging for charging.

Schedule for EV v27:
   [   0, 1140) -> It remains parked at station s2.
   [1140, 1223) -> Service a request driving for customer c34 from s2 to s0.
   [1223, 1310) -> It remains parked at station s0, which was charging for charging.
   [1310, 1362) -> Service a request driving for customer c35 from s0 to s1.
   [1362, tmax) -> It remains parked at station s1, which was charging for charging.

Schedule for EV v28:
   [   0,  480) -> It remains parked at station s2.
   [ 480,  578) -> Service a request driving for customer c3 from s2 to s0.
   [ 578, 1095) -> It remains parked at station s0, which was charging for charging.
   [1095, 1157) -> Service a request driving for customer c14 from s0 to s1.
   [1157, tmax) -> It remains parked at station s1, which was charging for charging.

Set of satisfied customers
   {c0, c1, c2, c3, c4, c5, c6, c7, c8, c9, c10, c11, c12, c13, c14, c15, c17, c18, c19, c20, c21, c22, c24, c25, c27, c28, c29, c30, c31, c32, c34, c35, c36, c37, c38, c39, c41, c42, c43, c44, c45, c46, c47, c48, c49}

