Academic license - for non-commercial use only
Gurobi Optimizer version 9.0.3 build v9.0.3rc0 (linux64)
Optimize a model with 43596 rows, 29864 columns and 417825 nonzeros
Model fingerprint: 0x601fb04f
Variable types: 15417 continuous, 14447 integer (14447 binary)
Coefficient statistics:
  Matrix range     [1e+00, 4e+06]
  Objective range  [5e+01, 5e+02]
  Bounds range     [1e+00, 2e+06]
  RHS range        [1e+00, 2e+06]

Loaded user MIP start with objective 7685

Presolve removed 1166 rows and 716 columns
Presolve time: 1.20s
Presolved: 42430 rows, 29148 columns, 408723 nonzeros
Variable types: 38 continuous, 29110 integer (23085 binary)

Root simplex log...

Iteration    Objective       Primal Inf.    Dual Inf.      Time
   11881    2.0045965e+04   2.940633e+04   0.000000e+00      5s
   16476    2.0045963e+04   1.101476e+05   0.000000e+00     10s
   20219    2.0045961e+04   4.610026e+05   0.000000e+00     15s
   23600    2.0045960e+04   1.117575e+05   0.000000e+00     20s
   26744    2.0045959e+04   3.006067e+04   0.000000e+00     25s
   29890    2.0045958e+04   1.435114e+05   0.000000e+00     30s
   33034    2.0045957e+04   1.997843e+05   0.000000e+00     35s
   36059    2.0045956e+04   6.696518e+04   0.000000e+00     40s
   38963    2.0045953e+04   9.379020e+04   0.000000e+00     45s
   41988    1.9804953e+04   1.663800e+05   0.000000e+00     50s
   44892    1.9804949e+04   1.508055e+04   0.000000e+00     55s
   47554    1.9633948e+04   5.579510e+03   0.000000e+00     60s
   50216    1.9633945e+04   2.669950e+05   0.000000e+00     65s
   52757    1.9459942e+04   1.938963e+05   0.000000e+00     70s
   55298    1.9459940e+04   2.021059e+05   0.000000e+00     75s
   57839    1.9459939e+04   1.943374e+03   0.000000e+00     80s
   60259    1.9283941e+04   5.247034e+04   0.000000e+00     85s
   62558    1.9283940e+04   1.793448e+04   0.000000e+00     90s
   64978    1.9283940e+04   1.620163e+04   0.000000e+00     95s
   67277    1.9283939e+04   1.456875e+04   0.000000e+00    100s
   69455    1.9283938e+04   1.456671e+06   0.000000e+00    105s
   71754    1.9283937e+04   1.122539e+04   0.000000e+00    110s
   74053    1.9283936e+04   9.604449e+03   0.000000e+00    115s
   76231    1.9283936e+04   3.713310e+04   0.000000e+00    120s
   78530    1.9097936e+04   6.092032e+04   0.000000e+00    125s
   80708    1.9097935e+04   2.065883e+06   0.000000e+00    130s
   82765    1.8887934e+04   4.393010e+04   0.000000e+00    135s
   84943    1.8887933e+04   2.252346e+05   0.000000e+00    140s
   87000    1.8887933e+04   8.645014e+04   0.000000e+00    145s
   88936    1.8887932e+04   7.983004e+05   0.000000e+00    150s
   90993    1.8887932e+04   1.879778e+05   0.000000e+00    155s
   93050    1.8887930e+04   2.467559e+04   0.000000e+00    160s
   94986    1.8887930e+04   5.073637e+04   0.000000e+00    165s
   96922    1.8887928e+04   9.975533e+04   0.000000e+00    170s
   98858    1.8887928e+04   8.790106e+05   0.000000e+00    175s
  100794    1.8887927e+04   1.097489e+05   0.000000e+00    180s
  102730    1.8887926e+04   3.267221e+04   0.000000e+00    185s
  104666    1.8887926e+04   1.410278e+04   0.000000e+00    190s
  106602    1.8887925e+04   7.926343e+03   0.000000e+00    195s
  108538    1.8887925e+04   1.847844e+04   0.000000e+00    200s
  110353    1.8887924e+04   2.625671e+04   0.000000e+00    205s
  112168    1.8887923e+04   4.533183e+04   0.000000e+00    210s
  114104    1.8887923e+04   2.046630e+04   0.000000e+00    215s
  116040    1.8887922e+04   2.306478e+04   0.000000e+00    220s
  117855    1.8887921e+04   1.574533e+04   0.000000e+00    225s
  119670    1.8887921e+04   1.069506e+06   0.000000e+00    230s
  121485    1.8887920e+04   1.472049e+04   0.000000e+00    235s
  123179    1.8887920e+04   8.286273e+04   0.000000e+00    240s
  124994    1.8887919e+04   4.353857e+04   0.000000e+00    245s
  126688    1.8887918e+04   3.615260e+05   0.000000e+00    250s
  128130    1.8887917e+04   2.538108e+06   0.000000e+00    255s
  129666    1.8820915e+04   5.897460e+06   0.000000e+00    260s
  130949    1.8820912e+04   2.210922e+07   0.000000e+00    265s
  132243    1.8820907e+04   2.300589e+07   0.000000e+00    270s
  133423    1.8820903e+04   3.678052e+08   0.000000e+00    275s
  134574    1.8019920e+04   1.539904e+08   0.000000e+00    280s
  135715    1.7730926e+04   8.878312e+06   0.000000e+00    285s
  136857    1.7730923e+04   1.165153e+07   0.000000e+00    291s
  137910    1.7730919e+04   5.557159e+07   0.000000e+00    295s
  139085    1.7523923e+04   5.134180e+06   0.000000e+00    300s
  140106    1.7487927e+04   1.356747e+07   0.000000e+00    306s
  141007    1.7487925e+04   2.420557e+07   0.000000e+00    310s
  141928    1.7487922e+04   2.956346e+07   0.000000e+00    315s
  142918    1.7251936e+04   1.952890e+07   0.000000e+00    320s
  143878    1.6794939e+04   4.657594e+07   0.000000e+00    325s
  144828    1.6794937e+04   9.118944e+06   0.000000e+00    330s
  145758    1.6794934e+04   8.430634e+06   0.000000e+00    335s
  146628    1.6794933e+04   1.280549e+06   0.000000e+00    340s
  147539    1.6794932e+04   4.716642e+06   0.000000e+00    345s
  148429    1.6794930e+04   3.650659e+06   0.000000e+00    350s
  149239    1.6794929e+04   1.521433e+08   0.000000e+00    355s
  150159    1.6794928e+04   2.355843e+06   0.000000e+00    360s
  150989    1.6794927e+04   2.016701e+07   0.000000e+00    365s
  151909    1.6794925e+04   6.054849e+06   0.000000e+00    370s
  152829    1.6657929e+04   7.977385e+07   0.000000e+00    375s
  153709    1.6515925e+04   3.982296e+06   0.000000e+00    380s
  154549    1.6515924e+04   1.562040e+06   0.000000e+00    385s
  155473    1.6515923e+04   1.847622e+07   0.000000e+00    390s
  156416    1.6515921e+04   3.101064e+06   0.000000e+00    396s
  157261    1.6515920e+04   1.596174e+07   0.000000e+00    400s
  158122    1.6515919e+04   1.267912e+07   0.000000e+00    405s
  158983    1.6515918e+04   2.916127e+06   0.000000e+00    410s
  159915    1.6515916e+04   1.965658e+07   0.000000e+00    415s
  160750    1.6515915e+04   5.634688e+06   0.000000e+00    420s
  161601    1.6515913e+04   2.002107e+07   0.000000e+00    425s
  162511    1.6515911e+04   4.912652e+06   0.000000e+00    430s
  163382    1.6515910e+04   7.187779e+06   0.000000e+00    435s
  164252    1.6515908e+04   2.056056e+07   0.000000e+00    440s
  165134    1.6515907e+04   5.056817e+07   0.000000e+00    445s
  165966    1.6515905e+04   6.487041e+06   0.000000e+00    450s
  166869    1.6515903e+04   7.707294e+06   0.000000e+00    455s
  167811    1.6515901e+04   2.704438e+07   0.000000e+00    460s
  168622    1.6515899e+04   1.794733e+07   0.000000e+00    465s
  169593    1.6515897e+04   3.536901e+06   0.000000e+00    471s
  170393    1.6515895e+04   1.183568e+07   0.000000e+00    475s
  171213    1.6515894e+04   1.087863e+07   0.000000e+00    480s
  172074    1.6515892e+04   1.080316e+07   0.000000e+00    485s
  172944    1.6515891e+04   8.606548e+06   0.000000e+00    490s
  173735    1.6515889e+04   1.931712e+07   0.000000e+00    495s
  174690    1.6515888e+04   4.562324e+07   0.000000e+00    501s
  175533    1.6515886e+04   1.454019e+07   0.000000e+00    505s
  176377    1.6515884e+04   1.328145e+07   0.000000e+00    510s
  177333    1.6515882e+04   2.134761e+06   0.000000e+00    516s
  178125    1.6515881e+04   5.719089e+06   0.000000e+00    520s
  178997    1.6515879e+04   1.089368e+08   0.000000e+00    525s
  179867    1.6515877e+04   4.183185e+06   0.000000e+00    530s
  180717    1.6515876e+04   2.477945e+07   0.000000e+00    535s
  181541    1.6515874e+04   1.381410e+07   0.000000e+00    540s
  182474    1.6515873e+04   6.303886e+06   0.000000e+00    546s
  183319    1.6515871e+04   4.756273e+07   0.000000e+00    551s
  184043    1.6515870e+04   1.350660e+07   0.000000e+00    555s
  184888    1.6515869e+04   2.623258e+06   0.000000e+00    560s
  185691    1.6515868e+04   3.612167e+06   0.000000e+00    565s
  186462    1.6515866e+04   5.689690e+06   0.000000e+00    570s
  187302    1.6515864e+04   7.532964e+07   0.000000e+00    575s
  188083    1.6515863e+04   5.588040e+06   0.000000e+00    580s
  188833    1.6515861e+04   7.682533e+06   0.000000e+00    585s
  189635    1.6515860e+04   2.384175e+06   0.000000e+00    590s
  190508    1.6515858e+04   4.896197e+06   0.000000e+00    596s
  191290    1.6515856e+04   1.130788e+07   0.000000e+00    601s
  192114    1.6515854e+04   1.022963e+07   0.000000e+00    606s
  192786    1.6515853e+04   1.563211e+07   0.000000e+00    610s
  193632    1.6515851e+04   6.845651e+06   0.000000e+00    616s
  194324    1.6515849e+04   2.676707e+07   0.000000e+00    620s
  195164    1.6515846e+04   2.848651e+07   0.000000e+00    625s
  195975    1.6515844e+04   5.241605e+07   0.000000e+00    631s
  196787    1.6251851e+04   1.191423e+07   0.000000e+00    636s
  197481    1.6244850e+04   7.078247e+06   0.000000e+00    640s
  198294    1.6244848e+04   1.377588e+07   0.000000e+00    646s
  199019    1.6244845e+04   2.303129e+07   0.000000e+00    650s
  199853    1.6218858e+04   1.153028e+07   0.000000e+00    656s
  200554    1.6021853e+04   2.452708e+07   0.000000e+00    660s
  201384    1.6007855e+04   1.230901e+07   0.000000e+00    666s
  202099    1.6007853e+04   2.030472e+07   0.000000e+00    670s
  202859    1.6007852e+04   2.136378e+07   0.000000e+00    675s
  203579    1.6007850e+04   1.080611e+08   0.000000e+00    680s
  204371    1.6007847e+04   1.510596e+07   0.000000e+00    685s
  205041    1.6007846e+04   7.138280e+07   0.000000e+00    690s
  205822    1.6007842e+04   1.416447e+08   0.000000e+00    695s
  206613    1.6007838e+04   2.152702e+07   0.000000e+00    700s
  207333    1.5518859e+04   1.500181e+07   0.000000e+00    705s
  208095    1.5518857e+04   1.284159e+07   0.000000e+00    710s
  208808    1.5518854e+04   2.995551e+07   0.000000e+00    715s
  209600    1.5518852e+04   1.304797e+07   0.000000e+00    721s
  210310    1.5443857e+04   7.768612e+06   0.000000e+00    726s
  211091    1.5443854e+04   3.686314e+07   0.000000e+00    731s
  211774    1.5443853e+04   1.671412e+07   0.000000e+00    735s
  212544    1.5443850e+04   3.531907e+07   0.000000e+00    741s
  213304    1.5443847e+04   1.421625e+08   0.000000e+00    746s
  214028    1.5380858e+04   3.128937e+06   0.000000e+00    751s
  214753    1.5380856e+04   8.490226e+06   0.000000e+00    755s
  215493    1.5380855e+04   7.787427e+06   0.000000e+00    761s
  216183    1.5380853e+04   1.530901e+07   0.000000e+00    765s
  216963    1.5366858e+04   1.349926e+07   0.000000e+00    770s
  217633    1.5366857e+04   5.148318e+06   0.000000e+00    775s
  218433    1.5366855e+04   4.994769e+06   0.000000e+00    780s
  219124    1.5366854e+04   8.847309e+07   0.000000e+00    785s
  219825    1.5366853e+04   1.869486e+07   0.000000e+00    790s
  220648    1.5366852e+04   1.552275e+07   0.000000e+00    796s
  221308    1.5366850e+04   5.327563e+06   0.000000e+00    800s
  222098    1.5366848e+04   4.799882e+06   0.000000e+00    806s
  222749    1.5366848e+04   3.681755e+06   0.000000e+00    810s
  223532    1.5366846e+04   1.641499e+06   0.000000e+00    815s
  224253    1.5366845e+04   5.156556e+07   0.000000e+00    820s
  225045    1.5366844e+04   6.186017e+06   0.000000e+00    825s
  225806    1.5366842e+04   1.093604e+07   0.000000e+00    830s
  226557    1.5366841e+04   7.586092e+06   0.000000e+00    836s
  227261    1.5366840e+04   9.181023e+06   0.000000e+00    840s
  227984    1.5366839e+04   3.065748e+06   0.000000e+00    845s
  228787    1.5366837e+04   1.879439e+06   0.000000e+00    850s
  229590    1.5366836e+04   7.031008e+06   0.000000e+00    856s
  230253    1.5366834e+04   4.754393e+06   0.000000e+00    860s
  231044    1.5366833e+04   2.207803e+07   0.000000e+00    865s
  231805    1.5366831e+04   1.405554e+07   0.000000e+00    871s
  232495    1.5366830e+04   8.245645e+06   0.000000e+00    875s
  233235    1.5335835e+04   5.320778e+06   0.000000e+00    880s
  234025    1.5335833e+04   1.314849e+07   0.000000e+00    885s
  234808    1.5335831e+04   1.962312e+06   0.000000e+00    891s
  235533    1.5335829e+04   7.804677e+06   0.000000e+00    896s
  236235    1.5335828e+04   6.514721e+06   0.000000e+00    901s
  236947    1.5335826e+04   1.064972e+07   0.000000e+00    905s
  237638    1.5335824e+04   6.972648e+06   0.000000e+00    910s
  238461    1.5335822e+04   4.065320e+07   0.000000e+00    916s
  239201    1.5335819e+04   5.460616e+07   0.000000e+00    921s
  239971    1.5335817e+04   8.376463e+06   0.000000e+00    926s
  240642    1.5335815e+04   9.008230e+06   0.000000e+00    930s
  241443    1.5335812e+04   2.218726e+07   0.000000e+00    936s
  242103    1.5335810e+04   6.079154e+06   0.000000e+00    940s
  242828    1.5335808e+04   1.995147e+07   0.000000e+00    945s
  243499    1.5335806e+04   4.724135e+06   0.000000e+00    950s
  244279    1.5335803e+04   7.626438e+07   0.000000e+00    956s
Warning: Markowitz tolerance tightened to 0.03125
  245002    1.5335800e+04   1.427548e+08   0.000000e+00    960s
  245683    1.5284792e+04   5.661342e+08   0.000000e+00    965s
  246517    1.5215818e+04   2.811580e+07   0.000000e+00    971s
  247211    1.5210819e+04   5.745592e+07   0.000000e+00    975s
  247901    1.5210818e+04   3.959007e+06   0.000000e+00    980s
  248681    1.5179821e+04   2.397076e+07   0.000000e+00    985s
  249391    1.5179819e+04   6.083499e+06   0.000000e+00    990s
  250216    1.5179817e+04   2.102783e+07   0.000000e+00    996s
  250918    1.5179815e+04   7.134842e+06   0.000000e+00   1000s
  251611    1.5178312e+04   1.666971e+07   0.000000e+00   1005s
  252434    1.5178310e+04   8.940583e+06   0.000000e+00   1011s
  253149    1.5178308e+04   2.165710e+07   0.000000e+00   1015s
  253861    1.5178306e+04   2.558960e+07   0.000000e+00   1020s
  254641    1.5178304e+04   6.858320e+06   0.000000e+00   1025s
  255353    1.5174808e+04   5.373379e+06   0.000000e+00   1030s
  256094    1.5174806e+04   3.362790e+07   0.000000e+00   1035s
  256819    1.5174804e+04   7.230119e+06   0.000000e+00   1040s
  257612    1.5174802e+04   1.486097e+07   0.000000e+00   1045s
  258392    1.5174800e+04   4.454590e+06   0.000000e+00   1051s
  259102    1.5174799e+04   1.326746e+07   0.000000e+00   1055s
  259862    1.5174797e+04   3.786316e+06   0.000000e+00   1061s
  260592    1.5174795e+04   1.113644e+07   0.000000e+00   1066s
  261293    1.5174794e+04   3.047983e+07   0.000000e+00   1070s
  262093    1.5174792e+04   3.548102e+06   0.000000e+00   1076s
  262814    1.5174790e+04   5.735943e+06   0.000000e+00   1080s
  263514    1.5174789e+04   7.747383e+06   0.000000e+00   1085s
  264354    1.5174787e+04   2.282670e+06   0.000000e+00   1090s
  265084    1.5174786e+04   2.302937e+07   0.000000e+00   1095s
  265834    1.5174784e+04   5.185337e+06   0.000000e+00   1100s
  266594    1.5174781e+04   8.469107e+06   0.000000e+00   1105s
  267344    1.5174780e+04   1.362272e+06   0.000000e+00   1110s
  268184    1.5174778e+04   2.613158e+06   0.000000e+00   1116s
  268894    1.5174776e+04   3.047874e+06   0.000000e+00   1120s
  269724    1.5174775e+04   3.019760e+06   0.000000e+00   1125s
  270494    1.5174774e+04   4.379993e+06   0.000000e+00   1130s
  271324    1.5174772e+04   1.758124e+06   0.000000e+00   1136s
  272024    1.5174771e+04   9.337689e+06   0.000000e+00   1140s
  272864    1.5174770e+04   4.965186e+06   0.000000e+00   1146s
  273584    1.5174768e+04   3.172276e+06   0.000000e+00   1150s
  274434    1.5174767e+04   8.244845e+05   0.000000e+00   1156s
  275164    1.5174766e+04   9.920838e+06   0.000000e+00   1160s
  275944    1.5174764e+04   2.575716e+07   0.000000e+00   1165s
  276714    1.5174763e+04   5.180937e+06   0.000000e+00   1170s
  277484    1.5174761e+04   2.952115e+06   0.000000e+00   1175s
  278294    1.5174760e+04   4.153949e+06   0.000000e+00   1181s
  278994    1.5171264e+04   8.190027e+05   0.000000e+00   1185s
  279824    1.5171251e+04   4.508381e+07   0.000000e+00   1190s
  280594    1.5171250e+04   2.357276e+06   0.000000e+00   1195s
  281394    1.5171244e+04   1.222925e+06   0.000000e+00   1200s
  282214    1.5171241e+04   3.222069e+06   0.000000e+00   1205s
  282974    1.5171216e+04   1.171852e+07   0.000000e+00   1210s
  283744    1.5171210e+04   1.019506e+06   0.000000e+00   1215s
  284574    1.5171209e+04   1.108706e+07   0.000000e+00   1221s
  285324    1.5171209e+04   5.490394e+06   0.000000e+00   1225s
  286124    1.5171208e+04   1.000527e+06   0.000000e+00   1230s
  286884    1.5171207e+04   2.695155e+06   0.000000e+00   1235s
  287534    1.5171206e+04   5.767881e+05   0.000000e+00   1240s
  288294    1.5171199e+04   1.951408e+06   0.000000e+00   1245s
  289094    1.5171198e+04   1.249601e+06   0.000000e+00   1250s
  289844    1.5171197e+04   6.920032e+06   0.000000e+00   1255s
  290654    1.5171197e+04   3.311131e+06   0.000000e+00   1261s
  291374    1.5171195e+04   4.200505e+06   0.000000e+00   1265s
  292165    1.5167782e+04   7.653840e+07   0.000000e+00   1270s
  293005    1.5167774e+04   1.423605e+07   0.000000e+00   1276s
  293745    1.5167771e+04   1.045483e+07   0.000000e+00   1281s
  294485    1.5167769e+04   6.803574e+06   0.000000e+00   1286s
  295205    1.5167768e+04   1.144229e+07   0.000000e+00   1291s
  295915    1.5167766e+04   6.434865e+06   0.000000e+00   1295s
  296635    1.5167765e+04   3.742301e+06   0.000000e+00   1300s
  297405    1.5167764e+04   7.086546e+06   0.000000e+00   1305s
  298105    1.5167763e+04   6.470494e+05   0.000000e+00   1310s
  298875    1.5167762e+04   1.790571e+06   0.000000e+00   1315s
  299695    1.5167762e+04   2.950355e+06   0.000000e+00   1321s
  300375    1.5167761e+04   1.291493e+06   0.000000e+00   1325s
  301185    1.5167760e+04   7.902381e+05   0.000000e+00   1331s
  301925    1.5167759e+04   2.245637e+06   0.000000e+00   1335s
  302615    1.5167758e+04   5.182379e+06   0.000000e+00   1340s
  303365    1.5167758e+04   1.552750e+06   0.000000e+00   1345s
  304155    1.5167757e+04   2.167967e+06   0.000000e+00   1350s
  304905    1.5167757e+04   1.407765e+06   0.000000e+00   1355s
  305655    1.5167756e+04   1.091418e+06   0.000000e+00   1360s
  306355    1.5167756e+04   1.112456e+06   0.000000e+00   1365s
  307165    1.5167755e+04   3.159931e+06   0.000000e+00   1370s
  307895    1.5167754e+04   1.026542e+07   0.000000e+00   1375s
  308815    1.5167754e+04   1.661088e+06   0.000000e+00   1381s
  309475    1.5167753e+04   4.957544e+05   0.000000e+00   1386s
  310195    1.5167753e+04   1.087345e+06   0.000000e+00   1390s
  310955    1.5167753e+04   6.670024e+05   0.000000e+00   1395s
  311795    1.5167752e+04   6.457862e+05   0.000000e+00   1400s
  312535    1.5167752e+04   5.080105e+05   0.000000e+00   1405s
  313375    1.5167752e+04   1.681681e+05   0.000000e+00   1411s
  314105    1.5167751e+04   2.021309e+05   0.000000e+00   1415s
  314855    1.5167751e+04   5.211531e+05   0.000000e+00   1420s
  315715    1.5167751e+04   7.381689e+05   0.000000e+00   1425s
  316445    1.5167751e+04   1.747216e+05   0.000000e+00   1430s
  317295    1.5167751e+04   9.162616e+04   0.000000e+00   1435s
  318035    1.5167750e+04   9.674039e+03   0.000000e+00   1440s
  318830    1.5168000e+04   0.000000e+00   0.000000e+00   1445s
  318830    1.5168000e+04   0.000000e+00   0.000000e+00   1445s

Root relaxation: objective 1.516800e+04, 318830 iterations, 1443.86 seconds
Total elapsed time = 1611.64s
Total elapsed time = 1641.02s
Total elapsed time = 1657.80s
Total elapsed time = 1671.14s

    Nodes    |    Current Node    |     Objective Bounds      |     Work
 Expl Unexpl |  Obj  Depth IntInf | Incumbent    BestBd   Gap | It/Node Time

     0     0 15168.0000    0 10026 7685.00000 15168.0000  97.4%     - 1705s
     0     0 15168.0000    0 10838 7685.00000 15168.0000  97.4%     - 1841s
     0     0 15168.0000    0 10522 7685.00000 15168.0000  97.4%     - 1901s
     0     0 15168.0000    0 8773 7685.00000 15168.0000  97.4%     - 2439s
     0     0 15168.0000    0 9584 7685.00000 15168.0000  97.4%     - 2510s
     0     0 15168.0000    0 8762 7685.00000 15168.0000  97.4%     - 2938s
     0     0 15168.0000    0 9308 7685.00000 15168.0000  97.4%     - 2992s
     0     0 15168.0000    0 8781 7685.00000 15168.0000  97.4%     - 3156s
     0     0 15168.0000    0 9310 7685.00000 15168.0000  97.4%     - 3208s
     0     0 15168.0000    0 8334 7685.00000 15168.0000  97.4%     - 3303s
     0     0 15168.0000    0 8330 7685.00000 15168.0000  97.4%     - 3513s

Cutting planes:
  Implied bound: 837
  MIR: 29
  RLT: 317
  Relax-and-lift: 28

Explored 1 nodes (1081930 simplex iterations) in 3600.02 seconds
Thread count was 1 (of 40 available processors)

Solution count 1: 7685 

Time limit reached
Best objective 7.685000000000e+03, best bound 1.516799999999e+04, gap 97.3715%

----------

Best objective (UB): 15168.000
Best feasible solution (LB): 7685.000
Gap between the lower bound and upper bound: 97.372%

----------

Number of customers served: 40

Schedule for EV v0:
   [   0,  480) -> It remains parked at station s0.
   [ 480,  622) -> Service a request driving for customer c34 from s0 to s2.
   [ 622, 1005) -> It remains parked at station s2.
   [1005, 1142) -> Service a request driving for customer c34 from s2 to s0.
   [1142, 1190) -> It remains parked at station s0.
   [1190, 1310) -> Service a request driving for customer c10 from s0 to s3.
   [1310, tmax) -> It remains parked at station s3, which was charging for charging.

Schedule for EV v1:
   [   0,  535) -> It remains parked at station s0.
   [ 535,  672) -> Service a request driving for customer c23 from s0 to s2.
   [ 672,  950) -> It remains parked at station s2.
   [ 950, 1005) -> Service a request driving for customer c82 from s2 to s3.
   [1005, 1160) -> It remains parked at station s3.
   [1160, 1275) -> Service a request driving for customer c82 from s3 to s0.
   [1275, tmax) -> It remains parked at station s0.

Schedule for EV v2:
   [   0,  990) -> It remains parked at station s0.
   [ 990, 1122) -> Service a request driving for customer c5 from s0 to s2.
   [1122, tmax) -> It remains parked at station s2.

Schedule for EV v3:
   [   0,  485) -> It remains parked at station s0.
   [ 485,  617) -> Service a request driving for customer c26 from s0 to s2.
   [ 617, 1135) -> It remains parked at station s2.
   [1135, 1257) -> Service a request driving for customer c26 from s2 to s0.
   [1257, tmax) -> It remains parked at station s0.

Schedule for EV v4:
   [   0, 1000) -> It remains parked at station s0.
   [1000, 1122) -> Service a request driving for customer c59 from s0 to s2.
   [1122, tmax) -> It remains parked at station s2.

Schedule for EV v5:
   [   0, 1030) -> It remains parked at station s1.
   [1030, 1121) -> Service a request driving for customer c98 from s1 to s0.
   [1121, 1195) -> It remains parked at station s0.
   [1195, 1337) -> Service a request driving for customer c98 from s0 to s2.
   [1337, tmax) -> It remains parked at station s2.

Schedule for EV v6:
   [   0,  530) -> It remains parked at station s1.
   [ 530,  626) -> Service a request driving for customer c66 from s1 to s0.
   [ 626, 1100) -> It remains parked at station s0.
   [1100, 1232) -> Service a request driving for customer c66 from s0 to s2.
   [1232, tmax) -> It remains parked at station s2.

Schedule for EV v7:
   [   0,  520) -> It remains parked at station s1.
   [ 520,  611) -> Service a request driving for customer c28 from s1 to s0.
   [ 611, 1005) -> It remains parked at station s0, which was charging for charging.
   [1005, 1137) -> Service a request driving for customer c28 from s0 to s2.
   [1137, tmax) -> It remains parked at station s2, which was charging for charging.

Schedule for EV v8:
   [   0,  345) -> It remains parked at station s1.
   [ 345,  425) -> Service a request driving for customer c32 from s1 to s3.
   [ 425,  480) -> It remains parked at station s3, which was charging for charging.
   [ 480,  595) -> Service a request driving for customer c32 from s3 to s0.
   [ 595, 1020) -> It remains parked at station s0, which was charging for charging.
   [1020, 1140) -> Service a request driving for customer c32 from s0 to s3.
   [1140, tmax) -> It remains parked at station s3.

Schedule for EV v9:
   [   0, 1275) -> It remains parked at station s2.
   [1275, 1417) -> Service a request driving for customer c4 from s2 to s0.
   [1417, tmax) -> It remains parked at station s0.

Schedule for EV v10:
   [   0,  930) -> It remains parked at station s2.
   [ 930, 1067) -> Service a request driving for customer c62 from s2 to s0.
   [1067, 1125) -> It remains parked at station s0.
   [1125, 1257) -> Service a request driving for customer c62 from s0 to s2.
   [1257, 1290) -> It remains parked at station s2.
   [1290, 1345) -> Service a request driving for customer c55 from s2 to s3.
   [1345, tmax) -> It remains parked at station s3.

Schedule for EV v11:
   [   0, 1100) -> It remains parked at station s2.
   [1100, 1232) -> Service a request driving for customer c12 from s2 to s0.
   [1232, tmax) -> It remains parked at station s0.

Schedule for EV v12:
   [   0,  750) -> It remains parked at station s2.
   [ 750,  882) -> Service a request driving for customer c25 from s2 to s0.
   [ 882, 1105) -> It remains parked at station s0.
   [1105, 1225) -> Service a request driving for customer c57 from s0 to s3.
   [1225, tmax) -> It remains parked at station s3, which was charging for charging.

Schedule for EV v13:
   [   0,  540) -> It remains parked at station s2.
   [ 540,  672) -> Service a request driving for customer c107 from s2 to s0.
   [ 672, 1060) -> It remains parked at station s0.
   [1060, 1182) -> Service a request driving for customer c107 from s0 to s2.
   [1182, tmax) -> It remains parked at station s2.

Schedule for EV v14:
   [   0,  970) -> It remains parked at station s2.
   [ 970, 1102) -> Service a request driving for customer c108 from s2 to s0.
   [1102, 1185) -> It remains parked at station s0.
   [1185, 1305) -> Service a request driving for customer c108 from s0 to s3.
   [1305, tmax) -> It remains parked at station s3, which was charging for charging.

Schedule for EV v15:
   [   0,  420) -> It remains parked at station s3.
   [ 420,  540) -> Service a request driving for customer c101 from s3 to s0.
   [ 540,  645) -> It remains parked at station s0.
   [ 645,  762) -> Service a request driving for customer c95 from s0 to s2.
   [ 762,  965) -> It remains parked at station s2, which was charging for charging.
   [ 965, 1042) -> Service a request driving for customer c43 from s2 to s1.
   [1042, 1080) -> It remains parked at station s1.
   [1080, 1152) -> Service a request driving for customer c54 from s1 to s2.
   [1152, tmax) -> It remains parked at station s2.

Schedule for EV v16:
   [   0,  560) -> It remains parked at station s3.
   [ 560,  655) -> Service a request driving for customer c48 from s3 to s0.
   [ 655,  900) -> It remains parked at station s0.
   [ 900, 1042) -> Service a request driving for customer c48 from s0 to s2.
   [1042, 1050) -> It remains parked at station s2.
   [1050, 1125) -> Service a request driving for customer c27 from s2 to s3.
   [1125, 1175) -> It remains parked at station s3.
   [1175, 1280) -> Service a request driving for customer c27 from s3 to s0.
   [1280, tmax) -> It remains parked at station s0.

Schedule for EV v17:
   [   0,  480) -> It remains parked at station s3.
   [ 480,  585) -> Service a request driving for customer c93 from s3 to s0.
   [ 585,  910) -> It remains parked at station s0.
   [ 910, 1037) -> Service a request driving for customer c93 from s0 to s2.
   [1037, 1065) -> It remains parked at station s2.
   [1065, 1145) -> Service a request driving for customer c14 from s2 to s3.
   [1145, tmax) -> It remains parked at station s3.

Schedule for EV v18:
   [   0,  525) -> It remains parked at station s3.
   [ 525,  645) -> Service a request driving for customer c52 from s3 to s0.
   [ 645, 1120) -> It remains parked at station s0, which was charging for charging.
   [1120, 1226) -> Service a request driving for customer c52 from s0 to s1.
   [1226, 1280) -> It remains parked at station s1.
   [1280, 1347) -> Service a request driving for customer c33 from s1 to s2.
   [1347, tmax) -> It remains parked at station s2.

Schedule for EV v19:
   [   0,  730) -> It remains parked at station s3.
   [ 730,  820) -> Service a request driving for customer c74 from s3 to s1.
   [ 820, 1110) -> It remains parked at station s1.
   [1110, 1216) -> Service a request driving for customer c74 from s1 to s0.
   [1216, 1325) -> It remains parked at station s0.
   [1325, 1467) -> Service a request driving for customer c74 from s0 to s2.
   [1467, tmax) -> It remains parked at station s2, which was charging for charging.

Schedule for EV v20:
   [   0, 1050) -> It remains parked at station s3.
   [1050, 1160) -> Service a request driving for customer c2 from s3 to s0.
   [1160, tmax) -> It remains parked at station s0.

Schedule for EV v21:
   [   0,  430) -> It remains parked at station s3.
   [ 430,  540) -> Service a request driving for customer c17 from s3 to s0.
   [ 540,  550) -> It remains parked at station s0, which was charging for charging.
   [ 550,  655) -> Service a request driving for customer c17 from s0 to s3.
   [ 655,  680) -> It remains parked at station s3.
   [ 680,  790) -> Service a request driving for customer c44 from s3 to s0.
   [ 790,  815) -> It remains parked at station s0.
   [ 815,  930) -> Service a request driving for customer c44 from s0 to s3.
   [ 930, 1110) -> It remains parked at station s3.
   [1110, 1195) -> Service a request driving for customer c44 from s3 to s1.
   [1195, tmax) -> It remains parked at station s1.

Schedule for EV v22:
   [   0,  530) -> It remains parked at station s3.
   [ 530,  645) -> Service a request driving for customer c6 from s3 to s0.
   [ 645, 1345) -> It remains parked at station s0, which was charging for charging.
   [1345, 1436) -> Service a request driving for customer c6 from s0 to s1.
   [1436, tmax) -> It remains parked at station s1.

Schedule for EV v23:
   [   0,  420) -> It remains parked at station s3.
   [ 420,  505) -> Service a request driving for customer c97 from s3 to s1.
   [ 505,  940) -> It remains parked at station s1.
   [ 940, 1036) -> Service a request driving for customer c97 from s1 to s0.
   [1036, 1060) -> It remains parked at station s0.
   [1060, 1182) -> Service a request driving for customer c97 from s0 to s2.
   [1182, tmax) -> It remains parked at station s2, which was charging for charging.

Schedule for EV v24:
   [   0,  360) -> It remains parked at station s3.
   [ 360,  465) -> Service a request driving for customer c53 from s3 to s0.
   [ 465,  705) -> It remains parked at station s0, which was charging for charging.
   [ 705,  837) -> Service a request driving for customer c53 from s0 to s2.
   [ 837, 1130) -> It remains parked at station s2, which was charging for charging.
   [1130, 1185) -> Service a request driving for customer c53 from s2 to s3.
   [1185, 1265) -> It remains parked at station s3.
   [1265, 1360) -> Service a request driving for customer c53 from s3 to s0.
   [1360, tmax) -> It remains parked at station s0.

Schedule for EV v25:
   [   0,  425) -> It remains parked at station s3.
   [ 425,  505) -> Service a request driving for customer c78 from s3 to s2.
   [ 505,  510) -> It remains parked at station s2, which was charging for charging.
   [ 510,  580) -> Service a request driving for customer c78 from s2 to s3.
   [ 580,  965) -> It remains parked at station s3.
   [ 965, 1085) -> Service a request driving for customer c78 from s3 to s0.
   [1085, 1180) -> It remains parked at station s0.
   [1180, 1295) -> Service a request driving for customer c78 from s0 to s3.
   [1295, tmax) -> It remains parked at station s3.

Schedule for EV v26:
   [   0,  365) -> It remains parked at station s3, which was charging for charging.
   [ 365,  450) -> Service a request driving for customer c58 from s3 to s1.
   [ 450,  530) -> It remains parked at station s1.
   [ 530,  636) -> Service a request driving for customer c58 from s1 to s0.
   [ 636, 1010) -> It remains parked at station s0, which was charging for charging.
   [1010, 1106) -> Service a request driving for customer c58 from s0 to s1.
   [1106, 1110) -> It remains parked at station s1.
   [1110, 1182) -> Service a request driving for customer c41 from s1 to s2.
   [1182, tmax) -> It remains parked at station s2.

Schedule for EV v27:
   [   0,  995) -> It remains parked at station s3, which was charging for charging.
   [ 995, 1090) -> Service a request driving for customer c42 from s3 to s0.
   [1090, tmax) -> It remains parked at station s0.

Set of satisfied customers
   {c2, c4, c5, c6, c10, c12, c14, c17, c23, c25, c26, c27, c28, c32, c33, c34, c41, c42, c43, c44, c48, c52, c53, c54, c55, c57, c58, c59, c62, c66, c74, c78, c82, c93, c95, c97, c98, c101, c107, c108}

