Academic license - for non-commercial use only
Gurobi Optimizer version 9.0.3 build v9.0.3rc0 (linux64)
Optimize a model with 37282 rows, 25891 columns and 311729 nonzeros
Model fingerprint: 0x3e4503a5
Variable types: 13549 continuous, 12342 integer (12342 binary)
Coefficient statistics:
  Matrix range     [1e+00, 4e+06]
  Objective range  [6e+01, 5e+02]
  Bounds range     [1e+00, 2e+06]
  RHS range        [1e+00, 2e+06]

Loaded user MIP start with objective 5622

Presolve removed 876 rows and 605 columns
Presolve time: 0.78s
Presolved: 36406 rows, 25286 columns, 303467 nonzeros
Variable types: 16 continuous, 25270 integer (19603 binary)

Root simplex log...

Iteration    Objective       Primal Inf.    Dual Inf.      Time
   13693    2.2202958e+04   7.950352e+04   0.000000e+00      5s
   18515    2.2202947e+04   4.898703e+04   0.000000e+00     10s
   22458    2.2202944e+04   5.614511e+05   0.000000e+00     15s
   25775    2.2202942e+04   1.079037e+05   0.000000e+00     20s
   28967    2.2202940e+04   1.589976e+05   0.000000e+00     25s
   31884    2.2202938e+04   2.508375e+04   0.000000e+00     30s
   34466    2.2202937e+04   3.040308e+04   0.000000e+00     35s
   36837    2.2202936e+04   1.661118e+05   0.000000e+00     40s
   39354    2.2202936e+04   5.158255e+04   0.000000e+00     45s
   41788    2.2202935e+04   5.172258e+04   0.000000e+00     50s
   44122    2.2202935e+04   7.466573e+04   0.000000e+00     55s
   46447    2.2202934e+04   8.682119e+04   0.000000e+00     60s
   48766    2.2202933e+04   5.182205e+04   0.000000e+00     65s
   51228    2.2202932e+04   3.804002e+05   0.000000e+00     70s
   53663    2.2202931e+04   3.734393e+05   0.000000e+00     75s
   55880    2.2202931e+04   5.315586e+04   0.000000e+00     80s
   58097    2.2202930e+04   1.471392e+04   0.000000e+00     85s
   60327    2.2202930e+04   2.901524e+04   0.000000e+00     90s
   62554    2.2202929e+04   2.030600e+04   0.000000e+00     95s
   64659    2.2202929e+04   1.236556e+04   0.000000e+00    100s
   66767    2.2202928e+04   1.602244e+04   0.000000e+00    105s
   68887    2.2202922e+04   1.999475e+05   0.000000e+00    110s
   70989    2.2202922e+04   3.018900e+04   0.000000e+00    115s
   73100    2.2202921e+04   2.736544e+04   0.000000e+00    120s
   75220    2.2202921e+04   3.360198e+05   0.000000e+00    125s
   77227    2.2202920e+04   3.150666e+04   0.000000e+00    130s
   79255    2.2202919e+04   5.615548e+03   0.000000e+00    135s
   81360    2.2202918e+04   2.462231e+04   0.000000e+00    140s
   83477    2.2202917e+04   1.687042e+05   0.000000e+00    145s
   85484    2.2202917e+04   3.015463e+04   0.000000e+00    150s
   87613    2.2202916e+04   2.641947e+04   0.000000e+00    155s
   89626    2.2202916e+04   3.526566e+04   0.000000e+00    160s
   91618    2.2202916e+04   2.220893e+04   0.000000e+00    165s
   93625    2.2202915e+04   4.012978e+04   0.000000e+00    170s
   95632    2.2202915e+04   5.184724e+04   0.000000e+00    175s
   97526    2.2202914e+04   2.134881e+05   0.000000e+00    180s
   99554    2.2202913e+04   1.602989e+04   0.000000e+00    185s
  101460    2.2202912e+04   8.712434e+04   0.000000e+00    190s
  103366    2.2202912e+04   8.189684e+03   0.000000e+00    195s
  105376    2.2202912e+04   4.892700e+05   0.000000e+00    200s
  107181    2.2202911e+04   1.411165e+05   0.000000e+00    205s
  109054    2.2202910e+04   4.186104e+05   0.000000e+00    210s
  110610    2.1019919e+04   2.818030e+07   0.000000e+00    215s
  112153    2.1019916e+04   2.483340e+07   0.000000e+00    220s
  113473    2.1019914e+04   1.593647e+08   0.000000e+00    225s
  114739    2.0661916e+04   1.780146e+08   0.000000e+00    230s
  115931    2.0517916e+04   1.185381e+07   0.000000e+00    235s
  117196    1.9314928e+04   1.012597e+06   0.000000e+00    240s
  118286    1.9314926e+04   1.671323e+06   0.000000e+00    245s
  119466    1.9314925e+04   6.520411e+06   0.000000e+00    250s
  120516    1.9314923e+04   2.750570e+07   0.000000e+00    255s
  121701    1.9314908e+04   7.530006e+07   0.000000e+00    260s
  122714    1.9314904e+04   2.724348e+07   0.000000e+00    265s
  123850    1.9314901e+04   2.590935e+08   0.000000e+00    270s
  125058    1.9314895e+04   4.545928e+06   0.000000e+00    275s
  126111    1.9314888e+04   3.101721e+08   0.000000e+00    280s
  127144    1.8354926e+04   6.065534e+06   0.000000e+00    285s
  128237    1.8354919e+04   3.363905e+06   0.000000e+00    290s
  129340    1.8354916e+04   2.450820e+07   0.000000e+00    295s
  130408    1.7808938e+04   1.615858e+07   0.000000e+00    300s
  131448    1.7808937e+04   2.684629e+06   0.000000e+00    305s
  132567    1.7808934e+04   1.003972e+07   0.000000e+00    310s
  133600    1.7784926e+04   2.334910e+07   0.000000e+00    315s
  134668    1.7784922e+04   3.653090e+07   0.000000e+00    320s
  135674    1.7693425e+04   9.210046e+06   0.000000e+00    325s
  136754    1.7693423e+04   1.154659e+07   0.000000e+00    330s
  137750    1.7688422e+04   2.752934e+06   0.000000e+00    335s
  138846    1.7668922e+04   1.928048e+08   0.000000e+00    340s
  139845    1.7668917e+04   6.808481e+06   0.000000e+00    345s
  140810    1.7658914e+04   4.162986e+07   0.000000e+00    350s
  141920    1.7645914e+04   3.321081e+07   0.000000e+00    355s
  142950    1.7645907e+04   4.981587e+06   0.000000e+00    360s
  143956    1.7645905e+04   4.145444e+06   0.000000e+00    365s
  145019    1.7645903e+04   3.934577e+06   0.000000e+00    370s
  146135    1.7645900e+04   1.527716e+07   0.000000e+00    375s
  147141    1.7645897e+04   5.183297e+06   0.000000e+00    380s
  148191    1.7645894e+04   5.450654e+07   0.000000e+00    385s
  149287    1.7406904e+04   2.236471e+07   0.000000e+00    390s
  150307    1.7406897e+04   4.987015e+06   0.000000e+00    395s
  151337    1.7405893e+04   1.643505e+06   0.000000e+00    400s
  152387    1.7284894e+04   1.269682e+07   0.000000e+00    405s
  153427    1.7277895e+04   1.113990e+07   0.000000e+00    410s
  154507    1.7277893e+04   9.437743e+06   0.000000e+00    415s
  155572    1.7277890e+04   9.346988e+07   0.000000e+00    420s
  156552    1.7277889e+04   3.430885e+06   0.000000e+00    425s
  157668    1.7277888e+04   3.546922e+06   0.000000e+00    430s
  158778    1.7277885e+04   2.229223e+06   0.000000e+00    435s
  159758    1.7243888e+04   5.713706e+06   0.000000e+00    440s
  160874    1.7243886e+04   1.178761e+07   0.000000e+00    445s
  161894    1.7243884e+04   2.713337e+06   0.000000e+00    450s
  162844    1.7243882e+04   8.452027e+07   0.000000e+00    455s
  163914    1.7243878e+04   1.414917e+07   0.000000e+00    460s
  164940    1.7208889e+04   1.128914e+07   0.000000e+00    465s
  165940    1.7208888e+04   7.505052e+06   0.000000e+00    470s
  166920    1.7203889e+04   7.526799e+07   0.000000e+00    475s
  167989    1.7203888e+04   5.372975e+06   0.000000e+00    480s
  168999    1.7203885e+04   4.622236e+06   0.000000e+00    485s
  169999    1.7203877e+04   1.321778e+06   0.000000e+00    490s
  170979    1.7203875e+04   5.231708e+06   0.000000e+00    495s
  171989    1.7203874e+04   2.097312e+07   0.000000e+00    500s
  173119    1.7203871e+04   6.791234e+06   0.000000e+00    505s
  174129    1.7028885e+04   4.370757e+08   0.000000e+00    510s
  175098    1.6639890e+04   1.538013e+07   0.000000e+00    515s
  176144    1.6592900e+04   4.669263e+06   0.000000e+00    520s
  177119    1.6592897e+04   2.236998e+07   0.000000e+00    525s
  178088    1.6592896e+04   3.371352e+07   0.000000e+00    530s
  179158    1.6592889e+04   5.097644e+07   0.000000e+00    535s
  180228    1.6592882e+04   1.607078e+07   0.000000e+00    540s
  181330    1.6592873e+04   3.762144e+08   0.000000e+00    545s
  182299    1.6592868e+04   1.926163e+07   0.000000e+00    550s
  183397    1.6592859e+04   1.755470e+08   0.000000e+00    555s
  184476    1.6592855e+04   5.649630e+08   0.000000e+00    560s
  185466    1.6592848e+04   3.899231e+07   0.000000e+00    565s
  186596    1.5877941e+04   1.962610e+08   0.000000e+00    570s
  187586    1.5285928e+04   7.078895e+06   0.000000e+00    575s
  188656    1.5215936e+04   9.696175e+06   0.000000e+00    580s
  189672    1.5215934e+04   1.052443e+07   0.000000e+00    585s
  190695    1.5212928e+04   1.107361e+08   0.000000e+00    590s
  191775    1.5207926e+04   5.130458e+07   0.000000e+00    595s
  192775    1.5207918e+04   1.244547e+07   0.000000e+00    600s
  193947    1.5207913e+04   7.388726e+07   0.000000e+00    605s
  194997    1.5207907e+04   4.687897e+06   0.000000e+00    610s
  196079    1.5024909e+04   1.369696e+07   0.000000e+00    615s
  197190    1.5024907e+04   3.565067e+06   0.000000e+00    620s
  198302    1.5024901e+04   7.705495e+06   0.000000e+00    625s
  199378    1.5024899e+04   8.001201e+06   0.000000e+00    630s
  200476    1.5024897e+04   3.071694e+06   0.000000e+00    635s
  201422    1.5024895e+04   4.283657e+06   0.000000e+00    640s
  202497    1.5024893e+04   1.585966e+06   0.000000e+00    645s
  203536    1.5021897e+04   9.340067e+06   0.000000e+00    650s
  204546    1.5021895e+04   1.738851e+06   0.000000e+00    655s
  205592    1.5021894e+04   6.677897e+06   0.000000e+00    660s
  206664    1.5021894e+04   5.862196e+06   0.000000e+00    665s
  207674    1.5021893e+04   4.956349e+06   0.000000e+00    670s
  208674    1.5021892e+04   3.965098e+06   0.000000e+00    675s
  209704    1.5021891e+04   9.022972e+06   0.000000e+00    680s
  210734    1.5021889e+04   1.320912e+07   0.000000e+00    685s
  211834    1.4980886e+04   2.964392e+06   0.000000e+00    690s
  212806    1.4980884e+04   6.477891e+06   0.000000e+00    695s
  213802    1.4980883e+04   5.436882e+07   0.000000e+00    700s
  214825    1.4980881e+04   8.624302e+06   0.000000e+00    705s
  215825    1.4980879e+04   1.444940e+07   0.000000e+00    710s
  216884    1.4980877e+04   2.907266e+06   0.000000e+00    715s
  217913    1.4980875e+04   2.800479e+06   0.000000e+00    720s
  218985    1.4980873e+04   2.874181e+06   0.000000e+00    725s
  219991    1.4980872e+04   1.863574e+06   0.000000e+00    730s
  220979    1.4980870e+04   7.038119e+05   0.000000e+00    735s
  221947    1.4980869e+04   1.555668e+06   0.000000e+00    740s
  222932    1.4951871e+04   5.374800e+06   0.000000e+00    745s
  223932    1.4951870e+04   1.002815e+06   0.000000e+00    750s
  224981    1.4940871e+04   3.404891e+07   0.000000e+00    755s
  225981    1.4940870e+04   1.357752e+07   0.000000e+00    760s
  226974    1.4940868e+04   4.275839e+06   0.000000e+00    765s
  227975    1.4940866e+04   1.181161e+07   0.000000e+00    770s
  229063    1.4940864e+04   3.492414e+06   0.000000e+00    775s
  230133    1.4827851e+04   1.214299e+07   0.000000e+00    780s
  231103    1.4827848e+04   2.630714e+07   0.000000e+00    785s
  232219    1.4827846e+04   2.525196e+07   0.000000e+00    790s
  233279    1.4827836e+04   5.977125e+07   0.000000e+00    795s
  234155    1.4813859e+04   6.044467e+06   0.000000e+00    800s
  235128    1.4796210e+04   9.895661e+05   0.000000e+00    806s
  235968    1.4778869e+04   3.194224e+07   0.000000e+00    810s
  236893    1.4774366e+04   6.883611e+06   0.000000e+00    815s
  237791    1.4774365e+04   2.455520e+06   0.000000e+00    820s
  238641    1.4774364e+04   1.508980e+07   0.000000e+00    825s
  239480    1.4774363e+04   9.972503e+06   0.000000e+00    830s
  240320    1.4765102e+04   1.339295e+06   0.000000e+00    835s
  241190    1.4765101e+04   7.860541e+06   0.000000e+00    840s
  242086    1.4765099e+04   9.010482e+06   0.000000e+00    846s
  242848    1.4764516e+04   4.777336e+06   0.000000e+00    850s
  243690    1.4764513e+04   6.480186e+05   0.000000e+00    855s
  244603    1.4764512e+04   6.576344e+07   0.000000e+00    860s
  245643    1.4764511e+04   8.889442e+05   0.000000e+00    865s
  246742    1.4764510e+04   1.363567e+06   0.000000e+00    870s
  247722    1.4764509e+04   3.077086e+06   0.000000e+00    875s
  248772    1.4764508e+04   1.177765e+06   0.000000e+00    880s
  249865    1.4764507e+04   8.179024e+05   0.000000e+00    885s
  250881    1.4764506e+04   2.400208e+06   0.000000e+00    890s
  251910    1.4764506e+04   6.639124e+05   0.000000e+00    895s
  252939    1.4764505e+04   6.524288e+05   0.000000e+00    900s
  253899    1.4764504e+04   3.958696e+06   0.000000e+00    905s
  254979    1.4764503e+04   2.512484e+06   0.000000e+00    910s
  255949    1.4764502e+04   4.218791e+06   0.000000e+00    915s
  256968    1.4764502e+04   1.116778e+06   0.000000e+00    920s
  257997    1.4764501e+04   2.558684e+06   0.000000e+00    925s
  259029    1.4764499e+04   2.869461e+06   0.000000e+00    930s
  259965    1.4764499e+04   2.548019e+06   0.000000e+00    935s
  260988    1.4764498e+04   2.591193e+06   0.000000e+00    940s
  262014    1.4764497e+04   1.199176e+06   0.000000e+00    945s
  262954    1.4764497e+04   2.940475e+05   0.000000e+00    950s
  263960    1.4764496e+04   2.730617e+06   0.000000e+00    955s
  264974    1.4761822e+04   1.038154e+06   0.000000e+00    960s
  266020    1.4747090e+04   2.187440e+05   0.000000e+00    965s
  267139    1.4747090e+04   3.735699e+06   0.000000e+00    970s
  268209    1.4747089e+04   1.088530e+07   0.000000e+00    975s
  269241    1.4747089e+04   4.704323e+05   0.000000e+00    980s
  270357    1.4747088e+04   8.079708e+05   0.000000e+00    985s
  271406    1.4747088e+04   2.189111e+06   0.000000e+00    990s
  272522    1.4747087e+04   7.894397e+05   0.000000e+00    995s
  273600    1.4747087e+04   5.051465e+05   0.000000e+00   1000s
  274762    1.4747086e+04   2.478631e+07   0.000000e+00   1005s
  275847    1.4747086e+04   3.704525e+05   0.000000e+00   1010s
  277027    1.4747085e+04   6.417276e+05   0.000000e+00   1015s
  277997    1.4747084e+04   3.167136e+05   0.000000e+00   1020s
  279077    1.4747084e+04   2.587713e+05   0.000000e+00   1025s
  280167    1.4744586e+04   4.914383e+04   0.000000e+00   1030s
  281203    1.4744585e+04   6.152879e+05   0.000000e+00   1035s
  282352    1.4744585e+04   1.047978e+06   0.000000e+00   1040s
  283375    1.4744585e+04   2.072522e+05   0.000000e+00   1045s
  284511    1.4744584e+04   2.474385e+05   0.000000e+00   1050s
  285593    1.4744584e+04   5.137827e+05   0.000000e+00   1055s
  286606    1.4744584e+04   5.303760e+04   0.000000e+00   1060s
  287678    1.4744583e+04   6.427422e+04   0.000000e+00   1065s
  288817    1.4744583e+04   1.038254e+05   0.000000e+00   1070s
  289879    1.4744582e+04   5.441701e+04   0.000000e+00   1075s
  290915    1.4744582e+04   1.654674e+05   0.000000e+00   1080s
  291974    1.4744582e+04   1.249076e+05   0.000000e+00   1085s
  293113    1.4744582e+04   5.266638e+03   0.000000e+00   1090s
  293882    1.4744750e+04   0.000000e+00   0.000000e+00   1094s
  293882    1.4744750e+04   0.000000e+00   0.000000e+00   1094s

Root relaxation: objective 1.474475e+04, 293882 iterations, 1093.10 seconds
Total elapsed time = 1197.04s
Total elapsed time = 1214.42s
Total elapsed time = 1229.03s
Total elapsed time = 1241.15s

    Nodes    |    Current Node    |     Objective Bounds      |     Work
 Expl Unexpl |  Obj  Depth IntInf | Incumbent    BestBd   Gap | It/Node Time

     0     0 14744.7500    0 11363 5622.00000 14744.7500   162%     - 1257s
     0     0 14744.7500    0 11480 5622.00000 14744.7500   162%     - 1385s
     0     0 14744.7500    0 11339 5622.00000 14744.7500   162%     - 1441s
     0     0 14744.7500    0 10697 5622.00000 14744.7500   162%     - 1651s
     0     0 14744.7500    0 10575 5622.00000 14744.7500   162%     - 1707s
     0     0 14744.7500    0 9751 5622.00000 14744.7500   162%     - 2023s
     0     0 14744.7500    0 9863 5622.00000 14744.7500   162%     - 2073s
     0     0 14744.7500    0 9635 5622.00000 14744.7500   162%     - 2465s
     0     0 14744.7500    0 10060 5622.00000 14744.7500   162%     - 2528s
     0     0 14744.7500    0 9462 5622.00000 14744.7500   162%     - 2711s
     0     0 14744.7500    0 9456 5622.00000 14744.7500   162%     - 2930s
     0     2 14744.7500    0 9456 5622.00000 14744.7500   162%     - 3600s

Cutting planes:
  Implied bound: 708
  MIR: 10
  Zero half: 1
  RLT: 159
  Relax-and-lift: 32

Explored 1 nodes (971980 simplex iterations) in 3600.02 seconds
Thread count was 1 (of 40 available processors)

Solution count 1: 5622 

Time limit reached
Best objective 5.622000000000e+03, best bound 1.474400000000e+04, gap 162.2554%

----------

Best objective (UB): 14744.000
Best feasible solution (LB): 5622.000
Gap between the lower bound and upper bound: 162.255%

----------

Number of customers served: 30

Schedule for EV v0:
   [   0, 1340) -> It remains parked at station s0.
   [1340, 1466) -> Service a request driving for customer c81 from s0 to s2.
   [1466, tmax) -> It remains parked at station s2.

Schedule for EV v1:
   [   0,  665) -> It remains parked at station s0.
   [ 665,  780) -> Service a request driving for customer c78 from s0 to s1.
   [ 780, 1030) -> It remains parked at station s1.
   [1030, 1135) -> Service a request driving for customer c80 from s1 to s0.
   [1135, tmax) -> It remains parked at station s0.

Schedule for EV v2:
   [   0,  705) -> It remains parked at station s0.
   [ 705,  816) -> Service a request driving for customer c67 from s0 to s2.
   [ 816, 1050) -> It remains parked at station s2.
   [1050, 1161) -> Service a request driving for customer c67 from s2 to s0.
   [1161, 1230) -> It remains parked at station s0.
   [1230, 1345) -> Service a request driving for customer c67 from s0 to s1.
   [1345, tmax) -> It remains parked at station s1.

Schedule for EV v3:
   [   0,  500) -> It remains parked at station s0.
   [ 500,  610) -> Service a request driving for customer c25 from s0 to s1.
   [ 610,  790) -> It remains parked at station s1.
   [ 790,  910) -> Service a request driving for customer c25 from s1 to s0.
   [ 910, 1190) -> It remains parked at station s0.
   [1190, 1296) -> Service a request driving for customer c25 from s0 to s2.
   [1296, tmax) -> It remains parked at station s2.

Schedule for EV v4:
   [   0,  535) -> It remains parked at station s0.
   [ 535,  650) -> Service a request driving for customer c41 from s0 to s1.
   [ 650, 1095) -> It remains parked at station s1.
   [1095, 1200) -> Service a request driving for customer c41 from s1 to s0.
   [1200, tmax) -> It remains parked at station s0.

Schedule for EV v5:
   [   0, 1000) -> It remains parked at station s0.
   [1000, 1110) -> Service a request driving for customer c106 from s0 to s1.
   [1110, tmax) -> It remains parked at station s1.

Schedule for EV v6:
   [   0,  645) -> It remains parked at station s0.
   [ 645,  761) -> Service a request driving for customer c19 from s0 to s2.
   [ 761,  815) -> It remains parked at station s2.
   [ 815,  916) -> Service a request driving for customer c19 from s2 to s0.
   [ 916, 1000) -> It remains parked at station s0.
   [1000, 1111) -> Service a request driving for customer c19 from s0 to s2.
   [1111, 1225) -> It remains parked at station s2.
   [1225, 1331) -> Service a request driving for customer c19 from s2 to s0.
   [1331, tmax) -> It remains parked at station s0.

Schedule for EV v7:
   [   0,  465) -> It remains parked at station s1.
   [ 465,  585) -> Service a request driving for customer c30 from s1 to s0.
   [ 585,  860) -> It remains parked at station s0.
   [ 860,  976) -> Service a request driving for customer c30 from s0 to s2.
   [ 976, 1020) -> It remains parked at station s2, which was charging for charging.
   [1020, 1087) -> Service a request driving for customer c102 from s2 to s1.
   [1087, 1135) -> It remains parked at station s1.
   [1135, 1197) -> Service a request driving for customer c102 from s1 to s2.
   [1197, tmax) -> It remains parked at station s2.

Schedule for EV v8:
   [   0,  445) -> It remains parked at station s1.
   [ 445,  555) -> Service a request driving for customer c31 from s1 to s0.
   [ 555,  605) -> It remains parked at station s0.
   [ 605,  731) -> Service a request driving for customer c31 from s0 to s2.
   [ 731, tmax) -> It remains parked at station s2, which was charging for charging.

Schedule for EV v9:
   [   0,  690) -> It remains parked at station s1.
   [ 690,  800) -> Service a request driving for customer c5 from s1 to s0.
   [ 800,  815) -> It remains parked at station s0.
   [ 815,  935) -> Service a request driving for customer c5 from s0 to s1.
   [ 935, 1090) -> It remains parked at station s1.
   [1090, 1210) -> Service a request driving for customer c5 from s1 to s0.
   [1210, tmax) -> It remains parked at station s0.

Schedule for EV v10:
   [   0,  400) -> It remains parked at station s1.
   [ 400,  520) -> Service a request driving for customer c14 from s1 to s0.
   [ 520, 1005) -> It remains parked at station s0.
   [1005, 1125) -> Service a request driving for customer c14 from s0 to s1.
   [1125, 1370) -> It remains parked at station s1.
   [1370, 1480) -> Service a request driving for customer c14 from s1 to s0.
   [1480, tmax) -> It remains parked at station s0.

Schedule for EV v11:
   [   0,  495) -> It remains parked at station s1.
   [ 495,  610) -> Service a request driving for customer c8 from s1 to s0.
   [ 610,  905) -> It remains parked at station s0, which was charging for charging.
   [ 905, 1015) -> Service a request driving for customer c8 from s0 to s1.
   [1015, 1150) -> It remains parked at station s1.
   [1150, 1270) -> Service a request driving for customer c8 from s1 to s0.
   [1270, tmax) -> It remains parked at station s0.

Schedule for EV v12:
   [   0, 1105) -> It remains parked at station s1.
   [1105, 1205) -> Service a request driving for customer c6 from s1 to s0.
   [1205, tmax) -> It remains parked at station s0, which was charging for charging.

Schedule for EV v13:
   [   0,  825) -> It remains parked at station s1.
   [ 825,  902) -> Service a request driving for customer c26 from s1 to s2.
   [ 902, 1065) -> It remains parked at station s2.
   [1065, 1186) -> Service a request driving for customer c26 from s2 to s0.
   [1186, tmax) -> It remains parked at station s0, which was charging for charging.

Schedule for EV v14:
   [   0,  580) -> It remains parked at station s1.
   [ 580,  662) -> Service a request driving for customer c12 from s1 to s2.
   [ 662,  725) -> It remains parked at station s2.
   [ 725,  802) -> Service a request driving for customer c36 from s2 to s1.
   [ 802,  945) -> It remains parked at station s1.
   [ 945, 1017) -> Service a request driving for customer c71 from s1 to s2.
   [1017, 1095) -> It remains parked at station s2.
   [1095, 1162) -> Service a request driving for customer c91 from s2 to s1.
   [1162, tmax) -> It remains parked at station s1.

Schedule for EV v15:
   [   0,  520) -> It remains parked at station s2.
   [ 520,  636) -> Service a request driving for customer c94 from s2 to s0.
   [ 636,  805) -> It remains parked at station s0, which was charging for charging.
   [ 805,  916) -> Service a request driving for customer c103 from s0 to s2.
   [ 916, 1110) -> It remains parked at station s2.
   [1110, 1211) -> Service a request driving for customer c103 from s2 to s0.
   [1211, tmax) -> It remains parked at station s0.

Schedule for EV v16:
   [   0,  465) -> It remains parked at station s2.
   [ 465,  581) -> Service a request driving for customer c70 from s2 to s0.
   [ 581, 1060) -> It remains parked at station s0, which was charging for charging.
   [1060, 1175) -> Service a request driving for customer c70 from s0 to s1.
   [1175, tmax) -> It remains parked at station s1.

Schedule for EV v17:
   [   0,  580) -> It remains parked at station s2.
   [ 580,  706) -> Service a request driving for customer c105 from s2 to s0.
   [ 706,  990) -> It remains parked at station s0.
   [ 990, 1085) -> Service a request driving for customer c105 from s0 to s1.
   [1085, 1125) -> It remains parked at station s1.
   [1125, 1245) -> Service a request driving for customer c105 from s1 to s0.
   [1245, tmax) -> It remains parked at station s0.

Schedule for EV v18:
   [   0, 1065) -> It remains parked at station s2.
   [1065, 1176) -> Service a request driving for customer c29 from s2 to s0.
   [1176, tmax) -> It remains parked at station s0.

Schedule for EV v19:
   [   0, 1115) -> It remains parked at station s2.
   [1115, 1226) -> Service a request driving for customer c40 from s2 to s0.
   [1226, tmax) -> It remains parked at station s0.

Schedule for EV v20:
   [   0,  810) -> It remains parked at station s2.
   [ 810,  916) -> Service a request driving for customer c13 from s2 to s0.
   [ 916, 1135) -> It remains parked at station s0, which was charging for charging.
   [1135, 1240) -> Service a request driving for customer c54 from s0 to s1.
   [1240, tmax) -> It remains parked at station s1.

Schedule for EV v21:
   [   0,  425) -> It remains parked at station s2.
   [ 425,  497) -> Service a request driving for customer c53 from s2 to s1.
   [ 497, 1345) -> It remains parked at station s1, which was charging for charging.
   [1345, 1450) -> Service a request driving for customer c53 from s1 to s0.
   [1450, tmax) -> It remains parked at station s0, which was charging for charging.

Schedule for EV v22:
   [   0, 1120) -> It remains parked at station s2.
   [1120, 1207) -> Service a request driving for customer c69 from s2 to s1.
   [1207, tmax) -> It remains parked at station s1.

Set of satisfied customers
   {c5, c6, c8, c12, c13, c14, c19, c25, c26, c29, c30, c31, c36, c40, c41, c53, c54, c67, c69, c70, c71, c78, c80, c81, c91, c94, c102, c103, c105, c106}

