Academic license - for non-commercial use only
Gurobi Optimizer version 9.0.3 build v9.0.3rc0 (linux64)
Optimize a model with 500949 rows, 336530 columns and 3103456 nonzeros
Model fingerprint: 0xa378bdbf
Variable types: 170565 continuous, 165965 integer (165965 binary)
Coefficient statistics:
  Matrix range     [1e+00, 4e+06]
  Objective range  [3e+01, 6e+02]
  Bounds range     [1e+00, 2e+06]
  RHS range        [1e+00, 2e+06]

Loaded user MIP start with objective 690

Presolve removed 304339 rows and 203362 columns (presolve time = 6s) ...
Presolve removed 310106 rows and 205121 columns
Presolve time: 7.67s
Presolved: 190843 rows, 131409 columns, 818123 nonzeros
Variable types: 0 continuous, 131409 integer (122074 binary)

Root simplex log...

Iteration    Objective       Primal Inf.    Dual Inf.      Time
       0    9.1800000e+03   3.022500e+02   0.000000e+00      9s
    9264    9.1799992e+03   1.186245e+04   0.000000e+00     10s
   16216    9.1799986e+03   2.315822e+04   0.000000e+00     15s
   20817    9.1199985e+03   3.056652e+04   0.000000e+00     20s
   22721    9.1199984e+03   6.200579e+03   0.000000e+00     25s
   24149    9.1199984e+03   7.866505e+04   0.000000e+00     31s
   25339    9.1199983e+03   3.120710e+04   0.000000e+00     35s
   26767    9.1199983e+03   1.435503e+04   0.000000e+00     40s
   27957    9.1199982e+03   1.758474e+05   0.000000e+00     46s
   29147    9.1199982e+03   1.746981e+04   0.000000e+00     51s
   30575    9.1199981e+03   1.553743e+04   0.000000e+00     56s
   31527    9.1199981e+03   1.630295e+04   0.000000e+00     61s
   32479    9.1199980e+03   9.855791e+03   0.000000e+00     66s
   33431    9.1199980e+03   3.220794e+04   0.000000e+00     70s
   34383    9.1199980e+03   3.178331e+04   0.000000e+00     75s
   35335    9.1199980e+03   1.629738e+06   0.000000e+00     80s
   36525    9.1199979e+03   3.995751e+05   0.000000e+00     85s
   37715    9.1199978e+03   6.007843e+03   0.000000e+00     91s
   38667    9.1199978e+03   6.863996e+05   0.000000e+00     96s
   39381    9.1199977e+03   5.471172e+04   0.000000e+00    100s
   40333    9.1199977e+03   8.663524e+03   0.000000e+00    105s
   41285    9.1199977e+03   2.852078e+04   0.000000e+00    111s
   42237    9.1199977e+03   1.587723e+04   0.000000e+00    116s
   43189    9.1199976e+03   5.394140e+04   0.000000e+00    121s
   43903    9.1199976e+03   7.811322e+03   0.000000e+00    126s
   44617    9.1199976e+03   2.567783e+04   0.000000e+00    130s
   45569    9.1199976e+03   3.699763e+04   0.000000e+00    136s
   46283    9.1199976e+03   2.753051e+03   0.000000e+00    141s
   47235    9.1199975e+03   2.281101e+04   0.000000e+00    146s
   47949    9.1199975e+03   2.032827e+05   0.000000e+00    151s
   48663    9.1199975e+03   5.500341e+03   0.000000e+00    155s
   49377    9.1199975e+03   3.893892e+05   0.000000e+00    160s
   50329    9.1199975e+03   1.555903e+04   0.000000e+00    166s
   51043    9.1199975e+03   5.530342e+04   0.000000e+00    170s
   51757    9.1199974e+03   4.392694e+05   0.000000e+00    175s
   52709    9.1199974e+03   7.797115e+04   0.000000e+00    181s
   53423    9.1199974e+03   1.110847e+04   0.000000e+00    186s
   54137    9.1199974e+03   7.676611e+03   0.000000e+00    191s
   54843    9.1199974e+03   5.603326e+03   0.000000e+00    196s
   55557    9.1199974e+03   1.662217e+04   0.000000e+00    200s
   56271    9.1199974e+03   2.148472e+04   0.000000e+00    205s
   57207    9.1199973e+03   1.387227e+04   0.000000e+00    211s
   57905    9.1199973e+03   1.083560e+04   0.000000e+00    216s
   58619    9.1199973e+03   1.272287e+04   0.000000e+00    220s
   59571    9.1199973e+03   1.954821e+04   0.000000e+00    226s
   60277    9.1199973e+03   1.637743e+03   0.000000e+00    231s
   60983    9.1199973e+03   2.605471e+03   0.000000e+00    236s
   61643    9.1199972e+03   3.854492e+04   0.000000e+00    241s
   62331    9.1199972e+03   2.490078e+03   0.000000e+00    246s
   63045    9.1199972e+03   6.017760e+03   0.000000e+00    251s
   63743    9.1199972e+03   5.300286e+03   0.000000e+00    255s
   64403    9.1199972e+03   5.497817e+03   0.000000e+00    261s
   65091    9.1199972e+03   7.848665e+03   0.000000e+00    266s
   65771    9.1199972e+03   3.131293e+03   0.000000e+00    271s
   66451    9.1199972e+03   5.601040e+03   0.000000e+00    276s
   67139    9.1199972e+03   4.342300e+03   0.000000e+00    281s
   67845    9.1199971e+03   8.912387e+03   0.000000e+00    285s
   68505    9.1199971e+03   2.916887e+03   0.000000e+00    290s
   69201    9.1199971e+03   2.200327e+03   0.000000e+00    296s
   69897    9.1199971e+03   4.540463e+03   0.000000e+00    301s
   70587    9.1199971e+03   4.661363e+03   0.000000e+00    306s
   71257    9.1199971e+03   1.161484e+04   0.000000e+00    311s
   71917    9.1199971e+03   6.710902e+04   0.000000e+00    317s
   72367    9.1199971e+03   1.445178e+05   0.000000e+00    320s
   73017    9.1199971e+03   5.218521e+03   0.000000e+00    325s
   73715    9.1199970e+03   1.916075e+04   0.000000e+00    331s
   74413    9.1199970e+03   1.947553e+04   0.000000e+00    336s
   75073    9.1199970e+03   1.655066e+04   0.000000e+00    341s
   75779    9.1199970e+03   5.951299e+03   0.000000e+00    346s
   76229    9.1199970e+03   1.706746e+04   0.000000e+00    350s
   76899    9.1199970e+03   1.763540e+04   0.000000e+00    356s
   77589    9.1199970e+03   3.934586e+04   0.000000e+00    361s
   78279    9.1199970e+03   8.801169e+03   0.000000e+00    367s
   78739    9.1199970e+03   7.875186e+04   0.000000e+00    370s
   79427    9.1199970e+03   3.296132e+04   0.000000e+00    375s
   80107    9.1199970e+03   1.158806e+03   0.000000e+00    381s
   80777    9.1199970e+03   1.394832e+04   0.000000e+00    386s
   81455    9.1199969e+03   2.965623e+03   0.000000e+00    392s
   81905    9.1199969e+03   7.407755e+03   0.000000e+00    395s
   82595    9.1199969e+03   1.758492e+05   0.000000e+00    401s
   83293    9.1199969e+03   6.850034e+03   0.000000e+00    406s
   83973    9.1199969e+03   1.479023e+03   0.000000e+00    411s
   84643    9.1199969e+03   9.074233e+03   0.000000e+00    417s
   85093    9.1199969e+03   4.799534e+03   0.000000e+00    420s
   85789    9.1199969e+03   1.450017e+03   0.000000e+00    426s
   86487    9.1199969e+03   2.579541e+03   0.000000e+00    431s
   87167    9.1199969e+03   1.593973e+03   0.000000e+00    437s
   87617    9.1199969e+03   5.687507e+02   0.000000e+00    440s
   88323    9.1199969e+03   1.225867e+03   0.000000e+00    446s
   89001    9.1199969e+03   1.208158e+04   0.000000e+00    451s
   89441    9.1199969e+03   1.235800e+03   0.000000e+00    455s
   90121    9.1199969e+03   9.533906e+02   0.000000e+00    461s
   90809    9.1199969e+03   5.820247e+03   0.000000e+00    466s
   91523    9.1199969e+03   7.578020e+03   0.000000e+00    472s
   91999    9.1199969e+03   9.785697e+02   0.000000e+00    475s
   92659    9.1199969e+03   2.912225e+03   0.000000e+00    481s
   93329    9.1199969e+03   1.397922e+03   0.000000e+00    487s
   93779    9.1199969e+03   7.135617e+02   0.000000e+00    491s
   94477    9.1199969e+03   2.174034e+03   0.000000e+00    496s
   94945    9.1199969e+03   2.453228e+03   0.000000e+00    500s
   95635    9.1199969e+03   6.343615e+02   0.000000e+00    506s
   96103    9.1199969e+03   3.062003e+05   0.000000e+00    510s
   96801    9.1199969e+03   7.124096e+02   0.000000e+00    516s
   97251    9.1199969e+03   3.051539e+02   0.000000e+00    520s
   97957    9.1199969e+03   1.334142e+03   0.000000e+00    526s
   98433    9.1199969e+03   2.618827e+02   0.000000e+00    530s
   99123    9.1199969e+03   3.382367e+03   0.000000e+00    536s
   99591    9.1199969e+03   4.292912e+02   0.000000e+00    540s
  100305    9.1199969e+03   1.882763e+03   0.000000e+00    546s
  101019    9.1199969e+03   1.408849e+03   0.000000e+00    551s
  101495    9.1199969e+03   9.008492e+04   0.000000e+00    555s
  102209    9.1199969e+03   2.177623e+02   0.000000e+00    561s
  102915    9.1199969e+03   2.891932e+02   0.000000e+00    566s
  103391    9.1199969e+03   1.478524e+03   0.000000e+00    570s
  104105    9.1199969e+03   1.107791e+02   0.000000e+00    576s
  104581    9.1199969e+03   4.038832e+04   0.000000e+00    581s
  105295    9.1199969e+03   2.409191e+02   0.000000e+00    586s
  105763    9.1199969e+03   3.078557e+00   0.000000e+00    591s
  106477    9.1199969e+03   1.425854e+04   0.000000e+00    597s
  106953    9.1199969e+03   2.659940e+00   0.000000e+00    601s
  107667    9.1199969e+03   2.351615e+00   0.000000e+00    607s
  108143    9.1199969e+03   1.021798e-01   0.000000e+00    611s
  108456    9.1200000e+03   0.000000e+00   0.000000e+00    613s
  108456    9.1200000e+03   0.000000e+00   0.000000e+00    614s

Root relaxation: objective 9.120000e+03, 108456 iterations, 605.57 seconds
Total elapsed time = 733.29s
Total elapsed time = 1079.85s

    Nodes    |    Current Node    |     Objective Bounds      |     Work
 Expl Unexpl |  Obj  Depth IntInf | Incumbent    BestBd   Gap | It/Node Time

     0     0 9120.00000    0 9955  690.00000 9120.00000  1222%     - 1520s
H    0     0                    3240.0000000 9120.00000   181%     - 1521s
     0     0 9120.00000    0 11903 3240.00000 9120.00000   181%     - 1682s
H    0     0                    4740.0000000 9120.00000  92.4%     - 1684s
     0     0 9120.00000    0 12135 4740.00000 9120.00000  92.4%     - 1732s
     0     0 9120.00000    0 8516 4740.00000 9120.00000  92.4%     - 2230s
H    0     0                    4830.0000000 9120.00000  88.8%     - 2231s
     0     0 9120.00000    0 8052 4830.00000 9120.00000  88.8%     - 2277s
     0     0 9120.00000    0 7883 4830.00000 9120.00000  88.8%     - 2695s
H    0     0                    5040.0000000 9120.00000  81.0%     - 2696s
     0     0 9120.00000    0 8853 5040.00000 9120.00000  81.0%     - 2745s
     0     0 9120.00000    0 8210 5040.00000 9120.00000  81.0%     - 3084s
     0     0 9120.00000    0 8532 5040.00000 9120.00000  81.0%     - 3134s
     0     0 9120.00000    0 10957 5040.00000 9120.00000  81.0%     - 3600s

Cutting planes:
  Gomory: 1
  Implied bound: 139
  MIR: 41
  StrongCG: 1
  RLT: 134

Explored 1 nodes (1435793 simplex iterations) in 3600.07 seconds
Thread count was 1 (of 40 available processors)

Solution count 5: 5040 4830 4740 ... 690

Time limit reached
Best objective 5.040000000000e+03, best bound 9.120000000000e+03, gap 80.9524%

----------

Best objective (UB): 9120.000
Best feasible solution (LB): 5040.000
Gap between the lower bound and upper bound: 80.952%

----------

Number of customers served: 27

Schedule for EV v0:
   [   0, 1575) -> It remains parked at station s0.

Schedule for EV v1:
   [   0, 1575) -> It remains parked at station s0.

Schedule for EV v2:
   [   0, 1575) -> It remains parked at station s0.

Schedule for EV v3:
   [   0, 1575) -> It remains parked at station s0.

Schedule for EV v4:
   [   0, 1575) -> It remains parked at station s0.

Schedule for EV v5:
   [   0,  433) -> It remains parked at station s0.
   [ 433,  613) -> Service a request driving for customer c12 from s0 to s1.
   [ 613,  905) -> It remains parked at station s1.
   [ 905,  965) -> Service a request driving for customer c10 from s1 to s0.
   [ 965, 1575) -> It remains parked at station s0.

Schedule for EV v6:
   [   0, 1575) -> It remains parked at station s0.

Schedule for EV v7:
   [   0, 1575) -> It remains parked at station s0.

Schedule for EV v8:
   [   0, 1575) -> It remains parked at station s0.

Schedule for EV v9:
   [   0,  547) -> It remains parked at station s1.
   [ 547,  757) -> Service a request driving for customer c21 from s1 to s10.
   [ 757, 1093) -> It remains parked at station s10.
   [1093, 1123) -> Service a request driving for customer c20 from s10 to s8.
   [1123, 1325) -> It remains parked at station s8, which was charging for charging.
   [1325, 1415) -> Service a request driving for customer c35 from s8 to s6.
   [1415, 1575) -> It remains parked at station s6, which was charging for charging.

Schedule for EV v10:
   [   0,  915) -> It remains parked at station s1.
   [ 915,  945) -> Service a request driving for customer c7 from s1 to s2.
   [ 945, 1575) -> It remains parked at station s2.

Schedule for EV v11:
   [   0,  549) -> It remains parked at station s1.
   [ 549,  669) -> Service a request driving for customer c1 from s1 to s0.
   [ 669, 1575) -> It remains parked at station s0.

Schedule for EV v12:
   [   0,  974) -> It remains parked at station s1.
   [ 974, 1064) -> Service a request driving for customer c36 from s1 to s1.
   [1064, 1575) -> It remains parked at station s1.

Schedule for EV v13:
   [   0, 1575) -> It remains parked at station s1.

Schedule for EV v14:
   [   0,  905) -> It remains parked at station s1.
   [ 905,  965) -> Service a request driving for customer c0 from s1 to s0.
   [ 965, 1575) -> It remains parked at station s0.

Schedule for EV v15:
   [   0, 1575) -> It remains parked at station s1.

Schedule for EV v16:
   [   0, 1575) -> It remains parked at station s1.

Schedule for EV v17:
   [   0, 1575) -> It remains parked at station s2.

Schedule for EV v18:
   [   0,  730) -> It remains parked at station s2.
   [ 730,  790) -> Service a request driving for customer c24 from s2 to s4.
   [ 790,  973) -> It remains parked at station s4.
   [ 973, 1003) -> Service a request driving for customer c31 from s4 to s4.
   [1003, 1085) -> It remains parked at station s4, which was charging for charging.
   [1085, 1235) -> Service a request driving for customer c17 from s4 to s9.
   [1235, 1575) -> It remains parked at station s9, which was charging for charging.

Schedule for EV v19:
   [   0, 1575) -> It remains parked at station s2.

Schedule for EV v20:
   [   0,  429) -> It remains parked at station s2.
   [ 429,  519) -> Service a request driving for customer c15 from s2 to s10.
   [ 519, 1575) -> It remains parked at station s10.

Schedule for EV v21:
   [   0, 1575) -> It remains parked at station s2.

Schedule for EV v22:
   [   0,  793) -> It remains parked at station s2.
   [ 793,  853) -> Service a request driving for customer c37 from s2 to s0.
   [ 853, 1575) -> It remains parked at station s0.

Schedule for EV v23:
   [   0, 1575) -> It remains parked at station s2.

Schedule for EV v24:
   [   0, 1575) -> It remains parked at station s2.

Schedule for EV v25:
   [   0,  547) -> It remains parked at station s2.
   [ 547,  637) -> Service a request driving for customer c13 from s2 to s0.
   [ 637, 1575) -> It remains parked at station s0.

Schedule for EV v26:
   [   0, 1575) -> It remains parked at station s3.

Schedule for EV v27:
   [   0, 1575) -> It remains parked at station s3.

Schedule for EV v28:
   [   0, 1575) -> It remains parked at station s3.

Schedule for EV v29:
   [   0,  736) -> It remains parked at station s3.
   [ 736,  796) -> Service a request driving for customer c14 from s3 to s3.
   [ 796, 1575) -> It remains parked at station s3.

Schedule for EV v30:
   [   0, 1575) -> It remains parked at station s3.

Schedule for EV v31:
   [   0,  855) -> It remains parked at station s3.
   [ 855,  945) -> Service a request driving for customer c3 from s3 to s3.
   [ 945, 1575) -> It remains parked at station s3.

Schedule for EV v32:
   [   0, 1575) -> It remains parked at station s3.

Schedule for EV v33:
   [   0, 1575) -> It remains parked at station s3.

Schedule for EV v34:
   [   0,  728) -> It remains parked at station s4.
   [ 728,  758) -> Service a request driving for customer c9 from s4 to s3.
   [ 758, 1206) -> It remains parked at station s3.
   [1206, 1386) -> Service a request driving for customer c14 from s3 to s1.
   [1386, 1575) -> It remains parked at station s1, which was charging for charging.

Schedule for EV v35:
   [   0,  667) -> It remains parked at station s4.
   [ 667,  727) -> Service a request driving for customer c10 from s4 to s6.
   [ 727, 1209) -> It remains parked at station s6, which was charging for charging.
   [1209, 1239) -> Service a request driving for customer c12 from s6 to s4.
   [1239, 1575) -> It remains parked at station s4, which was charging for charging.

Schedule for EV v36:
   [   0, 1575) -> It remains parked at station s4.

Schedule for EV v37:
   [   0, 1575) -> It remains parked at station s4.

Schedule for EV v38:
   [   0,  490) -> It remains parked at station s4.
   [ 490,  520) -> Service a request driving for customer c20 from s4 to s5.
   [ 520, 1575) -> It remains parked at station s5.

Schedule for EV v39:
   [   0,  975) -> It remains parked at station s4.
   [ 975, 1065) -> Service a request driving for customer c7 from s4 to s3.
   [1065, 1575) -> It remains parked at station s3, which was charging for charging.

Schedule for EV v40:
   [   0, 1575) -> It remains parked at station s4.

Schedule for EV v41:
   [   0,  908) -> It remains parked at station s4.
   [ 908, 1088) -> Service a request driving for customer c39 from s4 to s11.
   [1088, 1575) -> It remains parked at station s11, which was charging for charging.

Schedule for EV v42:
   [   0, 1030) -> It remains parked at station s5.
   [1030, 1060) -> Service a request driving for customer c22 from s5 to s2.
   [1060, 1334) -> It remains parked at station s2.
   [1334, 1424) -> Service a request driving for customer c33 from s2 to s5.
   [1424, 1575) -> It remains parked at station s5.

Schedule for EV v43:
   [   0, 1276) -> It remains parked at station s5.
   [1276, 1366) -> Service a request driving for customer c27 from s5 to s4.
   [1366, 1575) -> It remains parked at station s4.

Schedule for EV v44:
   [   0, 1575) -> It remains parked at station s5.

Schedule for EV v45:
   [   0, 1575) -> It remains parked at station s5.

Schedule for EV v46:
   [   0, 1575) -> It remains parked at station s5.

Schedule for EV v47:
   [   0, 1575) -> It remains parked at station s5.

Schedule for EV v48:
   [   0, 1575) -> It remains parked at station s5.

Schedule for EV v49:
   [   0, 1575) -> It remains parked at station s6.

Schedule for EV v50:
   [   0, 1575) -> It remains parked at station s6.

Schedule for EV v51:
   [   0,  669) -> It remains parked at station s6.
   [ 669,  729) -> Service a request driving for customer c13 from s6 to s9.
   [ 729, 1575) -> It remains parked at station s9.

Schedule for EV v52:
   [   0, 1575) -> It remains parked at station s6.

Schedule for EV v53:
   [   0, 1575) -> It remains parked at station s6.

Schedule for EV v54:
   [   0, 1267) -> It remains parked at station s7.
   [1267, 1387) -> Service a request driving for customer c38 from s7 to s2.
   [1387, 1575) -> It remains parked at station s2.

Schedule for EV v55:
   [   0,  907) -> It remains parked at station s7.
   [ 907,  997) -> Service a request driving for customer c29 from s7 to s11.
   [ 997, 1093) -> It remains parked at station s11.
   [1093, 1153) -> Service a request driving for customer c27 from s11 to s0.
   [1153, 1575) -> It remains parked at station s0.

Schedule for EV v56:
   [   0, 1575) -> It remains parked at station s7.

Schedule for EV v57:
   [   0, 1575) -> It remains parked at station s7.

Schedule for EV v58:
   [   0,  909) -> It remains parked at station s7.
   [ 909, 1059) -> Service a request driving for customer c37 from s7 to s9.
   [1059, 1155) -> It remains parked at station s9.
   [1155, 1245) -> Service a request driving for customer c9 from s9 to s3.
   [1245, 1575) -> It remains parked at station s3.

Schedule for EV v59:
   [   0, 1575) -> It remains parked at station s7.

Schedule for EV v60:
   [   0, 1575) -> It remains parked at station s7.

Schedule for EV v61:
   [   0, 1575) -> It remains parked at station s7.

Schedule for EV v62:
   [   0, 1575) -> It remains parked at station s7.

Schedule for EV v63:
   [   0,  915) -> It remains parked at station s8.
   [ 915,  975) -> Service a request driving for customer c19 from s8 to s11.
   [ 975, 1575) -> It remains parked at station s11.

Schedule for EV v64:
   [   0, 1575) -> It remains parked at station s8.

Schedule for EV v65:
   [   0,  965) -> It remains parked at station s8.
   [ 965,  995) -> Service a request driving for customer c33 from s8 to s9.
   [ 995, 1575) -> It remains parked at station s9, which was charging for charging.

Schedule for EV v66:
   [   0,  611) -> It remains parked at station s8.
   [ 611,  671) -> Service a request driving for customer c27 from s8 to s2.
   [ 671,  849) -> It remains parked at station s2.
   [ 849,  909) -> Service a request driving for customer c2 from s2 to s0.
   [ 909, 1332) -> It remains parked at station s0.
   [1332, 1422) -> Service a request driving for customer c3 from s0 to s3.
   [1422, 1575) -> It remains parked at station s3, which was charging for charging.

Schedule for EV v67:
   [   0,  553) -> It remains parked at station s8.
   [ 553,  613) -> Service a request driving for customer c14 from s8 to s11.
   [ 613,  794) -> It remains parked at station s11.
   [ 794,  974) -> Service a request driving for customer c21 from s11 to s5.
   [ 974, 1575) -> It remains parked at station s5.

Schedule for EV v68:
   [   0,  852) -> It remains parked at station s8.
   [ 852,  882) -> Service a request driving for customer c9 from s8 to s0.
   [ 882, 1575) -> It remains parked at station s0, which was charging for charging.

Schedule for EV v69:
   [   0,  428) -> It remains parked at station s8.
   [ 428,  728) -> Service a request driving for customer c7 from s8 to s0.
   [ 728, 1575) -> It remains parked at station s0.

Schedule for EV v70:
   [   0, 1575) -> It remains parked at station s8.

Schedule for EV v71:
   [   0, 1575) -> It remains parked at station s9.

Schedule for EV v72:
   [   0,  849) -> It remains parked at station s9.
   [ 849,  939) -> Service a request driving for customer c12 from s9 to s5.
   [ 939, 1575) -> It remains parked at station s5.

Schedule for EV v73:
   [   0, 1575) -> It remains parked at station s9.

Schedule for EV v74:
   [   0, 1575) -> It remains parked at station s9.

Schedule for EV v75:
   [   0, 1034) -> It remains parked at station s9.
   [1034, 1094) -> Service a request driving for customer c35 from s9 to s0.
   [1094, 1575) -> It remains parked at station s0.

Schedule for EV v76:
   [   0, 1575) -> It remains parked at station s9.

Schedule for EV v77:
   [   0, 1575) -> It remains parked at station s9.

Schedule for EV v78:
   [   0, 1575) -> It remains parked at station s9.

Schedule for EV v79:
   [   0, 1575) -> It remains parked at station s9.

Schedule for EV v80:
   [   0, 1575) -> It remains parked at station s9.

Schedule for EV v81:
   [   0,  909) -> It remains parked at station s9.
   [ 909,  969) -> Service a request driving for customer c31 from s9 to s3.
   [ 969, 1150) -> It remains parked at station s3.
   [1150, 1210) -> Service a request driving for customer c15 from s3 to s0.
   [1210, 1575) -> It remains parked at station s0.

Schedule for EV v82:
   [   0, 1575) -> It remains parked at station s9.

Schedule for EV v83:
   [   0, 1575) -> It remains parked at station s10.

Schedule for EV v84:
   [   0,  676) -> It remains parked at station s10.
   [ 676,  736) -> Service a request driving for customer c17 from s10 to s1.
   [ 736,  856) -> It remains parked at station s1.
   [ 856, 1096) -> Service a request driving for customer c24 from s1 to s9.
   [1096, 1575) -> It remains parked at station s9.

Schedule for EV v85:
   [   0, 1575) -> It remains parked at station s10.

Schedule for EV v86:
   [   0,  668) -> It remains parked at station s10.
   [ 668,  818) -> Service a request driving for customer c12 from s10 to s0.
   [ 818, 1093) -> It remains parked at station s0, which was charging for charging.
   [1093, 1183) -> Service a request driving for customer c36 from s0 to s11.
   [1183, 1575) -> It remains parked at station s11, which was charging for charging.

Schedule for EV v87:
   [   0, 1575) -> It remains parked at station s10.

Schedule for EV v88:
   [   0, 1575) -> It remains parked at station s10.

Schedule for EV v89:
   [   0,  609) -> It remains parked at station s11.
   [ 609,  699) -> Service a request driving for customer c26 from s11 to s9.
   [ 699, 1575) -> It remains parked at station s9.

Schedule for EV v90:
   [   0,  432) -> It remains parked at station s11.
   [ 432,  522) -> Service a request driving for customer c2 from s11 to s5.
   [ 522, 1575) -> It remains parked at station s5.

Schedule for EV v91:
   [   0, 1575) -> It remains parked at station s11.

Schedule for EV v92:
   [   0,  907) -> It remains parked at station s11.
   [ 907,  997) -> Service a request driving for customer c20 from s11 to s1.
   [ 997, 1575) -> It remains parked at station s1, which was charging for charging.

Schedule for EV v93:
   [   0, 1575) -> It remains parked at station s11.

Schedule for EV v94:
   [   0,  968) -> It remains parked at station s11.
   [ 968, 1178) -> Service a request driving for customer c1 from s11 to s11.
   [1178, 1575) -> It remains parked at station s11, which was charging for charging.

Set of satisfied customers
   {c0, c1, c2, c3, c7, c9, c10, c12, c13, c14, c15, c17, c19, c20, c21, c22, c24, c26, c27, c29, c31, c33, c35, c36, c37, c38, c39}

