Academic license - for non-commercial use only
Gurobi Optimizer version 9.0.3 build v9.0.3rc0 (linux64)
Optimize a model with 572288 rows, 383931 columns and 3853434 nonzeros
Model fingerprint: 0xad50d3a0
Variable types: 194308 continuous, 189623 integer (189623 binary)
Coefficient statistics:
  Matrix range     [1e+00, 4e+06]
  Objective range  [6e+01, 6e+02]
  Bounds range     [1e+00, 2e+06]
  RHS range        [1e+00, 2e+06]

Loaded user MIP start with objective 3300

Presolve removed 281816 rows and 184810 columns (presolve time = 6s) ...
Presolve removed 283229 rows and 184973 columns
Presolve time: 8.05s
Presolved: 289059 rows, 198958 columns, 1363335 nonzeros
Variable types: 0 continuous, 198958 integer (185933 binary)

Root simplex log...

Iteration    Objective       Primal Inf.    Dual Inf.      Time
       0    1.1190000e+04   7.859625e+03   0.000000e+00     10s
    4978    1.0770000e+04   6.439768e+04   0.000000e+00     10s
   18667    1.0769997e+04   1.129839e+04   0.000000e+00     15s
   24261    1.0769996e+04   2.379592e+04   0.000000e+00     20s
   28566    1.0769996e+04   5.315772e+04   0.000000e+00     26s
   30575    1.0769995e+04   3.986212e+04   0.000000e+00     30s
   32871    1.0769995e+04   5.400629e+04   0.000000e+00     35s
   35167    1.0769995e+04   2.581363e+04   0.000000e+00     41s
   36315    1.0769995e+04   1.129788e+04   0.000000e+00     45s
   38611    1.0769995e+04   6.540930e+06   0.000000e+00     51s
   39472    1.0769995e+04   3.760562e+06   0.000000e+00     55s
   40333    1.0769995e+04   1.431743e+05   0.000000e+00     61s
   41481    1.0769995e+04   1.293342e+06   0.000000e+00     66s
   42342    1.0769995e+04   3.254804e+05   0.000000e+00     72s
   42916    1.0769995e+04   2.367404e+06   0.000000e+00     76s
   43777    1.0769995e+04   1.766184e+05   0.000000e+00     81s
   44638    1.0769994e+04   5.855315e+05   0.000000e+00     86s
   45212    1.0769994e+04   1.290756e+06   0.000000e+00     90s
   46073    1.0769994e+04   2.743258e+06   0.000000e+00     96s
   46934    1.0769994e+04   8.534464e+04   0.000000e+00    102s
   47508    1.0769994e+04   7.116989e+04   0.000000e+00    106s
   48369    1.0769994e+04   1.751977e+05   0.000000e+00    112s
   48943    1.0769994e+04   2.734444e+04   0.000000e+00    116s
   49517    1.0769994e+04   3.679146e+05   0.000000e+00    120s
   50084    1.0769994e+04   1.439399e+05   0.000000e+00    125s
   50945    1.0769994e+04   5.051316e+05   0.000000e+00    131s
   51519    1.0769994e+04   5.099896e+05   0.000000e+00    135s
   52380    1.0769994e+04   2.310610e+06   0.000000e+00    142s
   52947    1.0769994e+04   9.790528e+04   0.000000e+00    147s
   53504    1.0769994e+04   2.039566e+05   0.000000e+00    152s
   54061    1.0769994e+04   5.174383e+05   0.000000e+00    157s
   54628    1.0769994e+04   1.381819e+05   0.000000e+00    162s
   55195    1.0769994e+04   2.110060e+05   0.000000e+00    166s
   55769    1.0769994e+04   7.422541e+04   0.000000e+00    171s
   56319    1.0769994e+04   3.109872e+05   0.000000e+00    176s
   56886    1.0769994e+04   1.734820e+06   0.000000e+00    180s
   57730    1.0769993e+04   3.033973e+04   0.000000e+00    187s
   58287    1.0769993e+04   8.238857e+04   0.000000e+00    192s
   58854    1.0769993e+04   1.114602e+05   0.000000e+00    197s
   59401    1.0769993e+04   3.568717e+05   0.000000e+00    202s
   59958    1.0769993e+04   1.560841e+05   0.000000e+00    207s
   60515    1.0769993e+04   2.811296e+05   0.000000e+00    212s
   61072    1.0769993e+04   2.530598e+06   0.000000e+00    216s
   61646    1.0769993e+04   3.244905e+05   0.000000e+00    221s
   62203    1.0769993e+04   9.378027e+04   0.000000e+00    226s
   62760    1.0769993e+04   1.499934e+05   0.000000e+00    231s
   63334    1.0769993e+04   3.162406e+04   0.000000e+00    236s
   63901    1.0769993e+04   5.409922e+05   0.000000e+00    241s
   64431    1.0769993e+04   2.367432e+05   0.000000e+00    246s
   64961    1.0769993e+04   3.748918e+05   0.000000e+00    251s
   65528    1.0769993e+04   1.677690e+05   0.000000e+00    256s
   66102    1.0769993e+04   3.777217e+05   0.000000e+00    261s
   66669    1.0769993e+04   4.931223e+04   0.000000e+00    266s
   67236    1.0769993e+04   2.651968e+04   0.000000e+00    271s
   67786    1.0769993e+04   8.846474e+04   0.000000e+00    276s
   68316    1.0769993e+04   4.358451e+04   0.000000e+00    281s
   68846    1.0769993e+04   3.323377e+05   0.000000e+00    286s
   69383    1.0769993e+04   1.038290e+05   0.000000e+00    292s
   69923    1.0769993e+04   4.319838e+04   0.000000e+00    297s
   70463    1.0769993e+04   1.204488e+05   0.000000e+00    303s
   71020    1.0769993e+04   1.509777e+05   0.000000e+00    308s
   71280    1.0769993e+04   1.117363e+05   0.000000e+00    310s
   71837    1.0769992e+04   1.903838e+05   0.000000e+00    315s
   72374    1.0769992e+04   2.036242e+05   0.000000e+00    321s
   72931    1.0769992e+04   1.361389e+05   0.000000e+00    326s
   73481    1.0769992e+04   2.233382e+05   0.000000e+00    331s
   74021    1.0769992e+04   1.201483e+05   0.000000e+00    336s
   74551    1.0769992e+04   1.665747e+05   0.000000e+00    342s
   75091    1.0769992e+04   1.484226e+05   0.000000e+00    347s
   75601    1.0769992e+04   1.594239e+05   0.000000e+00    352s
   76101    1.0769992e+04   2.464450e+05   0.000000e+00    357s
   76675    1.0769992e+04   1.065513e+06   0.000000e+00    362s
   77185    1.0769992e+04   1.049519e+05   0.000000e+00    367s
   77759    1.0769992e+04   8.289944e+05   0.000000e+00    372s
   78333    1.0769992e+04   4.559649e+05   0.000000e+00    377s
   78853    1.0769992e+04   2.470425e+05   0.000000e+00    382s
   79113    1.0769992e+04   4.109088e+04   0.000000e+00    385s
   79974    1.0769992e+04   3.766036e+05   0.000000e+00    392s
   80524    1.0769991e+04   6.045095e+04   0.000000e+00    398s
   80811    1.0769991e+04   2.773184e+06   0.000000e+00    400s
   81348    1.0769991e+04   5.505434e+06   0.000000e+00    405s
   81915    1.0709992e+04   6.821972e+04   0.000000e+00    411s
   82435    1.0709992e+04   9.323133e+06   0.000000e+00    416s
   82945    1.0709992e+04   2.069516e+06   0.000000e+00    422s
   83465    1.0709992e+04   3.609656e+05   0.000000e+00    427s
   83745    1.0709992e+04   7.549082e+04   0.000000e+00    430s
   84282    1.0709992e+04   6.119231e+04   0.000000e+00    436s
   84792    1.0709992e+04   3.228840e+04   0.000000e+00    441s
   85349    1.0709991e+04   1.210864e+05   0.000000e+00    447s
   85916    1.0709991e+04   1.262629e+05   0.000000e+00    452s
   86176    1.0709991e+04   2.471534e+05   0.000000e+00    455s
   86686    1.0709991e+04   5.769697e+04   0.000000e+00    461s
   87196    1.0709991e+04   1.158601e+05   0.000000e+00    466s
   87743    1.0709991e+04   1.403945e+04   0.000000e+00    472s
   88283    1.0709991e+04   4.383888e+04   0.000000e+00    477s
   88543    1.0709991e+04   1.174897e+05   0.000000e+00    480s
   89090    1.0709991e+04   3.048411e+06   0.000000e+00    486s
   89657    1.0709991e+04   7.832753e+04   0.000000e+00    492s
   90177    1.0709991e+04   1.869008e+05   0.000000e+00    497s
   90427    1.0709991e+04   1.212060e+05   0.000000e+00    500s
   90954    1.0709991e+04   2.219669e+04   0.000000e+00    506s
   91504    1.0709991e+04   3.490909e+05   0.000000e+00    511s
   92054    1.0709991e+04   6.294688e+05   0.000000e+00    517s
   92621    1.0709991e+04   4.795308e+04   0.000000e+00    522s
   93148    1.0709991e+04   1.012754e+05   0.000000e+00    528s
   93398    1.0709991e+04   1.352716e+04   0.000000e+00    530s
   93938    1.0709991e+04   2.150645e+05   0.000000e+00    536s
   94485    1.0709991e+04   8.180774e+04   0.000000e+00    541s
   94995    1.0709991e+04   5.029242e+04   0.000000e+00    547s
   95525    1.0709991e+04   2.778298e+05   0.000000e+00    552s
   96025    1.0709991e+04   3.130579e+05   0.000000e+00    558s
   96275    1.0709991e+04   5.133328e+04   0.000000e+00    560s
   96795    1.0709991e+04   4.629628e+04   0.000000e+00    566s
   97342    1.0709991e+04   4.634188e+04   0.000000e+00    571s
   97852    1.0709991e+04   1.765136e+06   0.000000e+00    577s
   98409    1.0709991e+04   2.781657e+05   0.000000e+00    582s
   98899    1.0709991e+04   2.048057e+04   0.000000e+00    587s
   99169    1.0709991e+04   2.505658e+04   0.000000e+00    590s
   99659    1.0709991e+04   8.630451e+04   0.000000e+00    595s
  100179    1.0709991e+04   1.444158e+04   0.000000e+00    601s
  100689    1.0709990e+04   3.195987e+04   0.000000e+00    606s
  101179    1.0709990e+04   5.033973e+04   0.000000e+00    612s
  101679    1.0709990e+04   1.423608e+05   0.000000e+00    617s
  101939    1.0709990e+04   2.319103e+05   0.000000e+00    620s
  102459    1.0709990e+04   8.004222e+04   0.000000e+00    626s
  102979    1.0709990e+04   2.766213e+07   0.000000e+00    631s
  103489    1.0709990e+04   2.970607e+04   0.000000e+00    637s
  104009    1.0709990e+04   1.312557e+04   0.000000e+00    642s
  104499    1.0709990e+04   1.603415e+05   0.000000e+00    648s
  104739    1.0709990e+04   7.295327e+04   0.000000e+00    650s
  105239    1.0709990e+04   8.088322e+04   0.000000e+00    656s
  105729    1.0709990e+04   2.236723e+05   0.000000e+00    661s
  106209    1.0709990e+04   4.206891e+04   0.000000e+00    667s
  106709    1.0709990e+04   1.848665e+04   0.000000e+00    673s
  106979    1.0709990e+04   6.143578e+04   0.000000e+00    675s
  107509    1.0709990e+04   3.565417e+04   0.000000e+00    681s
  108039    1.0709990e+04   3.286637e+05   0.000000e+00    686s
  108589    1.0709990e+04   2.561480e+04   0.000000e+00    692s
  109099    1.0709990e+04   2.759466e+04   0.000000e+00    697s
  109329    1.0709990e+04   7.845728e+05   0.000000e+00    700s
  109839    1.0709990e+04   1.724082e+04   0.000000e+00    706s
  110369    1.0709990e+04   4.730529e+04   0.000000e+00    711s
  110849    1.0709990e+04   1.861592e+04   0.000000e+00    716s
  111349    1.0709990e+04   3.897114e+04   0.000000e+00    722s
  111839    1.0709990e+04   5.123982e+04   0.000000e+00    728s
  112089    1.0709990e+04   3.131161e+04   0.000000e+00    730s
  112619    1.0709990e+04   1.739591e+04   0.000000e+00    736s
  113119    1.0709990e+04   5.077463e+04   0.000000e+00    742s
  113619    1.0709990e+04   1.685752e+05   0.000000e+00    747s
  113859    1.0709990e+04   2.556257e+05   0.000000e+00    750s
  114359    1.0709990e+04   1.032637e+05   0.000000e+00    756s
  114889    1.0709990e+04   2.562995e+04   0.000000e+00    761s
  115369    1.0709990e+04   5.586429e+04   0.000000e+00    767s
  115839    1.0709990e+04   7.977924e+04   0.000000e+00    773s
  116069    1.0709990e+04   1.560255e+04   0.000000e+00    775s
  116589    1.0709990e+04   1.248140e+04   0.000000e+00    781s
  117069    1.0709990e+04   8.993331e+05   0.000000e+00    787s
  117559    1.0709990e+04   1.392289e+05   0.000000e+00    792s
  117809    1.0709990e+04   1.804790e+04   0.000000e+00    795s
  118289    1.0709990e+04   5.516631e+05   0.000000e+00    801s
  118769    1.0709990e+04   1.582809e+05   0.000000e+00    806s
  119239    1.0709990e+04   9.893354e+03   0.000000e+00    812s
  119759    1.0709990e+04   1.285447e+05   0.000000e+00    818s
  119999    1.0709990e+04   8.660103e+04   0.000000e+00    820s
  120499    1.0709990e+04   1.584900e+04   0.000000e+00    826s
  121029    1.0709990e+04   1.258775e+04   0.000000e+00    832s
  121566    1.0709990e+04   9.106795e+04   0.000000e+00    838s
  121826    1.0709990e+04   1.481159e+04   0.000000e+00    841s
  122336    1.0709990e+04   2.511089e+04   0.000000e+00    847s
  122856    1.0709990e+04   2.737740e+04   0.000000e+00    852s
  123106    1.0709990e+04   6.502652e+04   0.000000e+00    855s
  123586    1.0709990e+04   2.516506e+04   0.000000e+00    861s
  124106    1.0709990e+04   1.283587e+05   0.000000e+00    867s
  124336    1.0709990e+04   2.590349e+06   0.000000e+00    870s
  124806    1.0709990e+04   1.117082e+05   0.000000e+00    876s
  125296    1.0709990e+04   3.231061e+05   0.000000e+00    882s
  125786    1.0709989e+04   2.510321e+04   0.000000e+00    888s
  126026    1.0709989e+04   1.117468e+04   0.000000e+00    891s
  126516    1.0709989e+04   1.250149e+05   0.000000e+00    897s
  127016    1.0709989e+04   1.384303e+04   0.000000e+00    903s
  127246    1.0709989e+04   1.514348e+04   0.000000e+00    906s
  127736    1.0709989e+04   3.391874e+04   0.000000e+00    911s
  128226    1.0709989e+04   4.670021e+04   0.000000e+00    917s
  128456    1.0709989e+04   5.754308e+04   0.000000e+00    920s
  128946    1.0709989e+04   3.396782e+05   0.000000e+00    926s
  129436    1.0709989e+04   2.194492e+04   0.000000e+00    932s
  129676    1.0709989e+04   1.406086e+05   0.000000e+00    935s
  130186    1.0709989e+04   3.967437e+04   0.000000e+00    941s
  130666    1.0709989e+04   1.281670e+04   0.000000e+00    947s
  131166    1.0709989e+04   8.148421e+04   0.000000e+00    953s
  131446    1.0709989e+04   3.196586e+04   0.000000e+00    956s
  131976    1.0709989e+04   1.536365e+04   0.000000e+00    962s
  132466    1.0709989e+04   6.637137e+04   0.000000e+00    968s
  132726    1.0709989e+04   4.885689e+05   0.000000e+00    971s
  133226    1.0709989e+04   1.412104e+04   0.000000e+00    977s
  133746    1.0709989e+04   3.491140e+04   0.000000e+00    983s
  133996    1.0709989e+04   1.228663e+04   0.000000e+00    986s
  134466    1.0709989e+04   4.591754e+05   0.000000e+00    992s
  134936    1.0709989e+04   1.146790e+05   0.000000e+00    998s
  135166    1.0709989e+04   2.716906e+04   0.000000e+00   1001s
  135656    1.0709989e+04   3.670351e+04   0.000000e+00   1007s
  135896    1.0709989e+04   1.405806e+05   0.000000e+00   1010s
  136356    1.0709989e+04   2.481371e+04   0.000000e+00   1016s
  136826    1.0709989e+04   1.415207e+05   0.000000e+00   1022s
  137066    1.0709989e+04   1.952649e+04   0.000000e+00   1025s
  137576    1.0709989e+04   1.194734e+05   0.000000e+00   1031s
  138076    1.0709989e+04   3.514718e+04   0.000000e+00   1037s
  138536    1.0709989e+04   2.834124e+04   0.000000e+00   1043s
  138756    1.0709989e+04   1.157149e+05   0.000000e+00   1046s
  139226    1.0709989e+04   3.070919e+05   0.000000e+00   1051s
  139706    1.0709989e+04   7.238289e+03   0.000000e+00   1057s
  139956    1.0709989e+04   8.157848e+03   0.000000e+00   1060s
  140446    1.0709989e+04   2.211182e+05   0.000000e+00   1066s
  140936    1.0709989e+04   1.060026e+04   0.000000e+00   1072s
  141196    1.0709989e+04   1.169720e+04   0.000000e+00   1075s
  141696    1.0709989e+04   6.647821e+04   0.000000e+00   1081s
  142176    1.0709989e+04   1.131695e+04   0.000000e+00   1087s
  142406    1.0709989e+04   1.003708e+05   0.000000e+00   1090s
  142846    1.0709989e+04   7.351407e+03   0.000000e+00   1097s
  143326    1.0709989e+04   1.199910e+05   0.000000e+00   1103s
  143576    1.0709989e+04   4.649112e+03   0.000000e+00   1106s
  144056    1.0709989e+04   6.353396e+05   0.000000e+00   1112s
  144296    1.0709989e+04   5.175115e+03   0.000000e+00   1115s
  144776    1.0709989e+04   1.262079e+04   0.000000e+00   1121s
  145256    1.0709989e+04   3.587012e+04   0.000000e+00   1128s
  145476    1.0709989e+04   2.602782e+04   0.000000e+00   1131s
  145956    1.0709989e+04   1.037499e+05   0.000000e+00   1137s
  146196    1.0709989e+04   2.116774e+04   0.000000e+00   1140s
  146686    1.0709989e+04   4.001240e+06   0.000000e+00   1146s
  147196    1.0709989e+04   1.787637e+04   0.000000e+00   1152s
  147446    1.0709989e+04   6.319939e+04   0.000000e+00   1156s
  147926    1.0709989e+04   2.730423e+03   0.000000e+00   1162s
  148176    1.0709989e+04   2.456786e+04   0.000000e+00   1165s
  148646    1.0709989e+04   6.281075e+05   0.000000e+00   1171s
  149096    1.0709989e+04   6.853926e+04   0.000000e+00   1178s
  149336    1.0709989e+04   4.224106e+04   0.000000e+00   1181s
  149776    1.0709989e+04   3.552228e+04   0.000000e+00   1187s
  150016    1.0709989e+04   1.481607e+05   0.000000e+00   1190s
  150456    1.0709989e+04   3.212703e+04   0.000000e+00   1196s
  150936    1.0709989e+04   1.454857e+05   0.000000e+00   1203s
  151166    1.0709989e+04   2.756756e+04   0.000000e+00   1206s
  151636    1.0709989e+04   2.427434e+04   0.000000e+00   1212s
  151866    1.0709989e+04   1.250502e+05   0.000000e+00   1215s
  152356    1.0709989e+04   1.658869e+04   0.000000e+00   1222s
  152836    1.0709989e+04   6.065790e+04   0.000000e+00   1228s
  153086    1.0709989e+04   6.545505e+04   0.000000e+00   1231s
  153576    1.0709989e+04   1.229632e+04   0.000000e+00   1237s
  153806    1.0709989e+04   3.142220e+04   0.000000e+00   1241s
  154276    1.0709989e+04   2.683626e+04   0.000000e+00   1247s
  154506    1.0709989e+04   7.695452e+04   0.000000e+00   1250s
  154996    1.0709989e+04   4.588184e+04   0.000000e+00   1257s
  155226    1.0709989e+04   1.849433e+04   0.000000e+00   1260s
  155706    1.0709989e+04   2.906359e+04   0.000000e+00   1267s
  155936    1.0709989e+04   1.263357e+04   0.000000e+00   1270s
  156376    1.0709989e+04   2.657996e+04   0.000000e+00   1277s
  156836    1.0709989e+04   9.078399e+03   0.000000e+00   1283s
  157066    1.0709989e+04   4.471604e+04   0.000000e+00   1286s
  157536    1.0709989e+04   3.646076e+04   0.000000e+00   1293s
  157776    1.0709989e+04   2.763510e+04   0.000000e+00   1296s
  158256    1.0709989e+04   2.407908e+04   0.000000e+00   1303s
  158486    1.0709989e+04   4.098608e+04   0.000000e+00   1306s
  158956    1.0709989e+04   6.652156e+04   0.000000e+00   1312s
  159186    1.0709989e+04   5.309790e+04   0.000000e+00   1316s
  159656    1.0709989e+04   3.447615e+04   0.000000e+00   1322s
  159886    1.0709989e+04   1.823529e+04   0.000000e+00   1325s
  160346    1.0709989e+04   5.167773e+04   0.000000e+00   1332s
  160806    1.0709989e+04   2.880269e+04   0.000000e+00   1338s
  161046    1.0709988e+04   9.082075e+04   0.000000e+00   1341s
  161526    1.0709988e+04   3.437206e+03   0.000000e+00   1348s
  161776    1.0709988e+04   9.957146e+04   0.000000e+00   1351s
  162236    1.0709988e+04   1.614132e+04   0.000000e+00   1358s
  162476    1.0709988e+04   1.881163e+04   0.000000e+00   1361s
  162936    1.0709988e+04   3.425996e+04   0.000000e+00   1368s
  163186    1.0709988e+04   8.563180e+05   0.000000e+00   1371s
  163646    1.0709988e+04   4.529529e+04   0.000000e+00   1378s
  163886    1.0709988e+04   2.330050e+04   0.000000e+00   1381s
  164386    1.0709988e+04   2.024177e+04   0.000000e+00   1388s
  164616    1.0709988e+04   1.646344e+04   0.000000e+00   1391s
  165096    1.0709988e+04   1.054942e+04   0.000000e+00   1398s
  165336    1.0709988e+04   2.831742e+04   0.000000e+00   1401s
  165796    1.0709988e+04   1.302413e+04   0.000000e+00   1408s
  166026    1.0709988e+04   8.802758e+03   0.000000e+00   1411s
  166486    1.0709988e+04   3.041906e+04   0.000000e+00   1418s
  166726    1.0709988e+04   2.863904e+03   0.000000e+00   1421s
  167196    1.0709988e+04   6.504262e+04   0.000000e+00   1428s
  167436    1.0709988e+04   2.740422e+04   0.000000e+00   1431s
  167956    1.0709988e+04   8.565585e+03   0.000000e+00   1438s
  168176    1.0709988e+04   1.437053e+04   0.000000e+00   1441s
  168656    1.0709988e+04   5.180536e+03   0.000000e+00   1448s
  168896    1.0709988e+04   4.429274e+04   0.000000e+00   1452s
  169366    1.0709988e+04   5.122270e+03   0.000000e+00   1458s
  169586    1.0709988e+04   2.545021e+05   0.000000e+00   1462s
  170056    1.0709988e+04   7.268704e+04   0.000000e+00   1468s
  170296    1.0709988e+04   6.472595e+04   0.000000e+00   1472s
  170756    1.0709988e+04   2.444498e+04   0.000000e+00   1478s
  171006    1.0709988e+04   9.710900e+04   0.000000e+00   1482s
  171236    1.0709988e+04   1.854498e+04   0.000000e+00   1485s
  171696    1.0709988e+04   5.004238e+04   0.000000e+00   1492s
  171936    1.0709988e+04   5.764733e+04   0.000000e+00   1495s
  172416    1.0709988e+04   1.174572e+04   0.000000e+00   1502s
  172656    1.0709988e+04   2.411390e+05   0.000000e+00   1505s
  173126    1.0709988e+04   1.118545e+04   0.000000e+00   1512s
  173596    1.0709988e+04   2.065646e+04   0.000000e+00   1518s
  173826    1.0709988e+04   1.415391e+04   0.000000e+00   1522s
  174066    1.0709988e+04   4.344269e+04   0.000000e+00   1525s
  174546    1.0709988e+04   4.031185e+04   0.000000e+00   1532s
  174826    1.0709988e+04   1.041090e+04   0.000000e+00   1535s
  175336    1.0709988e+04   3.943908e+03   0.000000e+00   1542s
  175566    1.0709988e+04   3.708017e+04   0.000000e+00   1545s
  176006    1.0709988e+04   4.149898e+04   0.000000e+00   1552s
  176226    1.0709988e+04   6.373079e+03   0.000000e+00   1556s
  176676    1.0709988e+04   5.792845e+04   0.000000e+00   1562s
  176896    1.0709988e+04   4.579716e+03   0.000000e+00   1566s
  177316    1.0709988e+04   2.307140e+04   0.000000e+00   1572s
  177536    1.0709988e+04   5.357963e+03   0.000000e+00   1575s
  177996    1.0709988e+04   4.813276e+04   0.000000e+00   1582s
  178226    1.0709988e+04   6.154128e+03   0.000000e+00   1585s
  178746    1.0709988e+04   3.927407e+03   0.000000e+00   1592s
  178996    1.0709988e+04   4.834325e+04   0.000000e+00   1595s
  179456    1.0709988e+04   2.644628e+04   0.000000e+00   1602s
  179686    1.0709988e+04   2.952056e+05   0.000000e+00   1605s
  180186    1.0709988e+04   2.974316e+03   0.000000e+00   1612s
  180426    1.0709988e+04   2.680868e+03   0.000000e+00   1616s
  180956    1.0709988e+04   4.595625e+04   0.000000e+00   1623s
  181186    1.0709988e+04   1.116409e+05   0.000000e+00   1626s
  181646    1.0709988e+04   1.221056e+04   0.000000e+00   1633s
  181876    1.0709988e+04   4.862506e+04   0.000000e+00   1636s
  182336    1.0709988e+04   7.977976e+05   0.000000e+00   1643s
  182566    1.0709988e+04   4.650610e+04   0.000000e+00   1647s
  182796    1.0709988e+04   2.112764e+04   0.000000e+00   1650s
  183246    1.0709988e+04   1.397526e+05   0.000000e+00   1657s
  183476    1.0709988e+04   5.264683e+04   0.000000e+00   1660s
  183926    1.0709988e+04   4.197213e+03   0.000000e+00   1667s
  184176    1.0709988e+04   9.498795e+04   0.000000e+00   1670s
  184646    1.0709988e+04   4.282032e+04   0.000000e+00   1677s
  184876    1.0709988e+04   4.366577e+04   0.000000e+00   1680s
  185356    1.0709988e+04   1.785775e+05   0.000000e+00   1687s
  185606    1.0709988e+04   4.236372e+03   0.000000e+00   1690s
  186106    1.0709988e+04   6.249171e+04   0.000000e+00   1697s
  186336    1.0709988e+04   1.066902e+04   0.000000e+00   1701s
  186786    1.0709988e+04   2.092373e+04   0.000000e+00   1708s
  187006    1.0709988e+04   1.997411e+04   0.000000e+00   1711s
  187476    1.0709988e+04   1.732418e+05   0.000000e+00   1718s
  187716    1.0709988e+04   1.793138e+04   0.000000e+00   1721s
  187946    1.0709988e+04   4.972474e+03   0.000000e+00   1725s
  188396    1.0709988e+04   2.176599e+04   0.000000e+00   1732s
  188616    1.0709988e+04   3.193317e+04   0.000000e+00   1736s
  189066    1.0709988e+04   4.535442e+04   0.000000e+00   1743s
  189296    1.0709988e+04   1.781008e+05   0.000000e+00   1747s
  189536    1.0709988e+04   4.133255e+03   0.000000e+00   1750s
  190006    1.0709988e+04   8.630130e+03   0.000000e+00   1757s
  190246    1.0709988e+04   3.903813e+05   0.000000e+00   1761s
  190686    1.0709988e+04   4.010507e+03   0.000000e+00   1768s
  190926    1.0709988e+04   1.658032e+05   0.000000e+00   1771s
  191376    1.0709988e+04   6.892053e+03   0.000000e+00   1778s
  191606    1.0709988e+04   5.042863e+05   0.000000e+00   1781s
  191856    1.0709988e+04   2.413276e+03   0.000000e+00   1785s
  192316    1.0709988e+04   4.482879e+03   0.000000e+00   1792s
  192603    1.0709988e+04   5.829770e+03   0.000000e+00   1795s
  193063    1.0709988e+04   1.813764e+05   0.000000e+00   1802s
  193293    1.0709988e+04   2.108737e+04   0.000000e+00   1806s
  193763    1.0709988e+04   2.155265e+04   0.000000e+00   1813s
  194013    1.0709988e+04   1.213925e+05   0.000000e+00   1816s
  194463    1.0709988e+04   8.361966e+03   0.000000e+00   1823s
  194703    1.0709988e+04   1.179307e+04   0.000000e+00   1827s
  194943    1.0709988e+04   4.079245e+04   0.000000e+00   1830s
  195403    1.0709988e+04   6.391571e+03   0.000000e+00   1837s
  195643    1.0709988e+04   1.587189e+04   0.000000e+00   1841s
  196123    1.0709988e+04   3.825322e+03   0.000000e+00   1848s
  196353    1.0709988e+04   4.422995e+03   0.000000e+00   1851s
  196853    1.0709988e+04   5.808035e+04   0.000000e+00   1858s
  197083    1.0709988e+04   3.119845e+04   0.000000e+00   1862s
  197303    1.0709988e+04   3.996909e+04   0.000000e+00   1865s
  197763    1.0709988e+04   4.892738e+03   0.000000e+00   1873s
  197993    1.0709988e+04   5.581468e+03   0.000000e+00   1876s
  198453    1.0709988e+04   8.836523e+03   0.000000e+00   1883s
  198683    1.0709988e+04   4.487656e+03   0.000000e+00   1887s
  199133    1.0709988e+04   2.388570e+03   0.000000e+00   1893s
  199363    1.0709988e+04   2.344004e+03   0.000000e+00   1897s
  199603    1.0709988e+04   1.825023e+04   0.000000e+00   1901s
  200073    1.0709988e+04   7.836166e+04   0.000000e+00   1908s
  200293    1.0709988e+04   3.083730e+04   0.000000e+00   1911s
  200753    1.0709988e+04   4.614879e+03   0.000000e+00   1918s
  200983    1.0709988e+04   6.000032e+03   0.000000e+00   1922s
  201213    1.0709988e+04   6.852070e+03   0.000000e+00   1925s
  201683    1.0709988e+04   1.667265e+04   0.000000e+00   1932s
  201903    1.0709988e+04   1.584335e+04   0.000000e+00   1936s
  202353    1.0709988e+04   3.562502e+04   0.000000e+00   1943s
  202583    1.0709988e+04   1.280983e+04   0.000000e+00   1947s
  202813    1.0709988e+04   7.449017e+03   0.000000e+00   1950s
  203273    1.0709988e+04   6.153467e+04   0.000000e+00   1957s
  203503    1.0709988e+04   5.659801e+04   0.000000e+00   1961s
  203953    1.0709988e+04   5.014072e+04   0.000000e+00   1968s
  204193    1.0709988e+04   2.858452e+04   0.000000e+00   1971s
  204413    1.0709988e+04   1.945135e+04   0.000000e+00   1975s
  204903    1.0709988e+04   5.862003e+04   0.000000e+00   1982s
  205123    1.0709988e+04   1.046942e+05   0.000000e+00   1986s
  205593    1.0709988e+04   2.035053e+04   0.000000e+00   1993s
  205833    1.0709988e+04   1.431791e+04   0.000000e+00   1997s
  206073    1.0709988e+04   1.135695e+06   0.000000e+00   2000s
  206543    1.0709988e+04   1.099823e+04   0.000000e+00   2008s
  206773    1.0709988e+04   7.287052e+03   0.000000e+00   2011s
  207233    1.0709988e+04   2.496209e+04   0.000000e+00   2018s
  207463    1.0709988e+04   4.452401e+05   0.000000e+00   2022s
  207693    1.0709988e+04   2.955035e+03   0.000000e+00   2026s
  208183    1.0709988e+04   2.877131e+04   0.000000e+00   2033s
  208413    1.0709988e+04   6.262931e+03   0.000000e+00   2037s
  208643    1.0709988e+04   2.574660e+04   0.000000e+00   2040s
  209113    1.0709988e+04   3.933776e+03   0.000000e+00   2048s
  209333    1.0709987e+04   4.845832e+03   0.000000e+00   2051s
  209793    1.0709987e+04   4.897919e+04   0.000000e+00   2059s
  210033    1.0709987e+04   2.476657e+03   0.000000e+00   2062s
  210263    1.0709987e+04   3.572621e+04   0.000000e+00   2066s
  210703    1.0709987e+04   2.614301e+03   0.000000e+00   2073s
  210933    1.0709987e+04   3.461074e+03   0.000000e+00   2077s
  211173    1.0709987e+04   1.093298e+05   0.000000e+00   2081s
  211643    1.0709987e+04   3.044856e+04   0.000000e+00   2088s
  211873    1.0709987e+04   9.289389e+03   0.000000e+00   2091s
  212123    1.0709987e+04   1.371221e+03   0.000000e+00   2095s
  212583    1.0709987e+04   5.534997e+03   0.000000e+00   2102s
  212813    1.0709987e+04   2.118579e+04   0.000000e+00   2106s
  213273    1.0709987e+04   7.087518e+04   0.000000e+00   2113s
  213513    1.0709987e+04   2.324213e+04   0.000000e+00   2117s
  213753    1.0709987e+04   3.817285e+04   0.000000e+00   2121s
  214213    1.0709987e+04   1.838234e+04   0.000000e+00   2128s
  214453    1.0709987e+04   1.408752e+04   0.000000e+00   2132s
  214673    1.0709987e+04   1.071252e+04   0.000000e+00   2135s
  215113    1.0709987e+04   4.542495e+04   0.000000e+00   2143s
  215353    1.0709987e+04   1.955295e+03   0.000000e+00   2147s
  215573    1.0709987e+04   9.556876e+03   0.000000e+00   2150s
  216033    1.0709987e+04   1.362420e+04   0.000000e+00   2158s
  216263    1.0709987e+04   1.438881e+04   0.000000e+00   2161s
  216723    1.0709987e+04   1.503819e+04   0.000000e+00   2168s
  216953    1.0709987e+04   1.755014e+04   0.000000e+00   2172s
  217173    1.0709987e+04   3.061864e+03   0.000000e+00   2175s
  217643    1.0709987e+04   6.829588e+04   0.000000e+00   2182s
  217863    1.0709987e+04   1.570983e+05   0.000000e+00   2186s
  218333    1.0709987e+04   1.227469e+04   0.000000e+00   2193s
  218563    1.0709987e+04   3.859473e+03   0.000000e+00   2197s
  218823    1.0709987e+04   1.726295e+05   0.000000e+00   2200s
  219303    1.0709987e+04   1.835328e+05   0.000000e+00   2207s
  219523    1.0709987e+04   3.343769e+03   0.000000e+00   2211s
  219993    1.0709987e+04   1.765791e+04   0.000000e+00   2218s
  220243    1.0709987e+04   2.210715e+03   0.000000e+00   2221s
  220713    1.0709987e+04   8.575799e+03   0.000000e+00   2228s
  220933    1.0709987e+04   1.485724e+03   0.000000e+00   2232s
  221173    1.0709987e+04   2.662615e+04   0.000000e+00   2235s
  221623    1.0709987e+04   2.418579e+04   0.000000e+00   2243s
  221853    1.0709987e+04   4.061568e+04   0.000000e+00   2246s
  222323    1.0709987e+04   8.270292e+03   0.000000e+00   2253s
  222543    1.0709987e+04   2.129441e+04   0.000000e+00   2257s
  223033    1.0709987e+04   1.795568e+05   0.000000e+00   2263s
  223253    1.0709987e+04   2.590698e+03   0.000000e+00   2267s
  223483    1.0709987e+04   3.012708e+04   0.000000e+00   2271s
  223933    1.0709987e+04   5.021555e+04   0.000000e+00   2277s
  224153    1.0709987e+04   2.240983e+03   0.000000e+00   2281s
  224613    1.0709987e+04   3.245043e+04   0.000000e+00   2288s
  224833    1.0709987e+04   3.086512e+03   0.000000e+00   2291s
  225293    1.0709987e+04   1.049865e+04   0.000000e+00   2298s
  225523    1.0709987e+04   6.838280e+03   0.000000e+00   2302s
  225773    1.0709987e+04   3.379875e+04   0.000000e+00   2305s
  226243    1.0709987e+04   9.126652e+03   0.000000e+00   2312s
  226463    1.0709987e+04   5.108603e+04   0.000000e+00   2315s
  226913    1.0709987e+04   6.438436e+03   0.000000e+00   2322s
  227133    1.0709987e+04   5.776394e+03   0.000000e+00   2326s
  227593    1.0709987e+04   1.954261e+05   0.000000e+00   2333s
  227833    1.0709987e+04   5.549695e+03   0.000000e+00   2336s
  228283    1.0709987e+04   7.560376e+04   0.000000e+00   2343s
  228503    1.0709987e+04   7.897452e+02   0.000000e+00   2347s
  228743    1.0709987e+04   4.601542e+04   0.000000e+00   2350s
  229193    1.0709987e+04   3.470435e+04   0.000000e+00   2357s
  229433    1.0709987e+04   1.835438e+03   0.000000e+00   2361s
  229913    1.0709987e+04   8.215685e+02   0.000000e+00   2368s
  230133    1.0709987e+04   8.000349e+02   0.000000e+00   2372s
  230353    1.0709987e+04   1.494762e+04   0.000000e+00   2375s
  230813    1.0709987e+04   8.619574e+03   0.000000e+00   2382s
  231083    1.0709987e+04   1.571734e+03   0.000000e+00   2386s
  231553    1.0709987e+04   1.446120e+03   0.000000e+00   2393s
  231783    1.0709987e+04   2.793781e+03   0.000000e+00   2396s
  232233    1.0709987e+04   3.683284e+03   0.000000e+00   2403s
  232453    1.0709987e+04   1.067224e+03   0.000000e+00   2407s
  232693    1.0709987e+04   5.392056e+03   0.000000e+00   2411s
  233153    1.0709987e+04   1.749153e+03   0.000000e+00   2418s
  233383    1.0709987e+04   9.100414e+04   0.000000e+00   2422s
  233613    1.0709987e+04   3.847995e+04   0.000000e+00   2425s
  234053    1.0709987e+04   5.233504e+03   0.000000e+00   2432s
  234303    1.0709987e+04   2.451823e+03   0.000000e+00   2436s
  234773    1.0709987e+04   1.454095e+03   0.000000e+00   2443s
  234993    1.0709987e+04   1.513332e+04   0.000000e+00   2446s
  235223    1.0709987e+04   1.109019e+04   0.000000e+00   2450s
  235673    1.0709987e+04   6.415850e+03   0.000000e+00   2457s
  235903    1.0709987e+04   2.338776e+04   0.000000e+00   2461s
  236393    1.0709987e+04   3.981152e+03   0.000000e+00   2468s
  236633    1.0709987e+04   4.630357e+03   0.000000e+00   2471s
  237083    1.0709987e+04   4.137415e+04   0.000000e+00   2478s
  237303    1.0709987e+04   3.388032e+03   0.000000e+00   2481s
  237743    1.0709987e+04   1.919140e+04   0.000000e+00   2488s
  237983    1.0709987e+04   3.806883e+04   0.000000e+00   2492s
  238203    1.0709987e+04   1.601652e+04   0.000000e+00   2495s
  238663    1.0709987e+04   1.720911e+04   0.000000e+00   2502s
  238893    1.0709987e+04   2.779798e+03   0.000000e+00   2506s
  239343    1.0709987e+04   2.704436e+04   0.000000e+00   2513s
  239573    1.0709987e+04   8.654258e+04   0.000000e+00   2516s
  239793    1.0709987e+04   3.316234e+03   0.000000e+00   2520s
  240243    1.0709987e+04   1.339626e+04   0.000000e+00   2527s
  240463    1.0709987e+04   3.334205e+03   0.000000e+00   2531s
  240913    1.0709987e+04   6.129541e+03   0.000000e+00   2538s
  241133    1.0709987e+04   4.053681e+03   0.000000e+00   2542s
  241563    1.0709987e+04   1.779276e+03   0.000000e+00   2548s
  241783    1.0709987e+04   4.106086e+03   0.000000e+00   2552s
  242013    1.0709987e+04   1.367988e+04   0.000000e+00   2556s
  242473    1.0709987e+04   3.019997e+03   0.000000e+00   2563s
  242703    1.0709987e+04   5.475312e+03   0.000000e+00   2566s
  243173    1.0709987e+04   9.901245e+04   0.000000e+00   2574s
  243403    1.0709987e+04   7.171630e+03   0.000000e+00   2577s
  243623    1.0709987e+04   6.820171e+03   0.000000e+00   2581s
  244073    1.0709987e+04   3.555864e+03   0.000000e+00   2588s
  244313    1.0709987e+04   2.283749e+04   0.000000e+00   2592s
  244543    1.0709987e+04   1.973174e+03   0.000000e+00   2595s
  244983    1.0709987e+04   1.228352e+03   0.000000e+00   2602s
  245203    1.0709987e+04   4.073098e+04   0.000000e+00   2606s
  245643    1.0709987e+04   3.066316e+04   0.000000e+00   2613s
  245863    1.0709987e+04   2.198440e+04   0.000000e+00   2616s
  246303    1.0709987e+04   6.362195e+03   0.000000e+00   2623s
  246523    1.0709987e+04   9.971197e+02   0.000000e+00   2627s
  246763    1.0709987e+04   6.612986e+02   0.000000e+00   2630s
  247233    1.0709987e+04   1.404392e+03   0.000000e+00   2638s
  247473    1.0709987e+04   6.798856e+03   0.000000e+00   2641s
  247943    1.0709987e+04   5.704794e+04   0.000000e+00   2649s
  248173    1.0709987e+04   5.115402e+03   0.000000e+00   2652s
  248403    1.0709987e+04   6.498054e+03   0.000000e+00   2656s
  248863    1.0709987e+04   1.042984e+03   0.000000e+00   2663s
  249083    1.0709987e+04   3.982407e+03   0.000000e+00   2667s
  249323    1.0709987e+04   1.406711e+04   0.000000e+00   2671s
  249773    1.0709987e+04   7.644340e+03   0.000000e+00   2678s
  250003    1.0709987e+04   3.270130e+04   0.000000e+00   2682s
  250223    1.0709987e+04   6.557487e+04   0.000000e+00   2686s
  250673    1.0709987e+04   7.695009e+02   0.000000e+00   2693s
  250923    1.0709987e+04   5.952141e+02   0.000000e+00   2696s
  251383    1.0709987e+04   3.072205e+03   0.000000e+00   2703s
  251603    1.0709987e+04   2.091526e+03   0.000000e+00   2706s
  252063    1.0709987e+04   7.743432e+03   0.000000e+00   2713s
  252283    1.0709987e+04   6.478756e+03   0.000000e+00   2717s
  252503    1.0709987e+04   6.210963e+03   0.000000e+00   2720s
  252953    1.0709987e+04   2.501676e+03   0.000000e+00   2727s
  253193    1.0709987e+04   5.077718e+03   0.000000e+00   2731s
  253683    1.0709987e+04   1.216645e+04   0.000000e+00   2738s
  253903    1.0709987e+04   3.148261e+03   0.000000e+00   2741s
  254403    1.0709987e+04   4.599167e+02   0.000000e+00   2748s
  254633    1.0709987e+04   1.784083e+04   0.000000e+00   2752s
  254873    1.0709987e+04   2.100356e+03   0.000000e+00   2756s
  255333    1.0709987e+04   1.755617e+04   0.000000e+00   2763s
  255543    1.0709987e+04   5.732203e+03   0.000000e+00   2767s
  255773    1.0709987e+04   2.121018e+04   0.000000e+00   2771s
  256233    1.0709987e+04   2.852449e+03   0.000000e+00   2778s
  256453    1.0709987e+04   9.119342e+03   0.000000e+00   2782s
  256673    1.0709987e+04   4.301959e+03   0.000000e+00   2785s
  257113    1.0709987e+04   5.262792e+03   0.000000e+00   2793s
  257333    1.0709987e+04   7.252119e+03   0.000000e+00   2796s
  257773    1.0709987e+04   1.337562e+03   0.000000e+00   2803s
  257993    1.0709987e+04   2.543852e+03   0.000000e+00   2807s
  258233    1.0709987e+04   4.426466e+03   0.000000e+00   2811s
  258693    1.0709987e+04   9.665887e+02   0.000000e+00   2818s
  258943    1.0709987e+04   2.944376e+03   0.000000e+00   2821s
  259183    1.0709987e+04   3.235561e+03   0.000000e+00   2825s
  259633    1.0709987e+04   4.931076e+02   0.000000e+00   2832s
  259863    1.0709987e+04   1.451405e+03   0.000000e+00   2836s
  260323    1.0709987e+04   3.258774e+04   0.000000e+00   2844s
  260553    1.0709987e+04   5.209766e+03   0.000000e+00   2848s
  260783    1.0709987e+04   3.212449e+04   0.000000e+00   2851s
  261013    1.0709987e+04   4.539140e+03   0.000000e+00   2855s
  261463    1.0709987e+04   7.399581e+03   0.000000e+00   2863s
  261693    1.0709987e+04   2.861853e+02   0.000000e+00   2866s
  262153    1.0709987e+04   2.897090e+03   0.000000e+00   2874s
  262383    1.0709987e+04   8.519476e+02   0.000000e+00   2877s
  262613    1.0709987e+04   2.795967e+04   0.000000e+00   2881s
  263063    1.0709987e+04   2.433917e+03   0.000000e+00   2889s
  263283    1.0709987e+04   3.177131e+03   0.000000e+00   2892s
  263503    1.0709987e+04   9.598605e+02   0.000000e+00   2896s
  263953    1.0709987e+04   1.593736e+03   0.000000e+00   2903s
  264183    1.0709987e+04   4.737844e+03   0.000000e+00   2907s
  264403    1.0709987e+04   1.469413e+03   0.000000e+00   2911s
  264863    1.0709987e+04   2.242680e+04   0.000000e+00   2918s
  265083    1.0709987e+04   7.758607e+03   0.000000e+00   2922s
  265313    1.0709987e+04   1.092671e+03   0.000000e+00   2926s
  265773    1.0709987e+04   1.130843e+03   0.000000e+00   2933s
  266003    1.0709987e+04   4.440682e+03   0.000000e+00   2937s
  266233    1.0709987e+04   1.405870e+03   0.000000e+00   2941s
  266703    1.0709987e+04   1.059212e+03   0.000000e+00   2949s
  266933    1.0709987e+04   3.355507e+03   0.000000e+00   2952s
  267163    1.0709987e+04   9.734425e+02   0.000000e+00   2956s
  267623    1.0709987e+04   6.013921e+03   0.000000e+00   2964s
  267863    1.0709987e+04   5.450980e+03   0.000000e+00   2967s
  268093    1.0709987e+04   4.245195e+03   0.000000e+00   2971s
  268563    1.0709987e+04   1.556835e+03   0.000000e+00   2979s
  268783    1.0709987e+04   2.638104e+05   0.000000e+00   2982s
  269003    1.0709987e+04   2.636535e+03   0.000000e+00   2986s
  269463    1.0709987e+04   1.884849e+04   0.000000e+00   2993s
  269703    1.0709987e+04   6.323839e+02   0.000000e+00   2997s
  269933    1.0709987e+04   3.094010e+02   0.000000e+00   3001s
  270423    1.0709987e+04   3.162069e+04   0.000000e+00   3008s
  270653    1.0709987e+04   5.430794e+03   0.000000e+00   3012s
  270883    1.0709987e+04   6.647171e+02   0.000000e+00   3016s
  271343    1.0709987e+04   1.566596e+03   0.000000e+00   3023s
  271573    1.0709987e+04   3.634921e+02   0.000000e+00   3027s
  271813    1.0709987e+04   2.103549e+03   0.000000e+00   3031s
  272283    1.0709987e+04   3.565165e+02   0.000000e+00   3038s
  272503    1.0709987e+04   1.248139e+02   0.000000e+00   3042s
  272733    1.0709987e+04   2.868131e+03   0.000000e+00   3046s
  273183    1.0709987e+04   8.700929e+02   0.000000e+00   3053s
  273413    1.0709987e+04   1.779164e+02   0.000000e+00   3056s
  273643    1.0709987e+04   2.438627e+02   0.000000e+00   3060s
  274093    1.0709987e+04   2.112742e+04   0.000000e+00   3067s
  274323    1.0709987e+04   3.093101e+03   0.000000e+00   3071s
  274773    1.0709987e+04   3.690739e+02   0.000000e+00   3078s
  275003    1.0709987e+04   1.827844e+03   0.000000e+00   3082s
  275223    1.0709987e+04   7.256601e+02   0.000000e+00   3086s
  275673    1.0709987e+04   2.512368e+02   0.000000e+00   3093s
  275903    1.0709987e+04   2.058611e+03   0.000000e+00   3097s
  276143    1.0709987e+04   3.880043e+02   0.000000e+00   3100s
  276623    1.0709987e+04   1.698161e+03   0.000000e+00   3108s
  276853    1.0709987e+04   1.215268e+02   0.000000e+00   3112s
  277083    1.0709987e+04   1.414610e+02   0.000000e+00   3116s
  277533    1.0709987e+04   4.938162e+02   0.000000e+00   3123s
  277763    1.0709987e+04   6.111795e+02   0.000000e+00   3127s
  277993    1.0709987e+04   1.720969e+02   0.000000e+00   3131s
  278493    1.0709987e+04   3.134592e+03   0.000000e+00   3139s
  278743    1.0709987e+04   3.184952e+02   0.000000e+00   3143s
  278983    1.0709987e+04   6.954002e+02   0.000000e+00   3147s
  279223    1.0709987e+04   2.872577e+02   0.000000e+00   3151s
  279703    1.0709987e+04   4.751385e+03   0.000000e+00   3159s
  279943    1.0709987e+04   3.741933e+03   0.000000e+00   3163s
  280173    1.0709987e+04   4.230657e+03   0.000000e+00   3167s
  280403    1.0709987e+04   4.065632e+04   0.000000e+00   3171s
  280873    1.0709987e+04   3.707207e+03   0.000000e+00   3179s
  281113    1.0709987e+04   3.196936e+04   0.000000e+00   3183s
  281343    1.0709987e+04   8.989137e+02   0.000000e+00   3187s
  281573    1.0709987e+04   3.848093e+03   0.000000e+00   3191s
  282033    1.0709987e+04   1.866395e+03   0.000000e+00   3198s
  282263    1.0709987e+04   1.184647e+03   0.000000e+00   3202s
  282493    1.0709987e+04   2.107099e+02   0.000000e+00   3206s
  282743    1.0709987e+04   9.209128e+03   0.000000e+00   3210s
  283213    1.0709987e+04   4.557857e+02   0.000000e+00   3218s
  283443    1.0709987e+04   2.241168e+03   0.000000e+00   3222s
  283673    1.0709987e+04   1.053968e+03   0.000000e+00   3225s
  284143    1.0709987e+04   1.417597e+02   0.000000e+00   3233s
  284373    1.0709987e+04   9.410571e+02   0.000000e+00   3237s
  284603    1.0709987e+04   7.696716e+02   0.000000e+00   3241s
  285093    1.0709987e+04   4.888099e+02   0.000000e+00   3248s
  285323    1.0709987e+04   8.495334e+02   0.000000e+00   3252s
  285553    1.0709987e+04   6.816397e+02   0.000000e+00   3256s
  286013    1.0709987e+04   2.559750e+03   0.000000e+00   3263s
  286243    1.0709987e+04   1.263447e+02   0.000000e+00   3267s
  286463    1.0709987e+04   2.886647e+02   0.000000e+00   3270s
  286923    1.0709987e+04   6.591450e+02   0.000000e+00   3278s
  287153    1.0709987e+04   3.926024e+02   0.000000e+00   3281s
  287383    1.0709987e+04   2.857157e+02   0.000000e+00   3285s
  287843    1.0709987e+04   1.206840e+02   0.000000e+00   3293s
  288073    1.0709987e+04   2.254137e+02   0.000000e+00   3296s
  288533    1.0709987e+04   1.801418e+03   0.000000e+00   3304s
  288773    1.0709987e+04   1.566714e+02   0.000000e+00   3307s
  289013    1.0709987e+04   9.116147e+00   0.000000e+00   3311s
  289253    1.0709987e+04   6.548546e+02   0.000000e+00   3315s
  289733    1.0709987e+04   2.701114e+02   0.000000e+00   3323s
  289983    1.0709987e+04   2.292387e+02   0.000000e+00   3327s
  290213    1.0709987e+04   2.768998e+02   0.000000e+00   3330s
  290673    1.0709987e+04   1.562479e+01   0.000000e+00   3338s
  290923    1.0709987e+04   2.973755e+02   0.000000e+00   3342s
  291163    1.0709987e+04   2.122488e+02   0.000000e+00   3346s
  291393    1.0709987e+04   3.718838e+01   0.000000e+00   3350s
  291853    1.0709987e+04   3.942309e+02   0.000000e+00   3358s
  292103    1.0709987e+04   4.145511e+02   0.000000e+00   3362s
  292343    1.0709987e+04   1.584171e+02   0.000000e+00   3366s
  292803    1.0709987e+04   1.675620e+02   0.000000e+00   3374s
  293043    1.0709987e+04   3.329509e+02   0.000000e+00   3378s
  293273    1.0709987e+04   1.014410e+02   0.000000e+00   3381s
  293503    1.0709987e+04   1.518504e+02   0.000000e+00   3385s
  293973    1.0709987e+04   1.882524e+02   0.000000e+00   3393s
  294213    1.0709987e+04   2.916872e+02   0.000000e+00   3397s
  294443    1.0709987e+04   4.880929e+02   0.000000e+00   3401s
  294903    1.0709987e+04   6.454261e+01   0.000000e+00   3409s
  295143    1.0709987e+04   8.818011e+01   0.000000e+00   3412s
  295383    1.0709987e+04   2.636362e+03   0.000000e+00   3416s
  295633    1.0709987e+04   4.230148e+02   0.000000e+00   3420s
  296113    1.0709987e+04   1.838966e+01   0.000000e+00   3428s
  296343    1.0709987e+04   1.765970e+02   0.000000e+00   3432s
  296573    1.0709987e+04   1.556301e+02   0.000000e+00   3436s
  297053    1.0709987e+04   1.788402e+02   0.000000e+00   3444s
  297283    1.0709987e+04   3.562862e+02   0.000000e+00   3448s
  297523    1.0709987e+04   2.164846e+01   0.000000e+00   3452s
  297763    1.0709987e+04   2.438945e+01   0.000000e+00   3456s
  298243    1.0709987e+04   7.289340e+01   0.000000e+00   3463s
  298473    1.0709987e+04   2.976212e+02   0.000000e+00   3467s
  298703    1.0709987e+04   9.999531e+00   0.000000e+00   3471s
  299163    1.0709987e+04   1.434224e+02   0.000000e+00   3479s
  299393    1.0709987e+04   1.814227e+02   0.000000e+00   3483s
  299623    1.0709987e+04   2.631652e+01   0.000000e+00   3487s
  299853    1.0709987e+04   8.728551e+01   0.000000e+00   3490s
  300323    1.0709987e+04   1.988173e+02   0.000000e+00   3498s
  300553    1.0709987e+04   1.860315e+01   0.000000e+00   3502s
  300783    1.0709987e+04   2.112834e+01   0.000000e+00   3506s
  301023    1.0709987e+04   6.497782e+01   0.000000e+00   3510s
  301493    1.0709987e+04   1.599977e+01   0.000000e+00   3518s
  301723    1.0709987e+04   7.038506e+00   0.000000e+00   3522s
  301953    1.0709987e+04   2.530784e+00   0.000000e+00   3526s
  302433    1.0709987e+04   3.081619e+02   0.000000e+00   3534s
  302663    1.0709987e+04   1.301577e+02   0.000000e+00   3538s
  302893    1.0709987e+04   3.124673e+01   0.000000e+00   3542s
  303123    1.0709987e+04   1.458487e+01   0.000000e+00   3545s
  303583    1.0709987e+04   1.779744e+01   0.000000e+00   3553s
  303823    1.0709987e+04   1.132312e+01   0.000000e+00   3557s
  304073    1.0709987e+04   1.130353e+02   0.000000e+00   3562s
  304323    1.0709987e+04   1.891997e+02   0.000000e+00   3566s
  304860    1.0709987e+04   2.364676e+04   0.000000e+00   3574s
  305090    1.0709987e+04   8.019186e+03   0.000000e+00   3578s
  305310    1.0709987e+04   1.513838e+04   0.000000e+00   3582s
  305540    1.0709987e+04   3.498254e+03   0.000000e+00   3586s
  306000    1.0709987e+04   3.688481e+02   0.000000e+00   3594s
  306240    1.0709987e+04   5.611214e+02   0.000000e+00   3598s

Root relaxation: time limit, 306385 iterations, 3591.17 seconds

    Nodes    |    Current Node    |     Objective Bounds      |     Work
 Expl Unexpl |  Obj  Depth IntInf | Incumbent    BestBd   Gap | It/Node Time

     0     0          -    0      3300.00000 12090.0000   266%     - 3600s

Explored 0 nodes (306385 simplex iterations) in 3600.14 seconds
Thread count was 1 (of 40 available processors)

Solution count 1: 3300 

Time limit reached
Best objective 3.300000000000e+03, best bound 1.209000000000e+04, gap 266.3636%

----------

Best objective (UB): 12090.000
Best feasible solution (LB): 3300.000
Gap between the lower bound and upper bound: 266.364%

----------

Number of customers served: 20

Schedule for EV v0:
   [   0, 1032) -> It remains parked at station s0.
   [1032, 1212) -> Service a request driving for customer c12 from s0 to s11.
   [1212, 1599) -> It remains parked at station s11.

Schedule for EV v1:
   [   0,  906) -> It remains parked at station s0.
   [ 906, 1026) -> Service a request driving for customer c6 from s0 to s4.
   [1026, 1599) -> It remains parked at station s4.

Schedule for EV v2:
   [   0,  967) -> It remains parked at station s0.
   [ 967, 1027) -> Service a request driving for customer c16 from s0 to s1.
   [1027, 1599) -> It remains parked at station s1.

Schedule for EV v3:
   [   0, 1599) -> It remains parked at station s0.

Schedule for EV v4:
   [   0, 1599) -> It remains parked at station s0.

Schedule for EV v5:
   [   0, 1599) -> It remains parked at station s0.

Schedule for EV v6:
   [   0, 1092) -> It remains parked at station s1.
   [1092, 1182) -> Service a request driving for customer c33 from s1 to s11.
   [1182, 1599) -> It remains parked at station s11.

Schedule for EV v7:
   [   0, 1153) -> It remains parked at station s1.
   [1153, 1243) -> Service a request driving for customer c48 from s1 to s11.
   [1243, 1599) -> It remains parked at station s11.

Schedule for EV v8:
   [   0,  612) -> It remains parked at station s1.
   [ 612,  672) -> Service a request driving for customer c0 from s1 to s5.
   [ 672, 1599) -> It remains parked at station s5.

Schedule for EV v9:
   [   0,  433) -> It remains parked at station s1.
   [ 433,  493) -> Service a request driving for customer c49 from s1 to s4.
   [ 493, 1599) -> It remains parked at station s4.

Schedule for EV v10:
   [   0, 1599) -> It remains parked at station s1.

Schedule for EV v11:
   [   0, 1599) -> It remains parked at station s1.

Schedule for EV v12:
   [   0, 1599) -> It remains parked at station s1.

Schedule for EV v13:
   [   0, 1599) -> It remains parked at station s1.

Schedule for EV v14:
   [   0, 1599) -> It remains parked at station s2.

Schedule for EV v15:
   [   0, 1599) -> It remains parked at station s2.

Schedule for EV v16:
   [   0, 1599) -> It remains parked at station s2.

Schedule for EV v17:
   [   0, 1599) -> It remains parked at station s2.

Schedule for EV v18:
   [   0, 1599) -> It remains parked at station s2.

Schedule for EV v19:
   [   0, 1599) -> It remains parked at station s2.

Schedule for EV v20:
   [   0, 1599) -> It remains parked at station s2.

Schedule for EV v21:
   [   0, 1599) -> It remains parked at station s2.

Schedule for EV v22:
   [   0, 1215) -> It remains parked at station s3.
   [1215, 1485) -> Service a request driving for customer c9 from s3 to s5.
   [1485, 1599) -> It remains parked at station s5.

Schedule for EV v23:
   [   0, 1146) -> It remains parked at station s3.
   [1146, 1386) -> Service a request driving for customer c24 from s3 to s8.
   [1386, 1599) -> It remains parked at station s8.

Schedule for EV v24:
   [   0, 1599) -> It remains parked at station s3.

Schedule for EV v25:
   [   0, 1599) -> It remains parked at station s3.

Schedule for EV v26:
   [   0, 1599) -> It remains parked at station s3.

Schedule for EV v27:
   [   0, 1599) -> It remains parked at station s3.

Schedule for EV v28:
   [   0, 1599) -> It remains parked at station s3.

Schedule for EV v29:
   [   0, 1599) -> It remains parked at station s3.

Schedule for EV v30:
   [   0, 1599) -> It remains parked at station s3.

Schedule for EV v31:
   [   0, 1599) -> It remains parked at station s3.

Schedule for EV v32:
   [   0, 1599) -> It remains parked at station s3.

Schedule for EV v33:
   [   0, 1599) -> It remains parked at station s3.

Schedule for EV v34:
   [   0, 1599) -> It remains parked at station s3.

Schedule for EV v35:
   [   0, 1599) -> It remains parked at station s3.

Schedule for EV v36:
   [   0, 1599) -> It remains parked at station s3.

Schedule for EV v37:
   [   0, 1599) -> It remains parked at station s4.

Schedule for EV v38:
   [   0, 1599) -> It remains parked at station s4.

Schedule for EV v39:
   [   0, 1599) -> It remains parked at station s4.

Schedule for EV v40:
   [   0, 1599) -> It remains parked at station s4.

Schedule for EV v41:
   [   0, 1599) -> It remains parked at station s4.

Schedule for EV v42:
   [   0, 1599) -> It remains parked at station s4.

Schedule for EV v43:
   [   0, 1599) -> It remains parked at station s4.

Schedule for EV v44:
   [   0, 1599) -> It remains parked at station s4.

Schedule for EV v45:
   [   0, 1599) -> It remains parked at station s4.

Schedule for EV v46:
   [   0, 1599) -> It remains parked at station s4.

Schedule for EV v47:
   [   0, 1599) -> It remains parked at station s4.

Schedule for EV v48:
   [   0, 1599) -> It remains parked at station s5.

Schedule for EV v49:
   [   0, 1599) -> It remains parked at station s5.

Schedule for EV v50:
   [   0, 1599) -> It remains parked at station s5.

Schedule for EV v51:
   [   0, 1599) -> It remains parked at station s5.

Schedule for EV v52:
   [   0, 1599) -> It remains parked at station s5.

Schedule for EV v53:
   [   0, 1599) -> It remains parked at station s5.

Schedule for EV v54:
   [   0, 1389) -> It remains parked at station s6.
   [1389, 1449) -> Service a request driving for customer c4 from s6 to s1.
   [1449, 1599) -> It remains parked at station s1.

Schedule for EV v55:
   [   0, 1599) -> It remains parked at station s6.

Schedule for EV v56:
   [   0, 1599) -> It remains parked at station s6.

Schedule for EV v57:
   [   0, 1599) -> It remains parked at station s6.

Schedule for EV v58:
   [   0, 1599) -> It remains parked at station s6.

Schedule for EV v59:
   [   0, 1599) -> It remains parked at station s6.

Schedule for EV v60:
   [   0, 1599) -> It remains parked at station s6.

Schedule for EV v61:
   [   0, 1599) -> It remains parked at station s6.

Schedule for EV v62:
   [   0, 1599) -> It remains parked at station s6.

Schedule for EV v63:
   [   0, 1599) -> It remains parked at station s6.

Schedule for EV v64:
   [   0, 1599) -> It remains parked at station s7.

Schedule for EV v65:
   [   0, 1599) -> It remains parked at station s7.

Schedule for EV v66:
   [   0, 1599) -> It remains parked at station s7.

Schedule for EV v67:
   [   0, 1599) -> It remains parked at station s7.

Schedule for EV v68:
   [   0, 1599) -> It remains parked at station s7.

Schedule for EV v69:
   [   0,  726) -> It remains parked at station s8.
   [ 726,  936) -> Service a request driving for customer c42 from s8 to s11.
   [ 936, 1155) -> It remains parked at station s11.
   [1155, 1305) -> Service a request driving for customer c2 from s11 to s4.
   [1305, 1599) -> It remains parked at station s4.

Schedule for EV v70:
   [   0,  792) -> It remains parked at station s8.
   [ 792, 1062) -> Service a request driving for customer c27 from s8 to s3.
   [1062, 1151) -> It remains parked at station s3.
   [1151, 1211) -> Service a request driving for customer c27 from s3 to s9.
   [1211, 1599) -> It remains parked at station s9.

Schedule for EV v71:
   [   0,  845) -> It remains parked at station s8.
   [ 845,  935) -> Service a request driving for customer c23 from s8 to s4.
   [ 935, 1087) -> It remains parked at station s4.
   [1087, 1297) -> Service a request driving for customer c23 from s4 to s1.
   [1297, 1599) -> It remains parked at station s1.

Schedule for EV v72:
   [   0, 1273) -> It remains parked at station s8.
   [1273, 1333) -> Service a request driving for customer c18 from s8 to s0.
   [1333, 1449) -> It remains parked at station s0.
   [1449, 1599) -> Service a request driving for customer c18 from s0 to s7.

Schedule for EV v73:
   [   0, 1156) -> It remains parked at station s8.
   [1156, 1246) -> Service a request driving for customer c20 from s8 to s4.
   [1246, 1599) -> It remains parked at station s4.

Schedule for EV v74:
   [   0, 1148) -> It remains parked at station s8.
   [1148, 1208) -> Service a request driving for customer c28 from s8 to s3.
   [1208, 1599) -> It remains parked at station s3.

Schedule for EV v75:
   [   0, 1599) -> It remains parked at station s8.

Schedule for EV v76:
   [   0, 1599) -> It remains parked at station s8.

Schedule for EV v77:
   [   0, 1599) -> It remains parked at station s8.

Schedule for EV v78:
   [   0, 1599) -> It remains parked at station s8.

Schedule for EV v79:
   [   0, 1599) -> It remains parked at station s8.

Schedule for EV v80:
   [   0, 1599) -> It remains parked at station s8.

Schedule for EV v81:
   [   0, 1599) -> It remains parked at station s8.

Schedule for EV v82:
   [   0, 1087) -> It remains parked at station s9.
   [1087, 1417) -> Service a request driving for customer c37 from s9 to s6.
   [1417, 1599) -> It remains parked at station s6.

Schedule for EV v83:
   [   0, 1599) -> It remains parked at station s9.

Schedule for EV v84:
   [   0, 1599) -> It remains parked at station s9.

Schedule for EV v85:
   [   0, 1599) -> It remains parked at station s9.

Schedule for EV v86:
   [   0, 1599) -> It remains parked at station s9.

Schedule for EV v87:
   [   0, 1093) -> It remains parked at station s10.
   [1093, 1243) -> Service a request driving for customer c47 from s10 to s3.
   [1243, 1599) -> It remains parked at station s3.

Schedule for EV v88:
   [   0, 1599) -> It remains parked at station s10.

Schedule for EV v89:
   [   0, 1599) -> It remains parked at station s10.

Schedule for EV v90:
   [   0, 1599) -> It remains parked at station s10.

Schedule for EV v91:
   [   0, 1599) -> It remains parked at station s10.

Schedule for EV v92:
   [   0, 1599) -> It remains parked at station s10.

Schedule for EV v93:
   [   0,  914) -> It remains parked at station s11.
   [ 914, 1154) -> Service a request driving for customer c39 from s11 to s4.
   [1154, 1599) -> It remains parked at station s4.

Schedule for EV v94:
   [   0, 1599) -> It remains parked at station s11.

Schedule for EV v95:
   [   0, 1599) -> It remains parked at station s11.

Schedule for EV v96:
   [   0, 1599) -> It remains parked at station s11.

Schedule for EV v97:
   [   0, 1599) -> It remains parked at station s11.

Schedule for EV v98:
   [   0, 1599) -> It remains parked at station s11.

Schedule for EV v99:
   [   0, 1599) -> It remains parked at station s11.

Schedule for EV v100:
   [   0, 1599) -> It remains parked at station s11.

Schedule for EV v101:
   [   0, 1599) -> It remains parked at station s11.

Schedule for EV v102:
   [   0, 1599) -> It remains parked at station s11.

Set of satisfied customers
   {c0, c2, c4, c6, c9, c12, c16, c18, c20, c23, c24, c27, c28, c33, c37, c39, c42, c47, c48, c49}

