Academic license - for non-commercial use only
Gurobi Optimizer version 9.0.3 build v9.0.3rc0 (linux64)
Optimize a model with 554756 rows, 372498 columns and 3564508 nonzeros
Model fingerprint: 0xe2e937d4
Variable types: 188952 continuous, 183546 integer (183546 binary)
Coefficient statistics:
  Matrix range     [1e+00, 4e+06]
  Objective range  [3e+01, 4e+02]
  Bounds range     [1e+00, 2e+06]
  RHS range        [1e+00, 2e+06]

Loaded user MIP start with objective 1830

Presolve removed 294037 rows and 193848 columns (presolve time = 5s) ...
Presolve removed 297730 rows and 195774 columns
Presolve time: 9.42s
Presolved: 257026 rows, 176724 columns, 1226762 nonzeros
Variable types: 0 continuous, 176724 integer (165271 binary)

Root simplex log...

Iteration    Objective       Primal Inf.    Dual Inf.      Time
       0    7.6800000e+03   4.464375e+02   0.000000e+00     11s
   15610    7.6799984e+03   4.614749e+03   0.000000e+00     15s
   21896    7.6799981e+03   5.208630e+04   0.000000e+00     20s
   25432    7.6799979e+03   1.527542e+04   0.000000e+00     25s
   27608    7.6799978e+03   5.260462e+04   0.000000e+00     31s
   29240    7.6799978e+03   4.602869e+04   0.000000e+00     35s
   30872    7.6799977e+03   3.850259e+04   0.000000e+00     40s
   32776    7.6799976e+03   1.239665e+04   0.000000e+00     46s
   34680    7.6799976e+03   2.404949e+04   0.000000e+00     50s
   36312    7.6799975e+03   7.505167e+03   0.000000e+00     56s
   37944    7.6799975e+03   2.807218e+05   0.000000e+00     61s
   38760    7.6799974e+03   2.112520e+04   0.000000e+00     65s
   39848    7.6799974e+03   1.799157e+04   0.000000e+00     71s
   40936    7.6799973e+03   8.975510e+04   0.000000e+00     77s
   41480    7.6799973e+03   4.023353e+04   0.000000e+00     80s
   42568    7.6799973e+03   2.517407e+05   0.000000e+00     86s
   43656    7.6799972e+03   6.137997e+04   0.000000e+00     91s
   44472    7.6799972e+03   6.108042e+05   0.000000e+00     96s
   45016    7.6799971e+03   1.688121e+05   0.000000e+00    100s
   45832    7.6799971e+03   3.244815e+04   0.000000e+00    106s
   46376    7.6799971e+03   1.446958e+04   0.000000e+00    110s
   47192    7.6799971e+03   2.769813e+04   0.000000e+00    117s
   47736    7.6799970e+03   1.747385e+05   0.000000e+00    122s
   48008    7.6799970e+03   4.132848e+05   0.000000e+00    125s
   48552    7.6799970e+03   1.376155e+05   0.000000e+00    131s
   49096    7.6799970e+03   1.817070e+04   0.000000e+00    136s
   49640    7.6799970e+03   7.698810e+04   0.000000e+00    140s
   50442    7.6799969e+03   4.932706e+05   0.000000e+00    147s
   50962    7.6799969e+03   1.226647e+05   0.000000e+00    151s
   51494    7.6799968e+03   4.242937e+05   0.000000e+00    155s
   52310    7.6799968e+03   1.062466e+05   0.000000e+00    161s
   52852    7.6799968e+03   4.923596e+05   0.000000e+00    166s
   53668    7.6799967e+03   3.438609e+04   0.000000e+00    171s
   54484    7.6799967e+03   4.807727e+04   0.000000e+00    176s
   55028    7.6799966e+03   1.796255e+04   0.000000e+00    181s
   55548    7.6799966e+03   6.019499e+04   0.000000e+00    185s
   56362    7.6799966e+03   4.284991e+04   0.000000e+00    192s
   56906    7.6799965e+03   4.402505e+05   0.000000e+00    196s
   57450    7.6799965e+03   1.009633e+05   0.000000e+00    200s
   58266    7.6799965e+03   2.462630e+04   0.000000e+00    207s
   58810    7.6799965e+03   4.172428e+05   0.000000e+00    212s
   59354    7.6799964e+03   4.233765e+04   0.000000e+00    215s
   59898    7.6799964e+03   2.844398e+05   0.000000e+00    220s
   60714    7.6799964e+03   4.598402e+04   0.000000e+00    227s
   61258    7.6799964e+03   4.972703e+04   0.000000e+00    231s
   61802    7.6799964e+03   3.924693e+04   0.000000e+00    236s
   62618    7.6799963e+03   4.799433e+04   0.000000e+00    242s
   63162    7.6799963e+03   9.624449e+05   0.000000e+00    247s
   63706    7.6799963e+03   5.395181e+04   0.000000e+00    252s
   64248    7.6799962e+03   1.797845e+04   0.000000e+00    256s
   64792    7.6799962e+03   1.525014e+04   0.000000e+00    261s
   65302    7.6799962e+03   2.704914e+04   0.000000e+00    265s
   65832    7.6799962e+03   5.201989e+04   0.000000e+00    270s
   66376    7.6799962e+03   1.446261e+05   0.000000e+00    275s
   67168    7.6799961e+03   6.194503e+04   0.000000e+00    282s
   67690    7.6799961e+03   5.075299e+04   0.000000e+00    287s
   68220    7.6799961e+03   1.000768e+05   0.000000e+00    292s
   68752    7.6799961e+03   9.549334e+04   0.000000e+00    297s
   69292    7.6799961e+03   2.562179e+05   0.000000e+00    302s
   69832    7.6799961e+03   6.036426e+04   0.000000e+00    307s
   70342    7.6799960e+03   5.226512e+05   0.000000e+00    312s
   70852    7.6799960e+03   2.013567e+05   0.000000e+00    317s
   71362    7.6799960e+03   2.317112e+05   0.000000e+00    322s
   71862    7.6799960e+03   1.829746e+04   0.000000e+00    327s
   72372    7.6799960e+03   7.797496e+04   0.000000e+00    332s
   72894    7.6799960e+03   1.881065e+06   0.000000e+00    337s
   73414    7.6799959e+03   1.600585e+04   0.000000e+00    342s
   73926    7.6799959e+03   2.407098e+06   0.000000e+00    347s
   74436    7.6799959e+03   1.709587e+04   0.000000e+00    352s
   74936    7.6799959e+03   4.532596e+04   0.000000e+00    357s
   75478    7.6799959e+03   3.717638e+04   0.000000e+00    362s
   76018    7.6799958e+03   3.535524e+04   0.000000e+00    367s
   76558    7.6799958e+03   2.265132e+04   0.000000e+00    372s
   77088    7.6799958e+03   3.161307e+04   0.000000e+00    377s
   77608    7.6799958e+03   1.323050e+04   0.000000e+00    382s
   78118    7.6799958e+03   1.831438e+04   0.000000e+00    387s
   78628    7.6799957e+03   2.571983e+04   0.000000e+00    392s
   79138    7.6799957e+03   5.654478e+03   0.000000e+00    397s
   79638    7.6799957e+03   3.914978e+04   0.000000e+00    402s
   80168    7.6799957e+03   6.717844e+04   0.000000e+00    408s
   80440    7.6799957e+03   3.484172e+04   0.000000e+00    410s
   80960    7.6799957e+03   1.207954e+05   0.000000e+00    415s
   81470    7.6799956e+03   6.543215e+04   0.000000e+00    420s
   81980    7.6799956e+03   8.454241e+04   0.000000e+00    425s
   82490    7.6799956e+03   6.134744e+04   0.000000e+00    431s
   83020    7.6799956e+03   2.285059e+05   0.000000e+00    436s
   83500    7.6799956e+03   2.831050e+04   0.000000e+00    441s
   83990    7.6799956e+03   1.899141e+05   0.000000e+00    446s
   84522    7.6799956e+03   3.624972e+04   0.000000e+00    451s
   85034    7.6799955e+03   1.673227e+04   0.000000e+00    456s
   85524    7.6799955e+03   1.283331e+05   0.000000e+00    461s
   86034    7.6799955e+03   8.555645e+04   0.000000e+00    467s
   86524    7.6799955e+03   3.722350e+04   0.000000e+00    472s
   87004    7.6799955e+03   4.535490e+04   0.000000e+00    477s
   87514    7.6799955e+03   5.286051e+05   0.000000e+00    482s
   87764    7.6799955e+03   3.787109e+04   0.000000e+00    485s
   88254    7.6799954e+03   6.347679e+04   0.000000e+00    490s
   88764    7.6799954e+03   4.342854e+04   0.000000e+00    496s
   89286    7.6799954e+03   3.619021e+04   0.000000e+00    501s
   89816    7.6799954e+03   8.666504e+04   0.000000e+00    506s
   90348    7.6799954e+03   4.106148e+04   0.000000e+00    511s
   90858    7.6799954e+03   3.010816e+04   0.000000e+00    517s
   91358    7.6799953e+03   3.881229e+05   0.000000e+00    522s
   91848    7.6799953e+03   1.685531e+05   0.000000e+00    527s
   92358    7.6799953e+03   7.037085e+04   0.000000e+00    533s
   92608    7.6799953e+03   3.589228e+04   0.000000e+00    535s
   93120    7.6799953e+03   1.048815e+04   0.000000e+00    540s
   93600    7.6799953e+03   6.278895e+05   0.000000e+00    546s
   94090    7.6799953e+03   6.707497e+04   0.000000e+00    551s
   94570    7.6799953e+03   6.716763e+04   0.000000e+00    556s
   95060    7.6799953e+03   8.469765e+04   0.000000e+00    562s
   95310    7.6799952e+03   9.200284e+04   0.000000e+00    565s
   95770    7.6799952e+03   3.541743e+05   0.000000e+00    570s
   96270    7.6799952e+03   1.436467e+05   0.000000e+00    576s
   96780    7.6799952e+03   2.185298e+05   0.000000e+00    581s
   97260    7.6799952e+03   1.475707e+05   0.000000e+00    587s
   97770    7.6799952e+03   3.106270e+04   0.000000e+00    592s
   98270    7.6799951e+03   1.197905e+05   0.000000e+00    598s
   98520    7.6799951e+03   3.624535e+04   0.000000e+00    600s
   98990    7.6799951e+03   5.734595e+04   0.000000e+00    606s
   99480    7.6799951e+03   3.915984e+04   0.000000e+00    611s
  100000    7.6799951e+03   7.198728e+04   0.000000e+00    616s
  100490    7.6799951e+03   9.612832e+04   0.000000e+00    622s
  100970    7.6799950e+03   7.154217e+03   0.000000e+00    627s
  101210    7.6799950e+03   8.284851e+04   0.000000e+00    630s
  101690    7.6799950e+03   2.736506e+04   0.000000e+00    636s
  102180    7.6799950e+03   1.517841e+04   0.000000e+00    641s
  102670    7.6799950e+03   1.669776e+05   0.000000e+00    647s
  103182    7.6799950e+03   7.524156e+06   0.000000e+00    652s
  103652    7.6799950e+03   2.338527e+04   0.000000e+00    657s
  103892    7.6799950e+03   3.602340e+04   0.000000e+00    660s
  104412    7.6799949e+03   3.028682e+05   0.000000e+00    666s
  104902    7.6799949e+03   1.133219e+05   0.000000e+00    671s
  105432    7.6799949e+03   1.259142e+04   0.000000e+00    677s
  105932    7.6799949e+03   2.450572e+05   0.000000e+00    682s
  106202    7.6799949e+03   4.102706e+04   0.000000e+00    685s
  106732    7.6799949e+03   6.865981e+04   0.000000e+00    691s
  107262    7.6799949e+03   4.084522e+04   0.000000e+00    696s
  107784    7.6799948e+03   2.875455e+05   0.000000e+00    702s
  108314    7.6799948e+03   1.968998e+05   0.000000e+00    707s
  108564    7.6799948e+03   7.480162e+04   0.000000e+00    710s
  109074    7.6799948e+03   1.198925e+04   0.000000e+00    716s
  109544    7.6799948e+03   3.060846e+04   0.000000e+00    721s
  110054    7.6799948e+03   1.243086e+05   0.000000e+00    727s
  110574    7.6799947e+03   6.613501e+04   0.000000e+00    732s
  110814    7.6799947e+03   1.057948e+04   0.000000e+00    735s
  111314    7.6799947e+03   2.561529e+04   0.000000e+00    741s
  111814    7.6799947e+03   7.771945e+04   0.000000e+00    747s
  112314    7.6799947e+03   1.860788e+04   0.000000e+00    753s
  112544    7.6799947e+03   3.496934e+04   0.000000e+00    755s
  113054    7.6799947e+03   4.855382e+04   0.000000e+00    761s
  113564    7.6799947e+03   1.552878e+05   0.000000e+00    767s
  114054    7.6799946e+03   6.843166e+03   0.000000e+00    773s
  114304    7.6799946e+03   2.870518e+04   0.000000e+00    776s
  114784    7.6799946e+03   1.247712e+05   0.000000e+00    781s
  115254    7.6799946e+03   1.483392e+04   0.000000e+00    787s
  115796    7.6799946e+03   6.939939e+04   0.000000e+00    793s
  116036    7.6799946e+03   2.365453e+04   0.000000e+00    795s
  116506    7.6799946e+03   4.710433e+04   0.000000e+00    801s
  117026    7.6799945e+03   7.675640e+04   0.000000e+00    807s
  117496    7.6799945e+03   4.723963e+04   0.000000e+00    813s
  117736    7.6799945e+03   3.042787e+04   0.000000e+00    816s
  118196    7.6799945e+03   1.010152e+04   0.000000e+00    821s
  118666    7.6799945e+03   2.711649e+05   0.000000e+00    827s
  118916    7.6799945e+03   5.090199e+05   0.000000e+00    830s
  119366    7.6799945e+03   2.431028e+04   0.000000e+00    836s
  119866    7.6799945e+03   5.975301e+04   0.000000e+00    842s
  120346    7.6799945e+03   3.446934e+04   0.000000e+00    847s
  120566    7.6799945e+03   1.377625e+05   0.000000e+00    850s
  121086    7.6799944e+03   2.563640e+04   0.000000e+00    856s
  121586    7.6799944e+03   4.426638e+06   0.000000e+00    862s
  122130    7.6799943e+03   1.793090e+05   0.000000e+00    867s
  122660    7.6799943e+03   2.207633e+04   0.000000e+00    873s
  122920    7.6799942e+03   3.757138e+04   0.000000e+00    876s
  123450    7.6799942e+03   2.077220e+04   0.000000e+00    881s
  123940    7.6799942e+03   2.927123e+04   0.000000e+00    887s
  124170    7.6799942e+03   1.432138e+05   0.000000e+00    890s
  124650    7.6799942e+03   2.194496e+04   0.000000e+00    896s
  125130    7.6799942e+03   2.789000e+04   0.000000e+00    902s
  125630    7.6799942e+03   1.010572e+05   0.000000e+00    908s
  125890    7.6799942e+03   2.490946e+04   0.000000e+00    911s
  126360    7.6799942e+03   3.129846e+04   0.000000e+00    917s
  126830    7.6799941e+03   1.508931e+05   0.000000e+00    922s
  127070    7.6799941e+03   1.239683e+05   0.000000e+00    925s
  127540    7.6799941e+03   6.463508e+03   0.000000e+00    931s
  128010    7.6799941e+03   7.321007e+04   0.000000e+00    936s
  128470    7.6799941e+03   8.173749e+03   0.000000e+00    942s
  128930    7.6799941e+03   1.560130e+04   0.000000e+00    948s
  129160    7.6799941e+03   5.037677e+04   0.000000e+00    950s
  129630    7.6799941e+03   1.369233e+04   0.000000e+00    956s
  130090    7.6799941e+03   4.146080e+05   0.000000e+00    962s
  130592    7.6799940e+03   1.599596e+04   0.000000e+00    967s
  130822    7.6799940e+03   1.792845e+04   0.000000e+00    970s
  131282    7.6799940e+03   5.082757e+04   0.000000e+00    976s
  131772    7.6799940e+03   6.080966e+03   0.000000e+00    982s
  132232    7.6799940e+03   1.382783e+04   0.000000e+00    988s
  132482    7.6799940e+03   4.133323e+04   0.000000e+00    991s
  132952    7.6799940e+03   1.389584e+04   0.000000e+00    996s
  133422    7.6799940e+03   5.332152e+04   0.000000e+00   1002s
  133652    7.6799940e+03   1.665499e+04   0.000000e+00   1005s
  134132    7.6799940e+03   4.464251e+04   0.000000e+00   1011s
  134612    7.6799940e+03   4.566465e+04   0.000000e+00   1017s
  135072    7.6799939e+03   1.662510e+05   0.000000e+00   1023s
  135312    7.6799939e+03   1.967958e+04   0.000000e+00   1026s
  135792    7.6799939e+03   8.849667e+03   0.000000e+00   1031s
  136252    7.6799939e+03   1.018313e+05   0.000000e+00   1037s
  136702    7.6799939e+03   1.877807e+04   0.000000e+00   1043s
  136942    7.6799939e+03   7.578877e+04   0.000000e+00   1046s
  137412    7.6799939e+03   1.462111e+04   0.000000e+00   1052s
  137882    7.6799939e+03   6.326755e+04   0.000000e+00   1058s
  138142    7.6799939e+03   9.915821e+05   0.000000e+00   1061s
  138622    7.6799938e+03   2.103744e+04   0.000000e+00   1067s
  139102    7.6799938e+03   6.793195e+03   0.000000e+00   1072s
  139342    7.6799938e+03   2.792097e+04   0.000000e+00   1076s
  139842    7.6799938e+03   7.619814e+03   0.000000e+00   1082s
  140082    7.6799938e+03   1.984871e+05   0.000000e+00   1086s
  140582    7.6799938e+03   2.928481e+04   0.000000e+00   1092s
  141062    7.6799938e+03   1.947045e+04   0.000000e+00   1098s
  141302    7.6799938e+03   6.745002e+04   0.000000e+00   1101s
  141772    7.6799938e+03   2.012099e+04   0.000000e+00   1107s
  142002    7.6799938e+03   1.629153e+04   0.000000e+00   1110s
  142462    7.6799938e+03   3.216898e+04   0.000000e+00   1116s
  142922    7.6799937e+03   1.986319e+04   0.000000e+00   1122s
  143162    7.6799937e+03   1.235623e+04   0.000000e+00   1125s
  143632    7.6799937e+03   1.810511e+04   0.000000e+00   1132s
  144102    7.6799937e+03   5.511769e+04   0.000000e+00   1138s
  144332    7.6799937e+03   3.019425e+04   0.000000e+00   1141s
  144792    7.6799937e+03   3.388446e+04   0.000000e+00   1147s
  145252    7.6799937e+03   9.909939e+04   0.000000e+00   1153s
  145492    7.6799937e+03   3.788874e+04   0.000000e+00   1156s
  145952    7.6799937e+03   1.334868e+04   0.000000e+00   1162s
  146192    7.6799937e+03   1.618989e+04   0.000000e+00   1165s
  146702    7.6799937e+03   2.599739e+04   0.000000e+00   1172s
  147162    7.6799937e+03   1.763710e+04   0.000000e+00   1178s
  147392    7.6799937e+03   1.229220e+05   0.000000e+00   1181s
  147862    7.6799936e+03   1.281142e+04   0.000000e+00   1187s
  148112    7.6799936e+03   7.610991e+03   0.000000e+00   1190s
  148582    7.6799936e+03   8.125790e+03   0.000000e+00   1196s
  149062    7.6799936e+03   2.432863e+04   0.000000e+00   1203s
  149302    7.6799936e+03   3.474499e+04   0.000000e+00   1206s
  149742    7.6799936e+03   3.491553e+04   0.000000e+00   1212s
  150012    7.6799936e+03   1.887445e+05   0.000000e+00   1215s
  150512    7.6799936e+03   7.217133e+04   0.000000e+00   1222s
  150992    7.6799935e+03   3.257416e+04   0.000000e+00   1228s
  151222    7.6799935e+03   4.409378e+04   0.000000e+00   1231s
  151692    7.6799935e+03   5.519540e+03   0.000000e+00   1237s
  152152    7.6799935e+03   7.407863e+03   0.000000e+00   1243s
  152392    7.6799935e+03   3.259957e+04   0.000000e+00   1246s
  152842    7.6799935e+03   1.951890e+04   0.000000e+00   1252s
  153062    7.6799935e+03   4.699098e+04   0.000000e+00   1255s
  153512    7.6799935e+03   1.277636e+05   0.000000e+00   1262s
  153982    7.6799935e+03   2.578404e+04   0.000000e+00   1268s
  154212    7.6799935e+03   5.441119e+04   0.000000e+00   1271s
  154652    7.6799935e+03   2.226953e+05   0.000000e+00   1277s
  154902    7.6799935e+03   1.016052e+04   0.000000e+00   1280s
  155382    7.6799935e+03   4.626247e+04   0.000000e+00   1287s
  155902    7.6799934e+03   2.022479e+03   0.000000e+00   1293s
  156132    7.6799934e+03   4.311192e+03   0.000000e+00   1296s
  156602    7.6799934e+03   3.639483e+04   0.000000e+00   1302s
  157082    7.6799934e+03   5.597693e+03   0.000000e+00   1308s
  157312    7.6799934e+03   1.971993e+04   0.000000e+00   1311s
  157752    7.6799934e+03   1.460360e+04   0.000000e+00   1317s
  157982    7.6799934e+03   1.433544e+04   0.000000e+00   1320s
  158442    7.6799934e+03   1.342682e+04   0.000000e+00   1326s
  158912    7.6799934e+03   1.060258e+05   0.000000e+00   1332s
  159132    7.6799934e+03   1.196483e+04   0.000000e+00   1335s
  159592    7.6799934e+03   7.490234e+04   0.000000e+00   1341s
  160052    7.6799933e+03   1.666892e+04   0.000000e+00   1348s
  160292    7.6799933e+03   7.770412e+04   0.000000e+00   1351s
  160752    7.6799933e+03   6.497710e+03   0.000000e+00   1357s
  161212    7.6799933e+03   4.226749e+04   0.000000e+00   1363s
  161442    7.6799933e+03   2.584217e+05   0.000000e+00   1366s
  161882    7.6799933e+03   1.979848e+05   0.000000e+00   1372s
  162122    7.6799933e+03   1.475613e+04   0.000000e+00   1375s
  162572    7.6799933e+03   2.688948e+04   0.000000e+00   1381s
  163032    7.6799933e+03   1.663177e+05   0.000000e+00   1388s
  163282    7.6799933e+03   1.573789e+04   0.000000e+00   1391s
  163802    7.6799933e+03   5.613763e+03   0.000000e+00   1397s
  164042    7.6799933e+03   4.401048e+04   0.000000e+00   1400s
  164542    7.6799933e+03   4.413945e+04   0.000000e+00   1407s
  164772    7.6799933e+03   6.424806e+04   0.000000e+00   1410s
  165232    7.6799933e+03   1.992526e+05   0.000000e+00   1416s
  165692    7.6799932e+03   1.419299e+05   0.000000e+00   1422s
  165922    7.6799932e+03   7.845352e+03   0.000000e+00   1426s
  166402    7.6799932e+03   2.338379e+05   0.000000e+00   1432s
  166882    7.6799932e+03   3.218969e+04   0.000000e+00   1438s
  167112    7.6799932e+03   7.538624e+04   0.000000e+00   1441s
  167572    7.6799931e+03   3.307536e+05   0.000000e+00   1447s
  167812    7.6799931e+03   1.376025e+04   0.000000e+00   1451s
  168272    7.6799931e+03   1.941459e+04   0.000000e+00   1457s
  168742    7.6799931e+03   8.142944e+04   0.000000e+00   1463s
  168982    7.6799931e+03   4.604010e+03   0.000000e+00   1466s
  169442    7.6799931e+03   4.393339e+04   0.000000e+00   1472s
  169932    7.6799931e+03   7.394612e+03   0.000000e+00   1478s
  170162    7.6799931e+03   1.676625e+04   0.000000e+00   1481s
  170602    7.6799931e+03   2.776242e+04   0.000000e+00   1488s
  170832    7.6799931e+03   1.119199e+04   0.000000e+00   1491s
  171302    7.6799931e+03   1.153775e+04   0.000000e+00   1497s
  171762    7.6799931e+03   1.497677e+04   0.000000e+00   1503s
  172002    7.6799931e+03   3.055154e+04   0.000000e+00   1506s
  172472    7.6799931e+03   9.594392e+04   0.000000e+00   1512s
  172932    7.6799931e+03   6.813017e+03   0.000000e+00   1518s
  173172    7.6799931e+03   2.650977e+04   0.000000e+00   1521s
  173632    7.6799931e+03   1.971012e+04   0.000000e+00   1528s
  173862    7.6799931e+03   1.003350e+04   0.000000e+00   1531s
  174302    7.6799930e+03   2.446704e+04   0.000000e+00   1537s
  174522    7.6799930e+03   8.327740e+04   0.000000e+00   1540s
  174972    7.6799930e+03   2.432554e+05   0.000000e+00   1546s
  175412    7.6799930e+03   1.938042e+05   0.000000e+00   1553s
  175632    7.6799930e+03   1.679954e+04   0.000000e+00   1556s
  176082    7.6799930e+03   4.166780e+04   0.000000e+00   1562s
  176302    7.6799930e+03   6.169367e+05   0.000000e+00   1565s
  176752    7.6799930e+03   1.998933e+04   0.000000e+00   1571s
  177192    7.6799930e+03   3.395398e+04   0.000000e+00   1578s
  177412    7.6799930e+03   2.164135e+04   0.000000e+00   1581s
  177862    7.6799930e+03   3.829664e+04   0.000000e+00   1587s
  178092    7.6799930e+03   1.551034e+04   0.000000e+00   1591s
  178542    7.6799930e+03   5.724771e+04   0.000000e+00   1597s
  178762    7.6799930e+03   2.913554e+04   0.000000e+00   1601s
  179222    7.6799930e+03   7.543957e+04   0.000000e+00   1607s
  179452    7.6799930e+03   1.314219e+04   0.000000e+00   1610s
  179922    7.6799930e+03   5.426340e+04   0.000000e+00   1617s
  180142    7.6799929e+03   1.084313e+04   0.000000e+00   1620s
  180612    7.6799929e+03   1.631207e+04   0.000000e+00   1627s
  181062    7.6799929e+03   1.378625e+04   0.000000e+00   1633s
  181292    7.6799929e+03   1.177612e+04   0.000000e+00   1636s
  181752    7.6799929e+03   1.781200e+04   0.000000e+00   1643s
  181972    7.6799929e+03   8.089645e+03   0.000000e+00   1646s
  182422    7.6799929e+03   5.544376e+03   0.000000e+00   1652s
  182642    7.6799929e+03   5.618887e+04   0.000000e+00   1656s
  183092    7.6799929e+03   1.202828e+04   0.000000e+00   1662s
  183322    7.6799929e+03   7.129061e+04   0.000000e+00   1665s
  183812    7.6799929e+03   8.710627e+04   0.000000e+00   1672s
  184032    7.6799929e+03   2.050414e+04   0.000000e+00   1675s
  184462    7.6799929e+03   1.537146e+04   0.000000e+00   1682s
  184902    7.6799929e+03   4.823655e+04   0.000000e+00   1688s
  185132    7.6799929e+03   6.915657e+03   0.000000e+00   1691s
  185572    7.6799929e+03   4.428175e+06   0.000000e+00   1698s
  185812    7.6799929e+03   6.675207e+03   0.000000e+00   1701s
  186262    7.6799928e+03   2.345902e+04   0.000000e+00   1708s
  186482    7.6799928e+03   3.969115e+04   0.000000e+00   1711s
  186922    7.6799928e+03   3.671504e+04   0.000000e+00   1717s
  187172    7.6799928e+03   2.346356e+04   0.000000e+00   1720s
  187672    7.6799928e+03   1.353628e+04   0.000000e+00   1727s
  188122    7.6799928e+03   1.165140e+04   0.000000e+00   1733s
  188342    7.6799928e+03   3.166774e+04   0.000000e+00   1736s
  188792    7.6799928e+03   1.501471e+05   0.000000e+00   1743s
  189022    7.6799928e+03   2.334348e+04   0.000000e+00   1746s
  189462    7.6799928e+03   8.886288e+04   0.000000e+00   1752s
  189682    7.6799928e+03   2.239298e+04   0.000000e+00   1755s
  190122    7.6799928e+03   1.401997e+04   0.000000e+00   1762s
  190582    7.6799928e+03   1.464391e+04   0.000000e+00   1768s
  190802    7.6799928e+03   2.618930e+04   0.000000e+00   1771s
  191242    7.6799928e+03   8.259382e+03   0.000000e+00   1778s
  191462    7.6799928e+03   3.519570e+04   0.000000e+00   1781s
  191912    7.6799928e+03   2.452590e+04   0.000000e+00   1787s
  192132    7.6799928e+03   9.051218e+03   0.000000e+00   1790s
  192582    7.6799928e+03   1.213434e+04   0.000000e+00   1796s
  193022    7.6799927e+03   1.943179e+04   0.000000e+00   1803s
  193242    7.6799927e+03   6.750829e+04   0.000000e+00   1806s
  193682    7.6799927e+03   5.349389e+04   0.000000e+00   1812s
  193902    7.6799927e+03   4.175574e+04   0.000000e+00   1815s
  194342    7.6799927e+03   4.861982e+03   0.000000e+00   1822s
  194782    7.6799927e+03   8.404397e+03   0.000000e+00   1828s
  195022    7.6799927e+03   1.373264e+05   0.000000e+00   1832s
  195472    7.6799927e+03   1.006449e+04   0.000000e+00   1838s
  195702    7.6799927e+03   2.195961e+04   0.000000e+00   1842s
  196152    7.6799927e+03   1.566769e+04   0.000000e+00   1848s
  196382    7.6799927e+03   1.640493e+04   0.000000e+00   1851s
  196822    7.6799927e+03   1.601835e+04   0.000000e+00   1858s
  197052    7.6799927e+03   9.597791e+03   0.000000e+00   1861s
  197502    7.6799927e+03   1.599600e+04   0.000000e+00   1868s
  197722    7.6799927e+03   8.504895e+03   0.000000e+00   1871s
  198162    7.6799927e+03   1.166592e+04   0.000000e+00   1878s
  198392    7.6799927e+03   3.432076e+04   0.000000e+00   1881s
  198852    7.6799927e+03   1.177418e+04   0.000000e+00   1887s
  199072    7.6799927e+03   1.276584e+04   0.000000e+00   1891s
  199522    7.6799927e+03   8.858131e+03   0.000000e+00   1897s
  199742    7.6799927e+03   3.058164e+04   0.000000e+00   1900s
  200202    7.6799927e+03   3.358290e+04   0.000000e+00   1907s
  200642    7.6799927e+03   3.251271e+03   0.000000e+00   1913s
  200862    7.6799927e+03   9.178224e+03   0.000000e+00   1916s
  201312    7.6799926e+03   2.652618e+03   0.000000e+00   1923s
  201532    7.6799926e+03   2.307281e+04   0.000000e+00   1926s
  201962    7.6799926e+03   4.814714e+03   0.000000e+00   1932s
  202182    7.6799926e+03   5.452062e+04   0.000000e+00   1936s
  202622    7.6799926e+03   1.145997e+05   0.000000e+00   1942s
  202852    7.6799926e+03   3.889421e+04   0.000000e+00   1945s
  203312    7.6799926e+03   6.244781e+03   0.000000e+00   1952s
  203532    7.6799926e+03   4.755014e+03   0.000000e+00   1955s
  203992    7.6799926e+03   1.219596e+04   0.000000e+00   1962s
  204222    7.6799926e+03   3.968330e+04   0.000000e+00   1965s
  204692    7.6799926e+03   1.141268e+04   0.000000e+00   1972s
  204922    7.6799926e+03   1.186273e+04   0.000000e+00   1975s
  205382    7.6799926e+03   1.569346e+04   0.000000e+00   1982s
  205822    7.6799926e+03   7.284012e+04   0.000000e+00   1988s
  206042    7.6799926e+03   2.238296e+04   0.000000e+00   1991s
  206502    7.6799926e+03   1.456217e+05   0.000000e+00   1998s
  206732    7.6799926e+03   3.467193e+04   0.000000e+00   2002s
  207192    7.6799926e+03   2.118561e+05   0.000000e+00   2009s
  207412    7.6799926e+03   5.215372e+03   0.000000e+00   2014s
  207632    7.6799926e+03   2.422826e+04   0.000000e+00   2018s
  207852    7.6799926e+03   1.709522e+04   0.000000e+00   2023s
  208072    7.6799926e+03   4.707409e+04   0.000000e+00   2027s
  208302    7.6799926e+03   1.180812e+04   0.000000e+00   2031s
  208752    7.6799926e+03   7.253500e+03   0.000000e+00   2038s
  208972    7.6799926e+03   1.047615e+04   0.000000e+00   2041s
  209432    7.6799926e+03   5.642091e+04   0.000000e+00   2048s
  209652    7.6799925e+03   1.493060e+05   0.000000e+00   2052s
  209872    7.6799925e+03   3.330890e+05   0.000000e+00   2055s
  210332    7.6799925e+03   8.964828e+03   0.000000e+00   2062s
  210562    7.6799925e+03   1.622466e+04   0.000000e+00   2065s
  211022    7.6799925e+03   1.235408e+04   0.000000e+00   2072s
  211242    7.6799925e+03   8.465387e+03   0.000000e+00   2075s
  211702    7.6799925e+03   4.181864e+03   0.000000e+00   2082s
  211932    7.6799925e+03   2.411303e+03   0.000000e+00   2085s
  212422    7.6799925e+03   2.136507e+05   0.000000e+00   2092s
  212642    7.6799925e+03   6.344336e+03   0.000000e+00   2096s
  213102    7.6799925e+03   1.975483e+04   0.000000e+00   2103s
  213332    7.6799925e+03   1.370506e+04   0.000000e+00   2106s
  213782    7.6799925e+03   6.545474e+03   0.000000e+00   2113s
  214012    7.6799925e+03   4.533679e+03   0.000000e+00   2117s
  214462    7.6799925e+03   5.224299e+03   0.000000e+00   2123s
  214682    7.6799925e+03   4.934463e+03   0.000000e+00   2126s
  215142    7.6799925e+03   1.848379e+03   0.000000e+00   2133s
  215372    7.6799925e+03   7.395505e+04   0.000000e+00   2137s
  215602    7.6799925e+03   4.033091e+03   0.000000e+00   2140s
  216072    7.6799925e+03   1.464410e+03   0.000000e+00   2147s
  216322    7.6799925e+03   6.353814e+04   0.000000e+00   2151s
  216772    7.6799925e+03   2.831269e+04   0.000000e+00   2158s
  217002    7.6799925e+03   3.361774e+03   0.000000e+00   2161s
  217462    7.6799925e+03   1.888313e+04   0.000000e+00   2168s
  217682    7.6799925e+03   2.184159e+03   0.000000e+00   2172s
  217902    7.6799925e+03   2.097510e+04   0.000000e+00   2175s
  218352    7.6799925e+03   3.666627e+03   0.000000e+00   2182s
  218582    7.6799925e+03   1.302617e+04   0.000000e+00   2186s
  219022    7.6799925e+03   6.690157e+03   0.000000e+00   2193s
  219242    7.6799924e+03   1.016337e+06   0.000000e+00   2196s
  219712    7.6799924e+03   6.371632e+04   0.000000e+00   2203s
  219942    7.6799924e+03   3.915904e+04   0.000000e+00   2206s
  220392    7.6799924e+03   3.415698e+04   0.000000e+00   2213s
  220612    7.6799924e+03   3.745714e+03   0.000000e+00   2217s
  220852    7.6799924e+03   1.204345e+04   0.000000e+00   2220s
  221302    7.6799924e+03   4.239486e+03   0.000000e+00   2227s
  221532    7.6799924e+03   7.664127e+03   0.000000e+00   2231s
  221992    7.6799924e+03   9.260565e+03   0.000000e+00   2238s
  222222    7.6799924e+03   1.733205e+04   0.000000e+00   2241s
  222662    7.6799924e+03   1.090822e+04   0.000000e+00   2248s
  222892    7.6799924e+03   1.868571e+04   0.000000e+00   2252s
  223132    7.6799924e+03   9.981415e+04   0.000000e+00   2255s
  223592    7.6799924e+03   4.858038e+03   0.000000e+00   2263s
  223812    7.6799924e+03   4.095777e+03   0.000000e+00   2266s
  224272    7.6799924e+03   6.975770e+04   0.000000e+00   2273s
  224512    7.6799924e+03   1.566326e+04   0.000000e+00   2277s
  224752    7.6799924e+03   3.253896e+04   0.000000e+00   2280s
  225202    7.6799924e+03   1.216243e+05   0.000000e+00   2287s
  225422    7.6799924e+03   2.164148e+04   0.000000e+00   2290s
  225882    7.6799924e+03   1.427226e+03   0.000000e+00   2298s
  226112    7.6799924e+03   1.322615e+04   0.000000e+00   2301s
  226592    7.6799923e+03   1.840298e+04   0.000000e+00   2308s
  226822    7.6799923e+03   1.986454e+03   0.000000e+00   2311s
  227282    7.6799923e+03   6.485250e+03   0.000000e+00   2318s
  227502    7.6799923e+03   2.853736e+03   0.000000e+00   2322s
  227732    7.6799923e+03   9.249473e+03   0.000000e+00   2325s
  228182    7.6799923e+03   1.734656e+03   0.000000e+00   2332s
  228412    7.6799923e+03   6.713509e+03   0.000000e+00   2336s
  228882    7.6799923e+03   2.632721e+03   0.000000e+00   2343s
  229112    7.6799923e+03   3.607766e+03   0.000000e+00   2346s
  229592    7.6799923e+03   6.453913e+03   0.000000e+00   2353s
  229822    7.6799923e+03   7.416157e+03   0.000000e+00   2357s
  230052    7.6799923e+03   1.039994e+04   0.000000e+00   2360s
  230492    7.6799923e+03   3.249126e+03   0.000000e+00   2368s
  230722    7.6799923e+03   5.492203e+03   0.000000e+00   2371s
  231182    7.6799923e+03   5.981348e+02   0.000000e+00   2378s
  231412    7.6799923e+03   6.296330e+03   0.000000e+00   2382s
  231642    7.6799923e+03   7.186134e+03   0.000000e+00   2385s
  232102    7.6799923e+03   9.232481e+03   0.000000e+00   2392s
  232322    7.6799923e+03   1.421359e+03   0.000000e+00   2396s
  232762    7.6799923e+03   1.275836e+03   0.000000e+00   2402s
  233002    7.6799923e+03   2.154911e+04   0.000000e+00   2406s
  233462    7.6799923e+03   8.415468e+03   0.000000e+00   2413s
  233692    7.6799923e+03   9.599044e+02   0.000000e+00   2416s
  234172    7.6799923e+03   6.622244e+03   0.000000e+00   2423s
  234422    7.6799923e+03   5.382822e+03   0.000000e+00   2427s
  234652    7.6799923e+03   2.508557e+03   0.000000e+00   2430s
  235102    7.6799923e+03   2.235075e+03   0.000000e+00   2437s
  235322    7.6799923e+03   5.589632e+03   0.000000e+00   2441s
  235772    7.6799923e+03   3.545766e+03   0.000000e+00   2448s
  235992    7.6799923e+03   6.576328e+03   0.000000e+00   2451s
  236442    7.6799923e+03   2.995625e+04   0.000000e+00   2458s
  236682    7.6799923e+03   9.459073e+02   0.000000e+00   2461s
  237122    7.6799923e+03   1.224751e+04   0.000000e+00   2468s
  237352    7.6799923e+03   1.642427e+04   0.000000e+00   2472s
  237602    7.6799923e+03   1.453576e+03   0.000000e+00   2475s
  238082    7.6799923e+03   7.902644e+02   0.000000e+00   2483s
  238312    7.6799923e+03   1.659095e+04   0.000000e+00   2486s
  238762    7.6799923e+03   7.692155e+04   0.000000e+00   2493s
  238992    7.6799923e+03   1.484692e+03   0.000000e+00   2497s
  239212    7.6799923e+03   1.118540e+04   0.000000e+00   2500s
  239672    7.6799923e+03   8.537612e+03   0.000000e+00   2507s
  239902    7.6799923e+03   7.523495e+03   0.000000e+00   2511s
  240352    7.6799923e+03   1.267132e+04   0.000000e+00   2518s
  240582    7.6799923e+03   2.019829e+03   0.000000e+00   2522s
  240812    7.6799923e+03   1.598903e+03   0.000000e+00   2525s
  241252    7.6799923e+03   2.372085e+03   0.000000e+00   2532s
  241472    7.6799923e+03   2.057333e+03   0.000000e+00   2535s
  241932    7.6799923e+03   8.432083e+02   0.000000e+00   2543s
  242152    7.6799923e+03   1.908224e+03   0.000000e+00   2546s
  242602    7.6799923e+03   5.901318e+03   0.000000e+00   2553s
  242832    7.6799923e+03   8.350950e+03   0.000000e+00   2557s
  243062    7.6799923e+03   3.459683e+03   0.000000e+00   2561s
  243532    7.6799923e+03   1.584416e+03   0.000000e+00   2568s
  243762    7.6799923e+03   7.125830e+03   0.000000e+00   2571s
  244212    7.6799923e+03   7.668763e+03   0.000000e+00   2579s
  244432    7.6799923e+03   4.481733e+03   0.000000e+00   2582s
  244672    7.6799923e+03   1.398170e+05   0.000000e+00   2586s
  245142    7.6799923e+03   2.128804e+03   0.000000e+00   2593s
  245372    7.6799923e+03   4.756827e+03   0.000000e+00   2597s
  245612    7.6799923e+03   1.749215e+04   0.000000e+00   2601s
  246082    7.6799923e+03   2.271017e+03   0.000000e+00   2608s
  246312    7.6799923e+03   4.509870e+03   0.000000e+00   2612s
  246542    7.6799923e+03   2.265512e+03   0.000000e+00   2615s
  246992    7.6799922e+03   4.550990e+03   0.000000e+00   2623s
  247232    7.6799922e+03   3.718217e+03   0.000000e+00   2626s
  247472    7.6799922e+03   3.405421e+03   0.000000e+00   2630s
  247942    7.6799922e+03   2.385373e+03   0.000000e+00   2638s
  248182    7.6799922e+03   1.707243e+03   0.000000e+00   2641s
  248422    7.6799922e+03   4.062948e+03   0.000000e+00   2645s
  248892    7.6799922e+03   4.183631e+03   0.000000e+00   2653s
  249132    7.6799922e+03   5.662607e+03   0.000000e+00   2657s
  249372    7.6799922e+03   7.015478e+03   0.000000e+00   2660s
  249842    7.6799922e+03   8.104182e+02   0.000000e+00   2668s
  250082    7.6799922e+03   1.294728e+04   0.000000e+00   2672s
  250312    7.6799922e+03   1.492198e+03   0.000000e+00   2675s
  250792    7.6799922e+03   1.771653e+03   0.000000e+00   2683s
  251022    7.6799922e+03   1.128992e+03   0.000000e+00   2687s
  251262    7.6799922e+03   4.545939e+04   0.000000e+00   2691s
  251722    7.6799922e+03   3.710569e+03   0.000000e+00   2698s
  251952    7.6799922e+03   6.238767e+03   0.000000e+00   2701s
  252412    7.6799922e+03   2.471734e+03   0.000000e+00   2709s
  252642    7.6799922e+03   1.168142e+03   0.000000e+00   2712s
  252882    7.6799922e+03   5.929555e+03   0.000000e+00   2716s
  253352    7.6799922e+03   5.927376e+02   0.000000e+00   2723s
  253582    7.6799922e+03   2.960515e+03   0.000000e+00   2727s
  253812    7.6799922e+03   1.374344e+04   0.000000e+00   2730s
  254282    7.6799922e+03   2.018947e+03   0.000000e+00   2737s
  254512    7.6799922e+03   6.260320e+03   0.000000e+00   2741s
  254972    7.6799922e+03   1.779828e+03   0.000000e+00   2748s
  255192    7.6799922e+03   2.399472e+04   0.000000e+00   2752s
  255422    7.6799922e+03   9.581081e+03   0.000000e+00   2755s
  255882    7.6799922e+03   4.129150e+03   0.000000e+00   2763s
  256122    7.6799922e+03   1.368421e+03   0.000000e+00   2766s
  256572    7.6799922e+03   1.590344e+03   0.000000e+00   2773s
  256802    7.6799922e+03   1.018322e+03   0.000000e+00   2777s
  257032    7.6799922e+03   1.211582e+03   0.000000e+00   2781s
  257482    7.6799922e+03   7.060826e+02   0.000000e+00   2788s
  257702    7.6799922e+03   8.838038e+02   0.000000e+00   2791s
  257952    7.6799922e+03   2.403804e+03   0.000000e+00   2795s
  258402    7.6799922e+03   3.050595e+03   0.000000e+00   2802s
  258622    7.6799922e+03   1.294714e+03   0.000000e+00   2806s
  259082    7.6799922e+03   2.951097e+04   0.000000e+00   2813s
  259312    7.6799922e+03   3.039548e+03   0.000000e+00   2817s
  259542    7.6799922e+03   2.348660e+03   0.000000e+00   2820s
  260022    7.6799922e+03   6.671718e+03   0.000000e+00   2828s
  260262    7.6799922e+03   4.861392e+03   0.000000e+00   2832s
  260502    7.6799922e+03   1.450545e+03   0.000000e+00   2836s
  260962    7.6799922e+03   1.442253e+04   0.000000e+00   2843s
  261182    7.6799922e+03   1.280769e+03   0.000000e+00   2846s
  261422    7.6799922e+03   1.541530e+03   0.000000e+00   2850s
  261902    7.6799922e+03   3.226198e+03   0.000000e+00   2858s
  262142    7.6799922e+03   3.138680e+02   0.000000e+00   2862s
  262382    7.6799922e+03   4.088095e+03   0.000000e+00   2865s
  262862    7.6799922e+03   4.975175e+03   0.000000e+00   2873s
  263122    7.6799922e+03   4.814762e+04   0.000000e+00   2877s
  263362    7.6799922e+03   3.342736e+02   0.000000e+00   2881s
  263852    7.6799922e+03   9.804559e+02   0.000000e+00   2888s
  264092    7.6799922e+03   1.323947e+03   0.000000e+00   2892s
  264332    7.6799922e+03   2.245797e+03   0.000000e+00   2896s
  264572    7.6799922e+03   5.047471e+02   0.000000e+00   2900s
  265052    7.6799922e+03   7.413955e+03   0.000000e+00   2908s
  265292    7.6799922e+03   3.729539e+02   0.000000e+00   2912s
  265542    7.6799922e+03   9.460264e+02   0.000000e+00   2915s
  266032    7.6799922e+03   7.464096e+02   0.000000e+00   2923s
  266272    7.6799922e+03   4.759561e+03   0.000000e+00   2927s
  266512    7.6799922e+03   1.005981e+02   0.000000e+00   2931s
  267002    7.6799922e+03   3.889231e+02   0.000000e+00   2938s
  267242    7.6799922e+03   3.673612e+02   0.000000e+00   2942s
  267482    7.6799922e+03   2.069101e+02   0.000000e+00   2946s
  267982    7.6799922e+03   8.254767e+02   0.000000e+00   2954s
  268222    7.6799922e+03   2.800835e+03   0.000000e+00   2958s
  268472    7.6799922e+03   1.213273e+02   0.000000e+00   2962s
  268712    7.6799922e+03   1.764962e+03   0.000000e+00   2966s
  269192    7.6799922e+03   4.328456e+01   0.000000e+00   2973s
  269432    7.6799922e+03   3.412211e+02   0.000000e+00   2977s
  269672    7.6799922e+03   1.043012e+02   0.000000e+00   2981s
  270162    7.6799922e+03   3.845904e+01   0.000000e+00   2988s
  270422    7.6799922e+03   5.952724e+02   0.000000e+00   2992s
  270672    7.6799922e+03   3.891011e+02   0.000000e+00   2996s
  270932    7.6799922e+03   9.644506e+01   0.000000e+00   3000s
  271442    7.6799922e+03   9.499289e+01   0.000000e+00   3008s
  271702    7.6799922e+03   1.367462e+03   0.000000e+00   3012s
  271962    7.6799922e+03   7.677599e+01   0.000000e+00   3016s
  272494    7.6799922e+03   3.819191e+01   0.000000e+00   3024s
  272754    7.6799922e+03   3.324718e+01   0.000000e+00   3028s
  273014    7.6799922e+03   2.516336e+00   0.000000e+00   3032s
  273284    7.6799922e+03   1.109142e+01   0.000000e+00   3036s
  273554    7.6799922e+03   4.829659e+00   0.000000e+00   3040s
  274094    7.6799922e+03   5.225379e+01   0.000000e+00   3049s
  274366    7.6799922e+03   4.574166e+01   0.000000e+00   3053s
  274638    7.6799922e+03   9.022258e+00   0.000000e+00   3057s
  274910    7.6799922e+03   1.388278e+01   0.000000e+00   3060s
  275451    7.6799922e+03   0.000000e+00   0.000000e+00   3068s
  275451    7.6800000e+03   0.000000e+00   0.000000e+00   3069s

Root relaxation: objective 7.680000e+03, 275451 iterations, 3058.56 seconds

    Nodes    |    Current Node    |     Objective Bounds      |     Work
 Expl Unexpl |  Obj  Depth IntInf | Incumbent    BestBd   Gap | It/Node Time

     0     0 7680.00000    0 24976 1830.00000 7680.00000   320%     - 3600s

Explored 0 nodes (414202 simplex iterations) in 3600.12 seconds
Thread count was 1 (of 40 available processors)

Solution count 1: 1830 

Time limit reached
Best objective 1.830000000000e+03, best bound 7.680000000000e+03, gap 319.6721%

----------

Best objective (UB): 7680.000
Best feasible solution (LB): 1830.000
Gap between the lower bound and upper bound: 319.672%

----------

Number of customers served: 18

Schedule for EV v0:
   [   0, 1085) -> It remains parked at station s0.
   [1085, 1145) -> Service a request driving for customer c48 from s0 to s3.
   [1145, 1601) -> It remains parked at station s3.

Schedule for EV v1:
   [   0,  796) -> It remains parked at station s0.
   [ 796,  826) -> Service a request driving for customer c13 from s0 to s4.
   [ 826, 1601) -> It remains parked at station s4.

Schedule for EV v2:
   [   0, 1601) -> It remains parked at station s0.

Schedule for EV v3:
   [   0, 1601) -> It remains parked at station s0.

Schedule for EV v4:
   [   0, 1601) -> It remains parked at station s0.

Schedule for EV v5:
   [   0,  966) -> It remains parked at station s1.
   [ 966, 1086) -> Service a request driving for customer c47 from s1 to s0.
   [1086, 1601) -> It remains parked at station s0.

Schedule for EV v6:
   [   0, 1325) -> It remains parked at station s1.
   [1325, 1415) -> Service a request driving for customer c27 from s1 to s8.
   [1415, 1601) -> It remains parked at station s8.

Schedule for EV v7:
   [   0,  850) -> It remains parked at station s1.
   [ 850,  910) -> Service a request driving for customer c9 from s1 to s10.
   [ 910, 1215) -> It remains parked at station s10.
   [1215, 1305) -> Service a request driving for customer c9 from s10 to s3.
   [1305, 1601) -> It remains parked at station s3.

Schedule for EV v8:
   [   0, 1027) -> It remains parked at station s1.
   [1027, 1087) -> Service a request driving for customer c11 from s1 to s1.
   [1087, 1156) -> It remains parked at station s1.
   [1156, 1216) -> Service a request driving for customer c26 from s1 to s11.
   [1216, 1601) -> It remains parked at station s11.

Schedule for EV v9:
   [   0, 1601) -> It remains parked at station s1.

Schedule for EV v10:
   [   0, 1154) -> It remains parked at station s2.
   [1154, 1184) -> Service a request driving for customer c5 from s2 to s11.
   [1184, 1601) -> It remains parked at station s11.

Schedule for EV v11:
   [   0, 1601) -> It remains parked at station s2.

Schedule for EV v12:
   [   0, 1601) -> It remains parked at station s2.

Schedule for EV v13:
   [   0, 1601) -> It remains parked at station s2.

Schedule for EV v14:
   [   0, 1601) -> It remains parked at station s2.

Schedule for EV v15:
   [   0, 1601) -> It remains parked at station s2.

Schedule for EV v16:
   [   0,  554) -> It remains parked at station s3.
   [ 554,  614) -> Service a request driving for customer c32 from s3 to s9.
   [ 614, 1601) -> It remains parked at station s9.

Schedule for EV v17:
   [   0, 1601) -> It remains parked at station s3.

Schedule for EV v18:
   [   0, 1601) -> It remains parked at station s3.

Schedule for EV v19:
   [   0, 1601) -> It remains parked at station s3.

Schedule for EV v20:
   [   0, 1601) -> It remains parked at station s3.

Schedule for EV v21:
   [   0, 1601) -> It remains parked at station s3.

Schedule for EV v22:
   [   0, 1601) -> It remains parked at station s3.

Schedule for EV v23:
   [   0, 1601) -> It remains parked at station s3.

Schedule for EV v24:
   [   0, 1601) -> It remains parked at station s3.

Schedule for EV v25:
   [   0, 1601) -> It remains parked at station s3.

Schedule for EV v26:
   [   0, 1601) -> It remains parked at station s3.

Schedule for EV v27:
   [   0, 1601) -> It remains parked at station s3.

Schedule for EV v28:
   [   0,  785) -> It remains parked at station s4.
   [ 785,  845) -> Service a request driving for customer c31 from s4 to s11.
   [ 845, 1601) -> It remains parked at station s11.

Schedule for EV v29:
   [   0, 1601) -> It remains parked at station s4.

Schedule for EV v30:
   [   0, 1601) -> It remains parked at station s4.

Schedule for EV v31:
   [   0, 1601) -> It remains parked at station s4.

Schedule for EV v32:
   [   0, 1601) -> It remains parked at station s4.

Schedule for EV v33:
   [   0, 1601) -> It remains parked at station s4.

Schedule for EV v34:
   [   0, 1601) -> It remains parked at station s4.

Schedule for EV v35:
   [   0, 1601) -> It remains parked at station s4.

Schedule for EV v36:
   [   0, 1601) -> It remains parked at station s4.

Schedule for EV v37:
   [   0, 1601) -> It remains parked at station s4.

Schedule for EV v38:
   [   0, 1601) -> It remains parked at station s4.

Schedule for EV v39:
   [   0,  910) -> It remains parked at station s5.
   [ 910,  940) -> Service a request driving for customer c8 from s5 to s5.
   [ 940, 1031) -> It remains parked at station s5.
   [1031, 1181) -> Service a request driving for customer c8 from s5 to s3.
   [1181, 1601) -> It remains parked at station s3.

Schedule for EV v40:
   [   0, 1030) -> It remains parked at station s5.
   [1030, 1120) -> Service a request driving for customer c16 from s5 to s0.
   [1120, 1601) -> It remains parked at station s0.

Schedule for EV v41:
   [   0,  966) -> It remains parked at station s5.
   [ 966, 1026) -> Service a request driving for customer c12 from s5 to s11.
   [1026, 1601) -> It remains parked at station s11.

Schedule for EV v42:
   [   0, 1601) -> It remains parked at station s5.

Schedule for EV v43:
   [   0, 1601) -> It remains parked at station s5.

Schedule for EV v44:
   [   0, 1601) -> It remains parked at station s5.

Schedule for EV v45:
   [   0, 1601) -> It remains parked at station s5.

Schedule for EV v46:
   [   0, 1601) -> It remains parked at station s5.

Schedule for EV v47:
   [   0, 1601) -> It remains parked at station s5.

Schedule for EV v48:
   [   0, 1601) -> It remains parked at station s5.

Schedule for EV v49:
   [   0, 1601) -> It remains parked at station s5.

Schedule for EV v50:
   [   0, 1147) -> It remains parked at station s6.
   [1147, 1357) -> Service a request driving for customer c25 from s6 to s1.
   [1357, 1601) -> It remains parked at station s1.

Schedule for EV v51:
   [   0, 1601) -> It remains parked at station s6.

Schedule for EV v52:
   [   0, 1601) -> It remains parked at station s6.

Schedule for EV v53:
   [   0, 1601) -> It remains parked at station s6.

Schedule for EV v54:
   [   0, 1601) -> It remains parked at station s6.

Schedule for EV v55:
   [   0, 1601) -> It remains parked at station s6.

Schedule for EV v56:
   [   0, 1601) -> It remains parked at station s6.

Schedule for EV v57:
   [   0, 1601) -> It remains parked at station s6.

Schedule for EV v58:
   [   0, 1601) -> It remains parked at station s6.

Schedule for EV v59:
   [   0, 1601) -> It remains parked at station s6.

Schedule for EV v60:
   [   0, 1601) -> It remains parked at station s6.

Schedule for EV v61:
   [   0,  794) -> It remains parked at station s7.
   [ 794, 1004) -> Service a request driving for customer c18 from s7 to s2.
   [1004, 1601) -> It remains parked at station s2.

Schedule for EV v62:
   [   0,  430) -> It remains parked at station s7.
   [ 430,  490) -> Service a request driving for customer c3 from s7 to s0.
   [ 490, 1146) -> It remains parked at station s0.
   [1146, 1176) -> Service a request driving for customer c3 from s0 to s2.
   [1176, 1601) -> It remains parked at station s2.

Schedule for EV v63:
   [   0, 1601) -> It remains parked at station s7.

Schedule for EV v64:
   [   0, 1601) -> It remains parked at station s7.

Schedule for EV v65:
   [   0, 1601) -> It remains parked at station s7.

Schedule for EV v66:
   [   0, 1601) -> It remains parked at station s7.

Schedule for EV v67:
   [   0, 1601) -> It remains parked at station s7.

Schedule for EV v68:
   [   0, 1601) -> It remains parked at station s7.

Schedule for EV v69:
   [   0, 1601) -> It remains parked at station s7.

Schedule for EV v70:
   [   0,  965) -> It remains parked at station s8.
   [ 965, 1175) -> Service a request driving for customer c21 from s8 to s10.
   [1175, 1601) -> It remains parked at station s10.

Schedule for EV v71:
   [   0, 1601) -> It remains parked at station s8.

Schedule for EV v72:
   [   0, 1601) -> It remains parked at station s8.

Schedule for EV v73:
   [   0, 1601) -> It remains parked at station s8.

Schedule for EV v74:
   [   0, 1601) -> It remains parked at station s8.

Schedule for EV v75:
   [   0, 1601) -> It remains parked at station s8.

Schedule for EV v76:
   [   0, 1601) -> It remains parked at station s9.

Schedule for EV v77:
   [   0, 1601) -> It remains parked at station s9.

Schedule for EV v78:
   [   0, 1601) -> It remains parked at station s9.

Schedule for EV v79:
   [   0, 1601) -> It remains parked at station s9.

Schedule for EV v80:
   [   0, 1601) -> It remains parked at station s9.

Schedule for EV v81:
   [   0, 1601) -> It remains parked at station s10.

Schedule for EV v82:
   [   0, 1601) -> It remains parked at station s10.

Schedule for EV v83:
   [   0, 1601) -> It remains parked at station s10.

Schedule for EV v84:
   [   0, 1601) -> It remains parked at station s10.

Schedule for EV v85:
   [   0, 1601) -> It remains parked at station s10.

Schedule for EV v86:
   [   0, 1601) -> It remains parked at station s10.

Schedule for EV v87:
   [   0, 1601) -> It remains parked at station s10.

Schedule for EV v88:
   [   0, 1601) -> It remains parked at station s10.

Schedule for EV v89:
   [   0, 1601) -> It remains parked at station s10.

Schedule for EV v90:
   [   0,  973) -> It remains parked at station s11.
   [ 973, 1033) -> Service a request driving for customer c7 from s11 to s10.
   [1033, 1601) -> It remains parked at station s10.

Schedule for EV v91:
   [   0, 1601) -> It remains parked at station s11.

Schedule for EV v92:
   [   0, 1601) -> It remains parked at station s11.

Schedule for EV v93:
   [   0, 1601) -> It remains parked at station s11.

Schedule for EV v94:
   [   0, 1601) -> It remains parked at station s11.

Schedule for EV v95:
   [   0, 1601) -> It remains parked at station s11.

Schedule for EV v96:
   [   0, 1601) -> It remains parked at station s11.

Schedule for EV v97:
   [   0, 1601) -> It remains parked at station s11.

Schedule for EV v98:
   [   0, 1601) -> It remains parked at station s11.

Schedule for EV v99:
   [   0, 1601) -> It remains parked at station s11.

Schedule for EV v100:
   [   0, 1601) -> It remains parked at station s11.

Schedule for EV v101:
   [   0, 1601) -> It remains parked at station s11.

Schedule for EV v102:
   [   0, 1601) -> It remains parked at station s11.

Set of satisfied customers
   {c3, c5, c7, c8, c9, c11, c12, c13, c16, c18, c21, c25, c26, c27, c31, c32, c47, c48}

