Academic license - for non-commercial use only
Gurobi Optimizer version 9.0.3 build v9.0.3rc0 (linux64)
Optimize a model with 541686 rows, 363480 columns and 3406252 nonzeros
Model fingerprint: 0x05c846af
Variable types: 183840 continuous, 179640 integer (179640 binary)
Coefficient statistics:
  Matrix range     [1e+00, 4e+06]
  Objective range  [3e+01, 6e+02]
  Bounds range     [1e+00, 2e+06]
  RHS range        [1e+00, 2e+06]

Loaded user MIP start with objective 3300

Presolve removed 284574 rows and 187518 columns (presolve time = 5s) ...
Presolve removed 287158 rows and 188811 columns
Presolve time: 7.40s
Presolved: 254528 rows, 174669 columns, 1086096 nonzeros
Variable types: 0 continuous, 174669 integer (164274 binary)

Root simplex log...

Iteration    Objective       Primal Inf.    Dual Inf.      Time
       0    1.2420000e+04   1.054938e+03   0.000000e+00      9s
   10211    1.1969999e+04   1.935206e+04   0.000000e+00     10s
   21650    1.1969998e+04   2.995692e+04   0.000000e+00     15s
   26257    1.1969998e+04   2.673383e+04   0.000000e+00     20s
   28967    1.1969997e+04   7.921809e+04   0.000000e+00     26s
   30593    1.1969997e+04   1.165311e+05   0.000000e+00     31s
   31677    1.1969997e+04   1.428327e+05   0.000000e+00     36s
   32761    1.1969997e+04   5.421167e+04   0.000000e+00     40s
   33845    1.1969997e+04   6.964548e+05   0.000000e+00     46s
   34929    1.1969997e+04   2.435598e+04   0.000000e+00     50s
   36284    1.1969997e+04   6.156757e+05   0.000000e+00     56s
   37368    1.1969997e+04   2.271829e+04   0.000000e+00     61s
   38181    1.1969997e+04   1.736592e+05   0.000000e+00     66s
   39265    1.1969997e+04   8.381483e+04   0.000000e+00     71s
   40078    1.1969997e+04   3.420620e+04   0.000000e+00     76s
   40891    1.1969997e+04   2.154531e+05   0.000000e+00     80s
   41975    1.1969997e+04   2.698547e+05   0.000000e+00     87s
   42788    1.1969997e+04   1.018890e+05   0.000000e+00     91s
   43601    1.1969997e+04   1.373083e+05   0.000000e+00     96s
   44414    1.1969996e+04   3.637955e+05   0.000000e+00    101s
   45227    1.1969996e+04   7.039006e+04   0.000000e+00    106s
   46311    1.1729997e+04   1.287203e+06   0.000000e+00    110s
   47395    1.1609997e+04   7.087245e+05   0.000000e+00    115s
   48208    1.1609997e+04   6.052697e+04   0.000000e+00    120s
   49020    1.1609997e+04   8.466259e+05   0.000000e+00    126s
   49833    1.1609997e+04   1.075993e+05   0.000000e+00    131s
   50646    1.1609996e+04   4.790797e+04   0.000000e+00    136s
   51459    1.1609996e+04   8.842505e+04   0.000000e+00    141s
   52001    1.1609996e+04   1.226797e+05   0.000000e+00    145s
   52814    1.1609996e+04   1.050438e+05   0.000000e+00    151s
   53627    1.1609996e+04   8.942102e+04   0.000000e+00    156s
   54169    1.1609996e+04   1.118595e+05   0.000000e+00    160s
   54982    1.1609996e+04   1.052405e+05   0.000000e+00    165s
   55795    1.1609996e+04   4.170506e+05   0.000000e+00    170s
   56608    1.1609996e+04   8.776460e+04   0.000000e+00    176s
   57149    1.1609996e+04   3.167865e+05   0.000000e+00    181s
   57940    1.1609996e+04   4.169891e+04   0.000000e+00    187s
   58471    1.1609996e+04   6.829733e+04   0.000000e+00    191s
   59002    1.1609996e+04   7.959603e+04   0.000000e+00    195s
   59813    1.1609996e+04   7.064287e+05   0.000000e+00    202s
   60355    1.1609996e+04   6.776903e+04   0.000000e+00    206s
   61168    1.1609996e+04   6.414655e+04   0.000000e+00    211s
   61981    1.1369996e+04   2.413556e+05   0.000000e+00    216s
   62782    1.1369996e+04   4.863349e+05   0.000000e+00    222s
   63312    1.1369996e+04   2.411776e+05   0.000000e+00    227s
   63842    1.1369996e+04   1.055819e+06   0.000000e+00    231s
   64362    1.1369996e+04   7.542746e+04   0.000000e+00    236s
   65175    1.1369996e+04   4.836403e+05   0.000000e+00    242s
   65716    1.1369996e+04   3.357741e+05   0.000000e+00    246s
   66529    1.1369996e+04   5.502014e+06   0.000000e+00    251s
   67060    1.1369996e+04   3.218305e+05   0.000000e+00    255s
   67861    1.1369996e+04   1.317018e+05   0.000000e+00    262s
   68381    1.1369996e+04   2.692558e+05   0.000000e+00    267s
   68912    1.1369996e+04   8.528259e+04   0.000000e+00    271s
   69412    1.1369996e+04   8.611352e+04   0.000000e+00    276s
   69922    1.1369996e+04   2.952173e+04   0.000000e+00    281s
   70443    1.1369996e+04   3.319259e+05   0.000000e+00    285s
   71243    1.1369995e+04   3.166541e+04   0.000000e+00    292s
   71763    1.1369995e+04   4.149005e+05   0.000000e+00    297s
   72294    1.1369995e+04   1.033452e+05   0.000000e+00    301s
   72815    1.1369995e+04   9.198033e+04   0.000000e+00    306s
   73345    1.1369995e+04   4.382321e+04   0.000000e+00    311s
   73845    1.1369995e+04   1.578396e+05   0.000000e+00    316s
   74355    1.1369995e+04   2.886107e+04   0.000000e+00    320s
   74865    1.1369995e+04   1.898067e+05   0.000000e+00    325s
   75646    1.1369995e+04   1.223699e+05   0.000000e+00    332s
   76126    1.1369995e+04   8.602514e+04   0.000000e+00    337s
   76616    1.1369995e+04   1.187923e+05   0.000000e+00    341s
   77096    1.1369995e+04   7.822393e+04   0.000000e+00    346s
   77576    1.1369995e+04   3.231375e+05   0.000000e+00    351s
   78097    1.1369995e+04   3.842501e+04   0.000000e+00    356s
   78597    1.1369995e+04   5.878229e+05   0.000000e+00    361s
   79077    1.1369995e+04   5.692721e+04   0.000000e+00    365s
   79567    1.1369995e+04   2.376246e+04   0.000000e+00    370s
   80057    1.1369995e+04   4.257341e+04   0.000000e+00    375s
   80567    1.1369995e+04   6.276228e+04   0.000000e+00    380s
   81098    1.1369995e+04   3.530720e+04   0.000000e+00    385s
   81578    1.1369995e+04   2.183458e+05   0.000000e+00    390s
   82038    1.1369995e+04   1.250478e+08   0.000000e+00    395s
   82548    1.1369995e+04   1.716632e+04   0.000000e+00    400s
   83068    1.1369995e+04   3.823744e+04   0.000000e+00    405s
   83558    1.1369995e+04   7.434679e+04   0.000000e+00    411s
   84018    1.1369995e+04   2.095395e+04   0.000000e+00    415s
   84538    1.1369995e+04   1.407470e+05   0.000000e+00    420s
   85018    1.1369995e+04   3.642804e+04   0.000000e+00    425s
   85538    1.1369995e+04   2.368293e+04   0.000000e+00    430s
   86018    1.1369995e+04   7.691390e+04   0.000000e+00    435s
   86768    1.1369995e+04   5.316037e+05   0.000000e+00    442s
   87269    1.1369995e+04   1.844817e+04   0.000000e+00    447s
   87759    1.1369995e+04   2.121491e+05   0.000000e+00    452s
   88239    1.1369995e+04   1.973829e+05   0.000000e+00    457s
   88699    1.1369995e+04   2.149224e+05   0.000000e+00    462s
   89189    1.1369995e+04   1.078818e+05   0.000000e+00    467s
   89689    1.1369995e+04   2.569070e+04   0.000000e+00    472s
   90179    1.1369995e+04   5.454454e+04   0.000000e+00    478s
   90429    1.1369995e+04   6.343216e+04   0.000000e+00    480s
   90909    1.1369995e+04   7.345406e+04   0.000000e+00    485s
   91389    1.1369995e+04   4.843938e+04   0.000000e+00    490s
   91909    1.1369995e+04   1.670646e+05   0.000000e+00    496s
   92359    1.1369995e+04   2.875266e+04   0.000000e+00    501s
   92900    1.1369995e+04   3.504794e+05   0.000000e+00    505s
   93713    1.1369994e+04   3.037466e+06   0.000000e+00    512s
   94233    1.1369994e+04   4.279248e+04   0.000000e+00    517s
   94743    1.1369994e+04   1.532713e+05   0.000000e+00    522s
   95213    1.1369994e+04   5.131598e+05   0.000000e+00    527s
   95693    1.1369994e+04   1.930833e+05   0.000000e+00    532s
   96193    1.1369994e+04   3.688105e+04   0.000000e+00    537s
   96663    1.1369994e+04   2.696127e+04   0.000000e+00    542s
   97143    1.1369994e+04   1.835812e+04   0.000000e+00    548s
   97373    1.1369994e+04   1.631547e+05   0.000000e+00    550s
   97883    1.1369994e+04   1.235274e+05   0.000000e+00    555s
   98363    1.1369994e+04   4.712519e+05   0.000000e+00    560s
   98843    1.1369994e+04   1.223059e+04   0.000000e+00    565s
   99584    1.1369994e+04   1.489039e+04   0.000000e+00    572s
  100074    1.1369994e+04   3.719695e+04   0.000000e+00    577s
  100534    1.1369994e+04   5.557139e+04   0.000000e+00    583s
  101065    1.1369994e+04   8.557730e+05   0.000000e+00    587s
  101305    1.1369994e+04   5.544294e+04   0.000000e+00    590s
  101805    1.1369994e+04   1.467405e+06   0.000000e+00    595s
  102536    1.1369994e+04   8.316253e+04   0.000000e+00    603s
  102756    1.1369994e+04   9.357001e+03   0.000000e+00    605s
  103216    1.1369994e+04   3.786201e+04   0.000000e+00    610s
  103666    1.1369994e+04   2.589311e+04   0.000000e+00    615s
  104126    1.1369994e+04   4.285220e+05   0.000000e+00    620s
  104576    1.1369994e+04   5.426096e+04   0.000000e+00    626s
  105076    1.1369994e+04   3.752284e+04   0.000000e+00    631s
  105526    1.1369994e+04   1.720185e+04   0.000000e+00    636s
  105986    1.1369994e+04   9.408693e+04   0.000000e+00    641s
  106446    1.1369994e+04   2.813562e+04   0.000000e+00    646s
  106886    1.1369994e+04   1.165048e+04   0.000000e+00    652s
  107346    1.1369994e+04   1.040541e+05   0.000000e+00    657s
  107786    1.1369994e+04   5.236160e+04   0.000000e+00    662s
  108216    1.1369994e+04   2.641334e+04   0.000000e+00    668s
  108436    1.1369994e+04   2.472171e+04   0.000000e+00    670s
  108896    1.1369994e+04   8.195643e+04   0.000000e+00    676s
  109366    1.1369994e+04   3.323677e+04   0.000000e+00    681s
  109816    1.1369994e+04   1.094265e+05   0.000000e+00    686s
  110266    1.1369994e+04   3.982426e+05   0.000000e+00    692s
  110706    1.1369994e+04   1.025655e+05   0.000000e+00    697s
  111156    1.1369994e+04   5.443578e+04   0.000000e+00    702s
  111616    1.1369994e+04   3.605374e+04   0.000000e+00    708s
  111856    1.1369994e+04   7.158311e+04   0.000000e+00    710s
  112286    1.1369994e+04   1.612255e+05   0.000000e+00    716s
  112716    1.1369994e+04   1.242161e+05   0.000000e+00    721s
  113146    1.1369994e+04   5.052997e+04   0.000000e+00    726s
  113606    1.1369994e+04   1.095383e+04   0.000000e+00    732s
  114036    1.1369994e+04   7.498002e+03   0.000000e+00    737s
  114536    1.1369994e+04   1.551484e+05   0.000000e+00    742s
  114966    1.1369994e+04   1.330233e+04   0.000000e+00    748s
  115186    1.1369994e+04   4.970582e+03   0.000000e+00    750s
  115676    1.1369994e+04   1.890156e+05   0.000000e+00    756s
  116146    1.1369994e+04   1.721511e+05   0.000000e+00    761s
  116636    1.1369994e+04   3.437496e+05   0.000000e+00    767s
  117076    1.1369994e+04   1.295804e+04   0.000000e+00    772s
  117286    1.1369994e+04   2.604248e+04   0.000000e+00    775s
  117726    1.1369994e+04   3.364437e+05   0.000000e+00    781s
  118196    1.1369994e+04   5.150284e+04   0.000000e+00    786s
  118626    1.1369994e+04   2.486680e+04   0.000000e+00    791s
  119076    1.1369994e+04   1.611556e+04   0.000000e+00    797s
  119536    1.1369994e+04   5.732914e+04   0.000000e+00    802s
  119756    1.1369994e+04   1.067425e+04   0.000000e+00    805s
  120176    1.1369994e+04   9.937240e+04   0.000000e+00    811s
  120636    1.1369994e+04   6.583337e+04   0.000000e+00    816s
  121076    1.1369994e+04   1.154548e+05   0.000000e+00    822s
  121556    1.1369994e+04   1.200223e+04   0.000000e+00    827s
  121776    1.1369994e+04   3.427699e+04   0.000000e+00    830s
  122216    1.1369994e+04   4.307684e+04   0.000000e+00    836s
  122656    1.1369994e+04   8.731723e+04   0.000000e+00    841s
  123076    1.1369994e+04   4.421366e+04   0.000000e+00    847s
  123506    1.1369994e+04   5.862270e+04   0.000000e+00    852s
  123716    1.1369994e+04   1.890163e+04   0.000000e+00    855s
  124166    1.1369994e+04   7.346821e+04   0.000000e+00    861s
  124586    1.1369994e+04   1.502574e+04   0.000000e+00    866s
  125016    1.1369994e+04   2.226295e+04   0.000000e+00    872s
  125446    1.1369994e+04   4.347191e+04   0.000000e+00    877s
  125866    1.1369994e+04   2.003850e+05   0.000000e+00    883s
  126096    1.1369994e+04   2.447958e+04   0.000000e+00    885s
  126526    1.1369994e+04   2.255234e+04   0.000000e+00    891s
  126956    1.1369994e+04   2.078256e+05   0.000000e+00    896s
  127386    1.1369994e+04   1.704442e+04   0.000000e+00    901s
  127826    1.1369994e+04   1.011257e+05   0.000000e+00    907s
  128266    1.1369993e+04   3.781377e+04   0.000000e+00    912s
  128486    1.1369993e+04   8.470212e+04   0.000000e+00    915s
  128946    1.1369993e+04   1.279977e+04   0.000000e+00    921s
  129396    1.1369993e+04   6.748765e+04   0.000000e+00    926s
  129816    1.1369993e+04   4.504844e+05   0.000000e+00    932s
  130266    1.1369993e+04   1.135683e+05   0.000000e+00    937s
  130506    1.1369993e+04   1.429830e+04   0.000000e+00    940s
  130956    1.1369993e+04   1.700703e+05   0.000000e+00    946s
  131376    1.1369993e+04   1.140912e+04   0.000000e+00    951s
  131816    1.1369993e+04   2.953415e+04   0.000000e+00    957s
  132236    1.1369993e+04   4.469745e+04   0.000000e+00    962s
  132456    1.1369993e+04   4.763545e+03   0.000000e+00    965s
  132906    1.1369993e+04   2.271987e+04   0.000000e+00    971s
  133356    1.1369993e+04   1.352220e+05   0.000000e+00    976s
  133806    1.1369993e+04   7.774651e+04   0.000000e+00    982s
  134276    1.1369993e+04   1.058522e+04   0.000000e+00    987s
  134506    1.1369993e+04   9.730483e+03   0.000000e+00    990s
  134936    1.1369993e+04   1.078941e+04   0.000000e+00    996s
  135366    1.1369993e+04   7.677856e+04   0.000000e+00   1001s
  135806    1.1369993e+04   2.716368e+04   0.000000e+00   1007s
  136246    1.1369993e+04   5.022650e+04   0.000000e+00   1012s
  136486    1.1369993e+04   1.513578e+04   0.000000e+00   1015s
  136916    1.1369993e+04   1.931640e+04   0.000000e+00   1021s
  137356    1.1369993e+04   3.905321e+04   0.000000e+00   1026s
  137796    1.1369993e+04   4.884810e+04   0.000000e+00   1032s
  138226    1.1369993e+04   6.918856e+03   0.000000e+00   1037s
  138436    1.1369993e+04   4.648707e+04   0.000000e+00   1040s
  138876    1.1369993e+04   1.496068e+04   0.000000e+00   1046s
  139346    1.1369993e+04   6.220734e+04   0.000000e+00   1051s
  139786    1.1369993e+04   3.159086e+04   0.000000e+00   1057s
  140226    1.1369993e+04   1.928805e+04   0.000000e+00   1062s
  140436    1.1369993e+04   1.321601e+05   0.000000e+00   1065s
  140906    1.1369993e+04   4.219562e+05   0.000000e+00   1071s
  141376    1.1369993e+04   1.325800e+05   0.000000e+00   1076s
  141836    1.1369993e+04   2.729282e+04   0.000000e+00   1082s
  142256    1.1369993e+04   5.096015e+04   0.000000e+00   1088s
  142476    1.1369993e+04   5.797029e+04   0.000000e+00   1090s
  142896    1.1369993e+04   1.070156e+04   0.000000e+00   1096s
  143356    1.1369993e+04   4.719304e+05   0.000000e+00   1102s
  143776    1.1369993e+04   9.077957e+03   0.000000e+00   1107s
  144256    1.1369993e+04   3.705691e+04   0.000000e+00   1113s
  144476    1.1369993e+04   3.742440e+04   0.000000e+00   1116s
  144926    1.1369993e+04   1.471633e+04   0.000000e+00   1121s
  145386    1.1369993e+04   1.570326e+04   0.000000e+00   1127s
  145846    1.1369993e+04   9.329610e+03   0.000000e+00   1133s
  146086    1.1369993e+04   2.626009e+04   0.000000e+00   1136s
  146516    1.1369993e+04   4.318672e+04   0.000000e+00   1141s
  146926    1.1369993e+04   3.464266e+04   0.000000e+00   1147s
  147356    1.1369993e+04   1.159167e+05   0.000000e+00   1152s
  147576    1.1369993e+04   3.807746e+05   0.000000e+00   1155s
  147996    1.1369993e+04   2.935773e+04   0.000000e+00   1161s
  148426    1.1369993e+04   1.164915e+04   0.000000e+00   1166s
  148866    1.1369993e+04   2.065909e+05   0.000000e+00   1172s
  149076    1.1369993e+04   2.547798e+04   0.000000e+00   1175s
  149496    1.1369993e+04   1.426583e+04   0.000000e+00   1181s
  149936    1.1369993e+04   3.645009e+04   0.000000e+00   1186s
  150356    1.1369993e+04   1.148876e+05   0.000000e+00   1192s
  150786    1.1369993e+04   1.790900e+04   0.000000e+00   1198s
  151006    1.1369993e+04   7.506757e+04   0.000000e+00   1200s
  151426    1.1369993e+04   4.037921e+04   0.000000e+00   1206s
  151866    1.1369993e+04   3.954143e+05   0.000000e+00   1212s
  152286    1.1369993e+04   5.633153e+03   0.000000e+00   1217s
  152516    1.1369993e+04   6.857237e+03   0.000000e+00   1220s
  152956    1.1369993e+04   1.314784e+04   0.000000e+00   1226s
  153396    1.1369993e+04   6.129446e+04   0.000000e+00   1231s
  153826    1.1369993e+04   5.394901e+03   0.000000e+00   1237s
  154256    1.1369993e+04   2.313813e+04   0.000000e+00   1242s
  154486    1.1369993e+04   1.697833e+05   0.000000e+00   1245s
  154906    1.1369993e+04   2.147631e+04   0.000000e+00   1251s
  155366    1.1369993e+04   1.686725e+04   0.000000e+00   1257s
  155796    1.1369993e+04   2.077706e+05   0.000000e+00   1262s
  156016    1.1369993e+04   2.624879e+04   0.000000e+00   1265s
  156436    1.1369993e+04   9.972359e+03   0.000000e+00   1271s
  156846    1.1369993e+04   9.625210e+04   0.000000e+00   1276s
  157266    1.1369993e+04   1.611332e+04   0.000000e+00   1282s
  157486    1.1369993e+04   1.665218e+04   0.000000e+00   1285s
  157906    1.1369993e+04   4.538136e+03   0.000000e+00   1291s
  158316    1.1369993e+04   2.939007e+05   0.000000e+00   1297s
  158736    1.1369993e+04   1.084128e+04   0.000000e+00   1302s
  158956    1.1369993e+04   2.239042e+04   0.000000e+00   1305s
  159376    1.1369993e+04   4.799061e+03   0.000000e+00   1311s
  159796    1.1369993e+04   2.251912e+06   0.000000e+00   1317s
  160236    1.1369993e+04   3.885815e+04   0.000000e+00   1323s
  160436    1.1369993e+04   3.069147e+04   0.000000e+00   1325s
  160856    1.1369993e+04   2.418272e+04   0.000000e+00   1331s
  161286    1.1369993e+04   2.160509e+04   0.000000e+00   1337s
  161726    1.1369993e+04   3.502561e+04   0.000000e+00   1342s
  161926    1.1369993e+04   1.093157e+04   0.000000e+00   1345s
  162376    1.1369993e+04   6.245114e+04   0.000000e+00   1351s
  162796    1.1369993e+04   1.440062e+04   0.000000e+00   1357s
  163206    1.1369993e+04   1.071106e+05   0.000000e+00   1362s
  163416    1.1369993e+04   3.676333e+04   0.000000e+00   1365s
  163826    1.1369993e+04   2.010000e+04   0.000000e+00   1371s
  164256    1.1369993e+04   1.560718e+04   0.000000e+00   1377s
  164686    1.1369993e+04   1.105019e+04   0.000000e+00   1382s
  164936    1.1369993e+04   3.570402e+04   0.000000e+00   1385s
  165376    1.1369993e+04   2.699936e+04   0.000000e+00   1391s
  165806    1.1369993e+04   3.500302e+04   0.000000e+00   1397s
  166236    1.1369993e+04   2.420299e+04   0.000000e+00   1402s
  166446    1.1369993e+04   2.490322e+05   0.000000e+00   1405s
  166886    1.1369993e+04   2.913857e+04   0.000000e+00   1411s
  167306    1.1369993e+04   1.117961e+04   0.000000e+00   1416s
  167756    1.1369993e+04   7.076068e+04   0.000000e+00   1422s
  168176    1.1369993e+04   5.057072e+04   0.000000e+00   1427s
  168596    1.1369993e+04   1.227653e+04   0.000000e+00   1433s
  168806    1.1369993e+04   4.145219e+04   0.000000e+00   1436s
  169266    1.1369993e+04   1.229906e+04   0.000000e+00   1441s
  169696    1.1369993e+04   6.128017e+05   0.000000e+00   1447s
  170106    1.1369993e+04   2.257853e+04   0.000000e+00   1452s
  170316    1.1369993e+04   1.817165e+04   0.000000e+00   1455s
  170746    1.1369993e+04   5.743556e+04   0.000000e+00   1461s
  171156    1.1369993e+04   1.840176e+04   0.000000e+00   1467s
  171586    1.1369993e+04   4.275953e+04   0.000000e+00   1473s
  171796    1.1369993e+04   1.363767e+05   0.000000e+00   1476s
  172216    1.1369993e+04   1.806508e+05   0.000000e+00   1481s
  172636    1.1369993e+04   4.243764e+05   0.000000e+00   1487s
  172856    1.1369993e+04   1.290898e+04   0.000000e+00   1490s
  173266    1.1369993e+04   2.742759e+04   0.000000e+00   1496s
  173666    1.1369993e+04   1.525699e+04   0.000000e+00   1502s
  174066    1.1369993e+04   1.361428e+04   0.000000e+00   1507s
  174286    1.1369993e+04   6.419867e+04   0.000000e+00   1510s
  174696    1.1369993e+04   1.786000e+04   0.000000e+00   1516s
  175126    1.1369993e+04   5.761999e+03   0.000000e+00   1522s
  175536    1.1369993e+04   1.069255e+04   0.000000e+00   1527s
  175736    1.1369993e+04   3.664123e+04   0.000000e+00   1530s
  176186    1.1369993e+04   5.363666e+05   0.000000e+00   1536s
  176676    1.1369992e+04   1.345704e+05   0.000000e+00   1542s
  177096    1.1369992e+04   1.078241e+04   0.000000e+00   1548s
  177306    1.1369992e+04   1.626420e+04   0.000000e+00   1550s
  177746    1.1369992e+04   9.687999e+04   0.000000e+00   1556s
  178166    1.1369992e+04   6.917353e+03   0.000000e+00   1562s
  178586    1.1369992e+04   1.730451e+04   0.000000e+00   1568s
  178806    1.1369992e+04   1.904987e+04   0.000000e+00   1571s
  179226    1.1369992e+04   3.240394e+05   0.000000e+00   1577s
  179646    1.1369992e+04   3.218721e+04   0.000000e+00   1582s
  179846    1.1369992e+04   2.071212e+04   0.000000e+00   1585s
  180286    1.1369992e+04   2.864253e+05   0.000000e+00   1591s
  180726    1.1369992e+04   2.627162e+04   0.000000e+00   1597s
  181156    1.1369992e+04   9.250950e+03   0.000000e+00   1603s
  181356    1.1369992e+04   8.726960e+03   0.000000e+00   1605s
  181776    1.1369992e+04   1.313433e+04   0.000000e+00   1611s
  182176    1.1369992e+04   9.720890e+04   0.000000e+00   1617s
  182386    1.1369992e+04   6.064528e+03   0.000000e+00   1620s
  182786    1.1369992e+04   3.607532e+04   0.000000e+00   1626s
  183236    1.1369992e+04   1.296437e+04   0.000000e+00   1632s
  183636    1.1369992e+04   1.622777e+04   0.000000e+00   1638s
  183846    1.1369992e+04   8.686846e+04   0.000000e+00   1641s
  184246    1.1369992e+04   1.328027e+05   0.000000e+00   1647s
  184656    1.1369992e+04   5.640502e+03   0.000000e+00   1653s
  184856    1.1369992e+04   1.890823e+04   0.000000e+00   1656s
  185276    1.1369992e+04   8.258764e+03   0.000000e+00   1662s
  185686    1.1369992e+04   1.417688e+04   0.000000e+00   1668s
  185886    1.1369992e+04   4.888673e+03   0.000000e+00   1671s
  186296    1.1369992e+04   4.670178e+04   0.000000e+00   1677s
  186706    1.1369992e+04   9.293924e+03   0.000000e+00   1683s
  186906    1.1369992e+04   2.168030e+04   0.000000e+00   1686s
  187336    1.1369992e+04   7.125245e+04   0.000000e+00   1692s
  187746    1.1369992e+04   3.129452e+04   0.000000e+00   1698s
  187956    1.1369992e+04   4.117506e+04   0.000000e+00   1701s
  188366    1.1369992e+04   3.296444e+03   0.000000e+00   1707s
  188786    1.1369992e+04   2.613561e+04   0.000000e+00   1713s
  188996    1.1369992e+04   6.501167e+03   0.000000e+00   1716s
  189416    1.1369992e+04   3.554278e+04   0.000000e+00   1722s
  189826    1.1369992e+04   3.866963e+03   0.000000e+00   1728s
  190026    1.1369992e+04   2.372486e+04   0.000000e+00   1731s
  190456    1.1369992e+04   1.956554e+04   0.000000e+00   1737s
  190876    1.1369992e+04   3.504413e+04   0.000000e+00   1743s
  191076    1.1369992e+04   1.294420e+04   0.000000e+00   1746s
  191486    1.1369992e+04   2.390209e+03   0.000000e+00   1752s
  191696    1.1369992e+04   4.126503e+04   0.000000e+00   1755s
  192136    1.1369992e+04   7.281333e+03   0.000000e+00   1761s
  192566    1.1369992e+04   8.492774e+03   0.000000e+00   1767s
  192776    1.1369992e+04   6.237267e+03   0.000000e+00   1770s
  193196    1.1369992e+04   7.226132e+04   0.000000e+00   1777s
  193616    1.1369992e+04   3.719758e+04   0.000000e+00   1783s
  193826    1.1369992e+04   1.178373e+04   0.000000e+00   1786s
  194256    1.1369992e+04   1.774732e+04   0.000000e+00   1792s
  194666    1.1369992e+04   6.950189e+03   0.000000e+00   1798s
  194886    1.1369992e+04   4.284829e+03   0.000000e+00   1801s
  195296    1.1369992e+04   6.998698e+03   0.000000e+00   1807s
  195726    1.1369992e+04   8.742309e+03   0.000000e+00   1813s
  195926    1.1369992e+04   3.932907e+03   0.000000e+00   1816s
  196346    1.1369992e+04   1.208119e+04   0.000000e+00   1822s
  196746    1.1369992e+04   9.783788e+03   0.000000e+00   1828s
  196946    1.1369992e+04   2.759054e+04   0.000000e+00   1831s
  197346    1.1369992e+04   1.024414e+04   0.000000e+00   1837s
  197776    1.1369992e+04   2.654387e+04   0.000000e+00   1843s
  198006    1.1369992e+04   4.028967e+03   0.000000e+00   1846s
  198426    1.1369992e+04   1.222594e+04   0.000000e+00   1852s
  198826    1.1369992e+04   1.278412e+04   0.000000e+00   1858s
  199056    1.1369992e+04   1.077455e+04   0.000000e+00   1861s
  199466    1.1369992e+04   1.336569e+04   0.000000e+00   1866s
  199866    1.1369992e+04   4.056432e+03   0.000000e+00   1872s
  200076    1.1369992e+04   1.167475e+04   0.000000e+00   1875s
  200496    1.1369992e+04   2.669572e+05   0.000000e+00   1881s
  200906    1.1369992e+04   3.985290e+03   0.000000e+00   1887s
  201116    1.1369992e+04   9.346532e+03   0.000000e+00   1890s
  201526    1.1369992e+04   8.770186e+03   0.000000e+00   1896s
  201936    1.1369992e+04   1.040604e+04   0.000000e+00   1902s
  202136    1.1369992e+04   3.393207e+04   0.000000e+00   1905s
  202546    1.1369992e+04   1.815752e+04   0.000000e+00   1911s
  202946    1.1369992e+04   4.221937e+04   0.000000e+00   1917s
  203166    1.1369992e+04   4.336411e+03   0.000000e+00   1920s
  203566    1.1369992e+04   5.274264e+04   0.000000e+00   1926s
  203986    1.1369992e+04   4.738555e+03   0.000000e+00   1932s
  204196    1.1369992e+04   7.429434e+02   0.000000e+00   1935s
  204616    1.1369992e+04   3.942702e+03   0.000000e+00   1941s
  205026    1.1369992e+04   1.130487e+04   0.000000e+00   1948s
  205236    1.1369992e+04   7.132631e+03   0.000000e+00   1951s
  205676    1.1369992e+04   1.564644e+04   0.000000e+00   1957s
  205876    1.1369992e+04   2.083589e+05   0.000000e+00   1960s
  206286    1.1369992e+04   3.068022e+04   0.000000e+00   1966s
  206696    1.1369992e+04   8.778514e+03   0.000000e+00   1972s
  207106    1.1369992e+04   7.446382e+03   0.000000e+00   1978s
  207306    1.1369992e+04   1.572669e+04   0.000000e+00   1981s
  207726    1.1369992e+04   5.567909e+04   0.000000e+00   1987s
  207936    1.1369992e+04   6.274777e+03   0.000000e+00   1990s
  208366    1.1369992e+04   4.411186e+03   0.000000e+00   1996s
  208776    1.1369992e+04   3.756883e+03   0.000000e+00   2002s
  208986    1.1369992e+04   6.329997e+04   0.000000e+00   2005s
  209386    1.1369992e+04   4.186538e+03   0.000000e+00   2011s
  209806    1.1369992e+04   3.168776e+03   0.000000e+00   2017s
  210006    1.1369992e+04   1.974251e+04   0.000000e+00   2020s
  210416    1.1369992e+04   6.921361e+03   0.000000e+00   2027s
  210826    1.1369992e+04   2.353973e+04   0.000000e+00   2033s
  211036    1.1369992e+04   2.842080e+04   0.000000e+00   2036s
  211436    1.1369992e+04   9.363183e+03   0.000000e+00   2042s
  211836    1.1369992e+04   5.622509e+03   0.000000e+00   2048s
  212056    1.1369992e+04   1.379822e+05   0.000000e+00   2052s
  212256    1.1369992e+04   6.208603e+03   0.000000e+00   2056s
  212456    1.1369992e+04   5.228312e+04   0.000000e+00   2060s
  212866    1.1369992e+04   1.087511e+04   0.000000e+00   2068s
  213076    1.1369992e+04   3.708596e+03   0.000000e+00   2072s
  213276    1.1369992e+04   2.855136e+05   0.000000e+00   2077s
  213486    1.1369992e+04   4.678395e+03   0.000000e+00   2081s
  213926    1.1369992e+04   1.820558e+03   0.000000e+00   2089s
  214136    1.1369992e+04   1.416294e+04   0.000000e+00   2093s
  214346    1.1369992e+04   4.171491e+04   0.000000e+00   2097s
  214556    1.1369992e+04   5.392902e+03   0.000000e+00   2101s
  214956    1.1369992e+04   2.669368e+03   0.000000e+00   2108s
  215176    1.1369992e+04   2.005713e+04   0.000000e+00   2111s
  215596    1.1369992e+04   1.312451e+04   0.000000e+00   2118s
  215806    1.1369992e+04   4.831113e+03   0.000000e+00   2121s
  216226    1.1369992e+04   1.765752e+04   0.000000e+00   2128s
  216426    1.1369992e+04   1.783871e+04   0.000000e+00   2131s
  216836    1.1369992e+04   8.214707e+03   0.000000e+00   2137s
  217046    1.1369992e+04   7.127270e+04   0.000000e+00   2140s
  217476    1.1369992e+04   3.512581e+04   0.000000e+00   2147s
  217876    1.1369992e+04   2.432824e+04   0.000000e+00   2153s
  218076    1.1369992e+04   1.821602e+04   0.000000e+00   2156s
  218506    1.1369992e+04   1.351769e+04   0.000000e+00   2162s
  218736    1.1369992e+04   6.167725e+03   0.000000e+00   2166s
  219176    1.1369992e+04   2.421706e+03   0.000000e+00   2172s
  219396    1.1369992e+04   1.945195e+03   0.000000e+00   2175s
  219846    1.1369992e+04   5.431793e+03   0.000000e+00   2182s
  220286    1.1369992e+04   9.828588e+03   0.000000e+00   2188s
  220506    1.1369992e+04   4.007923e+04   0.000000e+00   2191s
  220946    1.1369992e+04   4.166802e+04   0.000000e+00   2197s
  221196    1.1369992e+04   6.567904e+03   0.000000e+00   2200s
  221616    1.1369992e+04   6.294923e+04   0.000000e+00   2207s
  222036    1.1369992e+04   3.278107e+03   0.000000e+00   2213s
  222266    1.1369992e+04   6.802633e+04   0.000000e+00   2216s
  222706    1.1369992e+04   4.834775e+03   0.000000e+00   2222s
  222916    1.1369992e+04   2.327522e+04   0.000000e+00   2225s
  223346    1.1369992e+04   2.369107e+04   0.000000e+00   2231s
  223776    1.1369992e+04   5.024886e+03   0.000000e+00   2237s
  223986    1.1369992e+04   2.227449e+04   0.000000e+00   2241s
  224406    1.1369992e+04   1.141384e+04   0.000000e+00   2247s
  224826    1.1369992e+04   1.413335e+04   0.000000e+00   2253s
  225056    1.1369992e+04   4.576582e+03   0.000000e+00   2256s
  225496    1.1369992e+04   1.108750e+05   0.000000e+00   2262s
  225726    1.1369992e+04   1.108276e+03   0.000000e+00   2266s
  226146    1.1369992e+04   3.542529e+03   0.000000e+00   2272s
  226566    1.1369992e+04   1.546995e+04   0.000000e+00   2278s
  226786    1.1369992e+04   1.865661e+05   0.000000e+00   2281s
  227206    1.1369992e+04   8.831742e+03   0.000000e+00   2287s
  227416    1.1369992e+04   7.389725e+03   0.000000e+00   2290s
  227836    1.1369992e+04   4.670137e+03   0.000000e+00   2296s
  228266    1.1369992e+04   1.589750e+04   0.000000e+00   2302s
  228476    1.1369992e+04   9.455652e+04   0.000000e+00   2305s
  228916    1.1369992e+04   1.421750e+03   0.000000e+00   2311s
  229326    1.1369992e+04   1.171125e+04   0.000000e+00   2318s
  229536    1.1369992e+04   6.239553e+03   0.000000e+00   2321s
  229956    1.1369992e+04   1.548399e+04   0.000000e+00   2327s
  230376    1.1369992e+04   6.524721e+03   0.000000e+00   2333s
  230576    1.1369992e+04   9.467902e+04   0.000000e+00   2336s
  230996    1.1369992e+04   1.680252e+04   0.000000e+00   2342s
  231196    1.1369992e+04   1.206101e+04   0.000000e+00   2345s
  231626    1.1369992e+04   1.757548e+03   0.000000e+00   2352s
  232066    1.1369992e+04   3.545062e+03   0.000000e+00   2358s
  232276    1.1369992e+04   2.865252e+03   0.000000e+00   2361s
  232706    1.1369992e+04   2.109040e+05   0.000000e+00   2367s
  232926    1.1369992e+04   4.538083e+03   0.000000e+00   2371s
  233386    1.1369992e+04   1.096363e+03   0.000000e+00   2377s
  233606    1.1369992e+04   2.734557e+03   0.000000e+00   2380s
  234036    1.1369992e+04   1.691562e+03   0.000000e+00   2387s
  234246    1.1369992e+04   1.132016e+03   0.000000e+00   2390s
  234696    1.1369992e+04   3.740924e+03   0.000000e+00   2397s
  235106    1.1369992e+04   2.876472e+03   0.000000e+00   2403s
  235356    1.1369992e+04   3.259871e+03   0.000000e+00   2406s
  235776    1.1369992e+04   3.211363e+04   0.000000e+00   2413s
  235996    1.1369992e+04   3.574785e+04   0.000000e+00   2416s
  236436    1.1369992e+04   2.426979e+03   0.000000e+00   2423s
  236646    1.1369992e+04   8.182109e+03   0.000000e+00   2426s
  237066    1.1369992e+04   3.449837e+03   0.000000e+00   2432s
  237276    1.1369992e+04   9.351191e+03   0.000000e+00   2436s
  237696    1.1369992e+04   1.200821e+04   0.000000e+00   2442s
  237906    1.1369992e+04   1.075676e+03   0.000000e+00   2445s
  238356    1.1369992e+04   7.234743e+02   0.000000e+00   2452s
  238786    1.1369992e+04   2.109536e+03   0.000000e+00   2458s
  239006    1.1369992e+04   4.439748e+04   0.000000e+00   2461s
  239426    1.1369992e+04   2.747603e+03   0.000000e+00   2468s
  239646    1.1369992e+04   3.407205e+04   0.000000e+00   2471s
  240076    1.1369992e+04   3.448654e+02   0.000000e+00   2478s
  240306    1.1369992e+04   7.613817e+03   0.000000e+00   2481s
  240796    1.1369992e+04   8.254745e+02   0.000000e+00   2487s
  241006    1.1369992e+04   2.926076e+03   0.000000e+00   2490s
  241436    1.1369992e+04   2.738688e+03   0.000000e+00   2497s
  241646    1.1369992e+04   6.637193e+02   0.000000e+00   2500s
  242086    1.1369992e+04   1.562930e+03   0.000000e+00   2507s
  242526    1.1369992e+04   4.551147e+03   0.000000e+00   2513s
  242766    1.1369992e+04   1.893515e+04   0.000000e+00   2516s
  243186    1.1369992e+04   4.249842e+03   0.000000e+00   2523s
  243396    1.1369992e+04   4.534964e+03   0.000000e+00   2526s
  243816    1.1369992e+04   8.973435e+03   0.000000e+00   2532s
  244026    1.1369992e+04   5.906948e+02   0.000000e+00   2535s
  244466    1.1369992e+04   1.862390e+03   0.000000e+00   2542s
  244906    1.1369992e+04   1.179750e+04   0.000000e+00   2548s
  245116    1.1369992e+04   1.581377e+03   0.000000e+00   2551s
  245556    1.1369992e+04   2.502090e+05   0.000000e+00   2558s
  245766    1.1369992e+04   1.801713e+03   0.000000e+00   2561s
  246236    1.1369992e+04   4.218626e+03   0.000000e+00   2567s
  246446    1.1369992e+04   1.750392e+03   0.000000e+00   2570s
  246876    1.1369992e+04   1.901969e+04   0.000000e+00   2577s
  247086    1.1369992e+04   1.592193e+03   0.000000e+00   2580s
  247506    1.1369992e+04   6.902508e+03   0.000000e+00   2586s
  247956    1.1369992e+04   7.819949e+02   0.000000e+00   2593s
  248176    1.1369992e+04   1.348865e+03   0.000000e+00   2596s
  248606    1.1369992e+04   2.692815e+02   0.000000e+00   2602s
  248826    1.1369992e+04   1.076977e+03   0.000000e+00   2606s
  249256    1.1369992e+04   6.387780e+02   0.000000e+00   2612s
  249476    1.1369992e+04   6.432159e+03   0.000000e+00   2615s
  249896    1.1369992e+04   9.441493e+03   0.000000e+00   2622s
  250326    1.1369992e+04   1.423477e+04   0.000000e+00   2628s
  250536    1.1369992e+04   1.400305e+03   0.000000e+00   2631s
  250966    1.1369992e+04   8.932796e+03   0.000000e+00   2638s
  251176    1.1369992e+04   9.188979e+02   0.000000e+00   2641s
  251606    1.1369992e+04   9.293727e+02   0.000000e+00   2647s
  251806    1.1369992e+04   3.027191e+03   0.000000e+00   2650s
  252236    1.1369992e+04   2.290499e+02   0.000000e+00   2657s
  252476    1.1369992e+04   8.669314e+03   0.000000e+00   2660s
  252906    1.1369992e+04   6.556169e+02   0.000000e+00   2667s
  253336    1.1369992e+04   2.643774e+03   0.000000e+00   2673s
  253546    1.1369992e+04   8.799700e+02   0.000000e+00   2676s
  253976    1.1369992e+04   2.242253e+04   0.000000e+00   2682s
  254196    1.1369992e+04   1.902558e+02   0.000000e+00   2686s
  254636    1.1369992e+04   6.143529e+04   0.000000e+00   2692s
  254856    1.1369992e+04   6.318638e+02   0.000000e+00   2695s
  255276    1.1369992e+04   3.421010e+03   0.000000e+00   2701s
  255706    1.1369992e+04   6.983347e+03   0.000000e+00   2708s
  255926    1.1369992e+04   8.022236e+02   0.000000e+00   2711s
  256356    1.1369992e+04   7.056996e+02   0.000000e+00   2718s
  256566    1.1369992e+04   2.235303e+02   0.000000e+00   2721s
  256996    1.1369992e+04   4.923925e+02   0.000000e+00   2727s
  257216    1.1369992e+04   2.956609e+02   0.000000e+00   2731s
  257656    1.1369992e+04   5.183293e+02   0.000000e+00   2737s
  257866    1.1369992e+04   8.562351e+02   0.000000e+00   2741s
  258296    1.1369992e+04   1.770496e+03   0.000000e+00   2747s
  258506    1.1369992e+04   4.785449e+02   0.000000e+00   2750s
  258956    1.1369992e+04   4.895311e+02   0.000000e+00   2757s
  259176    1.1369992e+04   2.840764e+02   0.000000e+00   2760s
  259606    1.1369992e+04   3.766415e+02   0.000000e+00   2767s
  259826    1.1369992e+04   5.860560e+03   0.000000e+00   2770s
  260256    1.1369992e+04   5.309929e+02   0.000000e+00   2776s
  260676    1.1369992e+04   6.818179e+03   0.000000e+00   2783s
  260886    1.1369992e+04   2.507830e+02   0.000000e+00   2786s
  261306    1.1369992e+04   5.061285e+04   0.000000e+00   2793s
  261546    1.1369992e+04   7.711821e+02   0.000000e+00   2796s
  261976    1.1369992e+04   6.643297e+02   0.000000e+00   2803s
  262186    1.1369992e+04   5.438025e+02   0.000000e+00   2806s
  262616    1.1369992e+04   1.065728e+02   0.000000e+00   2812s
  262826    1.1369992e+04   8.243830e+02   0.000000e+00   2815s
  263266    1.1369992e+04   3.050557e+02   0.000000e+00   2822s
  263476    1.1369992e+04   5.330553e+02   0.000000e+00   2825s
  263906    1.1369992e+04   1.357383e+03   0.000000e+00   2832s
  264336    1.1369992e+04   2.106013e+03   0.000000e+00   2838s
  264546    1.1369992e+04   1.674829e+04   0.000000e+00   2841s
  265016    1.1369992e+04   4.122096e+02   0.000000e+00   2847s
  265226    1.1369992e+04   7.287731e+01   0.000000e+00   2851s
  265676    1.1369992e+04   1.262387e+03   0.000000e+00   2857s
  265886    1.1369992e+04   2.848429e+02   0.000000e+00   2860s
  266326    1.1369992e+04   1.776788e+02   0.000000e+00   2867s
  266756    1.1369992e+04   3.001796e+03   0.000000e+00   2873s
  266966    1.1369992e+04   1.005846e+02   0.000000e+00   2876s
  267396    1.1369992e+04   2.309330e+02   0.000000e+00   2883s
  267606    1.1369992e+04   9.717753e+03   0.000000e+00   2886s
  268046    1.1369992e+04   2.079822e+03   0.000000e+00   2893s
  268296    1.1369992e+04   1.408478e+01   0.000000e+00   2896s
  268726    1.1369992e+04   2.868193e+02   0.000000e+00   2903s
  268956    1.1369992e+04   7.574680e+01   0.000000e+00   2906s
  269416    1.1369992e+04   6.021489e+01   0.000000e+00   2912s
  269656    1.1369992e+04   5.261308e+02   0.000000e+00   2916s
  270096    1.1369992e+04   8.013235e+01   0.000000e+00   2922s
  270316    1.1369992e+04   2.470629e+01   0.000000e+00   2925s
  270756    1.1369992e+04   2.785864e+01   0.000000e+00   2932s
  270976    1.1369992e+04   1.137035e+01   0.000000e+00   2935s
  271426    1.1369992e+04   2.466590e+01   0.000000e+00   2942s
  271646    1.1369992e+04   3.506494e+01   0.000000e+00   2945s
  272086    1.1369992e+04   7.957199e+02   0.000000e+00   2952s
  272306    1.1369992e+04   4.158445e+02   0.000000e+00   2955s
  272756    1.1369992e+04   8.411872e+00   0.000000e+00   2962s
  272986    1.1369992e+04   2.719304e+00   0.000000e+00   2965s
  273446    1.1369992e+04   5.461437e-01   0.000000e+00   2972s
  273609    1.1370000e+04   0.000000e+00   0.000000e+00   2975s
  273609    1.1370000e+04   0.000000e+00   0.000000e+00   2975s

Root relaxation: objective 1.137000e+04, 273609 iterations, 2967.14 seconds

    Nodes    |    Current Node    |     Objective Bounds      |     Work
 Expl Unexpl |  Obj  Depth IntInf | Incumbent    BestBd   Gap | It/Node Time

     0     0 11370.0000    0 34145 3300.00000 11370.0000   245%     - 3600s

Explored 0 nodes (435006 simplex iterations) in 3600.12 seconds
Thread count was 1 (of 40 available processors)

Solution count 1: 3300 

Time limit reached
Best objective 3.300000000000e+03, best bound 1.137000000000e+04, gap 244.5455%

----------

Best objective (UB): 11370.000
Best feasible solution (LB): 3300.000
Gap between the lower bound and upper bound: 244.545%

----------

Number of customers served: 21

Schedule for EV v0:
   [   0, 1031) -> It remains parked at station s0.
   [1031, 1391) -> Service a request driving for customer c43 from s0 to s2.
   [1391, 1631) -> It remains parked at station s2.

Schedule for EV v1:
   [   0, 1029) -> It remains parked at station s0.
   [1029, 1149) -> Service a request driving for customer c5 from s0 to s0.
   [1149, 1631) -> It remains parked at station s0.

Schedule for EV v2:
   [   0,  554) -> It remains parked at station s0.
   [ 554,  674) -> Service a request driving for customer c35 from s0 to s2.
   [ 674, 1631) -> It remains parked at station s2.

Schedule for EV v3:
   [   0,  908) -> It remains parked at station s0.
   [ 908,  968) -> Service a request driving for customer c39 from s0 to s5.
   [ 968, 1631) -> It remains parked at station s5.

Schedule for EV v4:
   [   0, 1631) -> It remains parked at station s0.

Schedule for EV v5:
   [   0, 1631) -> It remains parked at station s0.

Schedule for EV v6:
   [   0,  428) -> It remains parked at station s1.
   [ 428,  578) -> Service a request driving for customer c53 from s1 to s8.
   [ 578, 1631) -> It remains parked at station s8.

Schedule for EV v7:
   [   0, 1631) -> It remains parked at station s1.

Schedule for EV v8:
   [   0, 1631) -> It remains parked at station s1.

Schedule for EV v9:
   [   0, 1631) -> It remains parked at station s1.

Schedule for EV v10:
   [   0,  856) -> It remains parked at station s2.
   [ 856,  976) -> Service a request driving for customer c16 from s2 to s4.
   [ 976, 1271) -> It remains parked at station s4.
   [1271, 1481) -> Service a request driving for customer c16 from s4 to s3.
   [1481, 1631) -> It remains parked at station s3.

Schedule for EV v11:
   [   0, 1631) -> It remains parked at station s2.

Schedule for EV v12:
   [   0, 1631) -> It remains parked at station s2.

Schedule for EV v13:
   [   0, 1631) -> It remains parked at station s2.

Schedule for EV v14:
   [   0, 1631) -> It remains parked at station s2.

Schedule for EV v15:
   [   0, 1631) -> It remains parked at station s2.

Schedule for EV v16:
   [   0, 1631) -> It remains parked at station s2.

Schedule for EV v17:
   [   0, 1631) -> It remains parked at station s2.

Schedule for EV v18:
   [   0, 1631) -> It remains parked at station s2.

Schedule for EV v19:
   [   0, 1631) -> It remains parked at station s2.

Schedule for EV v20:
   [   0, 1631) -> It remains parked at station s2.

Schedule for EV v21:
   [   0, 1631) -> It remains parked at station s2.

Schedule for EV v22:
   [   0, 1631) -> It remains parked at station s3.

Schedule for EV v23:
   [   0, 1631) -> It remains parked at station s3.

Schedule for EV v24:
   [   0, 1631) -> It remains parked at station s3.

Schedule for EV v25:
   [   0, 1631) -> It remains parked at station s3.

Schedule for EV v26:
   [   0, 1631) -> It remains parked at station s3.

Schedule for EV v27:
   [   0, 1631) -> It remains parked at station s3.

Schedule for EV v28:
   [   0, 1631) -> It remains parked at station s3.

Schedule for EV v29:
   [   0, 1631) -> It remains parked at station s3.

Schedule for EV v30:
   [   0,  731) -> It remains parked at station s4.
   [ 731, 1031) -> Service a request driving for customer c13 from s4 to s9.
   [1031, 1631) -> It remains parked at station s9.

Schedule for EV v31:
   [   0,  552) -> It remains parked at station s4.
   [ 552,  582) -> Service a request driving for customer c49 from s4 to s3.
   [ 582,  969) -> It remains parked at station s3.
   [ 969, 1179) -> Service a request driving for customer c49 from s3 to s10.
   [1179, 1631) -> It remains parked at station s10.

Schedule for EV v32:
   [   0, 1631) -> It remains parked at station s4.

Schedule for EV v33:
   [   0, 1631) -> It remains parked at station s4.

Schedule for EV v34:
   [   0, 1631) -> It remains parked at station s4.

Schedule for EV v35:
   [   0, 1631) -> It remains parked at station s4.

Schedule for EV v36:
   [   0, 1631) -> It remains parked at station s4.

Schedule for EV v37:
   [   0, 1631) -> It remains parked at station s4.

Schedule for EV v38:
   [   0, 1631) -> It remains parked at station s4.

Schedule for EV v39:
   [   0, 1631) -> It remains parked at station s4.

Schedule for EV v40:
   [   0, 1631) -> It remains parked at station s4.

Schedule for EV v41:
   [   0, 1631) -> It remains parked at station s4.

Schedule for EV v42:
   [   0, 1631) -> It remains parked at station s4.

Schedule for EV v43:
   [   0, 1215) -> It remains parked at station s5.
   [1215, 1365) -> Service a request driving for customer c30 from s5 to s1.
   [1365, 1631) -> It remains parked at station s1.

Schedule for EV v44:
   [   0, 1631) -> It remains parked at station s5.

Schedule for EV v45:
   [   0, 1631) -> It remains parked at station s5.

Schedule for EV v46:
   [   0, 1631) -> It remains parked at station s5.

Schedule for EV v47:
   [   0, 1631) -> It remains parked at station s5.

Schedule for EV v48:
   [   0,  916) -> It remains parked at station s6.
   [ 916,  946) -> Service a request driving for customer c7 from s6 to s11.
   [ 946,  966) -> It remains parked at station s11.
   [ 966,  996) -> Service a request driving for customer c24 from s11 to s11.
   [ 996, 1631) -> It remains parked at station s11.

Schedule for EV v49:
   [   0, 1631) -> It remains parked at station s6.

Schedule for EV v50:
   [   0, 1631) -> It remains parked at station s6.

Schedule for EV v51:
   [   0, 1631) -> It remains parked at station s6.

Schedule for EV v52:
   [   0, 1631) -> It remains parked at station s6.

Schedule for EV v53:
   [   0, 1631) -> It remains parked at station s6.

Schedule for EV v54:
   [   0, 1631) -> It remains parked at station s6.

Schedule for EV v55:
   [   0, 1631) -> It remains parked at station s6.

Schedule for EV v56:
   [   0, 1329) -> It remains parked at station s7.
   [1329, 1389) -> Service a request driving for customer c3 from s7 to s6.
   [1389, 1631) -> It remains parked at station s6.

Schedule for EV v57:
   [   0, 1631) -> It remains parked at station s7.

Schedule for EV v58:
   [   0, 1631) -> It remains parked at station s7.

Schedule for EV v59:
   [   0, 1631) -> It remains parked at station s7.

Schedule for EV v60:
   [   0, 1631) -> It remains parked at station s7.

Schedule for EV v61:
   [   0, 1631) -> It remains parked at station s7.

Schedule for EV v62:
   [   0, 1631) -> It remains parked at station s7.

Schedule for EV v63:
   [   0, 1631) -> It remains parked at station s7.

Schedule for EV v64:
   [   0,  729) -> It remains parked at station s8.
   [ 729,  939) -> Service a request driving for customer c15 from s8 to s3.
   [ 939, 1631) -> It remains parked at station s3.

Schedule for EV v65:
   [   0,  550) -> It remains parked at station s8.
   [ 550,  670) -> Service a request driving for customer c34 from s8 to s9.
   [ 670, 1631) -> It remains parked at station s9.

Schedule for EV v66:
   [   0,  668) -> It remains parked at station s8.
   [ 668,  728) -> Service a request driving for customer c36 from s8 to s1.
   [ 728,  794) -> It remains parked at station s1.
   [ 794,  824) -> Service a request driving for customer c46 from s1 to s7.
   [ 824, 1631) -> It remains parked at station s7.

Schedule for EV v67:
   [   0, 1332) -> It remains parked at station s9.
   [1332, 1482) -> Service a request driving for customer c25 from s9 to s9.
   [1482, 1631) -> It remains parked at station s9.

Schedule for EV v68:
   [   0, 1631) -> It remains parked at station s9.

Schedule for EV v69:
   [   0, 1631) -> It remains parked at station s9.

Schedule for EV v70:
   [   0, 1631) -> It remains parked at station s9.

Schedule for EV v71:
   [   0, 1631) -> It remains parked at station s9.

Schedule for EV v72:
   [   0, 1631) -> It remains parked at station s9.

Schedule for EV v73:
   [   0, 1631) -> It remains parked at station s9.

Schedule for EV v74:
   [   0, 1631) -> It remains parked at station s9.

Schedule for EV v75:
   [   0,  968) -> It remains parked at station s10.
   [ 968, 1058) -> Service a request driving for customer c1 from s10 to s8.
   [1058, 1631) -> It remains parked at station s8.

Schedule for EV v76:
   [   0, 1631) -> It remains parked at station s10.

Schedule for EV v77:
   [   0, 1631) -> It remains parked at station s10.

Schedule for EV v78:
   [   0, 1631) -> It remains parked at station s10.

Schedule for EV v79:
   [   0, 1631) -> It remains parked at station s10.

Schedule for EV v80:
   [   0, 1631) -> It remains parked at station s10.

Schedule for EV v81:
   [   0, 1631) -> It remains parked at station s10.

Schedule for EV v82:
   [   0, 1631) -> It remains parked at station s10.

Schedule for EV v83:
   [   0, 1631) -> It remains parked at station s10.

Schedule for EV v84:
   [   0, 1631) -> It remains parked at station s10.

Schedule for EV v85:
   [   0, 1331) -> It remains parked at station s11.
   [1331, 1631) -> Service a request driving for customer c47 from s11 to s4.

Schedule for EV v86:
   [   0,  609) -> It remains parked at station s11.
   [ 609,  849) -> Service a request driving for customer c37 from s11 to s3.
   [ 849, 1631) -> It remains parked at station s3.

Schedule for EV v87:
   [   0, 1150) -> It remains parked at station s11.
   [1150, 1300) -> Service a request driving for customer c23 from s11 to s5.
   [1300, 1631) -> It remains parked at station s5.

Schedule for EV v88:
   [   0, 1631) -> It remains parked at station s11.

Schedule for EV v89:
   [   0, 1631) -> It remains parked at station s11.

Set of satisfied customers
   {c1, c3, c5, c7, c13, c15, c16, c23, c24, c25, c30, c34, c35, c36, c37, c39, c43, c46, c47, c49, c53}

