Academic license - for non-commercial use only
Gurobi Optimizer version 9.0.3 build v9.0.3rc0 (linux64)
Optimize a model with 870713 rows, 582806 columns and 6418073 nonzeros
Model fingerprint: 0x1413b869
Variable types: 292252 continuous, 290554 integer (290554 binary)
Coefficient statistics:
  Matrix range     [1e+00, 4e+06]
  Objective range  [3e+01, 6e+02]
  Bounds range     [1e+00, 2e+06]
  RHS range        [1e+00, 2e+06]

Loaded user MIP start with objective 3420

Presolve removed 255847 rows and 163639 columns (presolve time = 5s) ...
Presolve removed 275377 rows and 174759 columns (presolve time = 10s) ...
Presolve removed 277465 rows and 176106 columns (presolve time = 15s) ...
Presolve removed 278731 rows and 177133 columns
Presolve time: 17.61s
Presolved: 591982 rows, 405673 columns, 3119930 nonzeros
Variable types: 0 continuous, 405673 integer (385788 binary)

Root simplex log...

Iteration    Objective       Primal Inf.    Dual Inf.      Time
       0    2.2830000e+04   1.136062e+03   0.000000e+00     21s
   17261    2.2829999e+04   5.075539e+04   0.000000e+00     25s
   25331    2.2769998e+04   1.443340e+05   0.000000e+00     30s
   29687    2.2769997e+04   2.338069e+05   0.000000e+00     35s
   32459    2.2769997e+04   9.235135e+04   0.000000e+00     40s
   34835    2.2769997e+04   9.881062e+04   0.000000e+00     45s
   36815    2.2769997e+04   1.238201e+05   0.000000e+00     50s
   38795    2.2769996e+04   1.033511e+05   0.000000e+00     55s
   41963    2.2769996e+04   5.435649e+04   0.000000e+00     61s
   43547    2.2769996e+04   1.015032e+05   0.000000e+00     65s
   45527    2.2769996e+04   9.477388e+04   0.000000e+00     71s
   47507    2.2769996e+04   6.782868e+04   0.000000e+00     76s
   48695    2.2769996e+04   3.681527e+04   0.000000e+00     80s
   49883    2.2769996e+04   1.619170e+05   0.000000e+00     87s
   50675    2.2769996e+04   5.210784e+04   0.000000e+00     92s
   51467    2.2769996e+04   8.245724e+04   0.000000e+00     97s
   52655    2.2769995e+04   2.292496e+06   0.000000e+00    102s
   53843    2.2769995e+04   3.090802e+05   0.000000e+00    107s
   54635    2.2769995e+04   4.876286e+05   0.000000e+00    113s
   55031    2.2769995e+04   7.020264e+04   0.000000e+00    117s
   55823    2.2769995e+04   6.855327e+04   0.000000e+00    120s
   56615    2.2769995e+04   1.544203e+05   0.000000e+00    125s
   57407    2.2769995e+04   1.176380e+06   0.000000e+00    131s
   58199    2.2769995e+04   1.609923e+06   0.000000e+00    137s
   58991    2.2769995e+04   1.104224e+05   0.000000e+00    142s
   59783    2.2769995e+04   2.666658e+05   0.000000e+00    147s
   60575    2.2769995e+04   7.422268e+05   0.000000e+00    152s
   61763    2.2769995e+04   1.963944e+05   0.000000e+00    159s
   62159    2.2769995e+04   6.752050e+04   0.000000e+00    161s
   62951    2.2769995e+04   7.746602e+04   0.000000e+00    165s
   64139    2.2769995e+04   8.845467e+04   0.000000e+00    172s
   64535    2.2769995e+04   2.483252e+05   0.000000e+00    175s
   65327    2.2769995e+04   1.544671e+05   0.000000e+00    181s
   66119    2.2769995e+04   1.402571e+06   0.000000e+00    185s
   66911    2.2769995e+04   3.567181e+05   0.000000e+00    191s
   67703    2.2769995e+04   1.546448e+06   0.000000e+00    196s
   68891    2.2769995e+04   4.457452e+04   0.000000e+00    201s
   69683    2.2769995e+04   3.397437e+04   0.000000e+00    206s
   70475    2.2769994e+04   1.581942e+05   0.000000e+00    210s
   71267    2.2769994e+04   1.513612e+05   0.000000e+00    216s
   72059    2.2769994e+04   1.001351e+05   0.000000e+00    222s
   72455    2.2769994e+04   2.287994e+06   0.000000e+00    225s
   73247    2.2769994e+04   2.646795e+05   0.000000e+00    230s
   74039    2.2769994e+04   1.138645e+05   0.000000e+00    235s
   74831    2.2769994e+04   6.322104e+04   0.000000e+00    241s
   75623    2.2769994e+04   1.254806e+05   0.000000e+00    247s
   76019    2.2769994e+04   1.060188e+06   0.000000e+00    250s
   76811    2.2769994e+04   1.319405e+05   0.000000e+00    256s
   77603    2.2769994e+04   6.206399e+04   0.000000e+00    261s
   78395    2.2769994e+04   2.628222e+05   0.000000e+00    265s
   79187    2.2769994e+04   4.539210e+04   0.000000e+00    271s
   79979    2.2769994e+04   7.466628e+04   0.000000e+00    277s
   80771    2.2769994e+04   2.114107e+05   0.000000e+00    281s
   81563    2.2769994e+04   6.149047e+04   0.000000e+00    286s
   82355    2.2769994e+04   5.493801e+04   0.000000e+00    290s
   83147    2.2769994e+04   1.475185e+05   0.000000e+00    296s
   83543    2.2769994e+04   8.325173e+05   0.000000e+00    300s
   84335    2.2769994e+04   1.242098e+05   0.000000e+00    307s
   84731    2.2769994e+04   3.866711e+05   0.000000e+00    311s
   85127    2.2769994e+04   1.591170e+05   0.000000e+00    315s
   85919    2.2769994e+04   1.090428e+05   0.000000e+00    323s
   86315    2.2769994e+04   7.647891e+04   0.000000e+00    327s
   87107    2.2769994e+04   2.869632e+05   0.000000e+00    333s
   87503    2.2769994e+04   7.946092e+04   0.000000e+00    336s
   88295    2.2769994e+04   8.159690e+04   0.000000e+00    342s
   88691    2.2769994e+04   6.072032e+04   0.000000e+00    346s
   89483    2.2769994e+04   2.195199e+05   0.000000e+00    353s
   89879    2.2769994e+04   1.072185e+06   0.000000e+00    357s
   90275    2.2769994e+04   8.121569e+04   0.000000e+00    361s
   90671    2.2769994e+04   5.802166e+04   0.000000e+00    365s
   91463    2.2769994e+04   6.723392e+04   0.000000e+00    373s
   91859    2.2769994e+04   1.102906e+05   0.000000e+00    378s
   92255    2.2769994e+04   5.763893e+05   0.000000e+00    381s
   93047    2.2769993e+04   4.459567e+05   0.000000e+00    387s
   93443    2.2769993e+04   2.346567e+05   0.000000e+00    392s
   93839    2.2769993e+04   2.592218e+05   0.000000e+00    397s
   94235    2.2769993e+04   1.203373e+05   0.000000e+00    401s
   95027    2.2769993e+04   2.092070e+05   0.000000e+00    409s
   95423    2.2769993e+04   5.141541e+05   0.000000e+00    412s
   95819    2.2769993e+04   2.987665e+05   0.000000e+00    417s
   96215    2.2769993e+04   2.860731e+05   0.000000e+00    421s
   97007    2.2769993e+04   8.409601e+04   0.000000e+00    428s
   97403    2.2769993e+04   1.088168e+05   0.000000e+00    431s
   97799    2.2769993e+04   9.711190e+05   0.000000e+00    435s
   98591    2.2769993e+04   9.466810e+04   0.000000e+00    442s
   98987    2.2769993e+04   1.893142e+05   0.000000e+00    446s
   99779    2.2769993e+04   9.439840e+05   0.000000e+00    453s
  100175    2.2769993e+04   1.074516e+05   0.000000e+00    456s
  100967    2.2769993e+04   8.452571e+04   0.000000e+00    461s
  101363    2.2769993e+04   4.922805e+05   0.000000e+00    466s
  102155    2.2769993e+04   9.894842e+04   0.000000e+00    471s
  102551    2.2769993e+04   9.772961e+04   0.000000e+00    476s
  102947    2.2769993e+04   4.594347e+05   0.000000e+00    480s
  103343    2.2769993e+04   2.248047e+05   0.000000e+00    485s
  104135    2.2769993e+04   5.876484e+05   0.000000e+00    494s
  104531    2.2769993e+04   7.161010e+05   0.000000e+00    498s
  104927    2.2769993e+04   3.124995e+05   0.000000e+00    502s
  105323    2.2769993e+04   6.924477e+05   0.000000e+00    506s
  106115    2.2769993e+04   2.467590e+05   0.000000e+00    513s
  106511    2.2769993e+04   2.600755e+05   0.000000e+00    517s
  106907    2.2769993e+04   1.547276e+05   0.000000e+00    522s
  107303    2.2769993e+04   5.870132e+05   0.000000e+00    526s
  108095    2.2769993e+04   1.634460e+05   0.000000e+00    535s
  108491    2.2769993e+04   8.052449e+04   0.000000e+00    538s
  108887    2.2769993e+04   7.125445e+04   0.000000e+00    543s
  109283    2.2769993e+04   1.832661e+05   0.000000e+00    548s
  109679    2.2769993e+04   2.839672e+05   0.000000e+00    552s
  110471    2.2769993e+04   2.771553e+05   0.000000e+00    558s
  110867    2.2769993e+04   7.112246e+05   0.000000e+00    562s
  111263    2.2769993e+04   1.832431e+06   0.000000e+00    567s
  111659    2.2769993e+04   5.708509e+05   0.000000e+00    572s
  112029    2.2769993e+04   4.301224e+05   0.000000e+00    578s
  112369    2.2769993e+04   7.215124e+05   0.000000e+00    583s
  112765    2.2769993e+04   2.359916e+06   0.000000e+00    589s
  113161    2.2769993e+04   3.159942e+06   0.000000e+00    592s
  113511    2.2769993e+04   2.802875e+05   0.000000e+00    598s
  113841    2.2769993e+04   8.929944e+05   0.000000e+00    604s
  114191    2.2769993e+04   5.477890e+05   0.000000e+00    610s
  114551    2.2769993e+04   3.985061e+06   0.000000e+00    615s
  114891    2.2769993e+04   2.826238e+05   0.000000e+00    621s
  115241    2.2769993e+04   1.787236e+06   0.000000e+00    627s
  115581    2.2769993e+04   1.708424e+05   0.000000e+00    633s
  115911    2.2769993e+04   8.401835e+05   0.000000e+00    639s
  116241    2.2769993e+04   1.114851e+06   0.000000e+00    645s
  116551    2.2769992e+04   6.798630e+05   0.000000e+00    651s
  116881    2.2769992e+04   2.417406e+05   0.000000e+00    657s
  117221    2.2769992e+04   6.499191e+05   0.000000e+00    663s
  117571    2.2769992e+04   4.256863e+05   0.000000e+00    668s
  117931    2.2769992e+04   1.967421e+05   0.000000e+00    674s
  118327    2.2769992e+04   3.304985e+05   0.000000e+00    680s
  118647    2.2769992e+04   7.789493e+04   0.000000e+00    686s
  119037    2.2769992e+04   7.014044e+05   0.000000e+00    692s
  119387    2.2769992e+04   2.987830e+05   0.000000e+00    698s
  119737    2.2769992e+04   1.456868e+06   0.000000e+00    703s
  120057    2.2769992e+04   2.615262e+05   0.000000e+00    709s
  120387    2.2769992e+04   1.782818e+05   0.000000e+00    715s
  120697    2.2769992e+04   6.167353e+05   0.000000e+00    721s
  121017    2.2769992e+04   1.460437e+05   0.000000e+00    726s
  121337    2.2769992e+04   4.186049e+05   0.000000e+00    732s
  121733    2.2769992e+04   9.341876e+05   0.000000e+00    737s
  122083    2.2769992e+04   3.260990e+05   0.000000e+00    742s
  122479    2.2769992e+04   9.137279e+05   0.000000e+00    747s
  122875    2.2769992e+04   7.747216e+05   0.000000e+00    753s
  123195    2.2769992e+04   1.899600e+06   0.000000e+00    758s
  123505    2.2769992e+04   1.496061e+05   0.000000e+00    764s
  123875    2.2769992e+04   2.163500e+05   0.000000e+00    770s
  124271    2.2769992e+04   2.814631e+06   0.000000e+00    775s
  124667    2.2769992e+04   5.278762e+05   0.000000e+00    778s
  125063    2.2769992e+04   8.423993e+05   0.000000e+00    783s
  125443    2.2769992e+04   1.503361e+06   0.000000e+00    789s
  125793    2.2769992e+04   1.653901e+07   0.000000e+00    795s
  126189    2.2709992e+04   2.333485e+05   0.000000e+00    799s
  126529    2.2649992e+04   8.935394e+05   0.000000e+00    805s
  126869    2.2649992e+04   1.893085e+06   0.000000e+00    811s
  127179    2.2649992e+04   3.931059e+05   0.000000e+00    817s
  127489    2.2649992e+04   9.696643e+05   0.000000e+00    822s
  127799    2.2649992e+04   4.418900e+06   0.000000e+00    828s
  128129    2.2649992e+04   9.076169e+05   0.000000e+00    834s
  128449    2.2649992e+04   1.528380e+05   0.000000e+00    840s
  128749    2.2649992e+04   6.657138e+05   0.000000e+00    845s
  129049    2.2649992e+04   1.258644e+05   0.000000e+00    851s
  129389    2.2649992e+04   1.371862e+06   0.000000e+00    857s
  129709    2.2649992e+04   4.805966e+05   0.000000e+00    863s
  130049    2.2649992e+04   1.044045e+06   0.000000e+00    868s
  130359    2.2649992e+04   6.697455e+05   0.000000e+00    874s
  130659    2.2649992e+04   8.533989e+05   0.000000e+00    880s
  130969    2.2649992e+04   1.216911e+05   0.000000e+00    886s
  131269    2.2649992e+04   1.736622e+05   0.000000e+00    892s
  131589    2.2649992e+04   7.038104e+05   0.000000e+00    898s
  131985    2.2649992e+04   1.887958e+06   0.000000e+00    902s
  132381    2.2649992e+04   2.562911e+05   0.000000e+00    908s
  132711    2.2649992e+04   7.966287e+05   0.000000e+00    914s
  133021    2.2649992e+04   1.402662e+05   0.000000e+00    920s
  133331    2.2649992e+04   2.021729e+05   0.000000e+00    926s
  133641    2.2649992e+04   7.578122e+05   0.000000e+00    932s
  133981    2.2649992e+04   3.981453e+05   0.000000e+00    938s
  134341    2.2649992e+04   1.891798e+06   0.000000e+00    943s
  134651    2.2649992e+04   7.898662e+05   0.000000e+00    949s
  134961    2.2649992e+04   2.780444e+05   0.000000e+00    955s
  135261    2.2649991e+04   1.903941e+06   0.000000e+00    961s
  135561    2.2649991e+04   7.413093e+05   0.000000e+00    967s
  135861    2.2649991e+04   1.730373e+05   0.000000e+00    973s
  136201    2.2649991e+04   1.055603e+06   0.000000e+00    979s
  136501    2.2649991e+04   3.835578e+05   0.000000e+00    985s
  136801    2.2649991e+04   4.869178e+05   0.000000e+00    991s
  137111    2.2649991e+04   2.665942e+05   0.000000e+00    997s
  137421    2.2649991e+04   9.959418e+04   0.000000e+00   1003s
  137721    2.2649991e+04   5.065988e+05   0.000000e+00   1009s
  138021    2.2649991e+04   1.354012e+05   0.000000e+00   1015s
  138331    2.2649991e+04   2.122851e+05   0.000000e+00   1021s
  138631    2.2649991e+04   1.771020e+05   0.000000e+00   1027s
  138921    2.2649991e+04   1.665064e+05   0.000000e+00   1033s
  139231    2.2649991e+04   6.093508e+05   0.000000e+00   1039s
  139521    2.2649991e+04   8.589408e+05   0.000000e+00   1046s
  139801    2.2649991e+04   2.895440e+05   0.000000e+00   1052s
  140111    2.2649991e+04   2.672973e+05   0.000000e+00   1058s
  140411    2.2649991e+04   5.610817e+05   0.000000e+00   1064s
  140711    2.2649991e+04   1.483472e+05   0.000000e+00   1070s
  141031    2.2649991e+04   2.477705e+05   0.000000e+00   1076s
  141341    2.2649991e+04   7.850396e+05   0.000000e+00   1082s
  141631    2.2649991e+04   1.335292e+05   0.000000e+00   1088s
  141951    2.2649991e+04   1.661810e+06   0.000000e+00   1094s
  142291    2.2649991e+04   4.253982e+05   0.000000e+00   1100s
  142621    2.2649991e+04   2.409764e+05   0.000000e+00   1106s
  142941    2.2649991e+04   9.409815e+05   0.000000e+00   1112s
  143337    2.2649991e+04   3.147518e+06   0.000000e+00   1117s
  143637    2.2649991e+04   2.040054e+05   0.000000e+00   1123s
  143927    2.2649991e+04   2.382433e+05   0.000000e+00   1129s
  144217    2.2649991e+04   8.654375e+05   0.000000e+00   1135s
  144517    2.2649991e+04   6.101568e+05   0.000000e+00   1141s
  144817    2.2649991e+04   1.179544e+07   0.000000e+00   1147s
  145137    2.2649991e+04   2.971045e+05   0.000000e+00   1154s
  145467    2.2649991e+04   5.311129e+05   0.000000e+00   1160s
  145787    2.2649991e+04   4.074365e+05   0.000000e+00   1166s
  146067    2.2649991e+04   2.551293e+05   0.000000e+00   1172s
  146417    2.2649991e+04   9.487780e+05   0.000000e+00   1177s
  146737    2.2649991e+04   1.843861e+06   0.000000e+00   1184s
  147037    2.2649991e+04   3.176107e+05   0.000000e+00   1190s
  147327    2.2649991e+04   1.335516e+06   0.000000e+00   1196s
  147617    2.2649991e+04   2.046780e+06   0.000000e+00   1202s
  147947    2.2649991e+04   2.885826e+06   0.000000e+00   1208s
  148237    2.2649991e+04   5.899251e+05   0.000000e+00   1214s
  148547    2.2649991e+04   7.127020e+05   0.000000e+00   1220s
  148857    2.2649991e+04   1.456014e+05   0.000000e+00   1226s
  149147    2.2649991e+04   1.606452e+05   0.000000e+00   1232s
  149437    2.2649991e+04   1.075403e+05   0.000000e+00   1238s
  149717    2.2649991e+04   9.580990e+04   0.000000e+00   1244s
  150007    2.2649991e+04   9.589348e+05   0.000000e+00   1251s
  150297    2.2649991e+04   6.310054e+05   0.000000e+00   1257s
  150587    2.2649991e+04   3.237308e+05   0.000000e+00   1263s
  150867    2.2649991e+04   1.604427e+05   0.000000e+00   1269s
  151147    2.2649990e+04   1.094975e+07   0.000000e+00   1276s
  151427    2.2649990e+04   6.305461e+05   0.000000e+00   1282s
  151737    2.2649990e+04   5.689996e+04   0.000000e+00   1288s
  152047    2.2649990e+04   1.025225e+05   0.000000e+00   1294s
  152347    2.2649990e+04   1.116109e+05   0.000000e+00   1300s
  152647    2.2649990e+04   4.895707e+05   0.000000e+00   1307s
  152947    2.2649990e+04   2.337136e+05   0.000000e+00   1313s
  153237    2.2649990e+04   2.383219e+05   0.000000e+00   1320s
  153527    2.2649990e+04   2.894685e+05   0.000000e+00   1326s
  153827    2.2649990e+04   3.508004e+05   0.000000e+00   1333s
  154117    2.2649990e+04   2.071327e+05   0.000000e+00   1339s
  154437    2.2649990e+04   3.163045e+05   0.000000e+00   1346s
  154717    2.2649990e+04   4.478372e+05   0.000000e+00   1352s
  155007    2.2649990e+04   7.780268e+05   0.000000e+00   1359s
  155347    2.2649990e+04   6.987310e+05   0.000000e+00   1365s
  155743    2.2649990e+04   1.113055e+06   0.000000e+00   1370s
  156063    2.2649990e+04   5.691678e+06   0.000000e+00   1377s
  156353    2.2649990e+04   1.127461e+06   0.000000e+00   1383s
  156653    2.2649990e+04   1.477921e+06   0.000000e+00   1390s
  156943    2.2649990e+04   4.354086e+05   0.000000e+00   1396s
  157233    2.2649990e+04   6.873368e+05   0.000000e+00   1403s
  157523    2.2649990e+04   3.431590e+06   0.000000e+00   1409s
  157843    2.2649990e+04   2.525380e+05   0.000000e+00   1416s
  158233    2.2649990e+04   5.025754e+05   0.000000e+00   1422s
  158573    2.2649990e+04   4.316874e+05   0.000000e+00   1429s
  158863    2.2649990e+04   3.391226e+05   0.000000e+00   1435s
  159183    2.2649990e+04   2.931437e+05   0.000000e+00   1441s
  159463    2.2649990e+04   1.592286e+05   0.000000e+00   1448s
  159753    2.2649990e+04   7.367292e+05   0.000000e+00   1454s
  160023    2.2649990e+04   2.984985e+05   0.000000e+00   1461s
  160303    2.2649990e+04   6.015768e+05   0.000000e+00   1467s
  160583    2.2649990e+04   8.344521e+05   0.000000e+00   1474s
  160873    2.2649990e+04   6.487964e+06   0.000000e+00   1480s
  161183    2.2649990e+04   9.695397e+06   0.000000e+00   1486s
  161463    2.2649990e+04   4.048153e+05   0.000000e+00   1492s
  161743    2.2649990e+04   3.357647e+05   0.000000e+00   1499s
  162063    2.2649990e+04   1.066071e+06   0.000000e+00   1506s
  162333    2.2649990e+04   1.802513e+06   0.000000e+00   1512s
  162603    2.2649990e+04   5.130316e+05   0.000000e+00   1519s
  162893    2.2649990e+04   1.149918e+06   0.000000e+00   1525s
  163283    2.2649990e+04   2.625994e+05   0.000000e+00   1531s
  163563    2.2649990e+04   1.051005e+06   0.000000e+00   1538s
  163843    2.2649990e+04   1.889142e+06   0.000000e+00   1544s
  164123    2.2649990e+04   1.875223e+06   0.000000e+00   1551s
  164413    2.2649990e+04   1.773473e+06   0.000000e+00   1557s
  164683    2.2649990e+04   1.866874e+06   0.000000e+00   1563s
  164963    2.2649990e+04   1.117381e+06   0.000000e+00   1569s
  165233    2.2649990e+04   8.443788e+05   0.000000e+00   1576s
  165513    2.2649990e+04   1.731822e+06   0.000000e+00   1582s
  165783    2.2649990e+04   5.604254e+05   0.000000e+00   1589s
  166083    2.2649990e+04   5.170007e+05   0.000000e+00   1595s
  166363    2.2649990e+04   3.415150e+05   0.000000e+00   1602s
  166643    2.2649990e+04   3.333862e+05   0.000000e+00   1608s
  166913    2.2649990e+04   1.767359e+05   0.000000e+00   1615s
  167193    2.2649990e+04   5.588755e+05   0.000000e+00   1621s
  167463    2.2649990e+04   2.479996e+05   0.000000e+00   1627s
  167733    2.2649990e+04   3.673739e+05   0.000000e+00   1634s
  168003    2.2649990e+04   2.232045e+05   0.000000e+00   1641s
  168273    2.2649990e+04   1.422965e+06   0.000000e+00   1647s
  168543    2.2649990e+04   2.058142e+05   0.000000e+00   1653s
  168813    2.2649990e+04   2.468229e+05   0.000000e+00   1660s
  169093    2.2649989e+04   3.926447e+05   0.000000e+00   1666s
  169363    2.2649989e+04   7.341398e+05   0.000000e+00   1673s
  169663    2.2649989e+04   3.037426e+05   0.000000e+00   1679s
  169933    2.2649989e+04   1.388306e+05   0.000000e+00   1686s
  170203    2.2649989e+04   7.638146e+05   0.000000e+00   1692s
  170493    2.2649989e+04   1.824951e+05   0.000000e+00   1699s
  170773    2.2649989e+04   4.058193e+05   0.000000e+00   1706s
  171043    2.2649989e+04   2.814564e+05   0.000000e+00   1712s
  171313    2.2649989e+04   2.523008e+05   0.000000e+00   1719s
  171583    2.2649989e+04   1.644623e+05   0.000000e+00   1726s
  171863    2.2649989e+04   1.809742e+05   0.000000e+00   1732s
  172143    2.2649989e+04   1.903852e+05   0.000000e+00   1739s
  172413    2.2649989e+04   8.356791e+05   0.000000e+00   1745s
  172733    2.2649989e+04   1.032137e+07   0.000000e+00   1752s
  173123    2.2649989e+04   3.690459e+05   0.000000e+00   1758s
  173519    2.2649989e+04   5.887907e+05   0.000000e+00   1764s
  173915    2.2649989e+04   4.466226e+05   0.000000e+00   1769s
  174311    2.2649989e+04   2.706982e+05   0.000000e+00   1775s
  174707    2.2649989e+04   2.163876e+05   0.000000e+00   1781s
  175103    2.2649989e+04   5.907232e+05   0.000000e+00   1786s
  175499    2.2649988e+04   6.039810e+05   0.000000e+00   1792s
  175869    2.2649988e+04   3.655544e+06   0.000000e+00   1799s
  176259    2.2649987e+04   6.015667e+06   0.000000e+00   1805s
  176609    2.2649987e+04   1.845135e+06   0.000000e+00   1811s
  176909    2.2649987e+04   4.976180e+05   0.000000e+00   1818s
  177229    2.2649987e+04   7.256485e+05   0.000000e+00   1824s
  177549    2.2649986e+04   1.204784e+06   0.000000e+00   1830s
  177869    2.2649986e+04   5.998784e+05   0.000000e+00   1837s
  178159    2.2649986e+04   3.420161e+05   0.000000e+00   1843s
  178489    2.2649986e+04   1.013764e+06   0.000000e+00   1849s
  178809    2.2649986e+04   6.340673e+05   0.000000e+00   1856s
  179099    2.2649986e+04   2.420680e+05   0.000000e+00   1862s
  179399    2.2649986e+04   2.004487e+05   0.000000e+00   1869s
  179719    2.2649986e+04   1.078269e+06   0.000000e+00   1875s
  180069    2.2649986e+04   4.072348e+05   0.000000e+00   1881s
  180379    2.2649986e+04   1.978125e+05   0.000000e+00   1888s
  180669    2.2649986e+04   1.978140e+05   0.000000e+00   1894s
  180989    2.2649985e+04   1.268344e+06   0.000000e+00   1901s
  181349    2.2649985e+04   5.368971e+05   0.000000e+00   1908s
  181649    2.2649985e+04   2.443494e+05   0.000000e+00   1914s
  181929    2.2649985e+04   2.633794e+06   0.000000e+00   1921s
  182209    2.2649985e+04   3.066145e+06   0.000000e+00   1927s
  182499    2.2649985e+04   1.820353e+06   0.000000e+00   1934s
  182779    2.2649985e+04   5.928472e+05   0.000000e+00   1940s
  183079    2.2649985e+04   7.303157e+05   0.000000e+00   1947s
  183389    2.2649985e+04   2.603331e+05   0.000000e+00   1953s
  183689    2.2649985e+04   1.923162e+06   0.000000e+00   1959s
  184009    2.2649985e+04   2.024489e+05   0.000000e+00   1966s
  184309    2.2649985e+04   5.593646e+05   0.000000e+00   1972s
  184619    2.2649984e+04   5.350622e+05   0.000000e+00   1978s
  184909    2.2649984e+04   3.103795e+05   0.000000e+00   1985s
  185189    2.2649984e+04   1.396953e+06   0.000000e+00   1992s
  185489    2.2649984e+04   1.467810e+06   0.000000e+00   1998s
  185779    2.2649984e+04   8.166815e+05   0.000000e+00   2005s
  186049    2.2649984e+04   1.277577e+05   0.000000e+00   2013s
  186349    2.2649984e+04   2.429206e+05   0.000000e+00   2022s
  186639    2.2649984e+04   4.365288e+05   0.000000e+00   2031s
  186949    2.2649984e+04   6.152884e+05   0.000000e+00   2040s
  187249    2.2649984e+04   1.078046e+06   0.000000e+00   2050s
  187559    2.2649984e+04   2.184630e+05   0.000000e+00   2059s
  187859    2.2649984e+04   1.484973e+06   0.000000e+00   2067s
  188149    2.2649984e+04   2.835864e+05   0.000000e+00   2073s
  188439    2.2649984e+04   2.323351e+05   0.000000e+00   2080s
  188739    2.2649984e+04   1.325288e+06   0.000000e+00   2086s
  189029    2.2649984e+04   2.124080e+05   0.000000e+00   2092s
  189339    2.2649984e+04   3.995683e+05   0.000000e+00   2099s
  189649    2.2649984e+04   1.607015e+07   0.000000e+00   2105s
  189949    2.2649983e+04   3.691995e+05   0.000000e+00   2111s
  190229    2.2649983e+04   4.815235e+05   0.000000e+00   2118s
  190559    2.2649983e+04   4.941950e+05   0.000000e+00   2124s
  190839    2.2649983e+04   3.430263e+06   0.000000e+00   2131s
  191139    2.2649983e+04   3.728783e+05   0.000000e+00   2137s
  191419    2.2649983e+04   3.870674e+05   0.000000e+00   2144s
  191679    2.2649983e+04   3.645551e+05   0.000000e+00   2150s
  191959    2.2649983e+04   3.640838e+05   0.000000e+00   2157s
  192249    2.2649983e+04   1.242511e+05   0.000000e+00   2163s
  192509    2.2649983e+04   3.674470e+05   0.000000e+00   2170s
  192809    2.2649983e+04   2.301597e+06   0.000000e+00   2176s
  193139    2.2649983e+04   3.355687e+05   0.000000e+00   2183s
  193429    2.2649983e+04   3.944496e+05   0.000000e+00   2189s
  193739    2.2649983e+04   7.223881e+05   0.000000e+00   2196s
  194019    2.2649983e+04   6.867434e+05   0.000000e+00   2202s
  194309    2.2649983e+04   1.363289e+05   0.000000e+00   2209s
  194599    2.2649983e+04   2.298333e+05   0.000000e+00   2215s
  194869    2.2649983e+04   2.419465e+05   0.000000e+00   2221s
  195169    2.2649983e+04   3.568302e+05   0.000000e+00   2228s
  195449    2.2649983e+04   1.156526e+05   0.000000e+00   2234s
  195729    2.2649982e+04   1.742418e+05   0.000000e+00   2240s
  196029    2.2649982e+04   4.692029e+05   0.000000e+00   2247s
  196339    2.2649982e+04   3.535455e+06   0.000000e+00   2253s
  196599    2.2649982e+04   7.294930e+05   0.000000e+00   2260s
  196859    2.2649982e+04   9.236019e+05   0.000000e+00   2267s
  197169    2.2649982e+04   2.356831e+06   0.000000e+00   2273s
  197449    2.2649982e+04   3.258474e+05   0.000000e+00   2280s
  197729    2.2649982e+04   1.157437e+05   0.000000e+00   2286s
  197999    2.2649982e+04   3.861669e+05   0.000000e+00   2293s
  198289    2.2649982e+04   8.038021e+05   0.000000e+00   2299s
  198609    2.2649982e+04   5.159430e+05   0.000000e+00   2305s
  198889    2.2649982e+04   1.247696e+05   0.000000e+00   2312s
  199159    2.2649982e+04   6.784965e+05   0.000000e+00   2318s
  199469    2.2649982e+04   1.792735e+05   0.000000e+00   2325s
  199779    2.2649982e+04   2.502370e+05   0.000000e+00   2331s
  200049    2.2649982e+04   2.227723e+05   0.000000e+00   2338s
  200309    2.2649982e+04   3.106391e+05   0.000000e+00   2344s
  200599    2.2649982e+04   1.842509e+05   0.000000e+00   2351s
  200849    2.2649982e+04   3.345342e+06   0.000000e+00   2358s
  201169    2.2649982e+04   2.445062e+05   0.000000e+00   2364s
  201419    2.2649982e+04   1.901352e+05   0.000000e+00   2371s
  201729    2.2649981e+04   3.075101e+05   0.000000e+00   2377s
  202059    2.2649981e+04   3.767366e+05   0.000000e+00   2384s
  202339    2.2649981e+04   1.913083e+05   0.000000e+00   2391s
  202639    2.2649981e+04   6.933959e+05   0.000000e+00   2397s
  202899    2.2649981e+04   4.564038e+05   0.000000e+00   2404s
  203169    2.2649981e+04   2.829835e+06   0.000000e+00   2410s
  203429    2.2649981e+04   5.479834e+05   0.000000e+00   2417s
  203679    2.2649981e+04   1.298713e+06   0.000000e+00   2424s
  203929    2.2649981e+04   3.198878e+05   0.000000e+00   2430s
  204239    2.2649981e+04   9.936096e+05   0.000000e+00   2437s
  204519    2.2649981e+04   1.026303e+06   0.000000e+00   2444s
  204789    2.2649981e+04   2.862317e+05   0.000000e+00   2450s
  205049    2.2649981e+04   5.506197e+05   0.000000e+00   2457s
  205339    2.2649981e+04   5.773916e+06   0.000000e+00   2463s
  205609    2.2649981e+04   1.351740e+06   0.000000e+00   2470s
  205869    2.2649981e+04   1.338582e+05   0.000000e+00   2477s
  206119    2.2649981e+04   1.431023e+05   0.000000e+00   2484s
  206369    2.2649981e+04   3.452686e+05   0.000000e+00   2490s
  206639    2.2649981e+04   9.551063e+05   0.000000e+00   2497s
  206929    2.2649981e+04   3.711307e+05   0.000000e+00   2504s
  207229    2.2649981e+04   2.999054e+05   0.000000e+00   2510s
  207489    2.2649981e+04   2.537384e+05   0.000000e+00   2517s
  207769    2.2649981e+04   5.846953e+05   0.000000e+00   2524s
  208039    2.2649980e+04   2.437617e+05   0.000000e+00   2531s
  208299    2.2649980e+04   4.456937e+05   0.000000e+00   2538s
  208589    2.2649980e+04   2.991395e+05   0.000000e+00   2545s
  208849    2.2649980e+04   1.097526e+05   0.000000e+00   2551s
  209189    2.2649980e+04   2.137318e+06   0.000000e+00   2558s
  209439    2.2649980e+04   4.637028e+05   0.000000e+00   2565s
  209679    2.2649980e+04   2.905561e+05   0.000000e+00   2572s
  209939    2.2649980e+04   4.355520e+05   0.000000e+00   2578s
  210189    2.2649980e+04   1.305167e+06   0.000000e+00   2585s
  210489    2.2649980e+04   1.299121e+05   0.000000e+00   2592s
  210749    2.2649980e+04   1.749571e+05   0.000000e+00   2599s
  210989    2.2649980e+04   7.387356e+05   0.000000e+00   2605s
  211269    2.2649980e+04   5.891314e+05   0.000000e+00   2612s
  211539    2.2649980e+04   2.173904e+06   0.000000e+00   2619s
  211799    2.2649980e+04   1.592693e+06   0.000000e+00   2626s
  212059    2.2649980e+04   1.544535e+05   0.000000e+00   2633s
  212319    2.2649980e+04   1.451755e+06   0.000000e+00   2639s
  212619    2.2649980e+04   1.349814e+05   0.000000e+00   2646s
  212909    2.2649980e+04   3.901046e+05   0.000000e+00   2653s
  213209    2.2649980e+04   8.435598e+05   0.000000e+00   2659s
  213459    2.2649980e+04   4.526234e+06   0.000000e+00   2666s
  213709    2.2649980e+04   4.004262e+05   0.000000e+00   2673s
  213949    2.2649980e+04   1.422674e+05   0.000000e+00   2680s
  214199    2.2649980e+04   1.296914e+05   0.000000e+00   2687s
  214439    2.2649980e+04   3.921976e+05   0.000000e+00   2694s
  214689    2.2649980e+04   8.072968e+05   0.000000e+00   2700s
  214979    2.2649980e+04   6.292584e+05   0.000000e+00   2708s
  215219    2.2649980e+04   3.417225e+05   0.000000e+00   2715s
  215469    2.2649979e+04   4.496832e+05   0.000000e+00   2722s
  215739    2.2649979e+04   4.235589e+05   0.000000e+00   2729s
  216029    2.2649979e+04   2.645259e+05   0.000000e+00   2737s
  216279    2.2649979e+04   6.531105e+05   0.000000e+00   2744s
  216539    2.2649979e+04   1.023348e+05   0.000000e+00   2751s
  216869    2.2649979e+04   2.800225e+05   0.000000e+00   2758s
  217129    2.2649979e+04   1.957979e+06   0.000000e+00   2765s
  217399    2.2649979e+04   1.366355e+05   0.000000e+00   2772s
  217659    2.2649979e+04   7.828934e+05   0.000000e+00   2779s
  217899    2.2649979e+04   1.945252e+05   0.000000e+00   2786s
  218169    2.2649979e+04   4.311711e+05   0.000000e+00   2793s
  218479    2.2649979e+04   5.145341e+05   0.000000e+00   2800s
  218729    2.2649979e+04   1.299654e+05   0.000000e+00   2808s
  218969    2.2649979e+04   3.727448e+05   0.000000e+00   2815s
  219219    2.2649979e+04   1.233425e+06   0.000000e+00   2822s
  219459    2.2649979e+04   1.285970e+06   0.000000e+00   2829s
  219719    2.2649979e+04   1.588005e+06   0.000000e+00   2836s
  220009    2.2649979e+04   1.437184e+05   0.000000e+00   2843s
  220279    2.2649979e+04   2.248679e+05   0.000000e+00   2850s
  220529    2.2649979e+04   4.102436e+05   0.000000e+00   2857s
  220829    2.2649979e+04   4.331103e+05   0.000000e+00   2864s
  221129    2.2649979e+04   2.603484e+05   0.000000e+00   2872s
  221419    2.2649979e+04   2.838032e+05   0.000000e+00   2879s
  221689    2.2649979e+04   1.872118e+05   0.000000e+00   2886s
  221929    2.2649979e+04   4.295823e+05   0.000000e+00   2893s
  222209    2.2649979e+04   7.663635e+05   0.000000e+00   2900s
  222469    2.2649979e+04   6.427838e+05   0.000000e+00   2908s
  222719    2.2649979e+04   5.792097e+05   0.000000e+00   2915s
  222959    2.2649979e+04   8.801629e+05   0.000000e+00   2923s
  223259    2.2649978e+04   1.936929e+05   0.000000e+00   2930s
  223499    2.2649978e+04   3.606340e+05   0.000000e+00   2937s
  223749    2.2649978e+04   4.381481e+06   0.000000e+00   2944s
  223999    2.2649978e+04   9.309996e+05   0.000000e+00   2951s
  224239    2.2649978e+04   1.562520e+05   0.000000e+00   2959s
  224489    2.2649978e+04   1.981797e+05   0.000000e+00   2966s
  224739    2.2649978e+04   2.269380e+05   0.000000e+00   2973s
  224989    2.2649978e+04   1.092335e+06   0.000000e+00   2980s
  225229    2.2649978e+04   1.079326e+06   0.000000e+00   2988s
  225469    2.2649978e+04   1.104849e+05   0.000000e+00   2995s
  225709    2.2649978e+04   3.597028e+05   0.000000e+00   3002s
  225999    2.2649978e+04   6.192699e+05   0.000000e+00   3009s
  226279    2.2649978e+04   5.518491e+05   0.000000e+00   3016s
  226589    2.2649978e+04   8.402880e+04   0.000000e+00   3023s
  226849    2.2649978e+04   1.115490e+06   0.000000e+00   3030s
  227089    2.2649978e+04   1.514393e+06   0.000000e+00   3038s
  227329    2.2649978e+04   3.255517e+05   0.000000e+00   3045s
  227639    2.2649978e+04   3.903710e+06   0.000000e+00   3052s
  227919    2.2649978e+04   3.133958e+05   0.000000e+00   3059s
  228169    2.2649978e+04   2.024752e+05   0.000000e+00   3066s
  228439    2.2649978e+04   3.266665e+05   0.000000e+00   3073s
  228689    2.2649978e+04   7.145793e+05   0.000000e+00   3081s
  228949    2.2649978e+04   2.504880e+05   0.000000e+00   3088s
  229209    2.2649978e+04   8.491989e+05   0.000000e+00   3095s
  229459    2.2649978e+04   7.772075e+05   0.000000e+00   3103s
  229699    2.2649978e+04   1.928982e+05   0.000000e+00   3110s
  229939    2.2649978e+04   7.766646e+05   0.000000e+00   3117s
  230179    2.2649978e+04   5.367045e+05   0.000000e+00   3125s
  230449    2.2649978e+04   1.246880e+06   0.000000e+00   3132s
  230699    2.2649977e+04   2.820376e+05   0.000000e+00   3139s
  230939    2.2649977e+04   3.256782e+05   0.000000e+00   3147s
  231179    2.2649977e+04   1.492505e+05   0.000000e+00   3154s
  231419    2.2649977e+04   3.097591e+05   0.000000e+00   3161s
  231659    2.2649977e+04   1.285167e+06   0.000000e+00   3168s
  231909    2.2649977e+04   2.536133e+05   0.000000e+00   3176s
  232159    2.2649977e+04   2.692685e+05   0.000000e+00   3183s
  232419    2.2649977e+04   4.553472e+05   0.000000e+00   3191s
  232709    2.2649977e+04   3.553808e+05   0.000000e+00   3198s
  232999    2.2649977e+04   4.677278e+05   0.000000e+00   3206s
  233239    2.2649977e+04   1.928488e+05   0.000000e+00   3214s
  233519    2.2649977e+04   2.613306e+05   0.000000e+00   3221s
  233849    2.2649977e+04   4.807135e+05   0.000000e+00   3229s
  234119    2.2649977e+04   2.498007e+05   0.000000e+00   3236s
  234399    2.2649977e+04   2.567847e+06   0.000000e+00   3244s
  234689    2.2649977e+04   2.151300e+05   0.000000e+00   3252s
  234959    2.2649977e+04   4.790555e+05   0.000000e+00   3259s
  235209    2.2649977e+04   1.693118e+05   0.000000e+00   3267s
  235449    2.2649977e+04   4.418039e+05   0.000000e+00   3274s
  235689    2.2649977e+04   8.572429e+05   0.000000e+00   3281s
  235919    2.2649977e+04   9.398673e+04   0.000000e+00   3289s
  236159    2.2649977e+04   8.142294e+04   0.000000e+00   3296s
  236409    2.2649977e+04   1.874660e+06   0.000000e+00   3304s
  236659    2.2649977e+04   6.197564e+05   0.000000e+00   3311s
  236929    2.2649977e+04   1.878216e+05   0.000000e+00   3319s
  237209    2.2649977e+04   1.096100e+06   0.000000e+00   3326s
  237499    2.2649977e+04   6.306311e+05   0.000000e+00   3334s
  237769    2.2649977e+04   4.807735e+05   0.000000e+00   3342s
  238069    2.2649977e+04   1.801658e+06   0.000000e+00   3349s
  238319    2.2649977e+04   5.901874e+05   0.000000e+00   3357s
  238579    2.2649977e+04   1.589025e+05   0.000000e+00   3364s
  238899    2.2649977e+04   1.247080e+06   0.000000e+00   3371s
  239159    2.2649976e+04   1.825907e+05   0.000000e+00   3379s
  239409    2.2649976e+04   3.900924e+05   0.000000e+00   3386s
  239659    2.2649976e+04   1.104049e+06   0.000000e+00   3393s
  239909    2.2649976e+04   9.650777e+05   0.000000e+00   3401s
  240149    2.2649976e+04   1.585383e+05   0.000000e+00   3408s
  240409    2.2649976e+04   4.545908e+05   0.000000e+00   3416s
  240659    2.2649976e+04   1.009549e+06   0.000000e+00   3423s
  240899    2.2649976e+04   1.926024e+06   0.000000e+00   3431s
  241139    2.2649976e+04   3.373722e+05   0.000000e+00   3438s
  241409    2.2649976e+04   8.212478e+05   0.000000e+00   3446s
  241659    2.2649976e+04   7.615330e+05   0.000000e+00   3454s
  241899    2.2649976e+04   2.172752e+06   0.000000e+00   3461s
  242139    2.2649976e+04   1.596225e+05   0.000000e+00   3469s
  242389    2.2649976e+04   2.692826e+06   0.000000e+00   3476s
  242719    2.2649976e+04   3.111752e+05   0.000000e+00   3483s
  242969    2.2649976e+04   1.404284e+06   0.000000e+00   3491s
  243209    2.2649976e+04   3.592078e+05   0.000000e+00   3498s
  243459    2.2649976e+04   2.708786e+05   0.000000e+00   3506s
  243699    2.2649976e+04   6.407366e+05   0.000000e+00   3513s
  243959    2.2649976e+04   6.991097e+05   0.000000e+00   3521s
  244199    2.2649976e+04   5.662765e+05   0.000000e+00   3529s
  244459    2.2649976e+04   2.214986e+05   0.000000e+00   3536s
  244759    2.2649976e+04   9.481757e+05   0.000000e+00   3544s
  244999    2.2649976e+04   3.505048e+05   0.000000e+00   3551s
  245239    2.2649976e+04   6.229882e+05   0.000000e+00   3559s
  245479    2.2649976e+04   6.680179e+05   0.000000e+00   3568s
  245709    2.2649976e+04   1.097104e+05   0.000000e+00   3578s
  245939    2.2649976e+04   5.127465e+05   0.000000e+00   3588s
  246169    2.2649976e+04   6.491361e+05   0.000000e+00   3598s

Root relaxation: time limit, 246226 iterations, 3580.76 seconds

    Nodes    |    Current Node    |     Objective Bounds      |     Work
 Expl Unexpl |  Obj  Depth IntInf | Incumbent    BestBd   Gap | It/Node Time

     0     0          -    0      3420.00000 22830.0000   568%     - 3600s

Explored 0 nodes (246226 simplex iterations) in 3600.23 seconds
Thread count was 1 (of 40 available processors)

Solution count 1: 3420 

Time limit reached
Best objective 3.420000000000e+03, best bound 2.283000000000e+04, gap 567.5439%

----------

Best objective (UB): 22830.000
Best feasible solution (LB): 3420.000
Gap between the lower bound and upper bound: 567.544%

----------

Number of customers served: 28

Schedule for EV v0:
   [   0,  550) -> It remains parked at station s0.
   [ 550,  580) -> Service a request driving for customer c9 from s0 to s3.
   [ 580,  973) -> It remains parked at station s3.
   [ 973, 1033) -> Service a request driving for customer c9 from s3 to s1.
   [1033, 1716) -> It remains parked at station s1.

Schedule for EV v1:
   [   0,  907) -> It remains parked at station s0.
   [ 907,  937) -> Service a request driving for customer c18 from s0 to s7.
   [ 937, 1716) -> It remains parked at station s7.

Schedule for EV v2:
   [   0, 1716) -> It remains parked at station s0.

Schedule for EV v3:
   [   0, 1716) -> It remains parked at station s0.

Schedule for EV v4:
   [   0, 1716) -> It remains parked at station s0.

Schedule for EV v5:
   [   0, 1716) -> It remains parked at station s0.

Schedule for EV v6:
   [   0, 1716) -> It remains parked at station s0.

Schedule for EV v7:
   [   0, 1716) -> It remains parked at station s0.

Schedule for EV v8:
   [   0, 1716) -> It remains parked at station s0.

Schedule for EV v9:
   [   0, 1716) -> It remains parked at station s0.

Schedule for EV v10:
   [   0, 1716) -> It remains parked at station s0.

Schedule for EV v11:
   [   0, 1716) -> It remains parked at station s0.

Schedule for EV v12:
   [   0, 1716) -> It remains parked at station s0.

Schedule for EV v13:
   [   0, 1716) -> It remains parked at station s0.

Schedule for EV v14:
   [   0,  791) -> It remains parked at station s1.
   [ 791,  941) -> Service a request driving for customer c88 from s1 to s1.
   [ 941,  975) -> It remains parked at station s1.
   [ 975, 1035) -> Service a request driving for customer c88 from s1 to s1.
   [1035, 1208) -> It remains parked at station s1.
   [1208, 1298) -> Service a request driving for customer c88 from s1 to s0.
   [1298, 1716) -> It remains parked at station s0.

Schedule for EV v15:
   [   0,  786) -> It remains parked at station s1.
   [ 786,  846) -> Service a request driving for customer c17 from s1 to s8.
   [ 846, 1716) -> It remains parked at station s8.

Schedule for EV v16:
   [   0, 1716) -> It remains parked at station s1.

Schedule for EV v17:
   [   0, 1716) -> It remains parked at station s1.

Schedule for EV v18:
   [   0, 1716) -> It remains parked at station s1.

Schedule for EV v19:
   [   0, 1213) -> It remains parked at station s2.
   [1213, 1303) -> Service a request driving for customer c64 from s2 to s3.
   [1303, 1716) -> It remains parked at station s3.

Schedule for EV v20:
   [   0, 1716) -> It remains parked at station s2.

Schedule for EV v21:
   [   0, 1716) -> It remains parked at station s2.

Schedule for EV v22:
   [   0, 1716) -> It remains parked at station s2.

Schedule for EV v23:
   [   0, 1716) -> It remains parked at station s2.

Schedule for EV v24:
   [   0, 1716) -> It remains parked at station s2.

Schedule for EV v25:
   [   0, 1716) -> It remains parked at station s2.

Schedule for EV v26:
   [   0, 1716) -> It remains parked at station s2.

Schedule for EV v27:
   [   0, 1716) -> It remains parked at station s2.

Schedule for EV v28:
   [   0,  854) -> It remains parked at station s3.
   [ 854, 1094) -> Service a request driving for customer c20 from s3 to s0.
   [1094, 1716) -> It remains parked at station s0.

Schedule for EV v29:
   [   0, 1716) -> It remains parked at station s3.

Schedule for EV v30:
   [   0, 1716) -> It remains parked at station s3.

Schedule for EV v31:
   [   0,  610) -> It remains parked at station s4.
   [ 610,  820) -> Service a request driving for customer c6 from s4 to s3.
   [ 820, 1716) -> It remains parked at station s3.

Schedule for EV v32:
   [   0,  546) -> It remains parked at station s4.
   [ 546,  666) -> Service a request driving for customer c10 from s4 to s4.
   [ 666, 1086) -> It remains parked at station s4.
   [1086, 1146) -> Service a request driving for customer c16 from s4 to s1.
   [1146, 1716) -> It remains parked at station s1.

Schedule for EV v33:
   [   0,  615) -> It remains parked at station s4.
   [ 615,  675) -> Service a request driving for customer c97 from s4 to s10.
   [ 675,  965) -> It remains parked at station s10.
   [ 965, 1115) -> Service a request driving for customer c97 from s10 to s11.
   [1115, 1716) -> It remains parked at station s11.

Schedule for EV v34:
   [   0, 1716) -> It remains parked at station s4.

Schedule for EV v35:
   [   0, 1716) -> It remains parked at station s4.

Schedule for EV v36:
   [   0, 1716) -> It remains parked at station s4.

Schedule for EV v37:
   [   0, 1716) -> It remains parked at station s4.

Schedule for EV v38:
   [   0, 1716) -> It remains parked at station s4.

Schedule for EV v39:
   [   0,  673) -> It remains parked at station s5.
   [ 673, 1003) -> Service a request driving for customer c32 from s5 to s0.
   [1003, 1716) -> It remains parked at station s0.

Schedule for EV v40:
   [   0,  853) -> It remains parked at station s5.
   [ 853,  913) -> Service a request driving for customer c27 from s5 to s5.
   [ 913, 1716) -> It remains parked at station s5.

Schedule for EV v41:
   [   0, 1716) -> It remains parked at station s5.

Schedule for EV v42:
   [   0, 1716) -> It remains parked at station s5.

Schedule for EV v43:
   [   0, 1716) -> It remains parked at station s5.

Schedule for EV v44:
   [   0, 1716) -> It remains parked at station s5.

Schedule for EV v45:
   [   0, 1716) -> It remains parked at station s5.

Schedule for EV v46:
   [   0, 1716) -> It remains parked at station s5.

Schedule for EV v47:
   [   0, 1716) -> It remains parked at station s5.

Schedule for EV v48:
   [   0, 1716) -> It remains parked at station s5.

Schedule for EV v49:
   [   0,  549) -> It remains parked at station s6.
   [ 549,  609) -> Service a request driving for customer c7 from s6 to s3.
   [ 609, 1092) -> It remains parked at station s3.
   [1092, 1212) -> Service a request driving for customer c7 from s3 to s3.
   [1212, 1716) -> It remains parked at station s3.

Schedule for EV v50:
   [   0, 1716) -> It remains parked at station s6.

Schedule for EV v51:
   [   0, 1716) -> It remains parked at station s6.

Schedule for EV v52:
   [   0, 1716) -> It remains parked at station s6.

Schedule for EV v53:
   [   0, 1716) -> It remains parked at station s6.

Schedule for EV v54:
   [   0,  854) -> It remains parked at station s7.
   [ 854, 1034) -> Service a request driving for customer c5 from s7 to s11.
   [1034, 1716) -> It remains parked at station s11.

Schedule for EV v55:
   [   0,  728) -> It remains parked at station s7.
   [ 728,  968) -> Service a request driving for customer c53 from s7 to s7.
   [ 968, 1148) -> It remains parked at station s7.
   [1148, 1208) -> Service a request driving for customer c53 from s7 to s0.
   [1208, 1716) -> It remains parked at station s0.

Schedule for EV v56:
   [   0,  976) -> It remains parked at station s7.
   [ 976, 1096) -> Service a request driving for customer c80 from s7 to s6.
   [1096, 1716) -> It remains parked at station s6.

Schedule for EV v57:
   [   0, 1149) -> It remains parked at station s7.
   [1149, 1209) -> Service a request driving for customer c58 from s7 to s0.
   [1209, 1716) -> It remains parked at station s0.

Schedule for EV v58:
   [   0,  907) -> It remains parked at station s7.
   [ 907,  937) -> Service a request driving for customer c29 from s7 to s7.
   [ 937, 1331) -> It remains parked at station s7.
   [1331, 1391) -> Service a request driving for customer c29 from s7 to s11.
   [1391, 1716) -> It remains parked at station s11.

Schedule for EV v59:
   [   0, 1716) -> It remains parked at station s7.

Schedule for EV v60:
   [   0, 1716) -> It remains parked at station s7.

Schedule for EV v61:
   [   0, 1716) -> It remains parked at station s7.

Schedule for EV v62:
   [   0, 1716) -> It remains parked at station s7.

Schedule for EV v63:
   [   0, 1329) -> It remains parked at station s8.
   [1329, 1479) -> Service a request driving for customer c99 from s8 to s11.
   [1479, 1716) -> It remains parked at station s11.

Schedule for EV v64:
   [   0,  668) -> It remains parked at station s8.
   [ 668,  758) -> Service a request driving for customer c90 from s8 to s0.
   [ 758, 1716) -> It remains parked at station s0.

Schedule for EV v65:
   [   0, 1716) -> It remains parked at station s8.

Schedule for EV v66:
   [   0, 1716) -> It remains parked at station s8.

Schedule for EV v67:
   [   0, 1716) -> It remains parked at station s8.

Schedule for EV v68:
   [   0, 1716) -> It remains parked at station s8.

Schedule for EV v69:
   [   0, 1716) -> It remains parked at station s8.

Schedule for EV v70:
   [   0, 1391) -> It remains parked at station s9.
   [1391, 1481) -> Service a request driving for customer c74 from s9 to s11.
   [1481, 1716) -> It remains parked at station s11.

Schedule for EV v71:
   [   0, 1087) -> It remains parked at station s9.
   [1087, 1147) -> Service a request driving for customer c61 from s9 to s3.
   [1147, 1716) -> It remains parked at station s3.

Schedule for EV v72:
   [   0, 1716) -> It remains parked at station s9.

Schedule for EV v73:
   [   0, 1716) -> It remains parked at station s9.

Schedule for EV v74:
   [   0, 1716) -> It remains parked at station s9.

Schedule for EV v75:
   [   0, 1716) -> It remains parked at station s9.

Schedule for EV v76:
   [   0,  905) -> It remains parked at station s10.
   [ 905,  965) -> Service a request driving for customer c21 from s10 to s6.
   [ 965, 1716) -> It remains parked at station s6.

Schedule for EV v77:
   [   0, 1716) -> It remains parked at station s10.

Schedule for EV v78:
   [   0, 1716) -> It remains parked at station s10.

Schedule for EV v79:
   [   0, 1716) -> It remains parked at station s10.

Schedule for EV v80:
   [   0, 1716) -> It remains parked at station s10.

Schedule for EV v81:
   [   0, 1716) -> It remains parked at station s10.

Schedule for EV v82:
   [   0, 1716) -> It remains parked at station s10.

Schedule for EV v83:
   [   0, 1716) -> It remains parked at station s10.

Schedule for EV v84:
   [   0, 1716) -> It remains parked at station s10.

Schedule for EV v85:
   [   0, 1716) -> It remains parked at station s10.

Schedule for EV v86:
   [   0, 1271) -> It remains parked at station s11.
   [1271, 1331) -> Service a request driving for customer c14 from s11 to s2.
   [1331, 1716) -> It remains parked at station s2.

Schedule for EV v87:
   [   0, 1151) -> It remains parked at station s11.
   [1151, 1211) -> Service a request driving for customer c55 from s11 to s8.
   [1211, 1716) -> It remains parked at station s8.

Schedule for EV v88:
   [   0,  976) -> It remains parked at station s11.
   [ 976, 1036) -> Service a request driving for customer c68 from s11 to s4.
   [1036, 1274) -> It remains parked at station s4.
   [1274, 1304) -> Service a request driving for customer c75 from s4 to s3.
   [1304, 1716) -> It remains parked at station s3.

Schedule for EV v89:
   [   0,  914) -> It remains parked at station s11.
   [ 914,  944) -> Service a request driving for customer c15 from s11 to s1.
   [ 944, 1716) -> It remains parked at station s1.

Schedule for EV v90:
   [   0, 1716) -> It remains parked at station s11.

Schedule for EV v91:
   [   0, 1716) -> It remains parked at station s11.

Schedule for EV v92:
   [   0, 1716) -> It remains parked at station s11.

Schedule for EV v93:
   [   0, 1716) -> It remains parked at station s11.

Set of satisfied customers
   {c5, c6, c7, c9, c10, c14, c15, c16, c17, c18, c20, c21, c27, c29, c32, c53, c55, c58, c61, c64, c68, c74, c75, c80, c88, c90, c97, c99}

