Academic license - for non-commercial use only
Gurobi Optimizer version 9.0.3 build v9.0.3rc0 (linux64)
Optimize a model with 8712 rows, 11224 columns and 38178 nonzeros
Model fingerprint: 0x991b93a8
Variable types: 8469 continuous, 2755 integer (2755 binary)
Coefficient statistics:
  Matrix range     [1e+00, 7e+06]
  Objective range  [3e+01, 4e+02]
  Bounds range     [1e+00, 2e+06]
  RHS range        [1e+00, 2e+06]

Loaded user MIP start with objective 5400

Presolve removed 2367 rows and 2604 columns
Presolve time: 0.11s
Presolved: 6345 rows, 8620 columns, 35487 nonzeros
Variable types: 417 continuous, 8203 integer (5678 binary)

Root simplex log...

Iteration    Objective       Primal Inf.    Dual Inf.      Time
   17024    1.5419861e+04   5.665801e+06   0.000000e+00      5s
   26936    1.2239490e+04   2.766206e+05   0.000000e+00     10s
   29276    1.2240000e+04   0.000000e+00   0.000000e+00     11s

Root relaxation: objective 1.224000e+04, 29276 iterations, 11.11 seconds

    Nodes    |    Current Node    |     Objective Bounds      |     Work
 Expl Unexpl |  Obj  Depth IntInf | Incumbent    BestBd   Gap | It/Node Time

     0     0 12240.0000    0 2353 5400.00000 12240.0000   127%     -   14s
H    0     0                    10800.000000 12240.0000  13.3%     -   14s
     0     0 12240.0000    0 2474 10800.0000 12240.0000  13.3%     -   16s
     0     0 12240.0000    0 2396 10800.0000 12240.0000  13.3%     -   17s
     0     0 12240.0000    0 2240 10800.0000 12240.0000  13.3%     -   20s
H    0     0                    11100.000000 12240.0000  10.3%     -   20s
     0     0 12240.0000    0 2236 11100.0000 12240.0000  10.3%     -   20s
     0     0 12240.0000    0 2199 11100.0000 12240.0000  10.3%     -   22s
H    0     0                    11760.000000 12240.0000  4.08%     -   22s
     0     0 12240.0000    0 2161 11760.0000 12240.0000  4.08%     -   23s
     0     0 12240.0000    0 2128 11760.0000 12240.0000  4.08%     -   26s
     0     0 12240.0000    0 2084 11760.0000 12240.0000  4.08%     -   28s
H    0     0                    12240.000000 12240.0000  0.00%     -   28s
     0     0 12240.0000    0 2082 12240.0000 12240.0000  0.00%     -   28s

Cutting planes:
  Implied bound: 79
  MIR: 1
  Relax-and-lift: 4

Explored 1 nodes (65664 simplex iterations) in 28.71 seconds
Thread count was 1 (of 40 available processors)

Solution count 5: 12240 11760 11100 ... 5400

Optimal solution found (tolerance 1.00e-04)
Best objective 1.224000000000e+04, best bound 1.224000000000e+04, gap 0.0000%

----------

Best objective (UB): 12240.000
Best feasible solution (LB): 12240.000
Gap between the lower bound and upper bound: 0.000%

----------

Number of customers served: 74

Schedule for EV v0:
   [   0,  553) -> It remains parked at station s0, which was charging for charging.
   [ 553,  733) -> Service a request driving for customer c163 from s0 to s11.
   [ 733,  849) -> It remains parked at station s11, which was charging for charging.
   [ 849, 1149) -> Service a request driving for customer c177 from s11 to s5.
   [1149, 1272) -> It remains parked at station s5, which was charging for charging.
   [1272, 1602) -> Service a request driving for customer c117 from s5 to s10.
   [1602, tmax) -> It remains parked at station s10, which was charging for charging.

Schedule for EV v1:
   [   0,  427) -> It remains parked at station s0, which was charging for charging.
   [ 427,  517) -> Service a request driving for customer c183 from s0 to s1.
   [ 517,  616) -> It remains parked at station s1, which was charging for charging.
   [ 616,  976) -> Service a request driving for customer c29 from s1 to s7.
   [ 976, 1028) -> It remains parked at station s7, which was charging for charging.
   [1028, 1148) -> Service a request driving for customer c203 from s7 to s11.
   [1148, 1156) -> It remains parked at station s11, which was charging for charging.
   [1156, 1306) -> Service a request driving for customer c14 from s11 to s4.
   [1306, 1327) -> It remains parked at station s4, which was charging for charging.
   [1327, 1477) -> Service a request driving for customer c75 from s4 to s11.
   [1477, tmax) -> It remains parked at station s11, which was charging for charging.

Schedule for EV v2:
   [   0,  545) -> It remains parked at station s2, which was charging for charging.
   [ 545,  725) -> Service a request driving for customer c71 from s2 to s3.
   [ 725,  791) -> It remains parked at station s3, which was charging for charging.
   [ 791,  821) -> Service a request driving for customer c179 from s3 to s0.
   [ 821,  855) -> It remains parked at station s0, which was charging for charging.
   [ 855, 1005) -> Service a request driving for customer c129 from s0 to s2.
   [1005, 1036) -> It remains parked at station s2, which was charging for charging.
   [1036, 1096) -> Service a request driving for customer c191 from s2 to s3.
   [1096, 1186) -> Service a request driving for customer c116 from s3 to s4.
   [1186, 1212) -> It remains parked at station s4, which was charging for charging.
   [1212, 1452) -> Service a request driving for customer c222 from s4 to s4.
   [1452, 1662) -> Service a request driving for customer c91 from s4 to s1.
   [1662, tmax) -> It remains parked at station s1, which was charging for charging.

Schedule for EV v3:
   [   0,  429) -> It remains parked at station s2, which was charging for charging.
   [ 429,  489) -> Service a request driving for customer c126 from s2 to s1.
   [ 489,  551) -> It remains parked at station s1, which was charging for charging.
   [ 551,  611) -> Service a request driving for customer c142 from s1 to s10.
   [ 611,  616) -> It remains parked at station s10, which was charging for charging.
   [ 616,  766) -> Service a request driving for customer c94 from s10 to s7.
   [ 766,  969) -> It remains parked at station s7, which was charging for charging.
   [ 969, 1179) -> Service a request driving for customer c246 from s7 to s11.
   [1179, 1269) -> It remains parked at station s11, which was charging for charging.
   [1269, 1509) -> Service a request driving for customer c16 from s11 to s3.
   [1509, tmax) -> It remains parked at station s3, which was charging for charging.

Schedule for EV v4:
   [   0,  429) -> It remains parked at station s4, which was charging for charging.
   [ 429,  699) -> Service a request driving for customer c232 from s4 to s6.
   [ 699,  796) -> It remains parked at station s6, which was charging for charging.
   [ 796,  886) -> Service a request driving for customer c73 from s6 to s11.
   [ 886,  965) -> It remains parked at station s11, which was charging for charging.
   [ 965, 1205) -> Service a request driving for customer c3 from s11 to s6.
   [1205, 1274) -> It remains parked at station s6, which was charging for charging.
   [1274, 1334) -> Service a request driving for customer c213 from s6 to s0.
   [1334, 1514) -> Service a request driving for customer c90 from s0 to s1.
   [1514, tmax) -> It remains parked at station s1, which was charging for charging.

Schedule for EV v5:
   [   0,  369) -> It remains parked at station s4, which was charging for charging.
   [ 369,  549) -> Service a request driving for customer c77 from s4 to s3.
   [ 549,  610) -> It remains parked at station s3, which was charging for charging.
   [ 610,  850) -> Service a request driving for customer c120 from s3 to s4.
   [ 850,  965) -> It remains parked at station s4, which was charging for charging.
   [ 965, 1205) -> Service a request driving for customer c217 from s4 to s1.
   [1205, 1211) -> It remains parked at station s1, which was charging for charging.
   [1211, 1511) -> Service a request driving for customer c2 from s1 to s1.
   [1511, tmax) -> It remains parked at station s1, which was charging for charging.

Schedule for EV v6:
   [   0,  613) -> It remains parked at station s5, which was charging for charging.
   [ 613,  673) -> Service a request driving for customer c55 from s5 to s11.
   [ 673,  674) -> It remains parked at station s11, which was charging for charging.
   [ 674,  794) -> Service a request driving for customer c8 from s11 to s4.
   [ 794,  905) -> It remains parked at station s4, which was charging for charging.
   [ 905,  965) -> Service a request driving for customer c13 from s4 to s2.
   [ 965,  968) -> It remains parked at station s2, which was charging for charging.
   [ 968, 1208) -> Service a request driving for customer c76 from s2 to s3.
   [1208, 1385) -> It remains parked at station s3, which was charging for charging.
   [1385, 1625) -> Service a request driving for customer c42 from s3 to s7.
   [1625, tmax) -> It remains parked at station s7, which was charging for charging.

Schedule for EV v7:
   [   0,  666) -> It remains parked at station s5, which was charging for charging.
   [ 666,  726) -> Service a request driving for customer c198 from s5 to s0.
   [ 726,  790) -> It remains parked at station s0, which was charging for charging.
   [ 790,  970) -> Service a request driving for customer c88 from s0 to s4.
   [ 970,  976) -> It remains parked at station s4, which was charging for charging.
   [ 976, 1066) -> Service a request driving for customer c210 from s4 to s11.
   [1066, 1094) -> It remains parked at station s11, which was charging for charging.
   [1094, 1124) -> Service a request driving for customer c149 from s11 to s4.
   [1124, 1156) -> It remains parked at station s4, which was charging for charging.
   [1156, 1456) -> Service a request driving for customer c193 from s4 to s7.
   [1456, tmax) -> It remains parked at station s7, which was charging for charging.

Schedule for EV v8:
   [   0,  551) -> It remains parked at station s6, which was charging for charging.
   [ 551,  581) -> Service a request driving for customer c185 from s6 to s10.
   [ 581,  610) -> It remains parked at station s10, which was charging for charging.
   [ 610,  820) -> Service a request driving for customer c133 from s10 to s9.
   [ 820,  914) -> It remains parked at station s9, which was charging for charging.
   [ 914,  974) -> Service a request driving for customer c125 from s9 to s4.
   [ 974,  976) -> It remains parked at station s4, which was charging for charging.
   [ 976, 1096) -> Service a request driving for customer c169 from s4 to s9.
   [1096, 1306) -> Service a request driving for customer c32 from s9 to s6.
   [1306, 1389) -> It remains parked at station s6, which was charging for charging.
   [1389, 1569) -> Service a request driving for customer c188 from s6 to s6.
   [1569, tmax) -> It remains parked at station s6, which was charging for charging.

Schedule for EV v9:
   [   0,  735) -> It remains parked at station s7, which was charging for charging.
   [ 735,  825) -> Service a request driving for customer c247 from s7 to s2.
   [ 825,  847) -> It remains parked at station s2, which was charging for charging.
   [ 847, 1117) -> Service a request driving for customer c240 from s2 to s1.
   [1117, 1152) -> It remains parked at station s1, which was charging for charging.
   [1152, 1482) -> Service a request driving for customer c145 from s1 to s10.
   [1482, tmax) -> It remains parked at station s10, which was charging for charging.

Schedule for EV v10:
   [   0,  429) -> It remains parked at station s8, which was charging for charging.
   [ 429,  489) -> Service a request driving for customer c99 from s8 to s2.
   [ 489,  728) -> It remains parked at station s2, which was charging for charging.
   [ 728, 1028) -> Service a request driving for customer c28 from s2 to s4.
   [1028, 1029) -> It remains parked at station s4, which was charging for charging.
   [1029, 1089) -> Service a request driving for customer c190 from s4 to s4.
   [1089, 1090) -> It remains parked at station s4, which was charging for charging.
   [1090, 1150) -> Service a request driving for customer c23 from s4 to s3.
   [1150, 1156) -> It remains parked at station s3, which was charging for charging.
   [1156, 1366) -> Service a request driving for customer c102 from s3 to s9.
   [1366, 1385) -> It remains parked at station s9, which was charging for charging.
   [1385, 1445) -> Service a request driving for customer c119 from s9 to s3.
   [1445, tmax) -> It remains parked at station s3, which was charging for charging.

Schedule for EV v11:
   [   0,  548) -> It remains parked at station s8, which was charging for charging.
   [ 548,  908) -> Service a request driving for customer c64 from s8 to s8.
   [ 908,  912) -> It remains parked at station s8, which was charging for charging.
   [ 912, 1122) -> Service a request driving for customer c201 from s8 to s0.
   [1122, 1152) -> It remains parked at station s0, which was charging for charging.
   [1152, 1182) -> Service a request driving for customer c82 from s0 to s6.
   [1182, 1211) -> It remains parked at station s6, which was charging for charging.
   [1211, 1271) -> Service a request driving for customer c132 from s6 to s1.
   [1271, 1272) -> It remains parked at station s1, which was charging for charging.
   [1272, 1542) -> Service a request driving for customer c48 from s1 to s1.
   [1542, tmax) -> It remains parked at station s1, which was charging for charging.

Schedule for EV v12:
   [   0,  426) -> It remains parked at station s8, which was charging for charging.
   [ 426,  576) -> Service a request driving for customer c98 from s8 to s11.
   [ 576,  667) -> It remains parked at station s11, which was charging for charging.
   [ 667,  727) -> Service a request driving for customer c173 from s11 to s11.
   [ 727,  728) -> It remains parked at station s11, which was charging for charging.
   [ 728,  968) -> Service a request driving for customer c65 from s11 to s1.
   [ 968,  976) -> It remains parked at station s1, which was charging for charging.
   [ 976, 1006) -> Service a request driving for customer c171 from s1 to s0.
   [1006, 1028) -> It remains parked at station s0, which was charging for charging.
   [1028, 1178) -> Service a request driving for customer c227 from s0 to s7.
   [1178, 1216) -> It remains parked at station s7, which was charging for charging.
   [1216, 1246) -> Service a request driving for customer c80 from s7 to s11.
   [1246, 1274) -> It remains parked at station s11, which was charging for charging.
   [1274, 1514) -> Service a request driving for customer c81 from s11 to s4.
   [1514, tmax) -> It remains parked at station s4, which was charging for charging.

Schedule for EV v13:
   [   0,  552) -> It remains parked at station s10, which was charging for charging.
   [ 552,  672) -> Service a request driving for customer c223 from s10 to s6.
   [ 672,  732) -> It remains parked at station s6, which was charging for charging.
   [ 732,  852) -> Service a request driving for customer c109 from s6 to s11.
   [ 852, 1002) -> Service a request driving for customer c206 from s11 to s1.
   [1002, 1031) -> It remains parked at station s1, which was charging for charging.
   [1031, 1091) -> Service a request driving for customer c158 from s1 to s6.
   [1091, 1092) -> It remains parked at station s6, which was charging for charging.
   [1092, 1332) -> Service a request driving for customer c34 from s6 to s11.
   [1332, tmax) -> It remains parked at station s11, which was charging for charging.

Schedule for EV v14:
   [   0,  551) -> It remains parked at station s11, which was charging for charging.
   [ 551,  911) -> Service a request driving for customer c59 from s11 to s5.
   [ 911, 1027) -> It remains parked at station s5, which was charging for charging.
   [1027, 1327) -> Service a request driving for customer c67 from s5 to s0.
   [1327, 1331) -> It remains parked at station s0, which was charging for charging.
   [1331, 1601) -> Service a request driving for customer c89 from s0 to s3.
   [1601, tmax) -> It remains parked at station s3, which was charging for charging.

Set of satisfied customers
   {c2, c3, c8, c13, c14, c16, c23, c28, c29, c32, c34, c42, c48, c55, c59, c64, c65, c67, c71, c73, c75, c76, c77, c80, c81, c82, c88, c89, c90, c91, c94, c98, c99, c102, c109, c116, c117, c119, c120, c125, c126, c129, c132, c133, c142, c145, c149, c158, c163, c169, c171, c173, c177, c179, c183, c185, c188, c190, c191, c193, c198, c201, c203, c206, c210, c213, c217, c222, c223, c227, c232, c240, c246, c247}

