Academic license - for non-commercial use only
Gurobi Optimizer version 9.0.3 build v9.0.3rc0 (linux64)
Optimize a model with 8671 rows, 11212 columns and 38357 nonzeros
Model fingerprint: 0x60ce363d
Variable types: 8424 continuous, 2788 integer (2788 binary)
Coefficient statistics:
  Matrix range     [1e+00, 6e+06]
  Objective range  [3e+01, 4e+02]
  Bounds range     [1e+00, 2e+06]
  RHS range        [1e+00, 2e+06]

Loaded user MIP start with objective 6840

Presolve removed 2381 rows and 2590 columns
Presolve time: 0.11s
Presolved: 6290 rows, 8622 columns, 35568 nonzeros
Variable types: 759 continuous, 7863 integer (5834 binary)

Root simplex log...

Iteration    Objective       Primal Inf.    Dual Inf.      Time
   20169    1.1549695e+04   3.206389e+05   0.000000e+00      5s
   26772    1.0980000e+04   0.000000e+00   0.000000e+00      8s

Root relaxation: objective 1.098000e+04, 26772 iterations, 7.91 seconds
Total elapsed time = 10.38s

    Nodes    |    Current Node    |     Objective Bounds      |     Work
 Expl Unexpl |  Obj  Depth IntInf | Incumbent    BestBd   Gap | It/Node Time

     0     0 10980.0000    0 1970 6840.00000 10980.0000  60.5%     -   11s
H    0     0                    9480.0000000 10980.0000  15.8%     -   11s
     0     0 10980.0000    0 2095 9480.00000 10980.0000  15.8%     -   12s
H    0     0                    10230.000000 10980.0000  7.33%     -   12s
     0     0 10980.0000    0 2058 10230.0000 10980.0000  7.33%     -   12s
     0     0 10980.0000    0 1590 10230.0000 10980.0000  7.33%     -   15s
H    0     0                    10650.000000 10980.0000  3.10%     -   15s
     0     0 10980.0000    0 1567 10650.0000 10980.0000  3.10%     -   15s
     0     0 10980.0000    0 1583 10650.0000 10980.0000  3.10%     -   17s
     0     0 10980.0000    0 1567 10650.0000 10980.0000  3.10%     -   19s
     0     0 10980.0000    0 1567 10650.0000 10980.0000  3.10%     -   19s
     0     0 10980.0000    0 1553 10650.0000 10980.0000  3.10%     -   21s
     0     0 10980.0000    0 1552 10650.0000 10980.0000  3.10%     -   23s
     0     0 10980.0000    0 1552 10650.0000 10980.0000  3.10%     -   24s
H    0     0                    10980.000000 10980.0000  0.00%     -   24s
     0     0 10980.0000    0 1552 10980.0000 10980.0000  0.00%     -   24s

Cutting planes:
  Implied bound: 32
  MIR: 4
  RLT: 8

Explored 1 nodes (70635 simplex iterations) in 24.82 seconds
Thread count was 1 (of 40 available processors)

Solution count 5: 10980 10650 10230 ... 6840

Optimal solution found (tolerance 1.00e-04)
Best objective 1.098000000000e+04, best bound 1.098000000000e+04, gap 0.0000%

----------

Best objective (UB): 10980.000
Best feasible solution (LB): 10980.000
Gap between the lower bound and upper bound: 0.000%

----------

Number of customers served: 86

Schedule for EV v0:
   [   0,  430) -> It remains parked at station s0, which was charging for charging.
   [ 430,  640) -> Service a request driving for customer c117 from s0 to s1.
   [ 640,  671) -> It remains parked at station s1, which was charging for charging.
   [ 671,  821) -> Service a request driving for customer c66 from s1 to s11.
   [ 821,  845) -> It remains parked at station s11, which was charging for charging.
   [ 845, 1115) -> Service a request driving for customer c52 from s11 to s0.
   [1115, 1150) -> It remains parked at station s0, which was charging for charging.
   [1150, 1210) -> Service a request driving for customer c236 from s0 to s4.
   [1210, 1212) -> It remains parked at station s4, which was charging for charging.
   [1212, 1332) -> Service a request driving for customer c204 from s4 to s3.
   [1332, 1333) -> It remains parked at station s3, which was charging for charging.
   [1333, 1423) -> Service a request driving for customer c16 from s3 to s2.
   [1423, tmax) -> It remains parked at station s2, which was charging for charging.

Schedule for EV v1:
   [   0,  372) -> It remains parked at station s1, which was charging for charging.
   [ 372,  522) -> Service a request driving for customer c222 from s1 to s3.
   [ 522,  555) -> It remains parked at station s3, which was charging for charging.
   [ 555,  615) -> Service a request driving for customer c123 from s3 to s1.
   [ 615,  666) -> It remains parked at station s1, which was charging for charging.
   [ 666,  726) -> Service a request driving for customer c124 from s1 to s3.
   [ 726,  729) -> It remains parked at station s3, which was charging for charging.
   [ 729, 1089) -> Service a request driving for customer c217 from s3 to s10.
   [1089, 1096) -> It remains parked at station s10, which was charging for charging.
   [1096, 1396) -> Service a request driving for customer c34 from s10 to s3.
   [1396, tmax) -> It remains parked at station s3, which was charging for charging.

Schedule for EV v2:
   [   0,  675) -> It remains parked at station s2, which was charging for charging.
   [ 675,  915) -> Service a request driving for customer c178 from s2 to s9.
   [ 915,  969) -> It remains parked at station s9, which was charging for charging.
   [ 969, 1089) -> Service a request driving for customer c158 from s9 to s6.
   [1089, 1207) -> It remains parked at station s6, which was charging for charging.
   [1207, 1237) -> Service a request driving for customer c151 from s6 to s7.
   [1237, 1266) -> It remains parked at station s7, which was charging for charging.
   [1266, 1386) -> Service a request driving for customer c15 from s7 to s1.
   [1386, tmax) -> It remains parked at station s1, which was charging for charging.

Schedule for EV v3:
   [   0,  554) -> It remains parked at station s2, which was charging for charging.
   [ 554,  614) -> Service a request driving for customer c106 from s2 to s4.
   [ 614,  665) -> It remains parked at station s4, which was charging for charging.
   [ 665,  875) -> Service a request driving for customer c220 from s4 to s7.
   [ 875,  914) -> It remains parked at station s7, which was charging for charging.
   [ 914, 1004) -> Service a request driving for customer c141 from s7 to s8.
   [1004, 1027) -> It remains parked at station s8, which was charging for charging.
   [1027, 1087) -> Service a request driving for customer c239 from s8 to s9.
   [1087, 1327) -> Service a request driving for customer c29 from s9 to s6.
   [1327, 1357) -> Service a request driving for customer c83 from s6 to s4.
   [1357, tmax) -> It remains parked at station s4, which was charging for charging.

Schedule for EV v4:
   [   0,  673) -> It remains parked at station s2, which was charging for charging.
   [ 673,  823) -> Service a request driving for customer c37 from s2 to s0.
   [ 823,  845) -> It remains parked at station s0, which was charging for charging.
   [ 845, 1025) -> Service a request driving for customer c84 from s0 to s3.
   [1025, 1093) -> It remains parked at station s3, which was charging for charging.
   [1093, 1183) -> Service a request driving for customer c0 from s3 to s4.
   [1183, 1212) -> It remains parked at station s4, which was charging for charging.
   [1212, 1242) -> Service a request driving for customer c253 from s4 to s4.
   [1242, 1272) -> It remains parked at station s4, which was charging for charging.
   [1272, 1572) -> Service a request driving for customer c40 from s4 to s2.
   [1572, tmax) -> It remains parked at station s2, which was charging for charging.

Schedule for EV v5:
   [   0,  610) -> It remains parked at station s3, which was charging for charging.
   [ 610,  850) -> Service a request driving for customer c215 from s3 to s0.
   [ 850,  909) -> It remains parked at station s0, which was charging for charging.
   [ 909,  999) -> Service a request driving for customer c240 from s0 to s4.
   [ 999, 1091) -> It remains parked at station s4, which was charging for charging.
   [1091, 1241) -> Service a request driving for customer c58 from s4 to s2.
   [1241, 1269) -> It remains parked at station s2, which was charging for charging.
   [1269, 1449) -> Service a request driving for customer c17 from s2 to s4.
   [1449, tmax) -> It remains parked at station s4, which was charging for charging.

Schedule for EV v6:
   [   0,  550) -> It remains parked at station s3, which was charging for charging.
   [ 550,  610) -> Service a request driving for customer c175 from s3 to s7.
   [ 610,  613) -> It remains parked at station s7, which was charging for charging.
   [ 613,  853) -> Service a request driving for customer c81 from s7 to s0.
   [ 853,  967) -> It remains parked at station s0, which was charging for charging.
   [ 967, 1027) -> Service a request driving for customer c148 from s0 to s1.
   [1027, 1028) -> It remains parked at station s1, which was charging for charging.
   [1028, 1088) -> Service a request driving for customer c13 from s1 to s1.
   [1088, 1089) -> It remains parked at station s1, which was charging for charging.
   [1089, 1209) -> Service a request driving for customer c199 from s1 to s8.
   [1209, 1267) -> It remains parked at station s8, which was charging for charging.
   [1267, 1417) -> Service a request driving for customer c76 from s8 to s1.
   [1417, tmax) -> It remains parked at station s1, which was charging for charging.

Schedule for EV v7:
   [   0,  433) -> It remains parked at station s5, which was charging for charging.
   [ 433,  673) -> Service a request driving for customer c250 from s5 to s5.
   [ 673,  731) -> It remains parked at station s5, which was charging for charging.
   [ 731,  791) -> Service a request driving for customer c206 from s5 to s6.
   [ 791,  794) -> It remains parked at station s6, which was charging for charging.
   [ 794,  854) -> Service a request driving for customer c167 from s6 to s10.
   [ 854,  855) -> It remains parked at station s10, which was charging for charging.
   [ 855,  915) -> Service a request driving for customer c213 from s10 to s0.
   [ 915,  972) -> It remains parked at station s0, which was charging for charging.
   [ 972, 1182) -> Service a request driving for customer c194 from s0 to s2.
   [1182, 1207) -> It remains parked at station s2, which was charging for charging.
   [1207, 1267) -> Service a request driving for customer c59 from s2 to s1.
   [1267, 1269) -> It remains parked at station s1, which was charging for charging.
   [1269, 1359) -> Service a request driving for customer c91 from s1 to s4.
   [1359, tmax) -> It remains parked at station s4, which was charging for charging.

Schedule for EV v8:
   [   0,  550) -> It remains parked at station s6, which was charging for charging.
   [ 550,  910) -> Service a request driving for customer c144 from s6 to s2.
   [ 910,  912) -> It remains parked at station s2, which was charging for charging.
   [ 912,  942) -> Service a request driving for customer c244 from s2 to s0.
   [ 942,  976) -> It remains parked at station s0, which was charging for charging.
   [ 976, 1126) -> Service a request driving for customer c218 from s0 to s11.
   [1126, 1152) -> It remains parked at station s11, which was charging for charging.
   [1152, 1182) -> Service a request driving for customer c152 from s11 to s4.
   [1182, 1205) -> It remains parked at station s4, which was charging for charging.
   [1205, 1415) -> Service a request driving for customer c150 from s4 to s3.
   [1415, tmax) -> It remains parked at station s3, which was charging for charging.

Schedule for EV v9:
   [   0,  425) -> It remains parked at station s7, which was charging for charging.
   [ 425,  485) -> Service a request driving for customer c38 from s7 to s5.
   [ 485,  496) -> It remains parked at station s5, which was charging for charging.
   [ 496,  706) -> Service a request driving for customer c224 from s5 to s0.
   [ 706,  725) -> It remains parked at station s0, which was charging for charging.
   [ 725,  845) -> Service a request driving for customer c208 from s0 to s6.
   [ 845,  851) -> It remains parked at station s6, which was charging for charging.
   [ 851,  911) -> Service a request driving for customer c63 from s6 to s4.
   [ 911,  915) -> It remains parked at station s4, which was charging for charging.
   [ 915,  945) -> Service a request driving for customer c20 from s4 to s10.
   [ 945,  966) -> It remains parked at station s10, which was charging for charging.
   [ 966, 1206) -> Service a request driving for customer c111 from s10 to s7.
   [1206, 1208) -> It remains parked at station s7, which was charging for charging.
   [1208, 1298) -> Service a request driving for customer c6 from s7 to s11.
   [1298, 1325) -> It remains parked at station s11, which was charging for charging.
   [1325, 1385) -> Service a request driving for customer c23 from s11 to s10.
   [1385, tmax) -> It remains parked at station s10, which was charging for charging.

Schedule for EV v10:
   [   0,  551) -> It remains parked at station s8, which was charging for charging.
   [ 551,  581) -> Service a request driving for customer c164 from s8 to s4.
   [ 581,  605) -> It remains parked at station s4, which was charging for charging.
   [ 605,  665) -> Service a request driving for customer c110 from s4 to s4.
   [ 665,  726) -> It remains parked at station s4, which was charging for charging.
   [ 726,  906) -> Service a request driving for customer c188 from s4 to s1.
   [ 906,  914) -> It remains parked at station s1, which was charging for charging.
   [ 914,  974) -> Service a request driving for customer c19 from s1 to s7.
   [ 974, 1085) -> It remains parked at station s7, which was charging for charging.
   [1085, 1205) -> Service a request driving for customer c145 from s7 to s11.
   [1205, 1209) -> It remains parked at station s11, which was charging for charging.
   [1209, 1449) -> Service a request driving for customer c10 from s11 to s8.
   [1449, tmax) -> It remains parked at station s8, which was charging for charging.

Schedule for EV v11:
   [   0,  606) -> It remains parked at station s8, which was charging for charging.
   [ 606,  876) -> Service a request driving for customer c190 from s8 to s8.
   [ 876,  965) -> It remains parked at station s8, which was charging for charging.
   [ 965, 1205) -> Service a request driving for customer c4 from s8 to s8.
   [1205, 1386) -> It remains parked at station s8, which was charging for charging.
   [1386, 1566) -> Service a request driving for customer c249 from s8 to s2.
   [1566, tmax) -> It remains parked at station s2, which was charging for charging.

Schedule for EV v12:
   [   0,  488) -> It remains parked at station s10, which was charging for charging.
   [ 488,  548) -> Service a request driving for customer c182 from s10 to s1.
   [ 548,  556) -> It remains parked at station s1, which was charging for charging.
   [ 556,  616) -> Service a request driving for customer c211 from s1 to s1.
   [ 616,  646) -> Service a request driving for customer c79 from s1 to s11.
   [ 646,  669) -> It remains parked at station s11, which was charging for charging.
   [ 669,  849) -> Service a request driving for customer c203 from s11 to s6.
   [ 849,  856) -> It remains parked at station s6, which was charging for charging.
   [ 856, 1066) -> Service a request driving for customer c227 from s6 to s3.
   [1066, 1096) -> It remains parked at station s3, which was charging for charging.
   [1096, 1126) -> Service a request driving for customer c89 from s3 to s0.
   [1126, 1146) -> It remains parked at station s0, which was charging for charging.
   [1146, 1416) -> Service a request driving for customer c26 from s0 to s11.
   [1416, tmax) -> It remains parked at station s11, which was charging for charging.

Schedule for EV v13:
   [   0,  611) -> It remains parked at station s10, which was charging for charging.
   [ 611,  671) -> Service a request driving for customer c147 from s10 to s8.
   [ 671,  790) -> It remains parked at station s8, which was charging for charging.
   [ 790, 1030) -> Service a request driving for customer c2 from s8 to s9.
   [1030, 1035) -> It remains parked at station s9, which was charging for charging.
   [1035, 1095) -> Service a request driving for customer c80 from s9 to s1.
   [1095, 1149) -> It remains parked at station s1, which was charging for charging.
   [1149, 1359) -> Service a request driving for customer c69 from s1 to s1.
   [1359, tmax) -> It remains parked at station s1, which was charging for charging.

Schedule for EV v14:
   [   0,  610) -> It remains parked at station s10, which was charging for charging.
   [ 610,  640) -> Service a request driving for customer c25 from s10 to s2.
   [ 640,  676) -> It remains parked at station s2, which was charging for charging.
   [ 676,  736) -> Service a request driving for customer c160 from s2 to s0.
   [ 736,  793) -> It remains parked at station s0, which was charging for charging.
   [ 793,  823) -> Service a request driving for customer c85 from s0 to s7.
   [ 823,  854) -> It remains parked at station s7, which was charging for charging.
   [ 854,  974) -> Service a request driving for customer c36 from s7 to s3.
   [ 974, 1004) -> Service a request driving for customer c94 from s3 to s6.
   [1004, 1031) -> It remains parked at station s6, which was charging for charging.
   [1031, 1091) -> Service a request driving for customer c128 from s6 to s0.
   [1091, 1093) -> It remains parked at station s0, which was charging for charging.
   [1093, 1213) -> Service a request driving for customer c168 from s0 to s3.
   [1213, 1243) -> Service a request driving for customer c9 from s3 to s2.
   [1243, 1268) -> It remains parked at station s2, which was charging for charging.
   [1268, 1328) -> Service a request driving for customer c70 from s2 to s0.
   [1328, 1391) -> It remains parked at station s0, which was charging for charging.
   [1391, 1481) -> Service a request driving for customer c12 from s0 to s5.
   [1481, tmax) -> It remains parked at station s5, which was charging for charging.

Set of satisfied customers
   {c0, c2, c4, c6, c9, c10, c12, c13, c15, c16, c17, c19, c20, c23, c25, c26, c29, c34, c36, c37, c38, c40, c52, c58, c59, c63, c66, c69, c70, c76, c79, c80, c81, c83, c84, c85, c89, c91, c94, c106, c110, c111, c117, c123, c124, c128, c141, c144, c145, c147, c148, c150, c151, c152, c158, c160, c164, c167, c168, c175, c178, c182, c188, c190, c194, c199, c203, c204, c206, c208, c211, c213, c215, c217, c218, c220, c222, c224, c227, c236, c239, c240, c244, c249, c250, c253}

