Academic license - for non-commercial use only
Gurobi Optimizer version 9.0.3 build v9.0.3rc0 (linux64)
Optimize a model with 9238 rows, 11960 columns and 41022 nonzeros
Model fingerprint: 0xee2f9d3d
Variable types: 8974 continuous, 2986 integer (2986 binary)
Coefficient statistics:
  Matrix range     [1e+00, 6e+06]
  Objective range  [3e+01, 4e+02]
  Bounds range     [1e+00, 2e+06]
  RHS range        [1e+00, 2e+06]

Loaded user MIP start with objective 5310

Presolve removed 2497 rows and 2709 columns
Presolve time: 0.15s
Presolved: 6741 rows, 9251 columns, 38302 nonzeros
Variable types: 390 continuous, 8861 integer (6260 binary)

Root simplex log...

Iteration    Objective       Primal Inf.    Dual Inf.      Time
   14719    1.8989993e+04   4.789505e+06   0.000000e+00      5s
   24737    1.1909897e+04   9.026916e+06   0.000000e+00     10s
   33322    1.1729571e+04   6.201024e+05   0.000000e+00     15s
   37039    1.1730000e+04   0.000000e+00   0.000000e+00     17s

Root relaxation: objective 1.173000e+04, 37039 iterations, 17.29 seconds
Total elapsed time = 21.16s

    Nodes    |    Current Node    |     Objective Bounds      |     Work
 Expl Unexpl |  Obj  Depth IntInf | Incumbent    BestBd   Gap | It/Node Time

     0     0 11730.0000    0 2246 5310.00000 11730.0000   121%     -   23s
H    0     0                    10560.000000 11730.0000  11.1%     -   23s
     0     0 11730.0000    0 2179 10560.0000 11730.0000  11.1%     -   24s
H    0     0                    11430.000000 11730.0000  2.62%     -   24s
     0     0 11730.0000    0 2160 11430.0000 11730.0000  2.62%     -   24s
     0     0 11730.0000    0 1637 11430.0000 11730.0000  2.62%     -   27s
H    0     0                    11520.000000 11730.0000  1.82%     -   27s
     0     0 11730.0000    0 1725 11520.0000 11730.0000  1.82%     -   27s
     0     0 11730.0000    0 1748 11520.0000 11730.0000  1.82%     -   30s
     0     0 11730.0000    0 1735 11520.0000 11730.0000  1.82%     -   30s
     0     0 11730.0000    0 1704 11520.0000 11730.0000  1.82%     -   32s
     0     0 11730.0000    0 1688 11520.0000 11730.0000  1.82%     -   33s
     0     0 11730.0000    0 1569 11520.0000 11730.0000  1.82%     -   35s
     0     0 11730.0000    0 1569 11520.0000 11730.0000  1.82%     -   35s
     0     0 11730.0000    0 1567 11520.0000 11730.0000  1.82%     -   38s
     0     0 11730.0000    0 1455 11520.0000 11730.0000  1.82%     -   40s
H    0     0                    11730.000000 11730.0000  0.00%     -   41s
     0     0 11730.0000    0 1455 11730.0000 11730.0000  0.00%     -   41s

Cutting planes:
  Implied bound: 29
  RLT: 1
  Relax-and-lift: 2

Explored 1 nodes (88105 simplex iterations) in 41.24 seconds
Thread count was 1 (of 40 available processors)

Solution count 5: 11730 11520 11430 ... 5310

Optimal solution found (tolerance 1.00e-04)
Best objective 1.173000000000e+04, best bound 1.173000000000e+04, gap 0.0000%

----------

Best objective (UB): 11730.000
Best feasible solution (LB): 11730.000
Gap between the lower bound and upper bound: 0.000%

----------

Number of customers served: 92

Schedule for EV v0:
   [   0,  556) -> It remains parked at station s0, which was charging for charging.
   [ 556,  616) -> Service a request driving for customer c0 from s0 to s1.
   [ 616,  667) -> It remains parked at station s1, which was charging for charging.
   [ 667,  727) -> Service a request driving for customer c148 from s1 to s1.
   [ 727,  735) -> It remains parked at station s1, which was charging for charging.
   [ 735,  915) -> Service a request driving for customer c98 from s1 to s11.
   [ 915,  968) -> It remains parked at station s11, which was charging for charging.
   [ 968, 1028) -> Service a request driving for customer c204 from s11 to s4.
   [1028, 1034) -> It remains parked at station s4, which was charging for charging.
   [1034, 1184) -> Service a request driving for customer c205 from s4 to s0.
   [1184, 1206) -> It remains parked at station s0, which was charging for charging.
   [1206, 1266) -> Service a request driving for customer c79 from s0 to s0.
   [1266, 1332) -> It remains parked at station s0, which was charging for charging.
   [1332, 1512) -> Service a request driving for customer c249 from s0 to s8.
   [1512, tmax) -> It remains parked at station s8, which was charging for charging.

Schedule for EV v1:
   [   0,  546) -> It remains parked at station s0, which was charging for charging.
   [ 546,  576) -> Service a request driving for customer c152 from s0 to s1.
   [ 576,  613) -> It remains parked at station s1, which was charging for charging.
   [ 613,  673) -> Service a request driving for customer c177 from s1 to s0.
   [ 673,  728) -> It remains parked at station s0, which was charging for charging.
   [ 728,  848) -> Service a request driving for customer c8 from s0 to s5.
   [ 848,  998) -> Service a request driving for customer c141 from s5 to s1.
   [ 998, 1026) -> It remains parked at station s1, which was charging for charging.
   [1026, 1086) -> Service a request driving for customer c156 from s1 to s8.
   [1086, 1176) -> Service a request driving for customer c243 from s8 to s1.
   [1176, 1205) -> It remains parked at station s1, which was charging for charging.
   [1205, 1535) -> Service a request driving for customer c128 from s1 to s11.
   [1535, tmax) -> It remains parked at station s11, which was charging for charging.

Schedule for EV v2:
   [   0,  612) -> It remains parked at station s0, which was charging for charging.
   [ 612,  672) -> Service a request driving for customer c178 from s0 to s11.
   [ 672,  727) -> It remains parked at station s11, which was charging for charging.
   [ 727,  817) -> Service a request driving for customer c32 from s11 to s3.
   [ 817,  915) -> It remains parked at station s3, which was charging for charging.
   [ 915,  945) -> Service a request driving for customer c162 from s3 to s11.
   [ 945,  970) -> It remains parked at station s11, which was charging for charging.
   [ 970, 1240) -> Service a request driving for customer c206 from s11 to s2.
   [1240, 1274) -> It remains parked at station s2, which was charging for charging.
   [1274, 1334) -> Service a request driving for customer c239 from s2 to s5.
   [1334, 1445) -> It remains parked at station s5, which was charging for charging.
   [1445, 1685) -> Service a request driving for customer c74 from s5 to s7.
   [1685, tmax) -> It remains parked at station s7, which was charging for charging.

Schedule for EV v3:
   [   0,  612) -> It remains parked at station s0, which was charging for charging.
   [ 612,  702) -> Service a request driving for customer c262 from s0 to s10.
   [ 702,  851) -> It remains parked at station s10, which was charging for charging.
   [ 851, 1091) -> Service a request driving for customer c242 from s10 to s5.
   [1091, 1093) -> It remains parked at station s5, which was charging for charging.
   [1093, 1303) -> Service a request driving for customer c80 from s5 to s1.
   [1303, 1326) -> It remains parked at station s1, which was charging for charging.
   [1326, 1386) -> Service a request driving for customer c142 from s1 to s8.
   [1386, tmax) -> It remains parked at station s8, which was charging for charging.

Schedule for EV v4:
   [   0,  553) -> It remains parked at station s1, which was charging for charging.
   [ 553,  703) -> Service a request driving for customer c15 from s1 to s1.
   [ 703,  725) -> It remains parked at station s1, which was charging for charging.
   [ 725,  815) -> Service a request driving for customer c167 from s1 to s1.
   [ 815,  845) -> It remains parked at station s1, which was charging for charging.
   [ 845,  905) -> Service a request driving for customer c91 from s1 to s9.
   [ 905,  967) -> It remains parked at station s9, which was charging for charging.
   [ 967, 1087) -> Service a request driving for customer c201 from s9 to s9.
   [1087, 1092) -> It remains parked at station s9, which was charging for charging.
   [1092, 1212) -> Service a request driving for customer c50 from s9 to s1.
   [1212, 1392) -> Service a request driving for customer c59 from s1 to s0.
   [1392, tmax) -> It remains parked at station s0, which was charging for charging.

Schedule for EV v5:
   [   0,  431) -> It remains parked at station s2, which was charging for charging.
   [ 431,  641) -> Service a request driving for customer c38 from s2 to s4.
   [ 641,  668) -> It remains parked at station s4, which was charging for charging.
   [ 668,  758) -> Service a request driving for customer c200 from s4 to s2.
   [ 758,  788) -> It remains parked at station s2, which was charging for charging.
   [ 788,  848) -> Service a request driving for customer c112 from s2 to s1.
   [ 848,  851) -> It remains parked at station s1, which was charging for charging.
   [ 851,  911) -> Service a request driving for customer c163 from s1 to s4.
   [ 911,  916) -> It remains parked at station s4, which was charging for charging.
   [ 916,  976) -> Service a request driving for customer c92 from s4 to s5.
   [ 976, 1028) -> It remains parked at station s5, which was charging for charging.
   [1028, 1088) -> Service a request driving for customer c250 from s5 to s1.
   [1088, 1096) -> It remains parked at station s1, which was charging for charging.
   [1096, 1246) -> Service a request driving for customer c182 from s1 to s5.
   [1246, 1271) -> It remains parked at station s5, which was charging for charging.
   [1271, 1601) -> Service a request driving for customer c153 from s5 to s11.
   [1601, tmax) -> It remains parked at station s11, which was charging for charging.

Schedule for EV v6:
   [   0,  556) -> It remains parked at station s5, which was charging for charging.
   [ 556,  646) -> Service a request driving for customer c109 from s5 to s11.
   [ 646,  666) -> It remains parked at station s11, which was charging for charging.
   [ 666,  816) -> Service a request driving for customer c209 from s11 to s4.
   [ 816,  847) -> It remains parked at station s4, which was charging for charging.
   [ 847, 1117) -> Service a request driving for customer c3 from s4 to s0.
   [1117, 1147) -> It remains parked at station s0, which was charging for charging.
   [1147, 1177) -> Service a request driving for customer c172 from s0 to s3.
   [1177, 1205) -> It remains parked at station s3, which was charging for charging.
   [1205, 1265) -> Service a request driving for customer c42 from s3 to s3.
   [1265, 1268) -> It remains parked at station s3, which was charging for charging.
   [1268, 1508) -> Service a request driving for customer c60 from s3 to s8.
   [1508, tmax) -> It remains parked at station s8, which was charging for charging.

Schedule for EV v7:
   [   0,  545) -> It remains parked at station s5, which was charging for charging.
   [ 545,  665) -> Service a request driving for customer c151 from s5 to s2.
   [ 665,  729) -> It remains parked at station s2, which was charging for charging.
   [ 729,  969) -> Service a request driving for customer c190 from s2 to s4.
   [ 969,  973) -> It remains parked at station s4, which was charging for charging.
   [ 973, 1273) -> Service a request driving for customer c226 from s4 to s4.
   [1273, 1329) -> It remains parked at station s4, which was charging for charging.
   [1329, 1509) -> Service a request driving for customer c198 from s4 to s3.
   [1509, tmax) -> It remains parked at station s3, which was charging for charging.

Schedule for EV v8:
   [   0,  556) -> It remains parked at station s6, which was charging for charging.
   [ 556,  586) -> Service a request driving for customer c68 from s6 to s10.
   [ 586,  849) -> It remains parked at station s10, which was charging for charging.
   [ 849,  909) -> Service a request driving for customer c33 from s10 to s11.
   [ 909, 1149) -> Service a request driving for customer c75 from s11 to s4.
   [1149, 1155) -> It remains parked at station s4, which was charging for charging.
   [1155, 1245) -> Service a request driving for customer c168 from s4 to s3.
   [1245, 1267) -> It remains parked at station s3, which was charging for charging.
   [1267, 1327) -> Service a request driving for customer c247 from s3 to s11.
   [1327, 1333) -> It remains parked at station s11, which was charging for charging.
   [1333, 1483) -> Service a request driving for customer c213 from s11 to s1.
   [1483, tmax) -> It remains parked at station s1, which was charging for charging.

Schedule for EV v9:
   [   0,  613) -> It remains parked at station s7, which was charging for charging.
   [ 613,  823) -> Service a request driving for customer c25 from s7 to s6.
   [ 823,  850) -> It remains parked at station s6, which was charging for charging.
   [ 850,  880) -> Service a request driving for customer c35 from s6 to s2.
   [ 880,  906) -> It remains parked at station s2, which was charging for charging.
   [ 906,  936) -> Service a request driving for customer c202 from s2 to s8.
   [ 936,  974) -> It remains parked at station s8, which was charging for charging.
   [ 974, 1244) -> Service a request driving for customer c146 from s8 to s1.
   [1244, 1265) -> It remains parked at station s1, which was charging for charging.
   [1265, 1385) -> Service a request driving for customer c36 from s1 to s3.
   [1385, 1505) -> Service a request driving for customer c173 from s3 to s7.
   [1505, tmax) -> It remains parked at station s7, which was charging for charging.

Schedule for EV v10:
   [   0,  608) -> It remains parked at station s8, which was charging for charging.
   [ 608,  668) -> Service a request driving for customer c164 from s8 to s11.
   [ 668,  669) -> It remains parked at station s11, which was charging for charging.
   [ 669,  729) -> Service a request driving for customer c218 from s11 to s8.
   [ 729,  732) -> It remains parked at station s8, which was charging for charging.
   [ 732,  792) -> Service a request driving for customer c231 from s8 to s0.
   [ 792,  795) -> It remains parked at station s0, which was charging for charging.
   [ 795,  885) -> Service a request driving for customer c117 from s0 to s1.
   [ 885,  911) -> It remains parked at station s1, which was charging for charging.
   [ 911, 1031) -> Service a request driving for customer c241 from s1 to s2.
   [1031, 1034) -> It remains parked at station s2, which was charging for charging.
   [1034, 1124) -> Service a request driving for customer c143 from s2 to s5.
   [1124, 1155) -> It remains parked at station s5, which was charging for charging.
   [1155, 1455) -> Service a request driving for customer c158 from s5 to s9.
   [1455, tmax) -> It remains parked at station s9, which was charging for charging.

Schedule for EV v11:
   [   0,  495) -> It remains parked at station s8, which was charging for charging.
   [ 495,  555) -> Service a request driving for customer c102 from s8 to s3.
   [ 555,  665) -> It remains parked at station s3, which was charging for charging.
   [ 665,  725) -> Service a request driving for customer c17 from s3 to s1.
   [ 725,  728) -> It remains parked at station s1, which was charging for charging.
   [ 728,  998) -> Service a request driving for customer c211 from s1 to s1.
   [ 998, 1029) -> It remains parked at station s1, which was charging for charging.
   [1029, 1089) -> Service a request driving for customer c7 from s1 to s1.
   [1089, 1092) -> It remains parked at station s1, which was charging for charging.
   [1092, 1362) -> Service a request driving for customer c176 from s1 to s11.
   [1362, tmax) -> It remains parked at station s11, which was charging for charging.

Schedule for EV v12:
   [   0,  615) -> It remains parked at station s9, which was charging for charging.
   [ 615,  795) -> Service a request driving for customer c224 from s9 to s1.
   [ 795,  796) -> It remains parked at station s1, which was charging for charging.
   [ 796,  826) -> Service a request driving for customer c130 from s1 to s9.
   [ 826,  849) -> It remains parked at station s9, which was charging for charging.
   [ 849,  909) -> Service a request driving for customer c134 from s9 to s0.
   [ 909,  913) -> It remains parked at station s0, which was charging for charging.
   [ 913,  973) -> Service a request driving for customer c103 from s0 to s3.
   [ 973,  974) -> It remains parked at station s3, which was charging for charging.
   [ 974, 1034) -> Service a request driving for customer c96 from s3 to s9.
   [1034, 1035) -> It remains parked at station s9, which was charging for charging.
   [1035, 1095) -> Service a request driving for customer c150 from s9 to s8.
   [1095, 1215) -> Service a request driving for customer c52 from s8 to s4.
   [1215, 1274) -> It remains parked at station s4, which was charging for charging.
   [1274, 1514) -> Service a request driving for customer c207 from s4 to s3.
   [1514, tmax) -> It remains parked at station s3, which was charging for charging.

Schedule for EV v13:
   [   0,  431) -> It remains parked at station s10, which was charging for charging.
   [ 431,  521) -> Service a request driving for customer c193 from s10 to s11.
   [ 521,  609) -> It remains parked at station s11, which was charging for charging.
   [ 609,  669) -> Service a request driving for customer c180 from s11 to s5.
   [ 669,  730) -> It remains parked at station s5, which was charging for charging.
   [ 730,  910) -> Service a request driving for customer c136 from s5 to s5.
   [ 910,  915) -> It remains parked at station s5, which was charging for charging.
   [ 915,  945) -> Service a request driving for customer c116 from s5 to s5.
   [ 945,  966) -> It remains parked at station s5, which was charging for charging.
   [ 966, 1086) -> Service a request driving for customer c49 from s5 to s4.
   [1086, 1236) -> Service a request driving for customer c40 from s4 to s0.
   [1236, 1267) -> It remains parked at station s0, which was charging for charging.
   [1267, 1507) -> Service a request driving for customer c104 from s0 to s10.
   [1507, tmax) -> It remains parked at station s10, which was charging for charging.

Schedule for EV v14:
   [   0,  434) -> It remains parked at station s10, which was charging for charging.
   [ 434,  494) -> Service a request driving for customer c227 from s10 to s1.
   [ 494,  549) -> It remains parked at station s1, which was charging for charging.
   [ 549,  639) -> Service a request driving for customer c73 from s1 to s0.
   [ 639,  672) -> It remains parked at station s0, which was charging for charging.
   [ 672,  702) -> Service a request driving for customer c53 from s0 to s8.
   [ 702,  785) -> It remains parked at station s8, which was charging for charging.
   [ 785, 1055) -> Service a request driving for customer c220 from s8 to s0.
   [1055, 1087) -> It remains parked at station s0, which was charging for charging.
   [1087, 1417) -> Service a request driving for customer c255 from s0 to s9.
   [1417, tmax) -> It remains parked at station s9, which was charging for charging.

Set of satisfied customers
   {c0, c3, c7, c8, c15, c17, c25, c32, c33, c35, c36, c38, c40, c42, c49, c50, c52, c53, c59, c60, c68, c73, c74, c75, c79, c80, c91, c92, c96, c98, c102, c103, c104, c109, c112, c116, c117, c128, c130, c134, c136, c141, c142, c143, c146, c148, c150, c151, c152, c153, c156, c158, c162, c163, c164, c167, c168, c172, c173, c176, c177, c178, c180, c182, c190, c193, c198, c200, c201, c202, c204, c205, c206, c207, c209, c211, c213, c218, c220, c224, c226, c227, c231, c239, c241, c242, c243, c247, c249, c250, c255, c262}

