Academic license - for non-commercial use only
Gurobi Optimizer version 9.0.3 build v9.0.3rc0 (linux64)
Optimize a model with 10313 rows, 13426 columns and 46148 nonzeros
Model fingerprint: 0xc620a95c
Variable types: 10035 continuous, 3391 integer (3391 binary)
Coefficient statistics:
  Matrix range     [1e+00, 6e+06]
  Objective range  [3e+01, 4e+02]
  Bounds range     [1e+00, 2e+06]
  RHS range        [1e+00, 2e+06]

Loaded user MIP start with objective 5610

Presolve removed 2702 rows and 2946 columns
Presolve time: 0.13s
Presolved: 7611 rows, 10480 columns, 43151 nonzeros
Variable types: 816 continuous, 9664 integer (7143 binary)

Root simplex log...

Iteration    Objective       Primal Inf.    Dual Inf.      Time
   16810    2.1989808e+04   4.322609e+06   0.000000e+00      5s
   26910    1.2659783e+04   4.763412e+06   0.000000e+00     10s
   36406    1.1849455e+04   8.741652e+05   0.000000e+00     15s
   38268    1.1850000e+04   0.000000e+00   0.000000e+00     16s

Root relaxation: objective 1.185000e+04, 38268 iterations, 16.05 seconds

    Nodes    |    Current Node    |     Objective Bounds      |     Work
 Expl Unexpl |  Obj  Depth IntInf | Incumbent    BestBd   Gap | It/Node Time

     0     0 11850.0000    0 2699 5610.00000 11850.0000   111%     -   20s
H    0     0                    10380.000000 11850.0000  14.2%     -   20s
     0     0 11850.0000    0 2762 10380.0000 11850.0000  14.2%     -   22s
H    0     0                    11220.000000 11850.0000  5.61%     -   22s
     0     0 11850.0000    0 2740 11220.0000 11850.0000  5.61%     -   22s
     0     0 11850.0000    0 2723 11220.0000 11850.0000  5.61%     -   26s
     0     0 11850.0000    0 2650 11220.0000 11850.0000  5.61%     -   27s
     0     0 11850.0000    0 2611 11220.0000 11850.0000  5.61%     -   30s
     0     0 11850.0000    0 2591 11220.0000 11850.0000  5.61%     -   30s
     0     0 11850.0000    0 2506 11220.0000 11850.0000  5.61%     -   34s
     0     0 11850.0000    0 2503 11220.0000 11850.0000  5.61%     -   37s
H    0     0                    11280.000000 11850.0000  5.05%     -   38s
H    0     0                    11370.000000 11850.0000  4.22%     -   38s
H    0     0                    11850.000000 11850.0000  0.00%     -   38s
     0     0 11850.0000    0 2503 11850.0000 11850.0000  0.00%     -   38s

Cutting planes:
  Gomory: 1
  Implied bound: 82
  MIR: 1
  RLT: 5
  Relax-and-lift: 3

Explored 1 nodes (78201 simplex iterations) in 38.87 seconds
Thread count was 1 (of 40 available processors)

Solution count 6: 11850 11370 11280 ... 5610

Optimal solution found (tolerance 1.00e-04)
Best objective 1.185000000000e+04, best bound 1.185000000000e+04, gap 0.0000%

----------

Best objective (UB): 11850.000
Best feasible solution (LB): 11850.000
Gap between the lower bound and upper bound: 0.000%

----------

Number of customers served: 86

Schedule for EV v0:
   [   0,  550) -> It remains parked at station s0, which was charging for charging.
   [ 550,  610) -> Service a request driving for customer c28 from s0 to s11.
   [ 610,  640) -> Service a request driving for customer c266 from s11 to s7.
   [ 640,  665) -> It remains parked at station s7, which was charging for charging.
   [ 665,  905) -> Service a request driving for customer c42 from s7 to s11.
   [ 905,  975) -> It remains parked at station s11, which was charging for charging.
   [ 975, 1095) -> Service a request driving for customer c121 from s11 to s0.
   [1095, 1245) -> Service a request driving for customer c51 from s0 to s8.
   [1245, 1268) -> It remains parked at station s8, which was charging for charging.
   [1268, 1328) -> Service a request driving for customer c32 from s8 to s11.
   [1328, 1330) -> It remains parked at station s11, which was charging for charging.
   [1330, 1600) -> Service a request driving for customer c113 from s11 to s1.
   [1600, tmax) -> It remains parked at station s1, which was charging for charging.

Schedule for EV v1:
   [   0,  429) -> It remains parked at station s0, which was charging for charging.
   [ 429,  489) -> Service a request driving for customer c23 from s0 to s5.
   [ 489,  609) -> Service a request driving for customer c240 from s5 to s4.
   [ 609,  612) -> It remains parked at station s4, which was charging for charging.
   [ 612,  672) -> Service a request driving for customer c227 from s4 to s1.
   [ 672,  673) -> It remains parked at station s1, which was charging for charging.
   [ 673,  823) -> Service a request driving for customer c148 from s1 to s4.
   [ 823,  848) -> It remains parked at station s4, which was charging for charging.
   [ 848, 1118) -> Service a request driving for customer c158 from s4 to s7.
   [1118, 1153) -> It remains parked at station s7, which was charging for charging.
   [1153, 1183) -> Service a request driving for customer c1 from s7 to s1.
   [1183, 1205) -> It remains parked at station s1, which was charging for charging.
   [1205, 1265) -> Service a request driving for customer c129 from s1 to s0.
   [1265, 1325) -> It remains parked at station s0, which was charging for charging.
   [1325, 1505) -> Service a request driving for customer c197 from s0 to s11.
   [1505, tmax) -> It remains parked at station s11, which was charging for charging.

Schedule for EV v2:
   [   0,  613) -> It remains parked at station s1, which was charging for charging.
   [ 613,  763) -> Service a request driving for customer c242 from s1 to s8.
   [ 763,  787) -> It remains parked at station s8, which was charging for charging.
   [ 787,  817) -> Service a request driving for customer c241 from s8 to s0.
   [ 817,  856) -> It remains parked at station s0, which was charging for charging.
   [ 856, 1006) -> Service a request driving for customer c215 from s0 to s5.
   [1006, 1032) -> It remains parked at station s5, which was charging for charging.
   [1032, 1302) -> Service a request driving for customer c99 from s5 to s2.
   [1302, 1327) -> It remains parked at station s2, which was charging for charging.
   [1327, 1447) -> Service a request driving for customer c184 from s2 to s3.
   [1447, tmax) -> It remains parked at station s3, which was charging for charging.

Schedule for EV v3:
   [   0,  431) -> It remains parked at station s3, which was charging for charging.
   [ 431,  491) -> Service a request driving for customer c125 from s3 to s1.
   [ 491,  545) -> It remains parked at station s1, which was charging for charging.
   [ 545,  575) -> Service a request driving for customer c17 from s1 to s7.
   [ 575,  609) -> It remains parked at station s7, which was charging for charging.
   [ 609,  669) -> Service a request driving for customer c220 from s7 to s2.
   [ 669,  672) -> It remains parked at station s2, which was charging for charging.
   [ 672,  852) -> Service a request driving for customer c74 from s2 to s10.
   [ 852,  855) -> It remains parked at station s10, which was charging for charging.
   [ 855,  915) -> Service a request driving for customer c168 from s10 to s4.
   [ 915,  916) -> It remains parked at station s4, which was charging for charging.
   [ 916,  976) -> Service a request driving for customer c100 from s4 to s0.
   [ 976, 1006) -> Service a request driving for customer c136 from s0 to s4.
   [1006, 1034) -> It remains parked at station s4, which was charging for charging.
   [1034, 1094) -> Service a request driving for customer c119 from s4 to s3.
   [1094, 1154) -> It remains parked at station s3, which was charging for charging.
   [1154, 1454) -> Service a request driving for customer c281 from s3 to s5.
   [1454, tmax) -> It remains parked at station s5, which was charging for charging.

Schedule for EV v4:
   [   0,  365) -> It remains parked at station s3, which was charging for charging.
   [ 365,  485) -> Service a request driving for customer c138 from s3 to s1.
   [ 485,  553) -> It remains parked at station s1, which was charging for charging.
   [ 553,  823) -> Service a request driving for customer c169 from s1 to s1.
   [ 823,  853) -> It remains parked at station s1, which was charging for charging.
   [ 853, 1063) -> Service a request driving for customer c112 from s1 to s10.
   [1063, 1146) -> It remains parked at station s10, which was charging for charging.
   [1146, 1206) -> Service a request driving for customer c143 from s10 to s2.
   [1206, 1211) -> It remains parked at station s2, which was charging for charging.
   [1211, 1511) -> Service a request driving for customer c107 from s2 to s6.
   [1511, tmax) -> It remains parked at station s6, which was charging for charging.

Schedule for EV v5:
   [   0,  496) -> It remains parked at station s4, which was charging for charging.
   [ 496,  526) -> Service a request driving for customer c249 from s4 to s7.
   [ 526,  553) -> It remains parked at station s7, which was charging for charging.
   [ 553,  763) -> Service a request driving for customer c93 from s7 to s4.
   [ 763,  847) -> It remains parked at station s4, which was charging for charging.
   [ 847, 1147) -> Service a request driving for customer c275 from s4 to s1.
   [1147, 1151) -> It remains parked at station s1, which was charging for charging.
   [1151, 1241) -> Service a request driving for customer c19 from s1 to s0.
   [1241, 1273) -> It remains parked at station s0, which was charging for charging.
   [1273, 1453) -> Service a request driving for customer c71 from s0 to s11.
   [1453, tmax) -> It remains parked at station s11, which was charging for charging.

Schedule for EV v6:
   [   0,  849) -> It remains parked at station s6, which was charging for charging.
   [ 849,  909) -> Service a request driving for customer c230 from s6 to s10.
   [ 909,  966) -> It remains parked at station s10, which was charging for charging.
   [ 966, 1026) -> Service a request driving for customer c225 from s10 to s8.
   [1026, 1033) -> It remains parked at station s8, which was charging for charging.
   [1033, 1273) -> Service a request driving for customer c186 from s8 to s1.
   [1273, 1325) -> It remains parked at station s1, which was charging for charging.
   [1325, 1565) -> Service a request driving for customer c124 from s1 to s11.
   [1565, tmax) -> It remains parked at station s11, which was charging for charging.

Schedule for EV v7:
   [   0,  848) -> It remains parked at station s6, which was charging for charging.
   [ 848,  908) -> Service a request driving for customer c52 from s6 to s11.
   [ 908,  912) -> It remains parked at station s11, which was charging for charging.
   [ 912, 1092) -> Service a request driving for customer c166 from s11 to s6.
   [1092, 1326) -> It remains parked at station s6, which was charging for charging.
   [1326, 1596) -> Service a request driving for customer c157 from s6 to s6.
   [1596, tmax) -> It remains parked at station s6, which was charging for charging.

Schedule for EV v8:
   [   0,  846) -> It remains parked at station s6, which was charging for charging.
   [ 846,  996) -> Service a request driving for customer c135 from s6 to s11.
   [ 996, 1093) -> It remains parked at station s11, which was charging for charging.
   [1093, 1243) -> Service a request driving for customer c265 from s11 to s4.
   [1243, 1265) -> It remains parked at station s4, which was charging for charging.
   [1265, 1325) -> Service a request driving for customer c69 from s4 to s3.
   [1325, 1334) -> It remains parked at station s3, which was charging for charging.
   [1334, 1364) -> Service a request driving for customer c151 from s3 to s6.
   [1364, 1389) -> It remains parked at station s6, which was charging for charging.
   [1389, 1569) -> Service a request driving for customer c108 from s6 to s0.
   [1569, tmax) -> It remains parked at station s0, which was charging for charging.

Schedule for EV v9:
   [   0,  373) -> It remains parked at station s6, which was charging for charging.
   [ 373,  463) -> Service a request driving for customer c31 from s6 to s7.
   [ 463,  492) -> It remains parked at station s7, which was charging for charging.
   [ 492,  522) -> Service a request driving for customer c164 from s7 to s3.
   [ 522,  545) -> It remains parked at station s3, which was charging for charging.
   [ 545,  905) -> Service a request driving for customer c88 from s3 to s5.
   [ 905,  908) -> It remains parked at station s5, which was charging for charging.
   [ 908,  968) -> Service a request driving for customer c219 from s5 to s0.
   [ 968,  972) -> It remains parked at station s0, which was charging for charging.
   [ 972, 1032) -> Service a request driving for customer c43 from s0 to s1.
   [1032, 1122) -> Service a request driving for customer c47 from s1 to s1.
   [1122, 1155) -> It remains parked at station s1, which was charging for charging.
   [1155, 1425) -> Service a request driving for customer c182 from s1 to s0.
   [1425, tmax) -> It remains parked at station s0, which was charging for charging.

Schedule for EV v10:
   [   0,  430) -> It remains parked at station s7, which was charging for charging.
   [ 430,  580) -> Service a request driving for customer c274 from s7 to s10.
   [ 580,  613) -> It remains parked at station s10, which was charging for charging.
   [ 613,  673) -> Service a request driving for customer c284 from s10 to s4.
   [ 673,  793) -> Service a request driving for customer c40 from s4 to s3.
   [ 793,  794) -> It remains parked at station s3, which was charging for charging.
   [ 794,  854) -> Service a request driving for customer c187 from s3 to s3.
   [ 854, 1034) -> Service a request driving for customer c101 from s3 to s1.
   [1034, 1089) -> It remains parked at station s1, which was charging for charging.
   [1089, 1299) -> Service a request driving for customer c62 from s1 to s11.
   [1299, 1326) -> It remains parked at station s11, which was charging for charging.
   [1326, 1476) -> Service a request driving for customer c259 from s11 to s9.
   [1476, tmax) -> It remains parked at station s9, which was charging for charging.

Schedule for EV v11:
   [   0,  616) -> It remains parked at station s9, which was charging for charging.
   [ 616,  706) -> Service a request driving for customer c7 from s9 to s4.
   [ 706,  732) -> It remains parked at station s4, which was charging for charging.
   [ 732,  822) -> Service a request driving for customer c238 from s4 to s1.
   [ 822,  907) -> It remains parked at station s1, which was charging for charging.
   [ 907, 1147) -> Service a request driving for customer c68 from s1 to s11.
   [1147, 1149) -> It remains parked at station s11, which was charging for charging.
   [1149, 1359) -> Service a request driving for customer c267 from s11 to s0.
   [1359, 1394) -> It remains parked at station s0, which was charging for charging.
   [1394, 1514) -> Service a request driving for customer c46 from s0 to s10.
   [1514, tmax) -> It remains parked at station s10, which was charging for charging.

Schedule for EV v12:
   [   0,  847) -> It remains parked at station s9, which was charging for charging.
   [ 847,  967) -> Service a request driving for customer c175 from s9 to s2.
   [ 967,  971) -> It remains parked at station s2, which was charging for charging.
   [ 971, 1001) -> Service a request driving for customer c233 from s2 to s3.
   [1001, 1026) -> It remains parked at station s3, which was charging for charging.
   [1026, 1086) -> Service a request driving for customer c75 from s3 to s0.
   [1086, 1087) -> It remains parked at station s0, which was charging for charging.
   [1087, 1327) -> Service a request driving for customer c139 from s0 to s4.
   [1327, 1395) -> It remains parked at station s4, which was charging for charging.
   [1395, 1485) -> Service a request driving for customer c282 from s4 to s9.
   [1485, tmax) -> It remains parked at station s9, which was charging for charging.

Schedule for EV v13:
   [   0,  493) -> It remains parked at station s10, which was charging for charging.
   [ 493,  673) -> Service a request driving for customer c30 from s10 to s8.
   [ 673,  728) -> It remains parked at station s8, which was charging for charging.
   [ 728,  968) -> Service a request driving for customer c247 from s8 to s0.
   [ 968,  973) -> It remains parked at station s0, which was charging for charging.
   [ 973, 1303) -> Service a request driving for customer c60 from s0 to s5.
   [1303, 1393) -> It remains parked at station s5, which was charging for charging.
   [1393, 1543) -> Service a request driving for customer c27 from s5 to s5.
   [1543, tmax) -> It remains parked at station s5, which was charging for charging.

Schedule for EV v14:
   [   0,  366) -> It remains parked at station s11, which was charging for charging.
   [ 366,  636) -> Service a request driving for customer c45 from s11 to s3.
   [ 636,  676) -> It remains parked at station s3, which was charging for charging.
   [ 676,  706) -> Service a request driving for customer c181 from s3 to s0.
   [ 706,  727) -> It remains parked at station s0, which was charging for charging.
   [ 727,  757) -> Service a request driving for customer c263 from s0 to s3.
   [ 757,  787) -> It remains parked at station s3, which was charging for charging.
   [ 787,  877) -> Service a request driving for customer c81 from s3 to s8.
   [ 877,  907) -> It remains parked at station s8, which was charging for charging.
   [ 907, 1027) -> Service a request driving for customer c268 from s8 to s9.
   [1027, 1032) -> It remains parked at station s9, which was charging for charging.
   [1032, 1152) -> Service a request driving for customer c24 from s9 to s4.
   [1152, 1392) -> Service a request driving for customer c55 from s4 to s11.
   [1392, tmax) -> It remains parked at station s11, which was charging for charging.

Set of satisfied customers
   {c1, c7, c17, c19, c23, c24, c27, c28, c30, c31, c32, c40, c42, c43, c45, c46, c47, c51, c52, c55, c60, c62, c68, c69, c71, c74, c75, c81, c88, c93, c99, c100, c101, c107, c108, c112, c113, c119, c121, c124, c125, c129, c135, c136, c138, c139, c143, c148, c151, c157, c158, c164, c166, c168, c169, c175, c181, c182, c184, c186, c187, c197, c215, c219, c220, c225, c227, c230, c233, c238, c240, c241, c242, c247, c249, c259, c263, c265, c266, c267, c268, c274, c275, c281, c282, c284}

