Academic license - for non-commercial use only
Gurobi Optimizer version 9.0.3 build v9.0.3rc0 (linux64)
Optimize a model with 33435 rows, 35235 columns and 108182 nonzeros
Model fingerprint: 0xd17cbb23
Variable types: 33405 continuous, 1830 integer (1830 binary)
Coefficient statistics:
  Matrix range     [1e+00, 4e+06]
  Objective range  [3e+01, 6e+02]
  Bounds range     [1e+00, 2e+06]
  RHS range        [1e+00, 2e+06]

Loaded user MIP start with objective 1020

Presolve removed 30751 rows and 32107 columns
Presolve time: 0.18s
Presolved: 2684 rows, 3128 columns, 21702 nonzeros
Variable types: 0 continuous, 3128 integer (1480 binary)

Root relaxation: objective 5.430000e+03, 2772 iterations, 0.23 seconds

    Nodes    |    Current Node    |     Objective Bounds      |     Work
 Expl Unexpl |  Obj  Depth IntInf | Incumbent    BestBd   Gap | It/Node Time

     0     0 5430.00000    0  403 1020.00000 5430.00000   432%     -    0s
     0     0 5385.00000    0  441 1020.00000 5385.00000   428%     -    0s
H    0     0                    5280.0000000 5385.00000  1.99%     -    0s
     0     0 5385.00000    0  395 5280.00000 5385.00000  1.99%     -    0s
     0     0 5310.00009    0  206 5280.00000 5310.00009  0.57%     -    1s
     0     0 5310.00009    0  202 5280.00000 5310.00009  0.57%     -    1s
     0     0 5310.00009    0  326 5280.00000 5310.00009  0.57%     -    1s
     0     0 infeasible    0      5280.00000 5280.00000  0.00%     -    1s

Explored 1 nodes (6557 simplex iterations) in 1.32 seconds
Thread count was 1 (of 40 available processors)

Solution count 2: 5280 1020 

Optimal solution found (tolerance 1.00e-04)
Best objective 5.280000000000e+03, best bound 5.280000000000e+03, gap 0.0000%

----------

Best objective (UB): 5280.000
Best feasible solution (LB): 5280.000
Gap between the lower bound and upper bound: 0.000%

----------

Number of customers served: 21

Schedule for EV v0:
   [   0,  726) -> It remains parked at station s0, which was charging for charging.
   [ 726,  816) -> Service a request driving for customer c53 from s0 to s3.
   [ 816,  847) -> It remains parked at station s3, which was charging for charging.
   [ 847,  967) -> Service a request driving for customer c8 from s3 to s2.
   [ 967, 1033) -> It remains parked at station s2, which was charging for charging.
   [1033, 1183) -> Service a request driving for customer c13 from s2 to s4.
   [1183, 1272) -> It remains parked at station s4, which was charging for charging.
   [1272, 1422) -> Service a request driving for customer c5 from s4 to s1.
   [1422, tmax) -> It remains parked at station s1, which was charging for charging.

Schedule for EV v1:
   [   0,  612) -> It remains parked at station s2, which was charging for charging.
   [ 612,  672) -> Service a request driving for customer c31 from s2 to s4.
   [ 672,  789) -> It remains parked at station s4, which was charging for charging.
   [ 789,  849) -> Service a request driving for customer c18 from s4 to s4.
   [ 849,  854) -> It remains parked at station s4, which was charging for charging.
   [ 854,  914) -> Service a request driving for customer c37 from s4 to s0.
   [ 914, 1026) -> It remains parked at station s0, which was charging for charging.
   [1026, 1296) -> Service a request driving for customer c53 from s0 to s2.
   [1296, tmax) -> It remains parked at station s2, which was charging for charging.

Schedule for EV v2:
   [   0,  732) -> It remains parked at station s2, which was charging for charging.
   [ 732, 1062) -> Service a request driving for customer c11 from s2 to s1.
   [1062, 1331) -> It remains parked at station s1, which was charging for charging.
   [1331, 1601) -> Service a request driving for customer c45 from s1 to s4.
   [1601, tmax) -> It remains parked at station s4, which was charging for charging.

Schedule for EV v3:
   [   0,  553) -> It remains parked at station s3, which was charging for charging.
   [ 553,  793) -> Service a request driving for customer c37 from s3 to s8.
   [ 793, 1214) -> It remains parked at station s8, which was charging for charging.
   [1214, 1304) -> Service a request driving for customer c31 from s8 to s8.
   [1304, tmax) -> It remains parked at station s8, which was charging for charging.

Schedule for EV v4:
   [   0,  435) -> It remains parked at station s4, which was charging for charging.
   [ 435,  495) -> Service a request driving for customer c18 from s4 to s1.
   [ 495,  552) -> It remains parked at station s1, which was charging for charging.
   [ 552,  612) -> Service a request driving for customer c34 from s1 to s3.
   [ 612,  787) -> It remains parked at station s3, which was charging for charging.
   [ 787,  967) -> Service a request driving for customer c57 from s3 to s5.
   [ 967,  971) -> It remains parked at station s5, which was charging for charging.
   [ 971, 1031) -> Service a request driving for customer c18 from s5 to s0.
   [1031, 1036) -> It remains parked at station s0, which was charging for charging.
   [1036, 1276) -> Service a request driving for customer c7 from s0 to s11.
   [1276, 1325) -> It remains parked at station s11, which was charging for charging.
   [1325, 1415) -> Service a request driving for customer c41 from s11 to s11.
   [1415, tmax) -> It remains parked at station s11, which was charging for charging.

Schedule for EV v5:
   [   0,  671) -> It remains parked at station s6, which was charging for charging.
   [ 671,  911) -> Service a request driving for customer c13 from s6 to s8.
   [ 911, 1036) -> It remains parked at station s8, which was charging for charging.
   [1036, 1096) -> Service a request driving for customer c48 from s8 to s8.
   [1096, 1208) -> It remains parked at station s8, which was charging for charging.
   [1208, 1568) -> Service a request driving for customer c12 from s8 to s1.
   [1568, tmax) -> It remains parked at station s1, which was charging for charging.

Schedule for EV v6:
   [   0,  496) -> It remains parked at station s7, which was charging for charging.
   [ 496,  526) -> Service a request driving for customer c10 from s7 to s4.
   [ 526,  556) -> It remains parked at station s4, which was charging for charging.
   [ 556,  856) -> Service a request driving for customer c45 from s4 to s4.
   [ 856, tmax) -> It remains parked at station s4, which was charging for charging.

Schedule for EV v7:
   [   0,  732) -> It remains parked at station s9, which was charging for charging.
   [ 732,  822) -> Service a request driving for customer c38 from s9 to s3.
   [ 822, 1025) -> It remains parked at station s3, which was charging for charging.
   [1025, 1055) -> Service a request driving for customer c34 from s3 to s0.
   [1055, tmax) -> It remains parked at station s0, which was charging for charging.

Schedule for EV v8:
   [   0,  970) -> It remains parked at station s9, which was charging for charging.
   [ 970, 1150) -> Service a request driving for customer c19 from s9 to s4.
   [1150, tmax) -> It remains parked at station s4, which was charging for charging.

Schedule for EV v9:
   [   0,  673) -> It remains parked at station s10, which was charging for charging.
   [ 673,  733) -> Service a request driving for customer c33 from s10 to s6.
   [ 733, tmax) -> It remains parked at station s6, which was charging for charging.

Schedule for EV v10:
   [   0,  607) -> It remains parked at station s10, which was charging for charging.
   [ 607,  637) -> Service a request driving for customer c5 from s10 to s7.
   [ 637,  911) -> It remains parked at station s7, which was charging for charging.
   [ 911,  971) -> Service a request driving for customer c34 from s7 to s1.
   [ 971, 1213) -> It remains parked at station s1, which was charging for charging.
   [1213, 1393) -> Service a request driving for customer c8 from s1 to s5.
   [1393, tmax) -> It remains parked at station s5, which was charging for charging.

Schedule for EV v11:
   [   0,  614) -> It remains parked at station s11, which was charging for charging.
   [ 614,  644) -> Service a request driving for customer c18 from s11 to s1.
   [ 644,  672) -> It remains parked at station s1, which was charging for charging.
   [ 672,  852) -> Service a request driving for customer c24 from s1 to s1.
   [ 852, 1267) -> It remains parked at station s1, which was charging for charging.
   [1267, 1297) -> Service a request driving for customer c38 from s1 to s7.
   [1297, tmax) -> It remains parked at station s7, which was charging for charging.

Schedule for EV v12:
   [   0,  849) -> It remains parked at station s11, which was charging for charging.
   [ 849,  969) -> Service a request driving for customer c53 from s11 to s7.
   [ 969, 1036) -> It remains parked at station s7, which was charging for charging.
   [1036, 1096) -> Service a request driving for customer c33 from s7 to s5.
   [1096, tmax) -> It remains parked at station s5, which was charging for charging.

Schedule for EV v13:
   [   0,  726) -> It remains parked at station s11, which was charging for charging.
   [ 726,  786) -> Service a request driving for customer c40 from s11 to s1.
   [ 786,  908) -> It remains parked at station s1, which was charging for charging.
   [ 908, 1088) -> Service a request driving for customer c40 from s1 to s11.
   [1088, 1090) -> It remains parked at station s11, which was charging for charging.
   [1090, 1150) -> Service a request driving for customer c11 from s11 to s6.
   [1150, 1329) -> It remains parked at station s6, which was charging for charging.
   [1329, 1479) -> Service a request driving for customer c10 from s6 to s11.
   [1479, tmax) -> It remains parked at station s11, which was charging for charging.

Schedule for EV v14:
   [   0,  545) -> It remains parked at station s11, which was charging for charging.
   [ 545,  575) -> Service a request driving for customer c19 from s11 to s2.
   [ 575, 1085) -> It remains parked at station s2, which was charging for charging.
   [1085, 1115) -> Service a request driving for customer c38 from s2 to s3.
   [1115, 1268) -> It remains parked at station s3, which was charging for charging.
   [1268, 1328) -> Service a request driving for customer c48 from s3 to s6.
   [1328, 1332) -> It remains parked at station s6, which was charging for charging.
   [1332, 1422) -> Service a request driving for customer c33 from s6 to s1.
   [1422, tmax) -> It remains parked at station s1, which was charging for charging.

Set of satisfied customers
   {c5, c7, c8, c10, c11, c12, c13, c18, c19, c24, c31, c33, c34, c37, c38, c40, c41, c45, c48, c53, c57}

