Academic license - for non-commercial use only
Gurobi Optimizer version 9.0.3 build v9.0.3rc0 (linux64)
Optimize a model with 37367 rows, 39385 columns and 121038 nonzeros
Model fingerprint: 0xd8d31e1a
Variable types: 37315 continuous, 2070 integer (2070 binary)
Coefficient statistics:
  Matrix range     [1e+00, 4e+06]
  Objective range  [3e+01, 5e+02]
  Bounds range     [1e+00, 2e+06]
  RHS range        [1e+00, 2e+06]

Loaded user MIP start with objective 1980

Presolve removed 33945 rows and 35309 columns
Presolve time: 0.23s
Presolved: 3422 rows, 4076 columns, 26683 nonzeros
Variable types: 0 continuous, 4076 integer (2148 binary)

Root relaxation: objective 6.298636e+03, 4942 iterations, 0.71 seconds

    Nodes    |    Current Node    |     Objective Bounds      |     Work
 Expl Unexpl |  Obj  Depth IntInf | Incumbent    BestBd   Gap | It/Node Time

     0     0 6298.63636    0  906 1980.00000 6298.63636   218%     -    1s
     0     0 6273.75003    0  969 1980.00000 6273.75003   217%     -    1s
     0     0 6272.65825    0 1060 1980.00000 6272.65825   217%     -    1s
     0     0 6272.65825    0  994 1980.00000 6272.65825   217%     -    2s
     0     0 6258.24797    0 1123 1980.00000 6258.24797   216%     -    2s
     0     0 6257.80326    0 1132 1980.00000 6257.80326   216%     -    2s
     0     0 6257.22999    0 1064 1980.00000 6257.22999   216%     -    2s
     0     0 6255.05233    0 1126 1980.00000 6255.05233   216%     -    2s
     0     0 6254.78276    0 1179 1980.00000 6254.78276   216%     -    2s
     0     0 6254.78276    0 1164 1980.00000 6254.78276   216%     -    2s
     0     0 6254.78276    0 1179 1980.00000 6254.78276   216%     -    3s
     0     0 6254.78276    0 1089 1980.00000 6254.78276   216%     -    3s
     0     0 6254.78276    0 1118 1980.00000 6254.78276   216%     -    3s
     0     0 6254.78276    0 1086 1980.00000 6254.78276   216%     -    3s
     0     0 6254.78276    0 1094 1980.00000 6254.78276   216%     -    4s
     0     0 6254.78276    0 1081 1980.00000 6254.78276   216%     -    4s
H    0     0                    5430.0000000 6254.78276  15.2%     -    5s
     0     2 6254.54682    0 1079 5430.00000 6254.54682  15.2%     -    5s
H    6     6                    6150.0000000 6228.57398  1.28%   910    6s

Cutting planes:
  Gomory: 4
  Implied bound: 522
  Clique: 3
  MIR: 7
  Zero half: 3
  RLT: 27
  Relax-and-lift: 2

Explored 26 nodes (25208 simplex iterations) in 6.71 seconds
Thread count was 1 (of 40 available processors)

Solution count 3: 6150 5430 1980 

Optimal solution found (tolerance 1.00e-04)
Best objective 6.150000000000e+03, best bound 6.150000000000e+03, gap 0.0000%

----------

Best objective (UB): 6150.000
Best feasible solution (LB): 6150.000
Gap between the lower bound and upper bound: 0.000%

----------

Number of customers served: 29

Schedule for EV v0:
   [   0,  486) -> It remains parked at station s1, which was charging for charging.
   [ 486,  786) -> Service a request driving for customer c61 from s1 to s0.
   [ 786,  856) -> It remains parked at station s0, which was charging for charging.
   [ 856,  916) -> Service a request driving for customer c42 from s0 to s2.
   [ 916,  971) -> It remains parked at station s2, which was charging for charging.
   [ 971, 1031) -> Service a request driving for customer c25 from s2 to s0.
   [1031, 1271) -> Service a request driving for customer c17 from s0 to s10.
   [1271, tmax) -> It remains parked at station s10, which was charging for charging.

Schedule for EV v1:
   [   0,  490) -> It remains parked at station s1, which was charging for charging.
   [ 490,  550) -> Service a request driving for customer c7 from s1 to s1.
   [ 550,  916) -> It remains parked at station s1, which was charging for charging.
   [ 916,  946) -> Service a request driving for customer c62 from s1 to s5.
   [ 946,  970) -> It remains parked at station s5, which was charging for charging.
   [ 970, 1090) -> Service a request driving for customer c37 from s5 to s10.
   [1090, 1209) -> It remains parked at station s10, which was charging for charging.
   [1209, 1299) -> Service a request driving for customer c22 from s10 to s0.
   [1299, 1329) -> It remains parked at station s0, which was charging for charging.
   [1329, 1539) -> Service a request driving for customer c64 from s0 to s11.
   [1539, tmax) -> It remains parked at station s11, which was charging for charging.

Schedule for EV v2:
   [   0,  671) -> It remains parked at station s2, which was charging for charging.
   [ 671, 1001) -> Service a request driving for customer c7 from s2 to s4.
   [1001, 1085) -> It remains parked at station s4, which was charging for charging.
   [1085, 1175) -> Service a request driving for customer c68 from s4 to s2.
   [1175, 1269) -> It remains parked at station s2, which was charging for charging.
   [1269, 1329) -> Service a request driving for customer c25 from s2 to s1.
   [1329, tmax) -> It remains parked at station s1, which was charging for charging.

Schedule for EV v3:
   [   0,  605) -> It remains parked at station s2, which was charging for charging.
   [ 605,  635) -> Service a request driving for customer c30 from s2 to s1.
   [ 635,  915) -> It remains parked at station s1, which was charging for charging.
   [ 915,  945) -> Service a request driving for customer c61 from s1 to s0.
   [ 945, 1027) -> It remains parked at station s0, which was charging for charging.
   [1027, 1057) -> Service a request driving for customer c38 from s0 to s3.
   [1057, 1085) -> It remains parked at station s3, which was charging for charging.
   [1085, 1295) -> Service a request driving for customer c3 from s3 to s6.
   [1295, 1326) -> It remains parked at station s6, which was charging for charging.
   [1326, 1356) -> Service a request driving for customer c15 from s6 to s4.
   [1356, tmax) -> It remains parked at station s4, which was charging for charging.

Schedule for EV v4:
   [   0,  668) -> It remains parked at station s3, which was charging for charging.
   [ 668,  758) -> Service a request driving for customer c30 from s3 to s9.
   [ 758, 1275) -> It remains parked at station s9, which was charging for charging.
   [1275, 1485) -> Service a request driving for customer c34 from s9 to s1.
   [1485, tmax) -> It remains parked at station s1, which was charging for charging.

Schedule for EV v5:
   [   0,  430) -> It remains parked at station s3, which was charging for charging.
   [ 430,  550) -> Service a request driving for customer c52 from s3 to s0.
   [ 550,  671) -> It remains parked at station s0, which was charging for charging.
   [ 671,  881) -> Service a request driving for customer c2 from s0 to s0.
   [ 881,  969) -> It remains parked at station s0, which was charging for charging.
   [ 969, 1239) -> Service a request driving for customer c64 from s0 to s0.
   [1239, tmax) -> It remains parked at station s0, which was charging for charging.

Schedule for EV v6:
   [   0,  615) -> It remains parked at station s3, which was charging for charging.
   [ 615,  675) -> Service a request driving for customer c48 from s3 to s1.
   [ 675,  790) -> It remains parked at station s1, which was charging for charging.
   [ 790,  850) -> Service a request driving for customer c30 from s1 to s0.
   [ 850,  854) -> It remains parked at station s0, which was charging for charging.
   [ 854, 1064) -> Service a request driving for customer c9 from s0 to s0.
   [1064, 1092) -> It remains parked at station s0, which was charging for charging.
   [1092, 1152) -> Service a request driving for customer c27 from s0 to s1.
   [1152, tmax) -> It remains parked at station s1, which was charging for charging.

Schedule for EV v7:
   [   0,  493) -> It remains parked at station s4, which was charging for charging.
   [ 493,  583) -> Service a request driving for customer c17 from s4 to s4.
   [ 583,  611) -> It remains parked at station s4, which was charging for charging.
   [ 611,  701) -> Service a request driving for customer c25 from s4 to s8.
   [ 701,  735) -> It remains parked at station s8, which was charging for charging.
   [ 735,  795) -> Service a request driving for customer c27 from s8 to s2.
   [ 795, 1096) -> It remains parked at station s2, which was charging for charging.
   [1096, 1156) -> Service a request driving for customer c2 from s2 to s6.
   [1156, 1216) -> It remains parked at station s6, which was charging for charging.
   [1216, 1276) -> Service a request driving for customer c47 from s6 to s8.
   [1276, tmax) -> It remains parked at station s8, which was charging for charging.

Schedule for EV v8:
   [   0,  791) -> It remains parked at station s5, which was charging for charging.
   [ 791, 1091) -> Service a request driving for customer c28 from s5 to s8.
   [1091, 1152) -> It remains parked at station s8, which was charging for charging.
   [1152, 1452) -> Service a request driving for customer c42 from s8 to s3.
   [1452, tmax) -> It remains parked at station s3, which was charging for charging.

Schedule for EV v9:
   [   0,  856) -> It remains parked at station s7, which was charging for charging.
   [ 856,  916) -> Service a request driving for customer c15 from s7 to s11.
   [ 916, 1026) -> It remains parked at station s11, which was charging for charging.
   [1026, 1176) -> Service a request driving for customer c7 from s11 to s11.
   [1176, tmax) -> It remains parked at station s11, which was charging for charging.

Schedule for EV v10:
   [   0,  736) -> It remains parked at station s7, which was charging for charging.
   [ 736,  796) -> Service a request driving for customer c9 from s7 to s4.
   [ 796,  852) -> It remains parked at station s4, which was charging for charging.
   [ 852,  882) -> Service a request driving for customer c20 from s4 to s4.
   [ 882, 1205) -> It remains parked at station s4, which was charging for charging.
   [1205, 1325) -> Service a request driving for customer c48 from s4 to s10.
   [1325, tmax) -> It remains parked at station s10, which was charging for charging.

Schedule for EV v11:
   [   0,  788) -> It remains parked at station s7, which was charging for charging.
   [ 788,  938) -> Service a request driving for customer c63 from s7 to s10.
   [ 938,  974) -> It remains parked at station s10, which was charging for charging.
   [ 974, 1184) -> Service a request driving for customer c30 from s10 to s0.
   [1184, tmax) -> It remains parked at station s0, which was charging for charging.

Schedule for EV v12:
   [   0,  556) -> It remains parked at station s8, which was charging for charging.
   [ 556,  616) -> Service a request driving for customer c39 from s8 to s3.
   [ 616,  735) -> It remains parked at station s3, which was charging for charging.
   [ 735,  825) -> Service a request driving for customer c13 from s3 to s11.
   [ 825, 1092) -> It remains parked at station s11, which was charging for charging.
   [1092, 1182) -> Service a request driving for customer c47 from s11 to s7.
   [1182, 1270) -> It remains parked at station s7, which was charging for charging.
   [1270, 1510) -> Service a request driving for customer c36 from s7 to s11.
   [1510, tmax) -> It remains parked at station s11, which was charging for charging.

Schedule for EV v13:
   [   0,  733) -> It remains parked at station s9, which was charging for charging.
   [ 733,  913) -> Service a request driving for customer c22 from s9 to s3.
   [ 913,  967) -> It remains parked at station s3, which was charging for charging.
   [ 967, 1267) -> Service a request driving for customer c45 from s3 to s0.
   [1267, tmax) -> It remains parked at station s0, which was charging for charging.

Schedule for EV v14:
   [   0,  675) -> It remains parked at station s10, which was charging for charging.
   [ 675,  735) -> Service a request driving for customer c38 from s10 to s6.
   [ 735, 1028) -> It remains parked at station s6, which was charging for charging.
   [1028, 1118) -> Service a request driving for customer c8 from s6 to s1.
   [1118, 1148) -> It remains parked at station s1, which was charging for charging.
   [1148, 1178) -> Service a request driving for customer c63 from s1 to s3.
   [1178, tmax) -> It remains parked at station s3, which was charging for charging.

Set of satisfied customers
   {c2, c3, c7, c8, c9, c13, c15, c17, c20, c22, c25, c27, c28, c30, c34, c36, c37, c38, c39, c42, c45, c47, c48, c52, c61, c62, c63, c64, c68}

