Academic license - for non-commercial use only
Gurobi Optimizer version 9.0.3 build v9.0.3rc0 (linux64)
Optimize a model with 41350 rows, 43935 columns and 136245 nonzeros
Model fingerprint: 0x5cd15874
Variable types: 41235 continuous, 2700 integer (2700 binary)
Coefficient statistics:
  Matrix range     [1e+00, 4e+06]
  Objective range  [3e+01, 4e+02]
  Bounds range     [1e+00, 2e+06]
  RHS range        [1e+00, 2e+06]

Loaded user MIP start with objective 2130

Presolve removed 36160 rows and 37520 columns
Presolve time: 0.34s
Presolved: 5190 rows, 6415 columns, 41943 nonzeros
Variable types: 0 continuous, 6415 integer (3842 binary)

Root relaxation: objective 6.700000e+03, 12776 iterations, 4.04 seconds
Total elapsed time = 5.70s

    Nodes    |    Current Node    |     Objective Bounds      |     Work
 Expl Unexpl |  Obj  Depth IntInf | Incumbent    BestBd   Gap | It/Node Time

     0     0 6700.00000    0 1771 2130.00000 6700.00000   215%     -    6s
     0     0 6675.58826    0 1861 2130.00000 6675.58826   213%     -    8s
     0     0 6675.58826    0 1738 2130.00000 6675.58826   213%     -    9s
     0     0 6636.80853    0 1925 2130.00000 6636.80853   212%     -   11s
     0     0 6626.02617    0 1889 2130.00000 6626.02617   211%     -   12s
     0     0 6626.02617    0 1786 2130.00000 6626.02617   211%     -   12s
     0     0 6625.27276    0 1759 2130.00000 6625.27276   211%     -   14s
     0     0 6625.27276    0 1685 2130.00000 6625.27276   211%     -   14s
     0     0 6625.27276    0 1815 2130.00000 6625.27276   211%     -   15s
     0     0 6625.27276    0 1695 2130.00000 6625.27276   211%     -   15s
     0     0 6625.27276    0 1717 2130.00000 6625.27276   211%     -   18s
     0     0 6625.27276    0 1690 2130.00000 6625.27276   211%     -   19s
H    0     0                    6180.0000000 6625.27276  7.21%     -   19s
     0     2 6625.24488    0 1675 6180.00000 6625.24488  7.20%     -   23s
     5     5     cutoff    4      6180.00000 6622.62269  7.16%  2294   25s
H   27    21                    6450.0000000 6622.62269  2.68%   832   29s
*   34     8              27    6570.0000000 6622.62269  0.80%   682   29s

Cutting planes:
  Gomory: 7
  Implied bound: 802
  Clique: 17
  MIR: 2
  Zero half: 2
  RLT: 77
  Relax-and-lift: 30

Explored 44 nodes (69742 simplex iterations) in 29.96 seconds
Thread count was 1 (of 40 available processors)

Solution count 4: 6570 6450 6180 2130 

Optimal solution found (tolerance 1.00e-04)
Best objective 6.570000000000e+03, best bound 6.570000000000e+03, gap 0.0000%

----------

Best objective (UB): 6570.000
Best feasible solution (LB): 6570.000
Gap between the lower bound and upper bound: 0.000%

----------

Number of customers served: 33

Schedule for EV v0:
   [   0,  369) -> It remains parked at station s0, which was charging for charging.
   [ 369,  429) -> Service a request driving for customer c0 from s0 to s3.
   [ 429,  430) -> It remains parked at station s3, which was charging for charging.
   [ 430,  490) -> Service a request driving for customer c67 from s3 to s0.
   [ 490,  555) -> It remains parked at station s0, which was charging for charging.
   [ 555,  615) -> Service a request driving for customer c70 from s0 to s8.
   [ 615,  796) -> It remains parked at station s8, which was charging for charging.
   [ 796, 1006) -> Service a request driving for customer c62 from s8 to s11.
   [1006, 1036) -> It remains parked at station s11, which was charging for charging.
   [1036, 1216) -> Service a request driving for customer c47 from s11 to s11.
   [1216, 1330) -> It remains parked at station s11, which was charging for charging.
   [1330, 1360) -> Service a request driving for customer c84 from s11 to s4.
   [1360, tmax) -> It remains parked at station s4, which was charging for charging.

Schedule for EV v1:
   [   0,  606) -> It remains parked at station s1, which was charging for charging.
   [ 606,  786) -> Service a request driving for customer c79 from s1 to s3.
   [ 786,  794) -> It remains parked at station s3, which was charging for charging.
   [ 794, 1034) -> Service a request driving for customer c0 from s3 to s4.
   [1034, 1086) -> It remains parked at station s4, which was charging for charging.
   [1086, 1116) -> Service a request driving for customer c89 from s4 to s8.
   [1116, 1270) -> It remains parked at station s8, which was charging for charging.
   [1270, 1360) -> Service a request driving for customer c42 from s8 to s0.
   [1360, tmax) -> It remains parked at station s0, which was charging for charging.

Schedule for EV v2:
   [   0,  786) -> It remains parked at station s3, which was charging for charging.
   [ 786,  816) -> Service a request driving for customer c32 from s3 to s0.
   [ 816,  846) -> It remains parked at station s0, which was charging for charging.
   [ 846,  936) -> Service a request driving for customer c38 from s0 to s1.
   [ 936, 1028) -> It remains parked at station s1, which was charging for charging.
   [1028, 1088) -> Service a request driving for customer c22 from s1 to s0.
   [1088, 1268) -> It remains parked at station s0, which was charging for charging.
   [1268, 1358) -> Service a request driving for customer c75 from s0 to s2.
   [1358, tmax) -> It remains parked at station s2, which was charging for charging.

Schedule for EV v3:
   [   0,  495) -> It remains parked at station s4, which was charging for charging.
   [ 495,  585) -> Service a request driving for customer c51 from s4 to s11.
   [ 585,  792) -> It remains parked at station s11, which was charging for charging.
   [ 792,  822) -> Service a request driving for customer c50 from s11 to s4.
   [ 822,  850) -> It remains parked at station s4, which was charging for charging.
   [ 850,  940) -> Service a request driving for customer c87 from s4 to s6.
   [ 940, 1028) -> It remains parked at station s6, which was charging for charging.
   [1028, 1058) -> Service a request driving for customer c75 from s6 to s9.
   [1058, 1448) -> It remains parked at station s9, which was charging for charging.
   [1448, 1478) -> Service a request driving for customer c1 from s9 to s1.
   [1478, tmax) -> It remains parked at station s1, which was charging for charging.

Schedule for EV v4:
   [   0,  726) -> It remains parked at station s7, which was charging for charging.
   [ 726,  816) -> Service a request driving for customer c29 from s7 to s8.
   [ 816,  852) -> It remains parked at station s8, which was charging for charging.
   [ 852,  912) -> Service a request driving for customer c32 from s8 to s5.
   [ 912, 1096) -> It remains parked at station s5, which was charging for charging.
   [1096, 1126) -> Service a request driving for customer c75 from s5 to s1.
   [1126, 1152) -> It remains parked at station s1, which was charging for charging.
   [1152, 1212) -> Service a request driving for customer c10 from s1 to s10.
   [1212, tmax) -> It remains parked at station s10, which was charging for charging.

Schedule for EV v5:
   [   0,  431) -> It remains parked at station s7, which was charging for charging.
   [ 431,  491) -> Service a request driving for customer c30 from s7 to s1.
   [ 491,  551) -> It remains parked at station s1, which was charging for charging.
   [ 551,  791) -> Service a request driving for customer c28 from s1 to s1.
   [ 791,  796) -> It remains parked at station s1, which was charging for charging.
   [ 796,  916) -> Service a request driving for customer c75 from s1 to s4.
   [ 916, 1032) -> It remains parked at station s4, which was charging for charging.
   [1032, 1122) -> Service a request driving for customer c50 from s4 to s1.
   [1122, 1212) -> It remains parked at station s1, which was charging for charging.
   [1212, 1422) -> Service a request driving for customer c28 from s1 to s8.
   [1422, tmax) -> It remains parked at station s8, which was charging for charging.

Schedule for EV v6:
   [   0,  433) -> It remains parked at station s8, which was charging for charging.
   [ 433,  583) -> Service a request driving for customer c47 from s8 to s10.
   [ 583,  665) -> It remains parked at station s10, which was charging for charging.
   [ 665,  845) -> Service a request driving for customer c46 from s10 to s11.
   [ 845,  968) -> It remains parked at station s11, which was charging for charging.
   [ 968, 1238) -> Service a request driving for customer c37 from s11 to s10.
   [1238, 1266) -> It remains parked at station s10, which was charging for charging.
   [1266, 1326) -> Service a request driving for customer c88 from s10 to s5.
   [1326, tmax) -> It remains parked at station s5, which was charging for charging.

Schedule for EV v7:
   [   0,  905) -> It remains parked at station s8, which was charging for charging.
   [ 905, 1025) -> Service a request driving for customer c48 from s8 to s0.
   [1025, 1146) -> It remains parked at station s0, which was charging for charging.
   [1146, 1386) -> Service a request driving for customer c8 from s0 to s0.
   [1386, tmax) -> It remains parked at station s0, which was charging for charging.

Schedule for EV v8:
   [   0,  667) -> It remains parked at station s8, which was charging for charging.
   [ 667,  727) -> Service a request driving for customer c84 from s8 to s0.
   [ 727,  853) -> It remains parked at station s0, which was charging for charging.
   [ 853,  913) -> Service a request driving for customer c30 from s0 to s1.
   [ 913, 1030) -> It remains parked at station s1, which was charging for charging.
   [1030, 1120) -> Service a request driving for customer c17 from s1 to s11.
   [1120, 1146) -> It remains parked at station s11, which was charging for charging.
   [1146, 1206) -> Service a request driving for customer c51 from s11 to s3.
   [1206, 1267) -> It remains parked at station s3, which was charging for charging.
   [1267, 1327) -> Service a request driving for customer c86 from s3 to s4.
   [1327, 1334) -> It remains parked at station s4, which was charging for charging.
   [1334, 1394) -> Service a request driving for customer c46 from s4 to s4.
   [1394, tmax) -> It remains parked at station s4, which was charging for charging.

Schedule for EV v9:
   [   0,  614) -> It remains parked at station s8, which was charging for charging.
   [ 614,  674) -> Service a request driving for customer c8 from s8 to s11.
   [ 674, 1094) -> It remains parked at station s11, which was charging for charging.
   [1094, 1154) -> Service a request driving for customer c67 from s11 to s6.
   [1154, 1270) -> It remains parked at station s6, which was charging for charging.
   [1270, 1390) -> Service a request driving for customer c50 from s6 to s4.
   [1390, 1420) -> Service a request driving for customer c32 from s4 to s7.
   [1420, tmax) -> It remains parked at station s7, which was charging for charging.

Schedule for EV v10:
   [   0,  731) -> It remains parked at station s9, which was charging for charging.
   [ 731,  851) -> Service a request driving for customer c52 from s9 to s1.
   [ 851,  854) -> It remains parked at station s1, which was charging for charging.
   [ 854,  914) -> Service a request driving for customer c85 from s1 to s0.
   [ 914,  976) -> It remains parked at station s0, which was charging for charging.
   [ 976, 1036) -> Service a request driving for customer c57 from s0 to s4.
   [1036, 1089) -> It remains parked at station s4, which was charging for charging.
   [1089, 1149) -> Service a request driving for customer c29 from s4 to s0.
   [1149, 1334) -> It remains parked at station s0, which was charging for charging.
   [1334, 1604) -> Service a request driving for customer c19 from s0 to s10.
   [1604, tmax) -> It remains parked at station s10, which was charging for charging.

Schedule for EV v11:
   [   0,  668) -> It remains parked at station s9, which was charging for charging.
   [ 668,  788) -> Service a request driving for customer c70 from s9 to s5.
   [ 788, 1033) -> It remains parked at station s5, which was charging for charging.
   [1033, 1093) -> Service a request driving for customer c67 from s5 to s7.
   [1093, 1270) -> It remains parked at station s7, which was charging for charging.
   [1270, 1510) -> Service a request driving for customer c48 from s7 to s0.
   [1510, tmax) -> It remains parked at station s0, which was charging for charging.

Schedule for EV v12:
   [   0,  729) -> It remains parked at station s9, which was charging for charging.
   [ 729,  819) -> Service a request driving for customer c57 from s9 to s3.
   [ 819,  911) -> It remains parked at station s3, which was charging for charging.
   [ 911, 1031) -> Service a request driving for customer c1 from s3 to s3.
   [1031, 1326) -> It remains parked at station s3, which was charging for charging.
   [1326, 1386) -> Service a request driving for customer c17 from s3 to s11.
   [1386, tmax) -> It remains parked at station s11, which was charging for charging.

Schedule for EV v13:
   [   0,  967) -> It remains parked at station s9, which was charging for charging.
   [ 967, 1027) -> Service a request driving for customer c10 from s9 to s4.
   [1027, 1029) -> It remains parked at station s4, which was charging for charging.
   [1029, 1209) -> Service a request driving for customer c79 from s4 to s9.
   [1209, 1211) -> It remains parked at station s9, which was charging for charging.
   [1211, 1421) -> Service a request driving for customer c5 from s9 to s1.
   [1421, tmax) -> It remains parked at station s1, which was charging for charging.

Schedule for EV v14:
   [   0,  611) -> It remains parked at station s10, which was charging for charging.
   [ 611,  791) -> Service a request driving for customer c50 from s10 to s5.
   [ 791, 1269) -> It remains parked at station s5, which was charging for charging.
   [1269, 1329) -> Service a request driving for customer c0 from s5 to s1.
   [1329, 1331) -> It remains parked at station s1, which was charging for charging.
   [1331, 1631) -> Service a request driving for customer c86 from s1 to s0.
   [1631, tmax) -> It remains parked at station s0, which was charging for charging.

Set of satisfied customers
   {c0, c1, c5, c8, c10, c17, c19, c22, c28, c29, c30, c32, c37, c38, c42, c46, c47, c48, c50, c51, c52, c57, c62, c67, c70, c75, c79, c84, c85, c86, c87, c88, c89}

