Academic license - for non-commercial use only
Gurobi Optimizer version 9.0.3 build v9.0.3rc0 (linux64)
Optimize a model with 4674 rows, 8825 columns and 33809 nonzeros
Model fingerprint: 0xb5e05749
Variable types: 4557 continuous, 4268 integer (4268 binary)
Coefficient statistics:
  Matrix range     [1e+00, 1e+06]
  Objective range  [3e+01, 3e+02]
  Bounds range     [1e+00, 2e+06]
  RHS range        [1e+00, 2e+06]

Loaded user MIP start with objective 2141

Presolve removed 604 rows and 716 columns
Presolve time: 0.10s
Presolved: 4070 rows, 8109 columns, 33109 nonzeros
Variable types: 40 continuous, 8069 integer (6323 binary)

Root relaxation: objective 3.288000e+03, 13335 iterations, 4.39 seconds
Total elapsed time = 6.74s
Total elapsed time = 11.30s

    Nodes    |    Current Node    |     Objective Bounds      |     Work
 Expl Unexpl |  Obj  Depth IntInf | Incumbent    BestBd   Gap | It/Node Time

     0     0 3288.00000    0 1512 2141.00000 3288.00000  53.6%     -   12s
     0     0 3288.00000    0 1978 2141.00000 3288.00000  53.6%     -   13s
     0     0 3288.00000    0 2000 2141.00000 3288.00000  53.6%     -   14s
     0     0 3288.00000    0 1456 2141.00000 3288.00000  53.6%     -   22s
     0     0 3288.00000    0 1523 2141.00000 3288.00000  53.6%     -   22s
     0     0 3288.00000    0 1338 2141.00000 3288.00000  53.6%     -   30s
H    0     0                    3007.0000000 3288.00000  9.34%     -   30s
     0     0 3288.00000    0 1420 3007.00000 3288.00000  9.34%     -   30s
     0     0 3288.00000    0 1197 3007.00000 3288.00000  9.34%     -   36s
     0     0 3288.00000    0 1194 3007.00000 3288.00000  9.34%     -   39s
     0     2 3288.00000    0 1194 3007.00000 3288.00000  9.34%     -   46s
    10    12 3288.00000    6 1551 3007.00000 3288.00000  9.34%  1898   50s
    38    40 3288.00000   25 1301 3007.00000 3288.00000  9.34%  1057   55s
H   46     3                    3288.0000000 3288.00000  0.00%   967   56s

Cutting planes:
  Implied bound: 366
  MIR: 12
  StrongCG: 1
  RLT: 86
  Relax-and-lift: 68

Explored 47 nodes (192882 simplex iterations) in 56.18 seconds
Thread count was 1 (of 40 available processors)

Solution count 3: 3288 3007 2141 

Optimal solution found (tolerance 1.00e-04)
Best objective 3.288000000000e+03, best bound 3.288000000000e+03, gap 0.0000%

----------

Best objective (UB): 3288.000
Best feasible solution (LB): 3288.000
Gap between the lower bound and upper bound: 0.000%

----------

Number of customers served: 28

Schedule for EV v0:
   [   0,  430) -> It remains parked at station s0.
   [ 430,  488) -> Service a request driving for customer c6 from s0 to s2.
   [ 488, 1100) -> It remains parked at station s2, which was charging for charging.
   [1100, 1168) -> Service a request driving for customer c11 from s2 to s0.
   [1168, tmax) -> It remains parked at station s0.

Schedule for EV v1:
   [   0,  470) -> It remains parked at station s0.
   [ 470,  543) -> Service a request driving for customer c14 from s0 to s2.
   [ 543, tmax) -> It remains parked at station s2.

Schedule for EV v2:
   [   0,  445) -> It remains parked at station s0.
   [ 445,  503) -> Service a request driving for customer c12 from s0 to s2.
   [ 503,  635) -> It remains parked at station s2, which was charging for charging.
   [ 635,  676) -> Service a request driving for customer c5 from s2 to s1.
   [ 676, tmax) -> It remains parked at station s1.

Schedule for EV v3:
   [   0,  435) -> It remains parked at station s0.
   [ 435,  488) -> Service a request driving for customer c29 from s0 to s1.
   [ 488,  495) -> It remains parked at station s1.
   [ 495,  541) -> Service a request driving for customer c29 from s1 to s2.
   [ 541,  680) -> It remains parked at station s2, which was charging for charging.
   [ 680,  716) -> Service a request driving for customer c23 from s2 to s1.
   [ 716,  980) -> It remains parked at station s1.
   [ 980, 1016) -> Service a request driving for customer c18 from s1 to s2.
   [1016, 1130) -> It remains parked at station s2, which was charging for charging.
   [1130, 1176) -> Service a request driving for customer c8 from s2 to s1.
   [1176, 1290) -> It remains parked at station s1, which was charging for charging.
   [1290, 1353) -> Service a request driving for customer c3 from s1 to s0.
   [1353, tmax) -> It remains parked at station s0, which was charging for charging.

Schedule for EV v4:
   [   0,  480) -> It remains parked at station s0.
   [ 480,  533) -> Service a request driving for customer c25 from s0 to s1.
   [ 533,  900) -> It remains parked at station s1, which was charging for charging.
   [ 900,  953) -> Service a request driving for customer c17 from s1 to s0.
   [ 953,  960) -> It remains parked at station s0, which was charging for charging.
   [ 960, 1033) -> Service a request driving for customer c1 from s0 to s1.
   [1033, 1105) -> It remains parked at station s1.
   [1105, 1141) -> Service a request driving for customer c25 from s1 to s2.
   [1141, 1365) -> It remains parked at station s2.
   [1365, 1423) -> Service a request driving for customer c2 from s2 to s0.
   [1423, tmax) -> It remains parked at station s0.

Schedule for EV v5:
   [   0,  450) -> It remains parked at station s0.
   [ 450,  528) -> Service a request driving for customer c9 from s0 to s2.
   [ 528,  545) -> It remains parked at station s2.
   [ 545,  618) -> Service a request driving for customer c6 from s2 to s0.
   [ 618,  655) -> It remains parked at station s0.
   [ 655,  713) -> Service a request driving for customer c15 from s0 to s2.
   [ 713, tmax) -> It remains parked at station s2.

Schedule for EV v6:
   [   0,  325) -> It remains parked at station s0.
   [ 325,  383) -> Service a request driving for customer c22 from s0 to s1.
   [ 383,  430) -> It remains parked at station s1.
   [ 430,  471) -> Service a request driving for customer c11 from s1 to s2.
   [ 471, tmax) -> It remains parked at station s2.

Schedule for EV v7:
   [   0,  540) -> It remains parked at station s1.
   [ 540,  576) -> Service a request driving for customer c22 from s1 to s2.
   [ 576, tmax) -> It remains parked at station s2.

Schedule for EV v8:
   [   0,  350) -> It remains parked at station s1.
   [ 350,  428) -> Service a request driving for customer c12 from s1 to s0.
   [ 428,  855) -> It remains parked at station s0, which was charging for charging.
   [ 855,  918) -> Service a request driving for customer c16 from s0 to s2.
   [ 918, 1060) -> It remains parked at station s2, which was charging for charging.
   [1060, 1111) -> Service a request driving for customer c13 from s2 to s1.
   [1111, 1170) -> It remains parked at station s1, which was charging for charging.
   [1170, 1201) -> Service a request driving for customer c6 from s1 to s2.
   [1201, tmax) -> It remains parked at station s2.

Schedule for EV v9:
   [   0, tmax) -> It remains parked at station s1.

Schedule for EV v10:
   [   0,  365) -> It remains parked at station s1.
   [ 365,  423) -> Service a request driving for customer c28 from s1 to s0.
   [ 423, 1095) -> It remains parked at station s0.
   [1095, 1158) -> Service a request driving for customer c28 from s0 to s2.
   [1158, tmax) -> It remains parked at station s2.

Schedule for EV v11:
   [   0,  550) -> It remains parked at station s1.
   [ 550,  596) -> Service a request driving for customer c0 from s1 to s2.
   [ 596,  725) -> It remains parked at station s2.
   [ 725,  776) -> Service a request driving for customer c22 from s2 to s1.
   [ 776, 1105) -> It remains parked at station s1, which was charging for charging.
   [1105, 1156) -> Service a request driving for customer c12 from s1 to s2.
   [1156, tmax) -> It remains parked at station s2, which was charging for charging.

Schedule for EV v12:
   [   0,  580) -> It remains parked at station s1.
   [ 580,  653) -> Service a request driving for customer c15 from s1 to s0.
   [ 653,  875) -> It remains parked at station s0, which was charging for charging.
   [ 875,  943) -> Service a request driving for customer c2 from s0 to s2.
   [ 943, 1055) -> It remains parked at station s2.
   [1055, 1086) -> Service a request driving for customer c10 from s2 to s1.
   [1086, 1095) -> It remains parked at station s1.
   [1095, 1131) -> Service a request driving for customer c20 from s1 to s2.
   [1131, tmax) -> It remains parked at station s2, which was charging for charging.

Schedule for EV v13:
   [   0,  490) -> It remains parked at station s1.
   [ 490,  548) -> Service a request driving for customer c4 from s1 to s0.
   [ 548,  590) -> It remains parked at station s0, which was charging for charging.
   [ 590,  653) -> Service a request driving for customer c13 from s0 to s2.
   [ 653,  875) -> It remains parked at station s2, which was charging for charging.
   [ 875,  926) -> Service a request driving for customer c7 from s2 to s1.
   [ 926,  960) -> It remains parked at station s1, which was charging for charging.
   [ 960, 1038) -> Service a request driving for customer c3 from s1 to s0.
   [1038, 1065) -> It remains parked at station s0.
   [1065, 1138) -> Service a request driving for customer c29 from s0 to s1.
   [1138, tmax) -> It remains parked at station s1.

Schedule for EV v14:
   [   0,  770) -> It remains parked at station s2.
   [ 770,  843) -> Service a request driving for customer c29 from s2 to s0.
   [ 843, 1050) -> It remains parked at station s0.
   [1050, 1123) -> Service a request driving for customer c21 from s0 to s2.
   [1123, tmax) -> It remains parked at station s2, which was charging for charging.

Schedule for EV v15:
   [   0,  595) -> It remains parked at station s2.
   [ 595,  658) -> Service a request driving for customer c21 from s2 to s0.
   [ 658, 1055) -> It remains parked at station s0.
   [1055, 1133) -> Service a request driving for customer c4 from s0 to s1.
   [1133, tmax) -> It remains parked at station s1.

Schedule for EV v16:
   [   0,  575) -> It remains parked at station s2.
   [ 575,  653) -> Service a request driving for customer c19 from s2 to s0.
   [ 653, 1020) -> It remains parked at station s0.
   [1020, 1073) -> Service a request driving for customer c17 from s0 to s1.
   [1073, tmax) -> It remains parked at station s1.

Schedule for EV v17:
   [   0,  510) -> It remains parked at station s2.
   [ 510,  556) -> Service a request driving for customer c3 from s2 to s1.
   [ 556,  635) -> It remains parked at station s1.
   [ 635,  686) -> Service a request driving for customer c7 from s1 to s2.
   [ 686,  810) -> It remains parked at station s2, which was charging for charging.
   [ 810,  873) -> Service a request driving for customer c9 from s2 to s0.
   [ 873,  995) -> It remains parked at station s0.
   [ 995, 1053) -> Service a request driving for customer c6 from s0 to s1.
   [1053, 1160) -> It remains parked at station s1, which was charging for charging.
   [1160, 1218) -> Service a request driving for customer c22 from s1 to s0.
   [1218, tmax) -> It remains parked at station s0.

Schedule for EV v18:
   [   0,  650) -> It remains parked at station s2.
   [ 650,  733) -> Service a request driving for customer c14 from s2 to s0.
   [ 733, 1055) -> It remains parked at station s0.
   [1055, 1133) -> Service a request driving for customer c3 from s0 to s1.
   [1133, tmax) -> It remains parked at station s1.

Schedule for EV v19:
   [   0,  335) -> It remains parked at station s2.
   [ 335,  371) -> Service a request driving for customer c0 from s2 to s1.
   [ 371,  585) -> It remains parked at station s1, which was charging for charging.
   [ 585,  636) -> Service a request driving for customer c26 from s1 to s2.
   [ 636,  730) -> It remains parked at station s2.
   [ 730,  771) -> Service a request driving for customer c12 from s2 to s1.
   [ 771,  795) -> It remains parked at station s1.
   [ 795,  836) -> Service a request driving for customer c23 from s1 to s2.
   [ 836, 1130) -> It remains parked at station s2.
   [1130, 1176) -> Service a request driving for customer c16 from s2 to s1.
   [1176, tmax) -> It remains parked at station s1, which was charging for charging.

Set of satisfied customers
   {c0, c1, c2, c3, c4, c5, c6, c7, c8, c9, c10, c11, c12, c13, c14, c15, c16, c17, c18, c19, c20, c21, c22, c23, c25, c26, c28, c29}

