Academic license - for non-commercial use only
Gurobi Optimizer version 9.0.3 build v9.0.3rc0 (linux64)
Optimize a model with 9383 rows, 18585 columns and 72836 nonzeros
Model fingerprint: 0x6a9fd2e0
Variable types: 9199 continuous, 9386 integer (9386 binary)
Coefficient statistics:
  Matrix range     [1e+00, 4e+06]
  Objective range  [7e+01, 4e+02]
  Bounds range     [1e+00, 2e+06]
  RHS range        [1e+00, 2e+06]

Loaded user MIP start with objective 5449

Presolve removed 1175 rows and 1421 columns
Presolve time: 0.17s
Presolved: 8208 rows, 17164 columns, 71435 nonzeros
Variable types: 222 continuous, 16942 integer (13693 binary)

Root simplex log...

Iteration    Objective       Primal Inf.    Dual Inf.      Time
   15101    9.9639314e+03   2.811002e+06   0.000000e+00      5s
   21191    9.4479239e+03   1.426368e+06   0.000000e+00     10s
   26345    9.4479043e+03   4.932703e+06   0.000000e+00     15s
   31565    9.0619403e+03   3.554935e+06   0.000000e+00     20s
   36611    9.0299241e+03   5.794038e+05   0.000000e+00     25s
   41193    9.0299114e+03   4.177841e+06   0.000000e+00     30s
   45891    9.0299011e+03   4.979266e+05   0.000000e+00     35s
   50531    9.0298979e+03   2.653019e+03   0.000000e+00     40s
   51059    9.0300000e+03   0.000000e+00   0.000000e+00     41s

Root relaxation: objective 9.030000e+03, 51059 iterations, 40.46 seconds
Total elapsed time = 51.89s
Total elapsed time = 64.25s
Total elapsed time = 69.35s
Total elapsed time = 72.66s

    Nodes    |    Current Node    |     Objective Bounds      |     Work
 Expl Unexpl |  Obj  Depth IntInf | Incumbent    BestBd   Gap | It/Node Time

     0     0 9030.00000    0 3298 5449.00000 9030.00000  65.7%     -   75s
     0     0 9030.00000    0 4370 5449.00000 9030.00000  65.7%     -   83s
     0     0 9030.00000    0 4331 5449.00000 9030.00000  65.7%     -   86s
     0     0 9030.00000    0 3699 5449.00000 9030.00000  65.7%     -  132s
     0     0 9030.00000    0 3329 5449.00000 9030.00000  65.7%     -  145s
     0     2 9030.00000    0 2808 5449.00000 9030.00000  65.7%     -  210s
     2     4 9030.00000    1 3182 5449.00000 9030.00000  65.7% 15370  216s
     4     6 9030.00000    2 3522 5449.00000 9030.00000  65.7%  9288  221s
     6     8 9030.00000    3 3684 5449.00000 9030.00000  65.7%  7002  226s
    10    12 9030.00000    6 3410 5449.00000 9030.00000  65.7%  4726  230s
    11    13 9030.00000    6 4232 5449.00000 9030.00000  65.7%  8614  271s
    14    14 9030.00000    8 3882 5449.00000 9030.00000  65.7%  7046  275s
    16    16 9030.00000    9 4093 5449.00000 9030.00000  65.7%  6438  280s
    18    18 9030.00000   10 3857 5449.00000 9030.00000  65.7%  6092  286s
    20    20 9030.00000   11 3605 5449.00000 9030.00000  65.7%  5676  290s
    23    23 9030.00000   13 3471 5449.00000 9030.00000  65.7%  5208  295s
    27    27 9030.00000   16 3337 5449.00000 9030.00000  65.7%  4631  300s
    31    31 9030.00000   18 3260 5449.00000 9030.00000  65.7%  4244  306s
    34    34 9030.00000   20 3277 5449.00000 9030.00000  65.7%  3994  310s
    38    38 9030.00000   22 2961 5449.00000 9030.00000  65.7%  3746  316s
    41    41 9030.00000   24 3118 5449.00000 9030.00000  65.7%  3617  321s
    44    44 9030.00000   25 3116 5449.00000 9030.00000  65.7%  3484  325s
    48    48 9030.00000   28 2868 5449.00000 9030.00000  65.7%  3342  331s
    52    52 9030.00000   32 2707 5449.00000 9030.00000  65.7%  3188  335s
    58    58 9030.00000   35 2258 5449.00000 9030.00000  65.7%  2976  340s
    63    63 9030.00000   38 2145 5449.00000 9030.00000  65.7%  2851  345s
    71    71 9030.00000   44 1963 5449.00000 9030.00000  65.7%  2628  350s
   101   101 9030.00000   72 1515 5449.00000 9030.00000  65.7%  1930  355s
   157   157 9030.00000  128 1510 5449.00000 9030.00000  65.7%  1303  360s
H  189   187                    5590.0000000 9030.00000  61.5%  1110  363s
   208   208 9030.00000  179 1388 5590.00000 9030.00000  61.5%  1027  365s
H  243   241                    5761.0000000 9030.00000  56.7%   914  369s
   253   253 9030.00000  223 1460 5761.00000 9030.00000  56.7%   884  370s
H  270   268                    5937.0000000 9030.00000  52.1%   842  371s
   300   300 9030.00000  266 1254 5937.00000 9030.00000  52.1%   782  375s
H  303     2                    9030.0000000 9030.00000  0.00%   775  375s

Cutting planes:
  Gomory: 5
  Implied bound: 612
  MIR: 21
  RLT: 114
  Relax-and-lift: 95

Explored 304 nodes (460694 simplex iterations) in 375.71 seconds
Thread count was 1 (of 40 available processors)

Solution count 5: 9030 5937 5761 ... 5449

Optimal solution found (tolerance 1.00e-04)
Best objective 9.030000000000e+03, best bound 9.030000000000e+03, gap 0.0000%

----------

Best objective (UB): 9030.000
Best feasible solution (LB): 9030.000
Gap between the lower bound and upper bound: 0.000%

----------

Number of customers served: 43

Schedule for EV v0:
   [   0,  455) -> It remains parked at station s0.
   [ 455,  569) -> Service a request driving for customer c42 from s0 to s2.
   [ 569, 1125) -> It remains parked at station s2, which was charging for charging.
   [1125, 1250) -> Service a request driving for customer c42 from s2 to s1.
   [1250, tmax) -> It remains parked at station s1.

Schedule for EV v1:
   [   0,  460) -> It remains parked at station s0.
   [ 460,  574) -> Service a request driving for customer c20 from s0 to s2.
   [ 574,  600) -> It remains parked at station s2, which was charging for charging.
   [ 600,  694) -> Service a request driving for customer c34 from s2 to s0.
   [ 694,  835) -> It remains parked at station s0, which was charging for charging.
   [ 835,  949) -> Service a request driving for customer c10 from s0 to s2.
   [ 949, 1065) -> It remains parked at station s2.
   [1065, 1195) -> Service a request driving for customer c1 from s2 to s1.
   [1195, 1263) -> Service a request driving for customer c19 from s1 to s0.
   [1263, tmax) -> It remains parked at station s0.

Schedule for EV v2:
   [   0,  515) -> It remains parked at station s0.
   [ 515,  608) -> Service a request driving for customer c18 from s0 to s1.
   [ 608, 1130) -> It remains parked at station s1, which was charging for charging.
   [1130, 1250) -> Service a request driving for customer c11 from s1 to s2.
   [1250, tmax) -> It remains parked at station s2.

Schedule for EV v3:
   [   0,  375) -> It remains parked at station s0.
   [ 375,  458) -> Service a request driving for customer c32 from s0 to s1.
   [ 458,  575) -> It remains parked at station s1, which was charging for charging.
   [ 575,  685) -> Service a request driving for customer c27 from s1 to s2.
   [ 685,  865) -> It remains parked at station s2.
   [ 865,  984) -> Service a request driving for customer c3 from s2 to s0.
   [ 984, 1070) -> It remains parked at station s0.
   [1070, 1138) -> Service a request driving for customer c19 from s0 to s1.
   [1138, 1165) -> It remains parked at station s1, which was charging for charging.
   [1165, 1233) -> Service a request driving for customer c39 from s1 to s0.
   [1233, 1280) -> It remains parked at station s0, which was charging for charging.
   [1280, 1399) -> Service a request driving for customer c43 from s0 to s2.
   [1399, tmax) -> It remains parked at station s2, which was charging for charging.

Schedule for EV v4:
   [   0,  450) -> It remains parked at station s0.
   [ 450,  569) -> Service a request driving for customer c33 from s0 to s2.
   [ 569,  570) -> It remains parked at station s2.
   [ 570,  685) -> Service a request driving for customer c25 from s2 to s1.
   [ 685,  785) -> It remains parked at station s1.
   [ 785,  868) -> Service a request driving for customer c0 from s1 to s0.
   [ 868, 1125) -> It remains parked at station s0.
   [1125, 1224) -> Service a request driving for customer c21 from s0 to s2.
   [1224, tmax) -> It remains parked at station s2.

Schedule for EV v5:
   [   0,  470) -> It remains parked at station s0.
   [ 470,  569) -> Service a request driving for customer c48 from s0 to s2.
   [ 569,  710) -> It remains parked at station s2, which was charging for charging.
   [ 710,  835) -> Service a request driving for customer c6 from s2 to s1.
   [ 835,  890) -> It remains parked at station s1, which was charging for charging.
   [ 890,  958) -> Service a request driving for customer c21 from s1 to s0.
   [ 958, 1045) -> It remains parked at station s0, which was charging for charging.
   [1045, 1164) -> Service a request driving for customer c46 from s0 to s2.
   [1164, 1165) -> It remains parked at station s2.
   [1165, 1284) -> Service a request driving for customer c47 from s2 to s0.
   [1284, tmax) -> It remains parked at station s0, which was charging for charging.

Schedule for EV v6:
   [   0,  490) -> It remains parked at station s0.
   [ 490,  589) -> Service a request driving for customer c22 from s0 to s2.
   [ 589, 1095) -> It remains parked at station s2.
   [1095, 1194) -> Service a request driving for customer c12 from s2 to s0.
   [1194, 1370) -> It remains parked at station s0, which was charging for charging.
   [1370, 1453) -> Service a request driving for customer c30 from s0 to s1.
   [1453, tmax) -> It remains parked at station s1.

Schedule for EV v7:
   [   0,  515) -> It remains parked at station s0.
   [ 515,  603) -> Service a request driving for customer c29 from s0 to s1.
   [ 603,  805) -> It remains parked at station s1, which was charging for charging.
   [ 805,  888) -> Service a request driving for customer c29 from s1 to s0.
   [ 888,  915) -> It remains parked at station s0, which was charging for charging.
   [ 915, 1008) -> Service a request driving for customer c0 from s0 to s1.
   [1008, 1110) -> It remains parked at station s1.
   [1110, 1240) -> Service a request driving for customer c4 from s1 to s2.
   [1240, tmax) -> It remains parked at station s2.

Schedule for EV v8:
   [   0,  305) -> It remains parked at station s0.
   [ 305,  373) -> Service a request driving for customer c36 from s0 to s1.
   [ 373, 1175) -> It remains parked at station s1, which was charging for charging.
   [1175, 1253) -> Service a request driving for customer c45 from s1 to s0.
   [1253, tmax) -> It remains parked at station s0.

Schedule for EV v9:
   [   0,  380) -> It remains parked at station s0.
   [ 380,  474) -> Service a request driving for customer c28 from s0 to s2.
   [ 474, 1130) -> It remains parked at station s2.
   [1130, 1260) -> Service a request driving for customer c48 from s2 to s1.
   [1260, tmax) -> It remains parked at station s1, which was charging for charging.

Schedule for EV v10:
   [   0,  485) -> It remains parked at station s1.
   [ 485,  563) -> Service a request driving for customer c35 from s1 to s0.
   [ 563,  685) -> It remains parked at station s0, which was charging for charging.
   [ 685,  779) -> Service a request driving for customer c37 from s0 to s2.
   [ 779,  810) -> It remains parked at station s2.
   [ 810,  930) -> Service a request driving for customer c43 from s2 to s1.
   [ 930, tmax) -> It remains parked at station s1, which was charging for charging.

Schedule for EV v11:
   [   0,  480) -> It remains parked at station s1.
   [ 480,  558) -> Service a request driving for customer c19 from s1 to s0.
   [ 558, tmax) -> It remains parked at station s0.

Schedule for EV v12:
   [   0,  420) -> It remains parked at station s1.
   [ 420,  508) -> Service a request driving for customer c18 from s1 to s0.
   [ 508,  510) -> It remains parked at station s0.
   [ 510,  609) -> Service a request driving for customer c12 from s0 to s2.
   [ 609, 1075) -> It remains parked at station s2.
   [1075, 1194) -> Service a request driving for customer c31 from s2 to s0.
   [1194, tmax) -> It remains parked at station s0.

Schedule for EV v13:
   [   0,  580) -> It remains parked at station s1.
   [ 580,  663) -> Service a request driving for customer c46 from s1 to s0.
   [ 663, 1060) -> It remains parked at station s0.
   [1060, 1148) -> Service a request driving for customer c34 from s0 to s1.
   [1148, 1155) -> It remains parked at station s1, which was charging for charging.
   [1155, 1233) -> Service a request driving for customer c43 from s1 to s0.
   [1233, tmax) -> It remains parked at station s0.

Schedule for EV v14:
   [   0,  525) -> It remains parked at station s1.
   [ 525,  613) -> Service a request driving for customer c32 from s1 to s0.
   [ 613,  970) -> It remains parked at station s0.
   [ 970, 1043) -> Service a request driving for customer c11 from s0 to s1.
   [1043, tmax) -> It remains parked at station s1, which was charging for charging.

Schedule for EV v15:
   [   0,  495) -> It remains parked at station s1.
   [ 495,  620) -> Service a request driving for customer c1 from s1 to s2.
   [ 620,  770) -> It remains parked at station s2, which was charging for charging.
   [ 770,  874) -> Service a request driving for customer c22 from s2 to s0.
   [ 874, 1175) -> It remains parked at station s0, which was charging for charging.
   [1175, 1279) -> Service a request driving for customer c41 from s0 to s2.
   [1279, 1370) -> It remains parked at station s2, which was charging for charging.
   [1370, 1480) -> Service a request driving for customer c32 from s2 to s1.
   [1480, tmax) -> It remains parked at station s1.

Schedule for EV v16:
   [   0, 1135) -> It remains parked at station s1.
   [1135, 1213) -> Service a request driving for customer c15 from s1 to s0.
   [1213, tmax) -> It remains parked at station s0, which was charging for charging.

Schedule for EV v17:
   [   0,  495) -> It remains parked at station s1.
   [ 495,  568) -> Service a request driving for customer c13 from s1 to s0.
   [ 568,  760) -> It remains parked at station s0, which was charging for charging.
   [ 760,  828) -> Service a request driving for customer c35 from s0 to s1.
   [ 828, 1080) -> It remains parked at station s1.
   [1080, 1158) -> Service a request driving for customer c40 from s1 to s0.
   [1158, 1175) -> It remains parked at station s0, which was charging for charging.
   [1175, 1284) -> Service a request driving for customer c9 from s0 to s2.
   [1284, tmax) -> It remains parked at station s2, which was charging for charging.

Schedule for EV v18:
   [   0,  425) -> It remains parked at station s1.
   [ 425,  555) -> Service a request driving for customer c38 from s1 to s2.
   [ 555, 1105) -> It remains parked at station s2, which was charging for charging.
   [1105, 1235) -> Service a request driving for customer c33 from s2 to s1.
   [1235, tmax) -> It remains parked at station s1.

Schedule for EV v19:
   [   0,  505) -> It remains parked at station s1.
   [ 505,  615) -> Service a request driving for customer c2 from s1 to s2.
   [ 615,  870) -> It remains parked at station s2.
   [ 870,  974) -> Service a request driving for customer c7 from s2 to s0.
   [ 974, 1115) -> It remains parked at station s0.
   [1115, 1203) -> Service a request driving for customer c28 from s0 to s1.
   [1203, tmax) -> It remains parked at station s1, which was charging for charging.

Schedule for EV v20:
   [   0,  465) -> It remains parked at station s1, which was charging for charging.
   [ 465,  570) -> Service a request driving for customer c4 from s1 to s2.
   [ 570, 1115) -> It remains parked at station s2.
   [1115, 1224) -> Service a request driving for customer c20 from s2 to s0.
   [1224, tmax) -> It remains parked at station s0.

Schedule for EV v21:
   [   0,  505) -> It remains parked at station s2.
   [ 505,  610) -> Service a request driving for customer c39 from s2 to s1.
   [ 610,  880) -> It remains parked at station s1, which was charging for charging.
   [ 880,  995) -> Service a request driving for customer c35 from s1 to s2.
   [ 995, 1055) -> It remains parked at station s2.
   [1055, 1175) -> Service a request driving for customer c37 from s2 to s1.
   [1175, 1225) -> It remains parked at station s1, which was charging for charging.
   [1225, 1350) -> Service a request driving for customer c26 from s1 to s2.
   [1350, tmax) -> It remains parked at station s2.

Schedule for EV v22:
   [   0,  490) -> It remains parked at station s2.
   [ 490,  604) -> Service a request driving for customer c7 from s2 to s0.
   [ 604,  640) -> It remains parked at station s0, which was charging for charging.
   [ 640,  734) -> Service a request driving for customer c13 from s0 to s2.
   [ 734, 1105) -> It remains parked at station s2, which was charging for charging.
   [1105, 1235) -> Service a request driving for customer c35 from s2 to s1.
   [1235, tmax) -> It remains parked at station s1.

Schedule for EV v23:
   [   0,  525) -> It remains parked at station s2.
   [ 525,  655) -> Service a request driving for customer c5 from s2 to s1.
   [ 655, 1115) -> It remains parked at station s1, which was charging for charging.
   [1115, 1188) -> Service a request driving for customer c36 from s1 to s0.
   [1188, 1200) -> It remains parked at station s0.
   [1200, 1278) -> Service a request driving for customer c7 from s0 to s1.
   [1278, tmax) -> It remains parked at station s1, which was charging for charging.

Schedule for EV v24:
   [   0,  475) -> It remains parked at station s2.
   [ 475,  579) -> Service a request driving for customer c41 from s2 to s0.
   [ 579,  675) -> It remains parked at station s0.
   [ 675,  789) -> Service a request driving for customer c7 from s0 to s2.
   [ 789, 1160) -> It remains parked at station s2, which was charging for charging.
   [1160, 1265) -> Service a request driving for customer c10 from s2 to s1.
   [1265, tmax) -> It remains parked at station s1.

Schedule for EV v25:
   [   0,  390) -> It remains parked at station s2.
   [ 390,  499) -> Service a request driving for customer c12 from s2 to s0.
   [ 499,  515) -> It remains parked at station s0.
   [ 515,  634) -> Service a request driving for customer c3 from s0 to s2.
   [ 634,  870) -> It remains parked at station s2.
   [ 870,  969) -> Service a request driving for customer c28 from s2 to s0.
   [ 969, 1165) -> It remains parked at station s0, which was charging for charging.
   [1165, 1253) -> Service a request driving for customer c40 from s0 to s1.
   [1253, tmax) -> It remains parked at station s1, which was charging for charging.

Schedule for EV v26:
   [   0,  540) -> It remains parked at station s2.
   [ 540,  649) -> Service a request driving for customer c10 from s2 to s0.
   [ 649,  960) -> It remains parked at station s0, which was charging for charging.
   [ 960, 1064) -> Service a request driving for customer c22 from s0 to s2.
   [1064, 1085) -> It remains parked at station s2.
   [1085, 1210) -> Service a request driving for customer c2 from s2 to s1.
   [1210, tmax) -> It remains parked at station s1.

Schedule for EV v27:
   [   0,  580) -> It remains parked at station s2.
   [ 580,  689) -> Service a request driving for customer c30 from s2 to s0.
   [ 689, 1130) -> It remains parked at station s0.
   [1130, 1244) -> Service a request driving for customer c32 from s0 to s2.
   [1244, 1345) -> It remains parked at station s2, which was charging for charging.
   [1345, 1454) -> Service a request driving for customer c9 from s2 to s0.
   [1454, tmax) -> It remains parked at station s0.

Schedule for EV v28:
   [   0,  800) -> It remains parked at station s2.
   [ 800,  915) -> Service a request driving for customer c4 from s2 to s1.
   [ 915, 1025) -> It remains parked at station s1, which was charging for charging.
   [1025, 1093) -> Service a request driving for customer c25 from s1 to s0.
   [1093, 1115) -> It remains parked at station s0.
   [1115, 1229) -> Service a request driving for customer c44 from s0 to s2.
   [1229, tmax) -> It remains parked at station s2.

Set of satisfied customers
   {c0, c1, c2, c3, c4, c5, c6, c7, c9, c10, c11, c12, c13, c15, c18, c19, c20, c21, c22, c25, c26, c27, c28, c29, c30, c31, c32, c33, c34, c35, c36, c37, c38, c39, c40, c41, c42, c43, c44, c45, c46, c47, c48}

