Academic license - for non-commercial use only
Gurobi Optimizer version 9.0.3 build v9.0.3rc0 (linux64)
Optimize a model with 16973 rows, 34384 columns and 135629 nonzeros
Model fingerprint: 0x92d9d141
Variable types: 16682 continuous, 17702 integer (17702 binary)
Coefficient statistics:
  Matrix range     [1e+00, 1e+06]
  Objective range  [5e+01, 4e+02]
  Bounds range     [1e+00, 2e+06]
  RHS range        [1e+00, 2e+06]

Loaded user MIP start with objective 6379

Presolve removed 1750 rows and 1974 columns
Presolve time: 0.35s
Presolved: 15223 rows, 32410 columns, 134595 nonzeros
Variable types: 417 continuous, 31993 integer (26137 binary)

Root simplex log...

Iteration    Objective       Primal Inf.    Dual Inf.      Time
    9131    1.2343964e+04   4.593855e+06   0.000000e+00      5s
   12176    1.2343951e+04   1.668237e+06   0.000000e+00     10s
   14914    1.2343940e+04   3.159507e+06   0.000000e+00     15s
   17322    1.2343930e+04   1.663678e+07   0.000000e+00     20s
   19555    1.2343919e+04   1.830274e+06   0.000000e+00     25s
   21743    1.2343909e+04   5.942920e+06   0.000000e+00     30s
   23877    1.2343899e+04   4.664320e+06   0.000000e+00     35s
   26000    1.2126897e+04   6.234732e+06   0.000000e+00     40s
   28057    1.1745904e+04   3.346252e+06   0.000000e+00     45s
   30198    1.1745898e+04   2.553653e+06   0.000000e+00     50s
   32256    1.1745890e+04   8.390285e+06   0.000000e+00     55s
   34388    1.1745884e+04   3.951684e+07   0.000000e+00     60s
   36525    1.1208890e+04   1.053089e+06   0.000000e+00     65s
   38488    1.1208887e+04   2.569290e+06   0.000000e+00     70s
   40500    1.1208883e+04   1.640872e+07   0.000000e+00     75s
   42502    1.1208879e+04   7.268081e+05   0.000000e+00     80s
   44601    1.1208876e+04   4.196441e+06   0.000000e+00     85s
   46552    1.1208872e+04   3.841540e+06   0.000000e+00     90s
   48538    1.1208868e+04   1.757080e+06   0.000000e+00     95s
   50579    1.1192861e+04   7.986851e+06   0.000000e+00    100s
   52606    1.1192853e+04   1.641790e+06   0.000000e+00    105s
   54570    1.1192847e+04   9.393259e+06   0.000000e+00    110s
   56701    1.1192830e+04   2.792425e+06   0.000000e+00    115s
   58872    1.1083870e+04   1.859340e+06   0.000000e+00    120s
   60926    1.1083868e+04   1.208243e+06   0.000000e+00    125s
   63084    1.1083865e+04   1.559553e+06   0.000000e+00    130s
   65254    1.1075872e+04   8.852174e+05   0.000000e+00    135s
   67265    1.1075870e+04   2.292391e+05   0.000000e+00    140s
   69425    1.1075869e+04   1.801759e+04   0.000000e+00    145s
   71026    1.1076000e+04   0.000000e+00   0.000000e+00    149s
   71026    1.1076000e+04   0.000000e+00   0.000000e+00    149s

Root relaxation: objective 1.107600e+04, 71026 iterations, 148.33 seconds
Total elapsed time = 205.48s
Total elapsed time = 213.68s
Total elapsed time = 221.44s
Total elapsed time = 232.76s

    Nodes    |    Current Node    |     Objective Bounds      |     Work
 Expl Unexpl |  Obj  Depth IntInf | Incumbent    BestBd   Gap | It/Node Time

     0     0 11076.0000    0 8608 6379.00000 11076.0000  73.6%     -  234s
     0     0 11076.0000    0 9374 6379.00000 11076.0000  73.6%     -  296s
     0     0 11076.0000    0 9206 6379.00000 11076.0000  73.6%     -  312s
     0     0 11076.0000    0 6789 6379.00000 11076.0000  73.6%     -  568s
     0     0 11076.0000    0 7456 6379.00000 11076.0000  73.6%     -  587s
     0     0 11076.0000    0 8020 6379.00000 11076.0000  73.6%     -  823s
     0     0 11076.0000    0 7417 6379.00000 11076.0000  73.6%     -  893s
     0     2 11076.0000    0 7138 6379.00000 11076.0000  73.6%     - 1231s
     1     3 11076.0000    1 7190 6379.00000 11076.0000  73.6% 85096 1256s
     2     4 11076.0000    2 6899 6379.00000 11076.0000  73.6% 46332 1272s
     3     5 11076.0000    2 7108 6379.00000 11076.0000  73.6% 34013 1291s
     4     6 10933.0000    3 7168 6379.00000 11076.0000  73.6% 27548 1308s
     5     7 10933.0000    4 7178 6379.00000 11076.0000  73.6% 23270 1321s
     6     8 10933.0000    4 7090 6379.00000 11076.0000  73.6% 20757 1337s
     7     9 10933.0000    5 7000 6379.00000 11076.0000  73.6% 18320 1345s
     8    10 10933.0000    5 7135 6379.00000 11076.0000  73.6% 16778 1357s
     9    11 10933.0000    6 7350 6379.00000 11076.0000  73.6% 15613 1370s
    10    12 10933.0000    6 8384 6379.00000 11076.0000  73.6% 41499 1911s
    11    13 10933.0000    7 7223 6379.00000 11076.0000  73.6% 38277 1923s
    12    14 10798.0000    8 7476 6379.00000 11076.0000  73.6% 36083 1948s
    13    15 10798.0000    9 7519 6379.00000 11076.0000  73.6% 33888 1964s
    14    14 infeasible   10      6379.00000 11076.0000  73.6% 33003 2000s
    15    15 10798.0000   10 7388 6379.00000 11076.0000  73.6% 31125 2010s
    16    14 infeasible   11      6379.00000 11076.0000  73.6% 29710 2026s
    17    15 10798.0000   11 7354 6379.00000 11076.0000  73.6% 28244 2036s
    18    16 10798.0000   12 7244 6379.00000 11076.0000  73.6% 27086 2052s
    19    17 10798.0000   13 7103 6379.00000 11076.0000  73.6% 25975 2063s
    20    18 10735.0000   14 7225 6379.00000 11076.0000  73.6% 25338 2090s
    21    19 10798.0000   14 6937 6379.00000 11076.0000  73.6% 24343 2100s
    22    20 10735.0000   15 7013 6379.00000 11076.0000  73.6% 23468 2110s
    23    21 10725.0000   15 7172 6379.00000 11076.0000  73.6% 23856 2173s
    24    22 10735.0000   16 7111 6379.00000 11076.0000  73.6% 23153 2187s
    25    23 10735.0000   17 7063 6379.00000 11076.0000  73.6% 22480 2200s
    26    24 10735.0000   18 7231 6379.00000 11076.0000  73.6% 21838 2212s
    27    25 10735.0000   18 7109 6379.00000 11076.0000  73.6% 21202 2221s
    29    25 10735.0000   19 6946 6379.00000 11076.0000  73.6% 19956 2233s
    30    26 10735.0000   20 7072 6379.00000 11076.0000  73.6% 19472 2244s
    31    27 10735.0000   21 6907 6379.00000 11076.0000  73.6% 19008 2253s
    32    26 infeasible   22      6379.00000 11076.0000  73.6% 18772 2276s
    33    27 10735.0000   22 6984 6379.00000 11076.0000  73.6% 18443 2292s
    34    28 10735.0000   23 7052 6379.00000 11076.0000  73.6% 18078 2304s
    35    29 10735.0000   24 6777 6379.00000 11076.0000  73.6% 17763 2318s
    36    28 infeasible   24      6379.00000 11076.0000  73.6% 17514 2335s
    37    29 10735.0000   25 6939 6379.00000 11076.0000  73.6% 17208 2347s
    38    30 10735.0000   25 7025 6379.00000 11076.0000  73.6% 16951 2361s
    39    31 10735.0000   26 6790 6379.00000 11076.0000  73.6% 16669 2372s
    40    32 10735.0000   26 7064 6379.00000 11076.0000  73.6% 16529 2394s
    41    33 10735.0000   27 6960 6379.00000 11076.0000  73.6% 16266 2405s
    42    32 infeasible   27      6379.00000 11076.0000  73.6% 16037 2418s
    43    33 10735.0000   28 6911 6379.00000 11076.0000  73.6% 15805 2430s
    44    34 10735.0000   28 7028 6379.00000 11076.0000  73.6% 15622 2445s
    45    35 10735.0000   29 6808 6379.00000 11076.0000  73.6% 15356 2452s
    46    36 10735.0000   30 6918 6379.00000 11076.0000  73.6% 15135 2463s
    47    37 10735.0000   31 6751 6379.00000 11076.0000  73.6% 14899 2471s
    48    38 10735.0000   31 6972 6379.00000 11076.0000  73.6% 14677 2479s
    49    39 10735.0000   32 6906 6379.00000 11076.0000  73.6% 14474 2489s
    50    40 10735.0000   32 6938 6379.00000 11076.0000  73.6% 14305 2501s
    51    41 10735.0000   33 6949 6379.00000 11076.0000  73.6% 14140 2512s
    52    40 infeasible   33      6379.00000 11076.0000  73.6% 14282 2551s
    53    41 10735.0000   34 6827 6379.00000 11076.0000  73.6% 14124 2563s
    54    42 10735.0000   35 6845 6379.00000 11076.0000  73.6% 13932 2570s
    55    43 10735.0000   35 7008 6379.00000 11076.0000  73.6% 13813 2585s
    56    44 10735.0000   36 6892 6379.00000 11076.0000  73.6% 13645 2593s
    57    45 10735.0000   37 6871 6379.00000 11076.0000  73.6% 13556 2609s
    58    46 10735.0000   38 6592 6379.00000 11076.0000  73.6% 13428 2620s
    59    47 10735.0000   38 6742 6379.00000 11076.0000  73.6% 13286 2630s
    60    48 10735.0000   39 6719 6379.00000 11076.0000  73.6% 13136 2638s
    61    49 10735.0000   39 6844 6379.00000 11076.0000  73.6% 13041 2653s
    62    50 10735.0000   40 6937 6379.00000 11076.0000  73.6% 12940 2667s
    63    51 10735.0000   41 6764 6379.00000 11076.0000  73.6% 12851 2681s
    64    52 10735.0000   42 6877 6379.00000 11076.0000  73.6% 12756 2694s
    65    53 10397.0000   43 6633 6379.00000 11076.0000  73.6% 12884 2732s
    66    54 10397.0000   44 6607 6379.00000 11076.0000  73.6% 12777 2742s
    67    55 10397.0000   44 6608 6379.00000 11076.0000  73.6% 12627 2748s
    68    56 10397.0000   45 6718 6379.00000 11076.0000  73.6% 12576 2765s
    69    57 10397.0000   46 6637 6379.00000 11076.0000  73.6% 12446 2772s
    70    58 10397.0000   46 6642 6379.00000 11076.0000  73.6% 12368 2785s
    71    59 10397.0000   47 6555 6379.00000 11076.0000  73.6% 12271 2795s
    72    60 10397.0000   48 6580 6379.00000 11076.0000  73.6% 12156 2802s
    73    61 10397.0000   48 6822 6379.00000 11076.0000  73.6% 12196 2829s
    74    62 10397.0000   49 6650 6379.00000 11076.0000  73.6% 12102 2839s
    75    63 10397.0000   50 6498 6379.00000 11076.0000  73.6% 12037 2852s
    76    64 10397.0000   51 6434 6379.00000 11076.0000  73.6% 11915 2857s
    77    65 10397.0000   51 6328 6379.00000 11076.0000  73.6% 11828 2866s
    78    66 10397.0000   52 6584 6379.00000 11076.0000  73.6% 11720 2872s
    79    67 10397.0000   53 6510 6379.00000 11076.0000  73.6% 11616 2878s
    80    68 10397.0000   53 6270 6379.00000 11076.0000  73.6% 11517 2885s
    81    69 10140.0000   54 6295 6379.00000 11076.0000  73.6% 11418 2892s
    82    70 10140.0000   55 6287 6379.00000 11076.0000  73.6% 11333 2899s
    83    71 10140.0000   56 6309 6379.00000 11076.0000  73.6% 11234 2905s
    84    72 10140.0000   57 6191 6379.00000 11076.0000  73.6% 11137 2910s
    85    73 10140.0000   57 5994 6379.00000 11076.0000  73.6% 11059 2917s
    86    74 10140.0000   58 6163 6379.00000 11076.0000  73.6% 10959 2922s
    87    75 10140.0000   58 5991 6379.00000 11076.0000  73.6% 10890 2930s
    88    76 10140.0000   59 6209 6379.00000 11076.0000  73.6% 10800 2935s
    89    77 10140.0000   59 6139 6379.00000 11076.0000  73.6% 10725 2942s
    90    78 10140.0000   60 6146 6379.00000 11076.0000  73.6% 10632 2946s
    91    79 10140.0000   60 6245 6379.00000 11076.0000  73.6% 10573 2954s
    92    80 10140.0000   61 6248 6379.00000 11076.0000  73.6% 10493 2960s
    93    81 10140.0000   61 6172 6379.00000 11076.0000  73.6% 10417 2965s
    94    82 10140.0000   62 6089 6379.00000 11076.0000  73.6% 10334 2970s
    95    83 10140.0000   63 6041 6379.00000 11076.0000  73.6% 10268 2976s
    97    85 10140.0000   64 5987 6379.00000 11076.0000  73.6% 10130 2988s
    98    86 10140.0000   65 6079 6379.00000 11076.0000  73.6% 10063 2993s
    99    87 10140.0000   65 6004 6379.00000 11076.0000  73.6%  9988 2998s
   100    88 10140.0000   66 5988 6379.00000 11076.0000  73.6%  9915 3002s
   101    89 10140.0000   67 5857 6379.00000 11076.0000  73.6%  9842 3006s
   102    90 10140.0000   67 6045 6379.00000 11076.0000  73.6%  9779 3011s
   103    91 10140.0000   68 5951 6379.00000 11076.0000  73.6%  9711 3016s
   104    92 10140.0000   69 5718 6379.00000 11076.0000  73.6%  9643 3020s
   105    93 10140.0000   70 5828 6379.00000 11076.0000  73.6%  9581 3025s
   107    95 10140.0000   72 5680 6379.00000 11076.0000  73.6%  9445 3032s
   108    96 10140.0000   72 5621 6379.00000 11076.0000  73.6%  9382 3036s
   110    98 10140.0000   73 5577 6379.00000 11076.0000  73.6%  9261 3045s
   112   100 10140.0000   74 5540 6379.00000 11076.0000  73.6%  9161 3056s
   114   102 10140.0000   75 5636 6379.00000 11076.0000  73.6%  9067 3067s
   115   103 10140.0000   76 5596 6379.00000 11076.0000  73.6%  9015 3072s
   116   104 10140.0000   77 5570 6379.00000 11076.0000  73.6%  8954 3075s
   118   106 10140.0000   78 5598 6379.00000 11076.0000  73.6%  8843 3082s
   119   107 10140.0000   78 5394 6379.00000 11076.0000  73.6%  8800 3087s
   121   109 10140.0000   80 5348 6379.00000 11076.0000  73.6%  8679 3091s
   122   110 10140.0000   80 5246 6379.00000 11076.0000  73.6%  8634 3095s
   124   112 10140.0000   82 5120 6379.00000 11076.0000  73.6%  8539 3103s
   125   113 10140.0000   82 5083 6379.00000 11076.0000  73.6%  8486 3106s
   126   114 10140.0000   83 5327 6379.00000 11076.0000  73.6%  8448 3111s
   127   115 10140.0000   84 5109 6379.00000 11076.0000  73.6%  8405 3115s
   129   117 10140.0000   85 5234 6379.00000 11076.0000  73.6%  8309 3121s
   130   118 10140.0000   85 5068 6379.00000 11076.0000  73.6%  8285 3128s
   131   119 10140.0000   86 5124 6379.00000 11076.0000  73.6%  8242 3131s
   133   121 10140.0000   87 5100 6379.00000 11076.0000  73.6%  8165 3140s
   135   123 10140.0000   89 4955 6379.00000 11076.0000  73.6%  8131 3154s
   136   124 10140.0000   90 4687 6379.00000 11076.0000  73.6%  8141 3166s
   138   126 10140.0000   92 4600 6379.00000 11076.0000  73.6%  8048 3171s
   139   127 10140.0000   93 4667 6379.00000 11076.0000  73.6%  8032 3178s
   140   128 10140.0000   94 4558 6379.00000 11076.0000  73.6%  7995 3181s
   142   130 10140.0000   96 4212 6379.00000 11076.0000  73.6%  7909 3186s
   145   131 10140.0000   97 3796 6379.00000 11076.0000  73.6%  7768 3190s
   151   137 10140.0000  103 3730 6379.00000 11076.0000  73.6%  7495 3195s
   154   140 10140.0000  105 3372 6379.00000 11076.0000  73.6%  7378 3200s
   159   145 10140.0000  110 3438 6379.00000 11076.0000  73.6%  7180 3205s
   162   148 10140.0000  112 3594 6379.00000 11076.0000  73.6%  7084 3210s
   166   152 10140.0000  115 3476 6379.00000 11076.0000  73.6%  6940 3215s
   171   157 10140.0000  118 3408 6379.00000 11076.0000  73.6%  6769 3220s
   177   163 10140.0000  123 3288 6379.00000 11076.0000  73.6%  6573 3225s
   182   168 10140.0000  126 3056 6379.00000 11076.0000  73.6%  6432 3231s
   188   174 10140.0000  130 2772 6379.00000 11076.0000  73.6%  6251 3235s
   194   180 10140.0000  134 2559 6379.00000 11076.0000  73.6%  6090 3240s
   203   189 10140.0000  141 1975 6379.00000 11076.0000  73.6%  5850 3245s
   222   208 10140.0000  159 1744 6379.00000 11076.0000  73.6%  5384 3250s
   270   256 10140.0000  207 1692 6379.00000 11076.0000  73.6%  4449 3255s
H  297    69                    10140.000000 11076.0000  9.23%  4057 3258s
   300    68 11076.0000    3 6885 10140.0000 11076.0000  9.23%  4040 3271s
   301    69 11076.0000    4 7225 10140.0000 11076.0000  9.23%  4056 3288s
   302    70 11076.0000    5 7206 10140.0000 11076.0000  9.23%  4058 3298s
   303    71 11076.0000    5 7131 10140.0000 11076.0000  9.23%  4071 3314s
   304    72 11076.0000    6 6952 10140.0000 11076.0000  9.23%  4068 3321s
   305    73 11076.0000    7 7188 10140.0000 11076.0000  9.23%  4073 3333s
   306    74 11076.0000    8 6934 10140.0000 11076.0000  9.23%  4071 3340s
   307    75 11076.0000    9 6879 10140.0000 11076.0000  9.23%  4073 3349s
   308    76 11076.0000   10 7067 10140.0000 11076.0000  9.23%  4083 3364s
   309    77 11076.0000   11 7121 10140.0000 11076.0000  9.23%  4082 3372s
   310    78 11076.0000   11 7275 10140.0000 11076.0000  9.23%  4089 3385s
   311    79 11076.0000   12 6822 10140.0000 11076.0000  9.23%  4101 3401s
   312    78 infeasible   12      10140.0000 11076.0000  9.23%  4120 3421s
   313    79 11076.0000   13 6962 10140.0000 11076.0000  9.23%  4122 3430s
   314    80 11076.0000   13 7249 10140.0000 11076.0000  9.23%  4129 3444s
   316    80 11076.0000   14 7187 10140.0000 11076.0000  9.23%  4117 3454s
   317    81 11076.0000   15 7108 10140.0000 11076.0000  9.23%  4114 3460s
   319    81 11076.0000   16 6905 10140.0000 11076.0000  9.23%  4102 3469s
   320    82 11061.0000   16 7123 10140.0000 11076.0000  9.23%  4153 3511s
   321    83 11061.0000   17 7150 10140.0000 11076.0000  9.23%  4160 3524s
   322    84 11061.0000   17 6825 10140.0000 11076.0000  9.23%  4176 3543s
   323    85 11061.0000   18 6974 10140.0000 11076.0000  9.23%  4179 3553s
   324    86 11061.0000   18 6963 10140.0000 11076.0000  9.23%  4185 3565s
   325    87 11061.0000   19 6894 10140.0000 11076.0000  9.23%  4181 3571s
   326    88 11061.0000   20 6755 10140.0000 11076.0000  9.23%  4178 3577s
   327    89 11061.0000   21 6746 10140.0000 11076.0000  9.23%  4173 3583s
   328    90 11061.0000   22 6673 10140.0000 11076.0000  9.23%  4168 3587s
   329    91 11061.0000   23 6643 10140.0000 11076.0000  9.23%  4165 3593s

Cutting planes:
  Implied bound: 2862
  MIR: 23
  StrongCG: 1
  RLT: 443
  Relax-and-lift: 408

Explored 330 nodes (1895736 simplex iterations) in 3600.01 seconds
Thread count was 1 (of 40 available processors)

Solution count 2: 10140 6379 

Time limit reached
Best objective 1.014000000000e+04, best bound 1.107599999998e+04, gap 9.2308%

----------

Best objective (UB): 11076.000
Best feasible solution (LB): 10140.000
Gap between the lower bound and upper bound: 9.231%

----------

Number of customers served: 55

Schedule for EV v0:
   [   0,  485) -> It remains parked at station s0.
   [ 485,  591) -> Service a request driving for customer c46 from s0 to s2.
   [ 591,  785) -> It remains parked at station s2.
   [ 785,  826) -> Service a request driving for customer c16 from s2 to s1.
   [ 826,  850) -> It remains parked at station s1, which was charging for charging.
   [ 850,  919) -> Service a request driving for customer c10 from s1 to s3.
   [ 919, 1130) -> It remains parked at station s3.
   [1130, 1214) -> Service a request driving for customer c69 from s3 to s1.
   [1214, 1240) -> It remains parked at station s1.
   [1240, 1309) -> Service a request driving for customer c11 from s1 to s3.
   [1309, tmax) -> It remains parked at station s3.

Schedule for EV v1:
   [   0,  460) -> It remains parked at station s0.
   [ 460,  549) -> Service a request driving for customer c63 from s0 to s3.
   [ 549,  560) -> It remains parked at station s3.
   [ 560,  654) -> Service a request driving for customer c11 from s3 to s0.
   [ 654, 1110) -> It remains parked at station s0.
   [1110, 1224) -> Service a request driving for customer c27 from s0 to s3.
   [1224, tmax) -> It remains parked at station s3, which was charging for charging.

Schedule for EV v2:
   [   0,  845) -> It remains parked at station s0.
   [ 845,  934) -> Service a request driving for customer c60 from s0 to s3.
   [ 934,  945) -> It remains parked at station s3, which was charging for charging.
   [ 945, 1009) -> Service a request driving for customer c5 from s3 to s2.
   [1009, 1015) -> It remains parked at station s2.
   [1015, 1074) -> Service a request driving for customer c69 from s2 to s3.
   [1074, 1105) -> It remains parked at station s3.
   [1105, 1189) -> Service a request driving for customer c28 from s3 to s1.
   [1189, 1365) -> It remains parked at station s1, which was charging for charging.
   [1365, 1444) -> Service a request driving for customer c69 from s1 to s3.
   [1444, tmax) -> It remains parked at station s3.

Schedule for EV v3:
   [   0,  570) -> It remains parked at station s0.
   [ 570,  664) -> Service a request driving for customer c41 from s0 to s3.
   [ 664, 1010) -> It remains parked at station s3, which was charging for charging.
   [1010, 1104) -> Service a request driving for customer c10 from s3 to s0.
   [1104, 1180) -> It remains parked at station s0, which was charging for charging.
   [1180, 1301) -> Service a request driving for customer c18 from s0 to s2.
   [1301, tmax) -> It remains parked at station s2.

Schedule for EV v4:
   [   0,  475) -> It remains parked at station s0.
   [ 475,  564) -> Service a request driving for customer c58 from s0 to s3.
   [ 564, 1015) -> It remains parked at station s3, which was charging for charging.
   [1015, 1069) -> Service a request driving for customer c6 from s3 to s2.
   [1069, 1080) -> It remains parked at station s2.
   [1080, 1191) -> Service a request driving for customer c42 from s2 to s0.
   [1191, tmax) -> It remains parked at station s0.

Schedule for EV v5:
   [   0,  510) -> It remains parked at station s0.
   [ 510,  611) -> Service a request driving for customer c49 from s0 to s2.
   [ 611, 1145) -> It remains parked at station s2, which was charging for charging.
   [1145, 1209) -> Service a request driving for customer c20 from s2 to s3.
   [1209, tmax) -> It remains parked at station s3.

Schedule for EV v6:
   [   0,  480) -> It remains parked at station s1.
   [ 480,  574) -> Service a request driving for customer c33 from s1 to s3.
   [ 574,  790) -> It remains parked at station s3.
   [ 790,  864) -> Service a request driving for customer c29 from s3 to s2.
   [ 864, 1050) -> It remains parked at station s2.
   [1050, 1104) -> Service a request driving for customer c40 from s2 to s3.
   [1104, 1115) -> It remains parked at station s3, which was charging for charging.
   [1115, 1209) -> Service a request driving for customer c41 from s3 to s0.
   [1209, 1250) -> It remains parked at station s0.
   [1250, 1349) -> Service a request driving for customer c10 from s0 to s3.
   [1349, tmax) -> It remains parked at station s3, which was charging for charging.

Schedule for EV v7:
   [   0,  485) -> It remains parked at station s1.
   [ 485,  526) -> Service a request driving for customer c20 from s1 to s2.
   [ 526,  660) -> It remains parked at station s2.
   [ 660,  771) -> Service a request driving for customer c55 from s2 to s0.
   [ 771,  800) -> It remains parked at station s0.
   [ 800,  914) -> Service a request driving for customer c59 from s0 to s3.
   [ 914, 1015) -> It remains parked at station s3, which was charging for charging.
   [1015, 1124) -> Service a request driving for customer c58 from s3 to s0.
   [1124, 1375) -> It remains parked at station s0, which was charging for charging.
   [1375, 1486) -> Service a request driving for customer c41 from s0 to s2.
   [1486, tmax) -> It remains parked at station s2.

Schedule for EV v8:
   [   0,  425) -> It remains parked at station s1.
   [ 425,  514) -> Service a request driving for customer c41 from s1 to s0.
   [ 514,  520) -> It remains parked at station s0, which was charging for charging.
   [ 520,  629) -> Service a request driving for customer c25 from s0 to s3.
   [ 629,  735) -> It remains parked at station s3.
   [ 735,  849) -> Service a request driving for customer c52 from s3 to s0.
   [ 849,  865) -> It remains parked at station s0, which was charging for charging.
   [ 865,  939) -> Service a request driving for customer c52 from s0 to s1.
   [ 939, 1080) -> It remains parked at station s1, which was charging for charging.
   [1080, 1174) -> Service a request driving for customer c18 from s1 to s0.
   [1174, tmax) -> It remains parked at station s0, which was charging for charging.

Schedule for EV v9:
   [   0,  490) -> It remains parked at station s1.
   [ 490,  574) -> Service a request driving for customer c28 from s1 to s3.
   [ 574,  720) -> It remains parked at station s3.
   [ 720,  789) -> Service a request driving for customer c63 from s3 to s1.
   [ 789,  890) -> It remains parked at station s1, which was charging for charging.
   [ 890,  946) -> Service a request driving for customer c0 from s1 to s2.
   [ 946,  985) -> It remains parked at station s2.
   [ 985, 1101) -> Service a request driving for customer c66 from s2 to s0.
   [1101, 1145) -> It remains parked at station s0.
   [1145, 1256) -> Service a request driving for customer c53 from s0 to s2.
   [1256, tmax) -> It remains parked at station s2.

Schedule for EV v10:
   [   0,  485) -> It remains parked at station s1.
   [ 485,  574) -> Service a request driving for customer c62 from s1 to s0.
   [ 574, 1080) -> It remains parked at station s0.
   [1080, 1159) -> Service a request driving for customer c14 from s0 to s1.
   [1159, 1190) -> It remains parked at station s1, which was charging for charging.
   [1190, 1259) -> Service a request driving for customer c48 from s1 to s0.
   [1259, tmax) -> It remains parked at station s0.

Schedule for EV v11:
   [   0,  810) -> It remains parked at station s1.
   [ 810,  884) -> Service a request driving for customer c21 from s1 to s0.
   [ 884,  975) -> It remains parked at station s0.
   [ 975, 1059) -> Service a request driving for customer c11 from s0 to s1.
   [1059, 1075) -> It remains parked at station s1.
   [1075, 1169) -> Service a request driving for customer c52 from s1 to s3.
   [1169, tmax) -> It remains parked at station s3, which was charging for charging.

Schedule for EV v12:
   [   0,  410) -> It remains parked at station s1.
   [ 410,  489) -> Service a request driving for customer c17 from s1 to s0.
   [ 489, 1170) -> It remains parked at station s0, which was charging for charging.
   [1170, 1266) -> Service a request driving for customer c43 from s0 to s2.
   [1266, tmax) -> It remains parked at station s2.

Schedule for EV v13:
   [   0,  515) -> It remains parked at station s1.
   [ 515,  571) -> Service a request driving for customer c66 from s1 to s2.
   [ 571,  640) -> It remains parked at station s2.
   [ 640,  694) -> Service a request driving for customer c49 from s2 to s3.
   [ 694,  740) -> It remains parked at station s3, which was charging for charging.
   [ 740,  804) -> Service a request driving for customer c42 from s3 to s2.
   [ 804,  905) -> It remains parked at station s2.
   [ 905,  964) -> Service a request driving for customer c6 from s2 to s3.
   [ 964, 1075) -> It remains parked at station s3, which was charging for charging.
   [1075, 1169) -> Service a request driving for customer c48 from s3 to s1.
   [1169, 1370) -> It remains parked at station s1.
   [1370, 1416) -> Service a request driving for customer c2 from s1 to s2.
   [1416, tmax) -> It remains parked at station s2.

Schedule for EV v14:
   [   0,  460) -> It remains parked at station s1.
   [ 460,  501) -> Service a request driving for customer c32 from s1 to s2.
   [ 501,  520) -> It remains parked at station s2, which was charging for charging.
   [ 520,  636) -> Service a request driving for customer c32 from s2 to s0.
   [ 636, 1115) -> It remains parked at station s0.
   [1115, 1224) -> Service a request driving for customer c13 from s0 to s3.
   [1224, tmax) -> It remains parked at station s3.

Schedule for EV v15:
   [   0,  510) -> It remains parked at station s1.
   [ 510,  604) -> Service a request driving for customer c8 from s1 to s3.
   [ 604,  710) -> It remains parked at station s3, which was charging for charging.
   [ 710,  789) -> Service a request driving for customer c46 from s3 to s2.
   [ 789,  855) -> It remains parked at station s2.
   [ 855,  971) -> Service a request driving for customer c14 from s2 to s0.
   [ 971, tmax) -> It remains parked at station s0.

Schedule for EV v16:
   [   0,  490) -> It remains parked at station s1.
   [ 490,  569) -> Service a request driving for customer c40 from s1 to s0.
   [ 569,  685) -> It remains parked at station s0, which was charging for charging.
   [ 685,  801) -> Service a request driving for customer c40 from s0 to s2.
   [ 801,  805) -> It remains parked at station s2.
   [ 805,  921) -> Service a request driving for customer c46 from s2 to s0.
   [ 921, tmax) -> It remains parked at station s0, which was charging for charging.

Schedule for EV v17:
   [   0,  535) -> It remains parked at station s2.
   [ 535,  646) -> Service a request driving for customer c53 from s2 to s0.
   [ 646,  655) -> It remains parked at station s0, which was charging for charging.
   [ 655,  724) -> Service a request driving for customer c15 from s0 to s1.
   [ 724,  755) -> It remains parked at station s1, which was charging for charging.
   [ 755,  839) -> Service a request driving for customer c44 from s1 to s0.
   [ 839, 1260) -> It remains parked at station s0, which was charging for charging.
   [1260, 1354) -> Service a request driving for customer c31 from s0 to s3.
   [1354, tmax) -> It remains parked at station s3.

Schedule for EV v18:
   [   0,  490) -> It remains parked at station s2.
   [ 490,  536) -> Service a request driving for customer c37 from s2 to s1.
   [ 536,  560) -> It remains parked at station s1.
   [ 560,  629) -> Service a request driving for customer c13 from s1 to s0.
   [ 629, 1045) -> It remains parked at station s0.
   [1045, 1154) -> Service a request driving for customer c55 from s0 to s3.
   [1154, 1155) -> It remains parked at station s3.
   [1155, 1234) -> Service a request driving for customer c64 from s3 to s2.
   [1234, tmax) -> It remains parked at station s2.

Schedule for EV v19:
   [   0,  435) -> It remains parked at station s2.
   [ 435,  509) -> Service a request driving for customer c52 from s2 to s3.
   [ 509,  545) -> It remains parked at station s3.
   [ 545,  629) -> Service a request driving for customer c44 from s3 to s1.
   [ 629,  695) -> It remains parked at station s1, which was charging for charging.
   [ 695,  736) -> Service a request driving for customer c14 from s1 to s2.
   [ 736, 1075) -> It remains parked at station s2.
   [1075, 1126) -> Service a request driving for customer c51 from s2 to s1.
   [1126, 1150) -> It remains parked at station s1.
   [1150, 1201) -> Service a request driving for customer c57 from s1 to s2.
   [1201, tmax) -> It remains parked at station s2.

Schedule for EV v20:
   [   0,  495) -> It remains parked at station s2.
   [ 495,  541) -> Service a request driving for customer c34 from s2 to s1.
   [ 541,  700) -> It remains parked at station s1.
   [ 700,  779) -> Service a request driving for customer c5 from s1 to s3.
   [ 779, 1020) -> It remains parked at station s3.
   [1020, 1089) -> Service a request driving for customer c49 from s3 to s1.
   [1089, 1090) -> It remains parked at station s1.
   [1090, 1179) -> Service a request driving for customer c67 from s1 to s3.
   [1179, tmax) -> It remains parked at station s3.

Schedule for EV v21:
   [   0,  520) -> It remains parked at station s2.
   [ 520,  561) -> Service a request driving for customer c21 from s2 to s1.
   [ 561,  620) -> It remains parked at station s1, which was charging for charging.
   [ 620,  714) -> Service a request driving for customer c1 from s1 to s0.
   [ 714,  985) -> It remains parked at station s0, which was charging for charging.
   [ 985, 1094) -> Service a request driving for customer c1 from s0 to s3.
   [1094, tmax) -> It remains parked at station s3, which was charging for charging.

Schedule for EV v22:
   [   0,  440) -> It remains parked at station s3.
   [ 440,  524) -> Service a request driving for customer c2 from s3 to s1.
   [ 524,  585) -> It remains parked at station s1.
   [ 585,  674) -> Service a request driving for customer c31 from s1 to s0.
   [ 674,  810) -> It remains parked at station s0, which was charging for charging.
   [ 810,  924) -> Service a request driving for customer c62 from s0 to s3.
   [ 924, 1035) -> It remains parked at station s3.
   [1035, 1104) -> Service a request driving for customer c3 from s3 to s1.
   [1104, 1165) -> It remains parked at station s1, which was charging for charging.
   [1165, 1216) -> Service a request driving for customer c15 from s1 to s2.
   [1216, tmax) -> It remains parked at station s2.

Schedule for EV v23:
   [   0,  500) -> It remains parked at station s3.
   [ 500,  569) -> Service a request driving for customer c26 from s3 to s2.
   [ 569, 1120) -> It remains parked at station s2.
   [1120, 1231) -> Service a request driving for customer c63 from s2 to s0.
   [1231, tmax) -> It remains parked at station s0.

Schedule for EV v24:
   [   0,  400) -> It remains parked at station s3.
   [ 400,  469) -> Service a request driving for customer c14 from s3 to s1.
   [ 469,  515) -> It remains parked at station s1.
   [ 515,  609) -> Service a request driving for customer c54 from s1 to s0.
   [ 609, 1060) -> It remains parked at station s0, which was charging for charging.
   [1060, 1134) -> Service a request driving for customer c44 from s0 to s1.
   [1134, 1135) -> It remains parked at station s1.
   [1135, 1224) -> Service a request driving for customer c49 from s1 to s3.
   [1224, tmax) -> It remains parked at station s3, which was charging for charging.

Schedule for EV v25:
   [   0,  525) -> It remains parked at station s3.
   [ 525,  604) -> Service a request driving for customer c51 from s3 to s2.
   [ 604, 1155) -> It remains parked at station s2.
   [1155, 1266) -> Service a request driving for customer c6 from s2 to s0.
   [1266, tmax) -> It remains parked at station s0.

Schedule for EV v26:
   [   0,  535) -> It remains parked at station s3.
   [ 535,  649) -> Service a request driving for customer c60 from s3 to s0.
   [ 649, 1090) -> It remains parked at station s0.
   [1090, 1191) -> Service a request driving for customer c17 from s0 to s2.
   [1191, tmax) -> It remains parked at station s2.

Schedule for EV v27:
   [   0,  450) -> It remains parked at station s3.
   [ 450,  524) -> Service a request driving for customer c57 from s3 to s1.
   [ 524,  585) -> It remains parked at station s1, which was charging for charging.
   [ 585,  631) -> Service a request driving for customer c43 from s1 to s2.
   [ 631,  635) -> It remains parked at station s2.
   [ 635,  709) -> Service a request driving for customer c46 from s2 to s3.
   [ 709,  870) -> It remains parked at station s3.
   [ 870,  944) -> Service a request driving for customer c61 from s3 to s1.
   [ 944, 1010) -> It remains parked at station s1, which was charging for charging.
   [1010, 1056) -> Service a request driving for customer c63 from s1 to s2.
   [1056, 1085) -> It remains parked at station s2.
   [1085, 1126) -> Service a request driving for customer c5 from s2 to s1.
   [1126, 1135) -> It remains parked at station s1.
   [1135, 1176) -> Service a request driving for customer c44 from s1 to s2.
   [1176, tmax) -> It remains parked at station s2, which was charging for charging.

Schedule for EV v28:
   [   0,  590) -> It remains parked at station s3.
   [ 590,  679) -> Service a request driving for customer c33 from s3 to s0.
   [ 679, 1070) -> It remains parked at station s0.
   [1070, 1176) -> Service a request driving for customer c21 from s0 to s2.
   [1176, tmax) -> It remains parked at station s2, which was charging for charging.

Schedule for EV v29:
   [   0,  535) -> It remains parked at station s3.
   [ 535,  594) -> Service a request driving for customer c24 from s3 to s2.
   [ 594, 1085) -> It remains parked at station s2, which was charging for charging.
   [1085, 1191) -> Service a request driving for customer c65 from s2 to s0.
   [1191, 1220) -> It remains parked at station s0, which was charging for charging.
   [1220, 1334) -> Service a request driving for customer c39 from s0 to s3.
   [1334, tmax) -> It remains parked at station s3.

Schedule for EV v30:
   [   0,  300) -> It remains parked at station s3.
   [ 300,  379) -> Service a request driving for customer c54 from s3 to s1.
   [ 379,  405) -> It remains parked at station s1.
   [ 405,  446) -> Service a request driving for customer c16 from s1 to s2.
   [ 446,  455) -> It remains parked at station s2.
   [ 455,  511) -> Service a request driving for customer c68 from s2 to s1.
   [ 511,  535) -> It remains parked at station s1, which was charging for charging.
   [ 535,  604) -> Service a request driving for customer c61 from s1 to s3.
   [ 604,  740) -> It remains parked at station s3, which was charging for charging.
   [ 740,  804) -> Service a request driving for customer c65 from s3 to s2.
   [ 804, 1050) -> It remains parked at station s2.
   [1050, 1091) -> Service a request driving for customer c29 from s2 to s1.
   [1091, 1100) -> It remains parked at station s1, which was charging for charging.
   [1100, 1189) -> Service a request driving for customer c37 from s1 to s3.
   [1189, tmax) -> It remains parked at station s3.

Schedule for EV v31:
   [   0,  325) -> It remains parked at station s3.
   [ 325,  409) -> Service a request driving for customer c17 from s3 to s1.
   [ 409,  420) -> It remains parked at station s1.
   [ 420,  499) -> Service a request driving for customer c11 from s1 to s3.
   [ 499,  595) -> It remains parked at station s3, which was charging for charging.
   [ 595,  649) -> Service a request driving for customer c6 from s3 to s2.
   [ 649, 1000) -> It remains parked at station s2.
   [1000, 1064) -> Service a request driving for customer c64 from s2 to s3.
   [1064, 1120) -> It remains parked at station s3, which was charging for charging.
   [1120, 1214) -> Service a request driving for customer c8 from s3 to s0.
   [1214, tmax) -> It remains parked at station s0.

Schedule for EV v32:
   [   0,  500) -> It remains parked at station s3.
   [ 500,  564) -> Service a request driving for customer c55 from s3 to s2.
   [ 564, 1060) -> It remains parked at station s2.
   [1060, 1156) -> Service a request driving for customer c43 from s2 to s0.
   [1156, tmax) -> It remains parked at station s0.

Set of satisfied customers
   {c0, c1, c2, c3, c5, c6, c8, c10, c11, c13, c14, c15, c16, c17, c18, c20, c21, c24, c25, c26, c27, c28, c29, c31, c32, c33, c34, c37, c39, c40, c41, c42, c43, c44, c46, c48, c49, c51, c52, c53, c54, c55, c57, c58, c59, c60, c61, c62, c63, c64, c65, c66, c67, c68, c69}

