Academic license - for non-commercial use only
Gurobi Optimizer version 9.0.3 build v9.0.3rc0 (linux64)
Optimize a model with 30055 rows, 62835 columns and 251336 nonzeros
Model fingerprint: 0x744b2e96
Variable types: 29563 continuous, 33272 integer (33272 binary)
Coefficient statistics:
  Matrix range     [1e+00, 4e+06]
  Objective range  [2e+01, 3e+02]
  Bounds range     [1e+00, 2e+06]
  RHS range        [1e+00, 2e+06]

Loaded user MIP start with objective 5392

Presolve removed 2818 rows and 3204 columns
Presolve time: 0.51s
Presolved: 27237 rows, 59631 columns, 250027 nonzeros
Variable types: 329 continuous, 59302 integer (49240 binary)

Root simplex log...

Iteration    Objective       Primal Inf.    Dual Inf.      Time
   10838    1.2553994e+04   1.021870e+07   0.000000e+00      5s
   13838    1.2553992e+04   1.205074e+06   0.000000e+00     10s
   15868    1.2553990e+04   1.125693e+06   0.000000e+00     15s
   17848    1.2553988e+04   1.377583e+06   0.000000e+00     20s
   19738    1.2553987e+04   1.279947e+06   0.000000e+00     25s
   21478    1.2553985e+04   7.659322e+05   0.000000e+00     30s
   23118    1.2553984e+04   3.005782e+06   0.000000e+00     35s
   24518    1.2553984e+04   4.162345e+06   0.000000e+00     40s
   25958    1.2553982e+04   1.408022e+06   0.000000e+00     45s
   27218    1.2553982e+04   2.398820e+06   0.000000e+00     50s
   28678    1.2553981e+04   1.677062e+06   0.000000e+00     55s
   29888    1.2553979e+04   3.250163e+06   0.000000e+00     60s
   31118    1.2553978e+04   1.538498e+06   0.000000e+00     65s
   32368    1.2553977e+04   1.208742e+06   0.000000e+00     70s
   33668    1.2553976e+04   4.742658e+06   0.000000e+00     75s
   34898    1.2553975e+04   1.830561e+07   0.000000e+00     80s
   36168    1.2553973e+04   1.729206e+06   0.000000e+00     85s
   37358    1.2553972e+04   7.253498e+06   0.000000e+00     90s
   38598    1.2553971e+04   5.144640e+06   0.000000e+00     95s
   39938    1.2553970e+04   2.457606e+06   0.000000e+00    100s
   41068    1.2553969e+04   3.263725e+06   0.000000e+00    105s
   42408    1.2553967e+04   4.042065e+06   0.000000e+00    111s
   43518    1.2553966e+04   1.860602e+07   0.000000e+00    115s
   44608    1.2553965e+04   2.647724e+06   0.000000e+00    120s
   45848    1.2553963e+04   2.665530e+06   0.000000e+00    125s
   47138    1.2553962e+04   1.053243e+07   0.000000e+00    130s
   48398    1.2553960e+04   1.074092e+07   0.000000e+00    135s
   49668    1.2553959e+04   4.370841e+06   0.000000e+00    140s
   50908    1.2553957e+04   4.558441e+06   0.000000e+00    145s
   52098    1.2553955e+04   2.556918e+06   0.000000e+00    150s
   53288    1.2553954e+04   8.806580e+06   0.000000e+00    155s
   54438    1.2553952e+04   3.663987e+07   0.000000e+00    160s
   55558    1.2484957e+04   6.097990e+06   0.000000e+00    165s
   56828    1.2484956e+04   4.598363e+06   0.000000e+00    171s
   57928    1.2484955e+04   3.103945e+06   0.000000e+00    175s
   59318    1.2484954e+04   5.250704e+06   0.000000e+00    180s
   60578    1.2484952e+04   3.425736e+06   0.000000e+00    186s
   61708    1.2458954e+04   9.469626e+06   0.000000e+00    190s
   62998    1.2458953e+04   9.296184e+07   0.000000e+00    195s
   64298    1.2458951e+04   7.265699e+06   0.000000e+00    200s
   65648    1.2458950e+04   3.218500e+06   0.000000e+00    205s
   66928    1.2458948e+04   1.119237e+07   0.000000e+00    210s
   68228    1.2458947e+04   7.556758e+06   0.000000e+00    215s
   69538    1.2458946e+04   7.493749e+06   0.000000e+00    220s
   70898    1.2078950e+04   2.390219e+06   0.000000e+00    225s
   72158    1.2078949e+04   1.094382e+07   0.000000e+00    230s
   73428    1.2078948e+04   3.782051e+06   0.000000e+00    235s
   74638    1.2078946e+04   2.516023e+06   0.000000e+00    240s
   75968    1.2061944e+04   7.219827e+06   0.000000e+00    245s
   77228    1.2061943e+04   3.494238e+06   0.000000e+00    250s
   78478    1.2061937e+04   1.957153e+06   0.000000e+00    255s
   79748    1.2024946e+04   1.842732e+06   0.000000e+00    260s
   81088    1.2024945e+04   5.738565e+06   0.000000e+00    265s
   82348    1.2024944e+04   1.000097e+07   0.000000e+00    270s
   83718    1.2024943e+04   2.444981e+06   0.000000e+00    275s
   85018    1.2024942e+04   5.296625e+06   0.000000e+00    280s
   86248    1.2024941e+04   2.875438e+06   0.000000e+00    285s
   87508    1.2024940e+04   2.038533e+06   0.000000e+00    290s
   88748    1.2024939e+04   1.240198e+06   0.000000e+00    295s
   89958    1.2024938e+04   2.730203e+06   0.000000e+00    300s
   91188    1.2024937e+04   1.935352e+06   0.000000e+00    305s
   92428    1.2024935e+04   2.519389e+06   0.000000e+00    310s
   93658    1.2024934e+04   2.302261e+06   0.000000e+00    315s
   94908    1.2024933e+04   1.545044e+06   0.000000e+00    320s
   96218    1.2024932e+04   7.034306e+06   0.000000e+00    326s
   97398    1.2024930e+04   7.107087e+06   0.000000e+00    330s
   98578    1.2024929e+04   1.550762e+07   0.000000e+00    335s
   99878    1.2024928e+04   2.040013e+07   0.000000e+00    340s
  101128    1.2024926e+04   2.926725e+07   0.000000e+00    345s
  102478    1.2024925e+04   2.300120e+06   0.000000e+00    350s
  103848    1.2024924e+04   5.000507e+06   0.000000e+00    356s
  104958    1.2024923e+04   6.101246e+06   0.000000e+00    360s
  106298    1.1826931e+04   4.890373e+06   0.000000e+00    365s
  107488    1.1567941e+04   2.606434e+07   0.000000e+00    370s
  108848    1.1469934e+04   2.435316e+07   0.000000e+00    375s
  110098    1.1410944e+04   1.892855e+06   0.000000e+00    380s
  111378    1.1410944e+04   3.022428e+06   0.000000e+00    385s
  112818    1.1410943e+04   7.116125e+06   0.000000e+00    391s
  113978    1.1410942e+04   5.847848e+05   0.000000e+00    395s
  115278    1.1410941e+04   2.187069e+06   0.000000e+00    400s
  116498    1.1410940e+04   1.062509e+06   0.000000e+00    405s
  117728    1.1410940e+04   1.574382e+06   0.000000e+00    410s
  119038    1.1410939e+04   7.284938e+05   0.000000e+00    415s
  120268    1.1410939e+04   1.126295e+06   0.000000e+00    420s
  121498    1.1410938e+04   2.526645e+06   0.000000e+00    425s
  122768    1.1410937e+04   2.721321e+06   0.000000e+00    431s
  123968    1.1410937e+04   1.007570e+06   0.000000e+00    435s
  125148    1.1410936e+04   2.742406e+06   0.000000e+00    440s
  126448    1.1410935e+04   8.538710e+06   0.000000e+00    445s
  127688    1.1410934e+04   9.923831e+05   0.000000e+00    450s
  129038    1.1410934e+04   5.009318e+06   0.000000e+00    455s
  130338    1.1410933e+04   2.226214e+06   0.000000e+00    460s
  131508    1.1410932e+04   6.793356e+05   0.000000e+00    465s
  132658    1.1410932e+04   1.327544e+06   0.000000e+00    470s
  133988    1.1410931e+04   2.191086e+06   0.000000e+00    475s
  135168    1.1410930e+04   4.135762e+06   0.000000e+00    480s
  136388    1.1410930e+04   3.403165e+07   0.000000e+00    485s
  137538    1.1410929e+04   3.364584e+06   0.000000e+00    490s
  138668    1.1410929e+04   4.845097e+06   0.000000e+00    495s
  139848    1.1402929e+04   2.574205e+06   0.000000e+00    500s
  141088    1.1402928e+04   3.941940e+05   0.000000e+00    505s
  142208    1.1402928e+04   4.984011e+06   0.000000e+00    510s
  143448    1.1402927e+04   5.129670e+05   0.000000e+00    515s
  144708    1.1402927e+04   2.146652e+06   0.000000e+00    520s
  145948    1.1402926e+04   2.318702e+06   0.000000e+00    525s
  147178    1.1394929e+04   9.256538e+05   0.000000e+00    530s
  148408    1.1394928e+04   2.069987e+06   0.000000e+00    535s
  149728    1.1394925e+04   2.404284e+06   0.000000e+00    540s
  151068    1.1394916e+04   1.069850e+06   0.000000e+00    545s
  152448    1.1394911e+04   1.604588e+06   0.000000e+00    550s
  153728    1.1394909e+04   1.041502e+06   0.000000e+00    555s
  155018    1.1394908e+04   3.553794e+05   0.000000e+00    560s
  156318    1.1394908e+04   1.962039e+05   0.000000e+00    565s
  157568    1.1394907e+04   2.363125e+06   0.000000e+00    570s
  158858    1.1394907e+04   3.462671e+06   0.000000e+00    575s
  160078    1.1394906e+04   5.781742e+05   0.000000e+00    580s
  161558    1.1394905e+04   7.154460e+04   0.000000e+00    586s
  162878    1.1394905e+04   6.587401e+05   0.000000e+00    591s
  164158    1.1394905e+04   8.698298e+04   0.000000e+00    596s
  165398    1.1394904e+04   1.391693e+05   0.000000e+00    600s
  166768    1.1394904e+04   2.434489e+05   0.000000e+00    605s
  167988    1.1394904e+04   7.594360e+05   0.000000e+00    610s
  169318    1.1394903e+04   3.827384e+05   0.000000e+00    615s
  170628    1.1394903e+04   2.149637e+05   0.000000e+00    620s
  172078    1.1394903e+04   3.016528e+05   0.000000e+00    626s
  173348    1.1394902e+04   2.613135e+05   0.000000e+00    630s
  174668    1.1394902e+04   5.053057e+05   0.000000e+00    636s
  175858    1.1394902e+04   7.972472e+04   0.000000e+00    640s
  177248    1.1394902e+04   7.676643e+04   0.000000e+00    645s
  178518    1.1394902e+04   9.677209e+04   0.000000e+00    650s
  179868    1.1394901e+04   1.676440e+05   0.000000e+00    655s
  181168    1.1394901e+04   1.854385e+06   0.000000e+00    660s
  182448    1.1394901e+04   5.071328e+04   0.000000e+00    665s
  183708    1.1394901e+04   5.308997e+04   0.000000e+00    670s
  185018    1.1394901e+04   7.831361e+04   0.000000e+00    675s
  186468    1.1394901e+04   3.522457e+04   0.000000e+00    680s
  187688    1.1394901e+04   2.877695e+04   0.000000e+00    685s
  189158    1.1394901e+04   8.366496e+03   0.000000e+00    690s
  190368    1.1394901e+04   8.362510e+04   0.000000e+00    695s
  191728    1.1394901e+04   2.145837e+01   0.000000e+00    700s
  191940    1.1395000e+04   0.000000e+00   0.000000e+00    701s
  191940    1.1395000e+04   0.000000e+00   0.000000e+00    701s

Root relaxation: objective 1.139500e+04, 191940 iterations, 700.34 seconds
Total elapsed time = 881.30s
Total elapsed time = 952.89s
Total elapsed time = 1087.76s
Total elapsed time = 1110.98s

    Nodes    |    Current Node    |     Objective Bounds      |     Work
 Expl Unexpl |  Obj  Depth IntInf | Incumbent    BestBd   Gap | It/Node Time

     0     0 11395.0000    0 11475 5392.00000 11395.0000   111%     - 1121s
     0     0 11395.0000    0 13145 5392.00000 11395.0000   111%     - 1237s
     0     0 11395.0000    0 12726 5392.00000 11395.0000   111%     - 1263s
     0     0 11395.0000    0 10603 5392.00000 11395.0000   111%     - 1956s
     0     0 11395.0000    0 11450 5392.00000 11395.0000   111%     - 2025s
     0     0 11395.0000    0 9870 5392.00000 11395.0000   111%     - 2783s
     0     0 11395.0000    0 10953 5392.00000 11395.0000   111%     - 2826s
     0     0 11395.0000    0 10473 5392.00000 11395.0000   111%     - 3116s
     0     0 11395.0000    0 9437 5392.00000 11395.0000   111%     - 3600s

Cutting planes:
  Implied bound: 1529
  MIR: 38
  StrongCG: 16
  RLT: 385
  Relax-and-lift: 371

Explored 1 nodes (1866309 simplex iterations) in 3600.01 seconds
Thread count was 1 (of 40 available processors)

Solution count 1: 5392 

Time limit reached
Best objective 5.392000000000e+03, best bound 1.139500000000e+04, gap 111.3316%

----------

Best objective (UB): 11395.000
Best feasible solution (LB): 5392.000
Gap between the lower bound and upper bound: 111.332%

----------

Number of customers served: 51

Schedule for EV v0:
   [   0,  440) -> It remains parked at station s0.
   [ 440,  524) -> Service a request driving for customer c25 from s0 to s4.
   [ 524,  840) -> It remains parked at station s4.
   [ 840,  878) -> Service a request driving for customer c1 from s4 to s2.
   [ 878, 1085) -> It remains parked at station s2, which was charging for charging.
   [1085, 1133) -> Service a request driving for customer c1 from s2 to s4.
   [1133, tmax) -> It remains parked at station s4.

Schedule for EV v1:
   [   0,  615) -> It remains parked at station s0.
   [ 615,  694) -> Service a request driving for customer c3 from s0 to s4.
   [ 694, 1015) -> It remains parked at station s4.
   [1015, 1099) -> Service a request driving for customer c3 from s4 to s1.
   [1099, tmax) -> It remains parked at station s1.

Schedule for EV v2:
   [   0,  530) -> It remains parked at station s0.
   [ 530,  609) -> Service a request driving for customer c13 from s0 to s4.
   [ 609,  730) -> It remains parked at station s4.
   [ 730,  804) -> Service a request driving for customer c13 from s4 to s0.
   [ 804, 1355) -> It remains parked at station s0.
   [1355, 1410) -> Service a request driving for customer c72 from s0 to s3.
   [1410, tmax) -> It remains parked at station s3.

Schedule for EV v3:
   [   0,  530) -> It remains parked at station s0.
   [ 530,  589) -> Service a request driving for customer c68 from s0 to s4.
   [ 589, 1180) -> It remains parked at station s4.
   [1180, 1254) -> Service a request driving for customer c68 from s4 to s0.
   [1254, tmax) -> It remains parked at station s0.

Schedule for EV v4:
   [   0,  515) -> It remains parked at station s0.
   [ 515,  594) -> Service a request driving for customer c114 from s0 to s4.
   [ 594,  910) -> It remains parked at station s4.
   [ 910,  963) -> Service a request driving for customer c114 from s4 to s2.
   [ 963, 1020) -> It remains parked at station s2.
   [1020, 1073) -> Service a request driving for customer c114 from s2 to s4.
   [1073, tmax) -> It remains parked at station s4.

Schedule for EV v5:
   [   0,  590) -> It remains parked at station s0.
   [ 590,  645) -> Service a request driving for customer c14 from s0 to s3.
   [ 645, 1150) -> It remains parked at station s3.
   [1150, 1186) -> Service a request driving for customer c102 from s3 to s2.
   [1186, tmax) -> It remains parked at station s2, which was charging for charging.

Schedule for EV v6:
   [   0, 1065) -> It remains parked at station s0.
   [1065, 1120) -> Service a request driving for customer c95 from s0 to s3.
   [1120, 1310) -> It remains parked at station s3.
   [1310, 1356) -> Service a request driving for customer c95 from s3 to s2.
   [1356, tmax) -> It remains parked at station s2.

Schedule for EV v7:
   [   0,  365) -> It remains parked at station s0, which was charging for charging.
   [ 365,  424) -> Service a request driving for customer c37 from s0 to s4.
   [ 424,  535) -> It remains parked at station s4, which was charging for charging.
   [ 535,  568) -> Service a request driving for customer c37 from s4 to s2.
   [ 568, 1260) -> It remains parked at station s2.
   [1260, 1293) -> Service a request driving for customer c37 from s2 to s4.
   [1293, 1345) -> It remains parked at station s4.
   [1345, 1419) -> Service a request driving for customer c37 from s4 to s1.
   [1419, tmax) -> It remains parked at station s1.

Schedule for EV v8:
   [   0,  500) -> It remains parked at station s1.
   [ 500,  548) -> Service a request driving for customer c40 from s1 to s3.
   [ 548, 1370) -> It remains parked at station s3.
   [1370, 1433) -> Service a request driving for customer c40 from s3 to s1.
   [1433, tmax) -> It remains parked at station s1.

Schedule for EV v9:
   [   0, 1360) -> It remains parked at station s1.
   [1360, 1413) -> Service a request driving for customer c119 from s1 to s2.
   [1413, tmax) -> It remains parked at station s2.

Schedule for EV v10:
   [   0,  480) -> It remains parked at station s1.
   [ 480,  539) -> Service a request driving for customer c81 from s1 to s4.
   [ 539,  920) -> It remains parked at station s4.
   [ 920,  978) -> Service a request driving for customer c81 from s4 to s2.
   [ 978, 1050) -> It remains parked at station s2.
   [1050, 1083) -> Service a request driving for customer c81 from s2 to s4.
   [1083, tmax) -> It remains parked at station s4.

Schedule for EV v11:
   [   0,  470) -> It remains parked at station s1.
   [ 470,  513) -> Service a request driving for customer c64 from s1 to s2.
   [ 513,  995) -> It remains parked at station s2.
   [ 995, 1048) -> Service a request driving for customer c64 from s2 to s4.
   [1048, 1055) -> It remains parked at station s4.
   [1055, 1103) -> Service a request driving for customer c30 from s4 to s3.
   [1103, 1245) -> It remains parked at station s3.
   [1245, 1278) -> Service a request driving for customer c30 from s3 to s4.
   [1278, tmax) -> It remains parked at station s4.

Schedule for EV v12:
   [   0,  300) -> It remains parked at station s1.
   [ 300,  353) -> Service a request driving for customer c87 from s1 to s2.
   [ 353, 1090) -> It remains parked at station s2, which was charging for charging.
   [1090, 1138) -> Service a request driving for customer c87 from s2 to s1.
   [1138, 1140) -> It remains parked at station s1.
   [1140, 1178) -> Service a request driving for customer c87 from s1 to s0.
   [1178, tmax) -> It remains parked at station s0.

Schedule for EV v13:
   [   0,  490) -> It remains parked at station s1.
   [ 490,  548) -> Service a request driving for customer c61 from s1 to s3.
   [ 548,  930) -> It remains parked at station s3, which was charging for charging.
   [ 930,  978) -> Service a request driving for customer c61 from s3 to s4.
   [ 978, 1045) -> It remains parked at station s4.
   [1045, 1073) -> Service a request driving for customer c61 from s4 to s3.
   [1073, 1115) -> It remains parked at station s3.
   [1115, 1168) -> Service a request driving for customer c117 from s3 to s1.
   [1168, 1180) -> It remains parked at station s1.
   [1180, 1203) -> Service a request driving for customer c117 from s1 to s0.
   [1203, tmax) -> It remains parked at station s0, which was charging for charging.

Schedule for EV v14:
   [   0, 1225) -> It remains parked at station s1.
   [1225, 1268) -> Service a request driving for customer c70 from s1 to s0.
   [1268, tmax) -> It remains parked at station s0, which was charging for charging.

Schedule for EV v15:
   [   0,  485) -> It remains parked at station s1.
   [ 485,  544) -> Service a request driving for customer c113 from s1 to s4.
   [ 544,  565) -> It remains parked at station s4.
   [ 565,  588) -> Service a request driving for customer c113 from s4 to s3.
   [ 588, 1075) -> It remains parked at station s3, which was charging for charging.
   [1075, 1096) -> Service a request driving for customer c115 from s3 to s2.
   [1096, 1120) -> It remains parked at station s2, which was charging for charging.
   [1120, 1166) -> Service a request driving for customer c115 from s2 to s3.
   [1166, tmax) -> It remains parked at station s3.

Schedule for EV v16:
   [   0,  335) -> It remains parked at station s1.
   [ 335,  378) -> Service a request driving for customer c42 from s1 to s2.
   [ 378, 1055) -> It remains parked at station s2, which was charging for charging.
   [1055, 1086) -> Service a request driving for customer c42 from s2 to s3.
   [1086, tmax) -> It remains parked at station s3, which was charging for charging.

Schedule for EV v17:
   [   0,  500) -> It remains parked at station s2.
   [ 500,  558) -> Service a request driving for customer c85 from s2 to s1.
   [ 558,  720) -> It remains parked at station s1, which was charging for charging.
   [ 720,  779) -> Service a request driving for customer c85 from s1 to s4.
   [ 779,  895) -> It remains parked at station s4.
   [ 895,  969) -> Service a request driving for customer c85 from s4 to s1.
   [ 969, 1110) -> It remains parked at station s1, which was charging for charging.
   [1110, 1179) -> Service a request driving for customer c85 from s1 to s4.
   [1179, 1355) -> It remains parked at station s4.
   [1355, 1388) -> Service a request driving for customer c97 from s4 to s3.
   [1388, tmax) -> It remains parked at station s3.

Schedule for EV v18:
   [   0,  450) -> It remains parked at station s2.
   [ 450,  503) -> Service a request driving for customer c90 from s2 to s4.
   [ 503,  535) -> It remains parked at station s4.
   [ 535,  619) -> Service a request driving for customer c90 from s4 to s0.
   [ 619,  850) -> It remains parked at station s0, which was charging for charging.
   [ 850,  905) -> Service a request driving for customer c90 from s0 to s3.
   [ 905, 1045) -> It remains parked at station s3.
   [1045, 1088) -> Service a request driving for customer c57 from s3 to s4.
   [1088, tmax) -> It remains parked at station s4.

Schedule for EV v19:
   [   0,  845) -> It remains parked at station s2.
   [ 845,  898) -> Service a request driving for customer c4 from s2 to s4.
   [ 898, 1195) -> It remains parked at station s4.
   [1195, 1269) -> Service a request driving for customer c4 from s4 to s1.
   [1269, tmax) -> It remains parked at station s1, which was charging for charging.

Schedule for EV v20:
   [   0,  960) -> It remains parked at station s2.
   [ 960,  997) -> Service a request driving for customer c56 from s2 to s0.
   [ 997, 1145) -> It remains parked at station s0.
   [1145, 1229) -> Service a request driving for customer c56 from s0 to s4.
   [1229, tmax) -> It remains parked at station s4.

Schedule for EV v21:
   [   0,  840) -> It remains parked at station s2.
   [ 840,  897) -> Service a request driving for customer c7 from s2 to s0.
   [ 897, 1040) -> It remains parked at station s0, which was charging for charging.
   [1040, 1085) -> Service a request driving for customer c27 from s0 to s3.
   [1085, 1135) -> It remains parked at station s3.
   [1135, 1181) -> Service a request driving for customer c27 from s3 to s2.
   [1181, 1185) -> It remains parked at station s2.
   [1185, 1242) -> Service a request driving for customer c22 from s2 to s0.
   [1242, 1290) -> It remains parked at station s0, which was charging for charging.
   [1290, 1322) -> Service a request driving for customer c22 from s0 to s2.
   [1322, tmax) -> It remains parked at station s2.

Schedule for EV v22:
   [   0, 1090) -> It remains parked at station s3.
   [1090, 1145) -> Service a request driving for customer c98 from s3 to s0.
   [1145, 1165) -> It remains parked at station s0.
   [1165, 1202) -> Service a request driving for customer c108 from s0 to s2.
   [1202, tmax) -> It remains parked at station s2.

Schedule for EV v23:
   [   0, 1125) -> It remains parked at station s3.
   [1125, 1188) -> Service a request driving for customer c15 from s3 to s1.
   [1188, 1345) -> It remains parked at station s1, which was charging for charging.
   [1345, 1388) -> Service a request driving for customer c15 from s1 to s0.
   [1388, tmax) -> It remains parked at station s0.

Schedule for EV v24:
   [   0,  400) -> It remains parked at station s3.
   [ 400,  446) -> Service a request driving for customer c36 from s3 to s2.
   [ 446,  480) -> It remains parked at station s2.
   [ 480,  523) -> Service a request driving for customer c36 from s2 to s1.
   [ 523, 1165) -> It remains parked at station s1.
   [1165, 1203) -> Service a request driving for customer c36 from s1 to s0.
   [1203, 1300) -> It remains parked at station s0.
   [1300, 1370) -> Service a request driving for customer c36 from s0 to s3.
   [1370, tmax) -> It remains parked at station s3.

Schedule for EV v25:
   [   0,  550) -> It remains parked at station s3.
   [ 550,  608) -> Service a request driving for customer c23 from s3 to s1.
   [ 608, 1060) -> It remains parked at station s1.
   [1060, 1118) -> Service a request driving for customer c23 from s1 to s2.
   [1118, 1135) -> It remains parked at station s2.
   [1135, 1181) -> Service a request driving for customer c23 from s2 to s3.
   [1181, 1220) -> It remains parked at station s3.
   [1220, 1243) -> Service a request driving for customer c23 from s3 to s4.
   [1243, tmax) -> It remains parked at station s4.

Schedule for EV v26:
   [   0, 1020) -> It remains parked at station s4.
   [1020, 1099) -> Service a request driving for customer c38 from s4 to s0.
   [1099, 1280) -> It remains parked at station s0.
   [1280, 1350) -> Service a request driving for customer c17 from s0 to s3.
   [1350, tmax) -> It remains parked at station s3.

Schedule for EV v27:
   [   0,  480) -> It remains parked at station s4.
   [ 480,  549) -> Service a request driving for customer c6 from s4 to s0.
   [ 549,  580) -> It remains parked at station s0.
   [ 580,  659) -> Service a request driving for customer c6 from s0 to s4.
   [ 659, 1135) -> It remains parked at station s4.
   [1135, 1209) -> Service a request driving for customer c6 from s4 to s1.
   [1209, tmax) -> It remains parked at station s1, which was charging for charging.

Schedule for EV v28:
   [   0,  455) -> It remains parked at station s4.
   [ 455,  529) -> Service a request driving for customer c45 from s4 to s1.
   [ 529,  565) -> It remains parked at station s1, which was charging for charging.
   [ 565,  598) -> Service a request driving for customer c106 from s1 to s2.
   [ 598,  865) -> It remains parked at station s2, which was charging for charging.
   [ 865,  886) -> Service a request driving for customer c106 from s2 to s3.
   [ 886, tmax) -> It remains parked at station s3, which was charging for charging.

Schedule for EV v29:
   [   0, 1115) -> It remains parked at station s4.
   [1115, 1189) -> Service a request driving for customer c76 from s4 to s0.
   [1189, tmax) -> It remains parked at station s0.

Schedule for EV v30:
   [   0, 1000) -> It remains parked at station s4.
   [1000, 1069) -> Service a request driving for customer c29 from s4 to s0.
   [1069, 1120) -> It remains parked at station s0, which was charging for charging.
   [1120, 1180) -> Service a request driving for customer c75 from s0 to s3.
   [1180, 1330) -> It remains parked at station s3.
   [1330, 1361) -> Service a request driving for customer c75 from s3 to s2.
   [1361, tmax) -> It remains parked at station s2.

Schedule for EV v31:
   [   0, 1165) -> It remains parked at station s4.
   [1165, 1234) -> Service a request driving for customer c33 from s4 to s1.
   [1234, tmax) -> It remains parked at station s1, which was charging for charging.

Schedule for EV v32:
   [   0,  580) -> It remains parked at station s4.
   [ 580,  649) -> Service a request driving for customer c19 from s4 to s1.
   [ 649, 1195) -> It remains parked at station s1, which was charging for charging.
   [1195, 1263) -> Service a request driving for customer c19 from s1 to s3.
   [1263, tmax) -> It remains parked at station s3.

Schedule for EV v33:
   [   0,  510) -> It remains parked at station s4.
   [ 510,  584) -> Service a request driving for customer c28 from s4 to s0.
   [ 584, 1090) -> It remains parked at station s0, which was charging for charging.
   [1090, 1150) -> Service a request driving for customer c28 from s0 to s3.
   [1150, tmax) -> It remains parked at station s3.

Schedule for EV v34:
   [   0,  420) -> It remains parked at station s4.
   [ 420,  494) -> Service a request driving for customer c46 from s4 to s1.
   [ 494, 1375) -> It remains parked at station s1, which was charging for charging.
   [1375, 1428) -> Service a request driving for customer c46 from s1 to s2.
   [1428, tmax) -> It remains parked at station s2.

Schedule for EV v35:
   [   0,  460) -> It remains parked at station s4.
   [ 460,  518) -> Service a request driving for customer c67 from s4 to s2.
   [ 518,  525) -> It remains parked at station s2.
   [ 525,  573) -> Service a request driving for customer c67 from s2 to s4.
   [ 573,  830) -> It remains parked at station s4.
   [ 830,  883) -> Service a request driving for customer c107 from s4 to s2.
   [ 883, 1140) -> It remains parked at station s2.
   [1140, 1192) -> Service a request driving for customer c107 from s2 to s0.
   [1192, 1310) -> It remains parked at station s0, which was charging for charging.
   [1310, 1342) -> Service a request driving for customer c107 from s0 to s2.
   [1342, tmax) -> It remains parked at station s2.

Set of satisfied customers
   {c1, c3, c4, c6, c7, c13, c14, c15, c17, c19, c22, c23, c25, c27, c28, c29, c30, c33, c36, c37, c38, c40, c42, c45, c46, c56, c57, c61, c64, c67, c68, c70, c72, c75, c76, c81, c85, c87, c90, c95, c97, c98, c102, c106, c107, c108, c113, c114, c115, c117, c119}

