Academic license - for non-commercial use only
Gurobi Optimizer version 9.0.3 build v9.0.3rc0 (linux64)
Optimize a model with 115377 rows, 78040 columns and 729012 nonzeros
Model fingerprint: 0xc071239a
Variable types: 40408 continuous, 37632 integer (37632 binary)
Coefficient statistics:
  Matrix range     [1e+00, 3e+06]
  Objective range  [4e+01, 3e+02]
  Bounds range     [1e+00, 2e+06]
  RHS range        [1e+00, 2e+06]

Loaded user MIP start with objective 4114

Presolve removed 20526 rows and 14191 columns
Presolve time: 2.92s
Presolved: 94851 rows, 63849 columns, 590009 nonzeros
Variable types: 0 continuous, 63849 integer (57809 binary)

Root simplex log...

Iteration    Objective       Primal Inf.    Dual Inf.      Time
    8721    5.8989983e+03   1.232310e+04   0.000000e+00      5s
   14949    5.8989974e+03   4.051132e+05   0.000000e+00     10s
   18063    5.8989971e+03   7.310534e+04   0.000000e+00     15s
   20485    5.8989969e+03   5.379237e+05   0.000000e+00     20s
   22561    5.8989967e+03   6.207754e+04   0.000000e+00     25s
   24464    5.8989966e+03   3.257071e+05   0.000000e+00     30s
   26194    5.8989965e+03   5.558800e+04   0.000000e+00     35s
   27924    5.8989964e+03   5.542380e+04   0.000000e+00     41s
   29308    5.8989963e+03   2.098127e+04   0.000000e+00     45s
   30865    5.8989962e+03   4.298136e+04   0.000000e+00     51s
   32249    5.8989962e+03   1.466361e+04   0.000000e+00     55s
   33451    5.8989961e+03   3.364386e+04   0.000000e+00     60s
   34826    5.8989960e+03   4.462738e+04   0.000000e+00     65s
   36192    5.8989959e+03   6.687475e+04   0.000000e+00     71s
   37388    5.8989959e+03   3.776929e+05   0.000000e+00     75s
   38724    5.8989958e+03   1.894585e+04   0.000000e+00     81s
   39894    5.8989958e+03   1.458257e+04   0.000000e+00     85s
   41083    5.8989957e+03   1.165075e+05   0.000000e+00     90s
   42272    5.8989957e+03   3.552168e+04   0.000000e+00     95s
   43477    5.8989956e+03   3.498474e+04   0.000000e+00    100s
   44617    5.8989955e+03   1.641035e+04   0.000000e+00    105s
   45767    5.8989955e+03   2.538179e+05   0.000000e+00    110s
   46900    5.8989954e+03   1.149659e+05   0.000000e+00    115s
   48020    5.8989953e+03   1.382432e+04   0.000000e+00    120s
   49160    5.8989953e+03   5.180500e+04   0.000000e+00    126s
   50113    5.8989953e+03   2.558307e+04   0.000000e+00    130s
   51213    5.8989952e+03   1.749216e+05   0.000000e+00    135s
   52163    5.8989952e+03   2.163211e+04   0.000000e+00    140s
   53263    5.8989951e+03   5.555740e+04   0.000000e+00    145s
   54333    5.8989951e+03   9.585128e+04   0.000000e+00    151s
   55303    5.8989951e+03   7.008882e+03   0.000000e+00    155s
   56263    5.8989950e+03   1.604679e+04   0.000000e+00    160s
   57383    5.8989950e+03   1.387698e+04   0.000000e+00    166s
   58333    5.8989950e+03   1.563421e+04   0.000000e+00    170s
   59263    5.8989949e+03   2.509181e+04   0.000000e+00    175s
   60425    5.8989948e+03   1.001715e+05   0.000000e+00    181s
   61375    5.8989948e+03   1.065384e+04   0.000000e+00    186s
   62295    5.8989948e+03   2.211275e+04   0.000000e+00    190s
   63261    5.8989947e+03   2.373793e+04   0.000000e+00    195s
   64234    5.8989946e+03   1.746740e+04   0.000000e+00    200s
   65194    5.8989946e+03   1.055711e+04   0.000000e+00    205s
   66164    5.8989945e+03   1.696640e+04   0.000000e+00    211s
   67114    5.8989945e+03   1.697476e+04   0.000000e+00    216s
   68064    5.8989945e+03   1.431367e+04   0.000000e+00    221s
   68984    5.8989945e+03   5.344402e+03   0.000000e+00    226s
   69924    5.8989944e+03   1.817722e+04   0.000000e+00    231s
   70847    5.8989944e+03   1.070214e+04   0.000000e+00    236s
   71670    5.8989943e+03   8.292798e+05   0.000000e+00    240s
   72650    5.8989942e+03   3.688828e+04   0.000000e+00    245s
   73590    5.8989942e+03   1.409114e+04   0.000000e+00    251s
   74530    5.8989942e+03   7.542602e+04   0.000000e+00    256s
   75460    5.8989941e+03   1.480794e+04   0.000000e+00    261s
   76230    5.8989941e+03   2.753994e+04   0.000000e+00    265s
   77186    5.8989940e+03   1.942698e+05   0.000000e+00    270s
   78169    5.8989933e+03   1.247259e+05   0.000000e+00    276s
   78949    5.8989931e+03   2.279980e+05   0.000000e+00    280s
   79909    5.8989929e+03   5.133854e+04   0.000000e+00    285s
   80819    5.8989928e+03   1.261317e+04   0.000000e+00    290s
   81779    5.8989927e+03   2.263735e+04   0.000000e+00    296s
   82559    5.8989926e+03   1.293349e+04   0.000000e+00    300s
   83519    5.8989925e+03   3.076512e+05   0.000000e+00    306s
   84309    5.8989924e+03   1.222497e+04   0.000000e+00    310s
   85229    5.8989923e+03   4.755305e+03   0.000000e+00    316s
   86139    5.8989922e+03   6.349962e+04   0.000000e+00    321s
   86899    5.8989922e+03   1.153352e+05   0.000000e+00    325s
   87679    5.8989921e+03   1.917503e+04   0.000000e+00    330s
   88619    5.8989920e+03   1.049704e+04   0.000000e+00    336s
   89389    5.8989919e+03   4.819405e+04   0.000000e+00    340s
   90309    5.8989918e+03   1.202144e+04   0.000000e+00    345s
   91079    5.8989918e+03   1.690502e+04   0.000000e+00    350s
   92039    5.8989917e+03   6.395319e+04   0.000000e+00    356s
   92829    5.8989916e+03   4.175034e+04   0.000000e+00    360s
   93749    5.8989915e+03   9.668298e+03   0.000000e+00    366s
   94509    5.8989915e+03   6.891108e+04   0.000000e+00    370s
   95439    5.8989914e+03   5.949716e+03   0.000000e+00    376s
   96209    5.8989913e+03   5.424394e+04   0.000000e+00    380s
   97129    5.8989912e+03   8.844464e+04   0.000000e+00    386s
   97899    5.8989912e+03   1.144023e+04   0.000000e+00    390s
   98809    5.8989911e+03   6.683158e+04   0.000000e+00    396s
   99599    5.8989910e+03   2.174068e+04   0.000000e+00    400s
  100519    5.8989909e+03   3.883406e+05   0.000000e+00    406s
  101289    5.8989908e+03   1.462034e+04   0.000000e+00    411s
  102049    5.8989908e+03   1.531420e+04   0.000000e+00    415s
  103009    5.8989907e+03   2.034793e+04   0.000000e+00    421s
  103789    5.8989906e+03   1.094360e+06   0.000000e+00    425s
  104549    5.8989906e+03   5.930653e+04   0.000000e+00    430s
  105459    5.8989905e+03   6.154391e+05   0.000000e+00    436s
  106199    5.8989904e+03   3.165824e+04   0.000000e+00    440s
  107119    5.8989903e+03   6.158246e+04   0.000000e+00    446s
  107879    5.8989902e+03   1.599848e+04   0.000000e+00    451s
  108669    5.8989902e+03   1.453245e+04   0.000000e+00    456s
  109459    5.8989901e+03   6.957435e+04   0.000000e+00    460s
  110249    5.8989901e+03   7.467479e+03   0.000000e+00    465s
  111049    5.8989900e+03   1.856472e+04   0.000000e+00    470s
  111829    5.8989899e+03   3.856289e+06   0.000000e+00    475s
  112609    5.8989898e+03   2.411922e+04   0.000000e+00    480s
  113359    5.8989898e+03   1.743548e+04   0.000000e+00    485s
  114139    5.8989897e+03   1.009336e+05   0.000000e+00    490s
  114929    5.8989896e+03   5.564573e+04   0.000000e+00    495s
  115679    5.8989895e+03   2.109306e+05   0.000000e+00    501s
  116479    5.8989895e+03   1.049766e+05   0.000000e+00    506s
  117099    5.8989894e+03   7.784444e+04   0.000000e+00    510s
  117859    5.8989893e+03   6.325261e+03   0.000000e+00    515s
  118619    5.8989893e+03   1.050094e+04   0.000000e+00    520s
  119439    5.8989892e+03   8.296157e+04   0.000000e+00    526s
  120059    5.8989891e+03   1.202765e+05   0.000000e+00    530s
  120839    5.8989890e+03   1.097772e+05   0.000000e+00    536s
  121459    5.8989889e+03   7.577505e+04   0.000000e+00    540s
  122249    5.8989888e+03   2.151672e+04   0.000000e+00    546s
  122739    5.8989888e+03   4.513764e+04   0.000000e+00    550s
  123399    5.8989887e+03   4.061188e+05   0.000000e+00    555s
  124179    5.8989886e+03   3.131179e+04   0.000000e+00    561s
  124819    5.8989886e+03   1.283258e+04   0.000000e+00    565s
  125449    5.8989885e+03   2.844443e+04   0.000000e+00    570s
  126259    5.8989884e+03   7.409894e+04   0.000000e+00    576s
  126909    5.8989883e+03   2.543104e+04   0.000000e+00    581s
  127569    5.8989882e+03   5.754760e+03   0.000000e+00    585s
  128369    5.8989881e+03   2.316177e+04   0.000000e+00    591s
  128989    5.8989881e+03   7.009821e+04   0.000000e+00    596s
  129749    5.8989880e+03   5.967448e+04   0.000000e+00    601s
  130399    5.8989879e+03   1.058596e+05   0.000000e+00    606s
  131039    5.8989878e+03   2.140448e+04   0.000000e+00    610s
  131669    5.8989877e+03   5.306357e+04   0.000000e+00    615s
  132459    5.8989875e+03   7.799877e+03   0.000000e+00    621s
  133112    5.8989875e+03   2.774628e+05   0.000000e+00    626s
  133752    5.8989873e+03   2.587402e+04   0.000000e+00    631s
  134352    5.8989872e+03   3.402094e+04   0.000000e+00    635s
  134982    5.8989871e+03   5.691218e+04   0.000000e+00    640s
  135782    5.8989870e+03   1.332073e+04   0.000000e+00    646s
  136442    5.8989869e+03   1.552878e+06   0.000000e+00    651s
  137125    5.8989868e+03   1.438528e+04   0.000000e+00    656s
  137775    5.8989867e+03   7.951136e+03   0.000000e+00    661s
  138415    5.8989866e+03   6.751690e+04   0.000000e+00    666s
  139055    5.8989864e+03   5.284821e+04   0.000000e+00    671s
  139695    5.8989863e+03   2.278838e+04   0.000000e+00    676s
  140345    5.8989862e+03   6.465020e+04   0.000000e+00    681s
  140995    5.8989861e+03   6.999939e+04   0.000000e+00    686s
  141655    5.8989860e+03   4.345988e+04   0.000000e+00    690s
  142445    5.8989860e+03   1.108153e+05   0.000000e+00    696s
  143075    5.8989859e+03   3.179781e+03   0.000000e+00    701s
  143725    5.8989859e+03   9.205495e+03   0.000000e+00    706s
  144355    5.8989858e+03   1.358689e+04   0.000000e+00    711s
  144995    5.8989857e+03   8.782089e+03   0.000000e+00    716s
  145635    5.8989857e+03   7.695614e+05   0.000000e+00    721s
  146275    5.8989856e+03   1.727267e+04   0.000000e+00    726s
  146915    5.8989856e+03   1.002088e+04   0.000000e+00    731s
  147555    5.8989854e+03   1.744816e+05   0.000000e+00    736s
  148195    5.8989853e+03   7.373037e+03   0.000000e+00    741s
  148848    5.8989852e+03   5.482386e+04   0.000000e+00    746s
  149508    5.8989850e+03   8.485371e+04   0.000000e+00    751s
  150158    5.8989849e+03   9.384152e+03   0.000000e+00    756s
  150791    5.8989847e+03   8.252082e+03   0.000000e+00    761s
  151431    5.8989846e+03   6.720443e+03   0.000000e+00    766s
  151931    5.8989845e+03   1.931376e+04   0.000000e+00    770s
  152571    5.8989844e+03   1.295651e+04   0.000000e+00    775s
  153201    5.8989843e+03   3.303676e+04   0.000000e+00    780s
  153801    5.8989843e+03   7.436496e+03   0.000000e+00    785s
  154451    5.8989842e+03   1.578616e+05   0.000000e+00    790s
  155091    5.8989842e+03   8.024301e+04   0.000000e+00    795s
  155721    5.8989841e+03   1.045197e+04   0.000000e+00    800s
  156371    5.8989840e+03   2.199742e+04   0.000000e+00    805s
  157001    5.8989838e+03   4.828184e+04   0.000000e+00    811s
  157641    5.8989836e+03   4.217544e+05   0.000000e+00    816s
  158281    5.8989834e+03   1.306333e+05   0.000000e+00    821s
  158931    5.8989833e+03   4.449157e+04   0.000000e+00    826s
  159581    5.8989832e+03   1.568921e+04   0.000000e+00    831s
  160251    5.8989831e+03   6.505910e+04   0.000000e+00    836s
  160871    5.8989827e+03   1.973399e+04   0.000000e+00    841s
  161331    5.8989826e+03   8.090319e+04   0.000000e+00    845s
  161951    5.8989825e+03   1.223200e+05   0.000000e+00    850s
  162581    5.8989824e+03   3.720761e+03   0.000000e+00    855s
  163231    5.8989822e+03   1.991493e+04   0.000000e+00    861s
  163881    5.8989821e+03   1.220948e+04   0.000000e+00    866s
  164511    5.8989815e+03   4.955829e+04   0.000000e+00    871s
  165121    5.8989812e+03   2.352282e+04   0.000000e+00    876s
  165741    5.8989812e+03   1.905231e+04   0.000000e+00    881s
  166371    5.8989809e+03   4.267307e+04   0.000000e+00    886s
  167011    5.8989807e+03   2.274296e+05   0.000000e+00    891s
  167491    5.8989807e+03   3.998263e+04   0.000000e+00    895s
  168141    5.8989801e+03   3.131724e+04   0.000000e+00    900s
  168741    5.8989800e+03   3.146976e+05   0.000000e+00    905s
  169361    5.8989797e+03   5.811215e+04   0.000000e+00    910s
  170204    5.8159884e+03   8.737682e+04   0.000000e+00    916s
  170844    5.8159880e+03   2.492363e+05   0.000000e+00    921s
  171484    5.8159878e+03   6.168066e+04   0.000000e+00    926s
  172124    5.8159877e+03   8.269694e+03   0.000000e+00    931s
  172734    5.8159876e+03   2.579474e+04   0.000000e+00    935s
  173514    5.8159876e+03   1.075641e+04   0.000000e+00    941s
  174134    5.8159875e+03   1.368873e+05   0.000000e+00    946s
  174754    5.8159875e+03   4.916633e+03   0.000000e+00    950s
  175384    5.8159874e+03   1.483537e+05   0.000000e+00    955s
  176154    5.8159874e+03   1.674250e+04   0.000000e+00    961s
  176794    5.8159873e+03   2.045780e+04   0.000000e+00    966s
  177444    5.8159873e+03   2.124196e+04   0.000000e+00    970s
  178094    5.8159872e+03   3.339573e+03   0.000000e+00    975s
  178734    5.8159872e+03   7.891599e+03   0.000000e+00    980s
  179534    5.8159872e+03   1.132747e+04   0.000000e+00    986s
  180144    5.8159871e+03   7.240494e+03   0.000000e+00    991s
  180764    5.8159871e+03   1.381708e+04   0.000000e+00    996s
  181374    5.8159870e+03   2.264398e+04   0.000000e+00   1000s
  182024    5.8159870e+03   1.877867e+04   0.000000e+00   1005s
  182684    5.8159870e+03   3.709271e+04   0.000000e+00   1011s
  183334    5.8159869e+03   2.048902e+04   0.000000e+00   1016s
  183944    5.8159869e+03   2.599749e+03   0.000000e+00   1020s
  184704    5.8159869e+03   1.489651e+04   0.000000e+00   1026s
  185334    5.8159868e+03   6.494545e+03   0.000000e+00   1031s
  185974    5.8159868e+03   9.049478e+03   0.000000e+00   1036s
  186624    5.8159868e+03   1.672261e+04   0.000000e+00   1041s
  187264    5.8159867e+03   4.456541e+04   0.000000e+00   1046s
  187914    5.8159867e+03   2.503530e+04   0.000000e+00   1051s
  188554    5.8159867e+03   3.757308e+04   0.000000e+00   1056s
  189174    5.8159867e+03   1.962620e+04   0.000000e+00   1060s
  189784    5.8159866e+03   1.155048e+04   0.000000e+00   1065s
  190414    5.8159866e+03   2.157153e+03   0.000000e+00   1070s
  191034    5.8159866e+03   1.384587e+05   0.000000e+00   1076s
  191664    5.8159866e+03   1.049060e+04   0.000000e+00   1081s
  192274    5.8159865e+03   2.757333e+03   0.000000e+00   1086s
  192854    5.8159865e+03   2.062749e+03   0.000000e+00   1091s
  193444    5.8159865e+03   5.115292e+03   0.000000e+00   1096s
  194054    5.8159865e+03   7.871527e+04   0.000000e+00   1101s
  194684    5.8159865e+03   3.053331e+03   0.000000e+00   1106s
  195304    5.8159864e+03   7.632339e+03   0.000000e+00   1111s
  195924    5.8159864e+03   7.755629e+03   0.000000e+00   1116s
  196554    5.8159864e+03   8.176915e+03   0.000000e+00   1121s
  197164    5.8159864e+03   3.718163e+03   0.000000e+00   1126s
  197784    5.8159863e+03   6.201558e+04   0.000000e+00   1131s
  198414    5.8159863e+03   6.390545e+03   0.000000e+00   1136s
  199044    5.8159863e+03   1.776065e+04   0.000000e+00   1141s
  199654    5.8159863e+03   6.930885e+04   0.000000e+00   1146s
  200274    5.8159862e+03   2.412576e+03   0.000000e+00   1150s
  200914    5.8159862e+03   7.162495e+04   0.000000e+00   1155s
  201554    5.8159862e+03   1.559866e+04   0.000000e+00   1160s
  202164    5.8159862e+03   8.206063e+03   0.000000e+00   1165s
  202934    5.8159861e+03   1.505670e+04   0.000000e+00   1171s
  203574    5.8159861e+03   8.747661e+03   0.000000e+00   1176s
  204194    5.8159861e+03   8.891842e+02   0.000000e+00   1181s
  204804    5.8159861e+03   9.058553e+04   0.000000e+00   1186s
  205424    5.8159860e+03   3.688377e+03   0.000000e+00   1191s
  206054    5.8159860e+03   6.793408e+03   0.000000e+00   1196s
  206664    5.8159860e+03   1.610235e+03   0.000000e+00   1201s
  207284    5.8159860e+03   3.149207e+04   0.000000e+00   1206s
  207754    5.8159860e+03   5.131414e+03   0.000000e+00   1210s
  208354    5.8159859e+03   4.025840e+03   0.000000e+00   1215s
  208954    5.8159859e+03   3.415874e+03   0.000000e+00   1220s
  209554    5.8159859e+03   2.310012e+03   0.000000e+00   1226s
  210034    5.8159859e+03   1.358728e+05   0.000000e+00   1230s
  210654    5.8159859e+03   1.259983e+04   0.000000e+00   1236s
  211254    5.8159858e+03   6.065220e+03   0.000000e+00   1241s
  211864    5.8159858e+03   3.182597e+03   0.000000e+00   1246s
  212324    5.8159858e+03   8.805458e+03   0.000000e+00   1250s
  212934    5.8159858e+03   4.003179e+04   0.000000e+00   1256s
  213524    5.8159858e+03   1.528840e+03   0.000000e+00   1261s
  213974    5.8159858e+03   1.757671e+05   0.000000e+00   1265s
  214594    5.8159858e+03   3.321334e+04   0.000000e+00   1271s
  215204    5.8159857e+03   1.634977e+03   0.000000e+00   1276s
  215654    5.8159857e+03   2.459371e+04   0.000000e+00   1280s
  216264    5.8159857e+03   6.576622e+03   0.000000e+00   1286s
  216874    5.8159857e+03   6.650587e+02   0.000000e+00   1291s
  217354    5.8159857e+03   4.056865e+03   0.000000e+00   1295s
  217984    5.8159857e+03   1.776236e+04   0.000000e+00   1301s
  218614    5.8159856e+03   1.609641e+04   0.000000e+00   1306s
  219084    5.8159856e+03   5.639718e+03   0.000000e+00   1311s
  219714    5.8159856e+03   6.523604e+05   0.000000e+00   1316s
  220194    5.8159856e+03   4.262499e+04   0.000000e+00   1321s
  220834    5.8159856e+03   3.290641e+03   0.000000e+00   1326s
  221294    5.8159856e+03   3.569883e+03   0.000000e+00   1330s
  221914    5.8159855e+03   2.606558e+04   0.000000e+00   1336s
  222384    5.8159855e+03   2.375765e+03   0.000000e+00   1340s
  222994    5.8159855e+03   1.369001e+04   0.000000e+00   1346s
  223604    5.8159855e+03   1.182103e+04   0.000000e+00   1351s
  224054    5.8159855e+03   2.032988e+04   0.000000e+00   1355s
  224684    5.8159855e+03   4.182454e+03   0.000000e+00   1361s
  225184    5.8159854e+03   3.033116e+04   0.000000e+00   1365s
  225824    5.8159854e+03   3.862495e+03   0.000000e+00   1371s
  226304    5.8159854e+03   1.189503e+05   0.000000e+00   1375s
  226924    5.8159854e+03   1.960114e+03   0.000000e+00   1381s
  227534    5.8159854e+03   6.098550e+03   0.000000e+00   1386s
  228164    5.8159853e+03   1.308433e+03   0.000000e+00   1391s
  228634    5.8159853e+03   4.540731e+03   0.000000e+00   1396s
  229274    5.8159853e+03   3.130986e+03   0.000000e+00   1401s
  229754    5.8159853e+03   6.291850e+03   0.000000e+00   1405s
  230364    5.8159853e+03   3.179370e+03   0.000000e+00   1411s
  230984    5.8159853e+03   8.231526e+03   0.000000e+00   1416s
  231454    5.8159853e+03   1.789324e+04   0.000000e+00   1421s
  232054    5.8159853e+03   1.712995e+04   0.000000e+00   1426s
  232504    5.8159852e+03   1.434515e+03   0.000000e+00   1430s
  233154    5.8159852e+03   1.838911e+03   0.000000e+00   1436s
  233784    5.8159852e+03   3.804841e+03   0.000000e+00   1441s
  234244    5.8159852e+03   2.221539e+03   0.000000e+00   1446s
  234724    5.8159852e+03   2.340108e+03   0.000000e+00   1450s
  235334    5.8159852e+03   1.108540e+04   0.000000e+00   1456s
  235804    5.8159852e+03   1.774318e+04   0.000000e+00   1460s
  236414    5.8159851e+03   5.791051e+03   0.000000e+00   1466s
  237024    5.8159851e+03   2.287142e+03   0.000000e+00   1471s
  237484    5.8159851e+03   4.100827e+03   0.000000e+00   1475s
  238114    5.8159851e+03   2.414820e+03   0.000000e+00   1481s
  238614    5.8159851e+03   4.070218e+03   0.000000e+00   1486s
  239234    5.8159851e+03   9.267356e+02   0.000000e+00   1491s
  239694    5.8159851e+03   1.761248e+04   0.000000e+00   1495s
  240334    5.8159851e+03   1.536307e+04   0.000000e+00   1501s
  240944    5.8159851e+03   3.830297e+02   0.000000e+00   1506s
  241424    5.8159850e+03   6.433488e+02   0.000000e+00   1511s
  242034    5.8159850e+03   2.533466e+05   0.000000e+00   1516s
  242504    5.8159850e+03   1.645263e+03   0.000000e+00   1520s
  243124    5.8159850e+03   1.324826e+03   0.000000e+00   1526s
  243574    5.8159850e+03   3.064268e+04   0.000000e+00   1530s
  244174    5.8159850e+03   4.916016e+03   0.000000e+00   1536s
  244784    5.8159850e+03   4.196207e+03   0.000000e+00   1541s
  245244    5.8159850e+03   6.487386e+03   0.000000e+00   1546s
  245854    5.8159849e+03   1.447267e+03   0.000000e+00   1551s
  246334    5.8159849e+03   9.338420e+03   0.000000e+00   1556s
  246964    5.8159849e+03   2.872172e+04   0.000000e+00   1561s
  247424    5.8159849e+03   9.115751e+04   0.000000e+00   1565s
  248034    5.8159849e+03   6.064521e+03   0.000000e+00   1571s
  248494    5.8159849e+03   2.756045e+03   0.000000e+00   1575s
  249104    5.8159849e+03   5.940557e+03   0.000000e+00   1581s
  249714    5.8159849e+03   9.542319e+03   0.000000e+00   1586s
  250194    5.8159848e+03   4.713767e+02   0.000000e+00   1591s
  250824    5.8159848e+03   4.106898e+03   0.000000e+00   1596s
  251304    5.8159848e+03   1.717282e+03   0.000000e+00   1601s
  251944    5.8159848e+03   1.403221e+04   0.000000e+00   1606s
  252424    5.8159848e+03   2.177256e+03   0.000000e+00   1611s
  253044    5.8159848e+03   3.341713e+03   0.000000e+00   1616s
  253524    5.8159848e+03   2.312775e+03   0.000000e+00   1621s
  254004    5.8159848e+03   1.094279e+04   0.000000e+00   1625s
  254644    5.8159848e+03   4.571857e+03   0.000000e+00   1631s
  255124    5.8159848e+03   7.945809e+03   0.000000e+00   1635s
  255774    5.8159847e+03   3.526931e+03   0.000000e+00   1641s
  256284    5.8159847e+03   1.724551e+03   0.000000e+00   1646s
  256764    5.8159847e+03   3.790468e+05   0.000000e+00   1650s
  257414    5.8159847e+03   2.460432e+03   0.000000e+00   1656s
  257914    5.8159847e+03   6.251661e+03   0.000000e+00   1660s
  258564    5.8159847e+03   3.107538e+04   0.000000e+00   1666s
  259067    5.8159847e+03   6.697544e+04   0.000000e+00   1671s
  259557    5.8159847e+03   1.921767e+03   0.000000e+00   1675s
  260207    5.8159847e+03   2.100299e+03   0.000000e+00   1681s
  260707    5.8159846e+03   5.414924e+03   0.000000e+00   1686s
  261347    5.8159846e+03   1.630931e+03   0.000000e+00   1691s
  261827    5.8159846e+03   1.498468e+04   0.000000e+00   1696s
  262317    5.8159846e+03   9.242681e+02   0.000000e+00   1700s
  262927    5.8159846e+03   4.442605e+04   0.000000e+00   1706s
  263407    5.8159846e+03   1.769154e+04   0.000000e+00   1710s
  264037    5.8159846e+03   1.107520e+03   0.000000e+00   1716s
  264517    5.8159846e+03   1.482546e+05   0.000000e+00   1721s
  265167    5.8159846e+03   1.307619e+03   0.000000e+00   1726s
  265627    5.8159846e+03   1.666117e+03   0.000000e+00   1731s
  266277    5.8159846e+03   5.789909e+03   0.000000e+00   1736s
  266757    5.8159846e+03   2.675892e+04   0.000000e+00   1741s
  267227    5.8159845e+03   9.350789e+02   0.000000e+00   1745s
  267877    5.8159845e+03   1.792939e+03   0.000000e+00   1751s
  268367    5.8159845e+03   3.165059e+03   0.000000e+00   1755s
  269053    5.8159845e+03   1.137377e+03   0.000000e+00   1761s
  269566    5.8159845e+03   1.487073e+03   0.000000e+00   1766s
  270046    5.8159845e+03   1.751531e+03   0.000000e+00   1770s
  270666    5.8159845e+03   2.704185e+02   0.000000e+00   1776s
  271136    5.8159845e+03   2.151694e+03   0.000000e+00   1781s
  271606    5.8159845e+03   1.941063e+02   0.000000e+00   1785s
  272236    5.8159845e+03   1.131656e+03   0.000000e+00   1791s
  272816    5.8159845e+03   2.503897e+02   0.000000e+00   1796s
  273276    5.8159845e+03   7.823217e+02   0.000000e+00   1801s
  273916    5.8159844e+03   8.700212e+03   0.000000e+00   1806s
  274406    5.8159844e+03   2.879143e+02   0.000000e+00   1811s
  274909    5.8159844e+03   5.637055e+03   0.000000e+00   1815s
  275529    5.8159844e+03   1.214097e+03   0.000000e+00   1821s
  275999    5.8159844e+03   2.250858e+03   0.000000e+00   1825s
  276629    5.8159844e+03   1.724407e+03   0.000000e+00   1831s
  277129    5.8159844e+03   3.515975e+02   0.000000e+00   1836s
  277639    5.8159844e+03   6.033683e+02   0.000000e+00   1840s
  278229    5.8159844e+03   2.979354e+02   0.000000e+00   1846s
  278839    5.8159844e+03   1.008210e+03   0.000000e+00   1851s
  279329    5.8159844e+03   1.210885e+03   0.000000e+00   1856s
  279789    5.8159844e+03   6.859207e+03   0.000000e+00   1860s
  280399    5.8159844e+03   2.601967e+03   0.000000e+00   1866s
  280869    5.8159844e+03   2.079029e+04   0.000000e+00   1870s
  281449    5.8159844e+03   5.454952e+03   0.000000e+00   1876s
  281829    5.8159844e+03   1.110212e+04   0.000000e+00   1880s
  282379    5.8159843e+03   7.498823e+04   0.000000e+00   1886s
  282769    5.8159843e+03   1.091991e+04   0.000000e+00   1891s
  283249    5.8159843e+03   1.779641e+04   0.000000e+00   1896s
  283599    5.8159843e+03   1.864504e+04   0.000000e+00   1900s
  284079    5.8159843e+03   2.900804e+05   0.000000e+00   1906s
  284539    5.8159843e+03   1.914774e+05   0.000000e+00   1911s
  284899    5.8159843e+03   1.803150e+04   0.000000e+00   1915s
  285359    5.8159843e+03   8.556931e+03   0.000000e+00   1920s
  285779    5.8159843e+03   7.827008e+04   0.000000e+00   1925s
  286229    5.8159843e+03   9.150786e+03   0.000000e+00   1930s
  286669    5.8159843e+03   3.349027e+03   0.000000e+00   1935s
  287189    5.8159843e+03   1.065474e+04   0.000000e+00   1941s
  287669    5.8159843e+03   1.424429e+03   0.000000e+00   1946s
  288039    5.8159842e+03   1.550880e+04   0.000000e+00   1950s
  288529    5.8159842e+03   6.342596e+02   0.000000e+00   1956s
  288899    5.8159842e+03   4.934295e+03   0.000000e+00   1960s
  289379    5.8159842e+03   4.789583e+03   0.000000e+00   1966s
  289829    5.8159842e+03   9.910898e+01   0.000000e+00   1971s
  290269    5.8159842e+03   1.975129e+02   0.000000e+00   1976s
  290769    5.8159842e+03   2.625712e+02   0.000000e+00   1981s
  291179    5.8159842e+03   7.203068e+01   0.000000e+00   1985s
  291659    5.8160000e+03   0.000000e+00   0.000000e+00   1989s
  291659    5.8160000e+03   0.000000e+00   0.000000e+00   1989s

Root relaxation: objective 5.816000e+03, 291659 iterations, 1986.23 seconds
Total elapsed time = 3142.96s
Total elapsed time = 3411.75s
Total elapsed time = 3500.16s
Total elapsed time = 3566.43s

    Nodes    |    Current Node    |     Objective Bounds      |     Work
 Expl Unexpl |  Obj  Depth IntInf | Incumbent    BestBd   Gap | It/Node Time

     0     0 5816.00000    0 15610 4114.00000 5816.00000  41.4%     - 3600s

Explored 0 nodes (596870 simplex iterations) in 3600.04 seconds
Thread count was 1 (of 40 available processors)

Solution count 1: 4114 

Time limit reached
Best objective 4.114000000000e+03, best bound 5.816000000000e+03, gap 41.3709%

----------

Best objective (UB): 5816.000
Best feasible solution (LB): 4114.000
Gap between the lower bound and upper bound: 41.371%

----------

Number of customers served: 29

Schedule for EV v0:
   [   0,  490) -> It remains parked at station s0.
   [ 490,  592) -> Service a request driving for customer c39 from s0 to s4.
   [ 592, 1035) -> It remains parked at station s4, which was charging for charging.
   [1035, 1142) -> Service a request driving for customer c39 from s4 to s0.
   [1142, 1190) -> It remains parked at station s0.
   [1190, 1272) -> Service a request driving for customer c20 from s0 to s1.
   [1272, 1452) -> It remains parked at station s1.

Schedule for EV v1:
   [   0,  785) -> It remains parked at station s0.
   [ 785,  862) -> Service a request driving for customer c7 from s0 to s1.
   [ 862,  885) -> It remains parked at station s1, which was charging for charging.
   [ 885,  962) -> Service a request driving for customer c7 from s1 to s0.
   [ 962, 1275) -> It remains parked at station s0.
   [1275, 1372) -> Service a request driving for customer c7 from s0 to s1.
   [1372, 1452) -> It remains parked at station s1.

Schedule for EV v2:
   [   0,  580) -> It remains parked at station s0.
   [ 580,  652) -> Service a request driving for customer c13 from s0 to s1.
   [ 652, 1125) -> It remains parked at station s1, which was charging for charging.
   [1125, 1218) -> Service a request driving for customer c13 from s1 to s2.
   [1218, 1452) -> It remains parked at station s2.

Schedule for EV v3:
   [   0,  545) -> It remains parked at station s0.
   [ 545,  632) -> Service a request driving for customer c14 from s0 to s4.
   [ 632, 1280) -> It remains parked at station s4.
   [1280, 1335) -> Service a request driving for customer c14 from s4 to s3.
   [1335, 1452) -> It remains parked at station s3.

Schedule for EV v4:
   [   0, 1452) -> It remains parked at station s0.

Schedule for EV v5:
   [   0, 1452) -> It remains parked at station s0.

Schedule for EV v6:
   [   0, 1290) -> It remains parked at station s1.
   [1290, 1377) -> Service a request driving for customer c3 from s1 to s0.
   [1377, 1452) -> It remains parked at station s0.

Schedule for EV v7:
   [   0, 1200) -> It remains parked at station s1.
   [1200, 1283) -> Service a request driving for customer c15 from s1 to s2.
   [1283, 1452) -> It remains parked at station s2.

Schedule for EV v8:
   [   0,  395) -> It remains parked at station s1.
   [ 395,  456) -> Service a request driving for customer c2 from s1 to s4.
   [ 456,  515) -> It remains parked at station s4, which was charging for charging.
   [ 515,  607) -> Service a request driving for customer c2 from s4 to s0.
   [ 607, 1452) -> It remains parked at station s0, which was charging for charging.

Schedule for EV v9:
   [   0,  345) -> It remains parked at station s1.
   [ 345,  438) -> Service a request driving for customer c30 from s1 to s2.
   [ 438,  695) -> It remains parked at station s2, which was charging for charging.
   [ 695,  765) -> Service a request driving for customer c30 from s2 to s0.
   [ 765,  975) -> It remains parked at station s0, which was charging for charging.
   [ 975, 1030) -> Service a request driving for customer c30 from s0 to s2.
   [1030, 1452) -> It remains parked at station s2, which was charging for charging.

Schedule for EV v10:
   [   0, 1005) -> It remains parked at station s1.
   [1005, 1074) -> Service a request driving for customer c36 from s1 to s3.
   [1074, 1125) -> It remains parked at station s3.
   [1125, 1194) -> Service a request driving for customer c36 from s3 to s1.
   [1194, 1452) -> It remains parked at station s1.

Schedule for EV v11:
   [   0, 1050) -> It remains parked at station s1.
   [1050, 1109) -> Service a request driving for customer c38 from s1 to s3.
   [1109, 1140) -> It remains parked at station s3.
   [1140, 1219) -> Service a request driving for customer c38 from s3 to s1.
   [1219, 1452) -> It remains parked at station s1.

Schedule for EV v12:
   [   0,  460) -> It remains parked at station s1.
   [ 460,  519) -> Service a request driving for customer c22 from s1 to s3.
   [ 519,  780) -> It remains parked at station s3, which was charging for charging.
   [ 780,  850) -> Service a request driving for customer c22 from s3 to s0.
   [ 850, 1130) -> It remains parked at station s0, which was charging for charging.
   [1130, 1202) -> Service a request driving for customer c22 from s0 to s1.
   [1202, 1452) -> It remains parked at station s1.

Schedule for EV v13:
   [   0,  490) -> It remains parked at station s1.
   [ 490,  554) -> Service a request driving for customer c34 from s1 to s3.
   [ 554, 1185) -> It remains parked at station s3, which was charging for charging.
   [1185, 1245) -> Service a request driving for customer c34 from s3 to s0.
   [1245, 1452) -> It remains parked at station s0, which was charging for charging.

Schedule for EV v14:
   [   0, 1070) -> It remains parked at station s1.
   [1070, 1131) -> Service a request driving for customer c33 from s1 to s4.
   [1131, 1340) -> It remains parked at station s4.
   [1340, 1381) -> Service a request driving for customer c31 from s4 to s1.
   [1381, 1452) -> It remains parked at station s1.

Schedule for EV v15:
   [   0,  960) -> It remains parked at station s2.
   [ 960, 1051) -> Service a request driving for customer c29 from s2 to s4.
   [1051, 1452) -> It remains parked at station s4, which was charging for charging.

Schedule for EV v16:
   [   0, 1070) -> It remains parked at station s2.
   [1070, 1161) -> Service a request driving for customer c37 from s2 to s4.
   [1161, 1170) -> It remains parked at station s4.
   [1170, 1240) -> Service a request driving for customer c37 from s4 to s3.
   [1240, 1452) -> It remains parked at station s3.

Schedule for EV v17:
   [   0,  450) -> It remains parked at station s2.
   [ 450,  492) -> Service a request driving for customer c21 from s2 to s3.
   [ 492, 1020) -> It remains parked at station s3, which was charging for charging.
   [1020, 1084) -> Service a request driving for customer c21 from s3 to s1.
   [1084, 1180) -> It remains parked at station s1.
   [1180, 1267) -> Service a request driving for customer c21 from s1 to s0.
   [1267, 1452) -> It remains parked at station s0, which was charging for charging.

Schedule for EV v18:
   [   0, 1452) -> It remains parked at station s2.

Schedule for EV v19:
   [   0, 1452) -> It remains parked at station s2.

Schedule for EV v20:
   [   0, 1452) -> It remains parked at station s2.

Schedule for EV v21:
   [   0, 1452) -> It remains parked at station s2.

Schedule for EV v22:
   [   0, 1452) -> It remains parked at station s2.

Schedule for EV v23:
   [   0,  830) -> It remains parked at station s3.
   [ 830,  914) -> Service a request driving for customer c19 from s3 to s1.
   [ 914, 1452) -> It remains parked at station s1.

Schedule for EV v24:
   [   0,  450) -> It remains parked at station s3.
   [ 450,  510) -> Service a request driving for customer c1 from s3 to s4.
   [ 510,  605) -> It remains parked at station s4, which was charging for charging.
   [ 605,  687) -> Service a request driving for customer c1 from s4 to s0.
   [ 687, 1360) -> It remains parked at station s0.
   [1360, 1452) -> Service a request driving for customer c1 from s0 to s4.

Schedule for EV v25:
   [   0,  530) -> It remains parked at station s3.
   [ 530,  590) -> Service a request driving for customer c8 from s3 to s4.
   [ 590, 1075) -> It remains parked at station s4, which was charging for charging.
   [1075, 1156) -> Service a request driving for customer c8 from s4 to s2.
   [1156, 1452) -> It remains parked at station s2, which was charging for charging.

Schedule for EV v26:
   [   0, 1050) -> It remains parked at station s3.
   [1050, 1120) -> Service a request driving for customer c12 from s3 to s0.
   [1120, 1452) -> It remains parked at station s0.

Schedule for EV v27:
   [   0,  580) -> It remains parked at station s3.
   [ 580,  630) -> Service a request driving for customer c4 from s3 to s0.
   [ 630, 1050) -> It remains parked at station s0, which was charging for charging.
   [1050, 1095) -> Service a request driving for customer c4 from s0 to s2.
   [1095, 1452) -> It remains parked at station s2.

Schedule for EV v28:
   [   0, 1452) -> It remains parked at station s3.

Schedule for EV v29:
   [   0, 1452) -> It remains parked at station s3.

Schedule for EV v30:
   [   0, 1452) -> It remains parked at station s3.

Schedule for EV v31:
   [   0, 1452) -> It remains parked at station s3, which was charging for charging.

Schedule for EV v32:
   [   0, 1452) -> It remains parked at station s3, which was charging for charging.

Schedule for EV v33:
   [   0, 1452) -> It remains parked at station s3, which was charging for charging.

Schedule for EV v34:
   [   0, 1452) -> It remains parked at station s3, which was charging for charging.

Schedule for EV v35:
   [   0,  490) -> It remains parked at station s4.
   [ 490,  577) -> Service a request driving for customer c24 from s4 to s0.
   [ 577, 1452) -> It remains parked at station s0.

Schedule for EV v36:
   [   0,  435) -> It remains parked at station s4.
   [ 435,  476) -> Service a request driving for customer c16 from s4 to s1.
   [ 476,  995) -> It remains parked at station s1.
   [ 995, 1093) -> Service a request driving for customer c16 from s1 to s2.
   [1093, 1185) -> It remains parked at station s2.
   [1185, 1258) -> Service a request driving for customer c16 from s2 to s1.
   [1258, 1345) -> It remains parked at station s1.
   [1345, 1438) -> Service a request driving for customer c16 from s1 to s2.
   [1438, 1452) -> It remains parked at station s2.

Schedule for EV v37:
   [   0,  435) -> It remains parked at station s4.
   [ 435,  486) -> Service a request driving for customer c28 from s4 to s1.
   [ 486, 1115) -> It remains parked at station s1.
   [1115, 1202) -> Service a request driving for customer c28 from s1 to s0.
   [1202, 1452) -> It remains parked at station s0.

Schedule for EV v38:
   [   0,  600) -> It remains parked at station s4.
   [ 600,  660) -> Service a request driving for customer c6 from s4 to s3.
   [ 660, 1000) -> It remains parked at station s3, which was charging for charging.
   [1000, 1065) -> Service a request driving for customer c6 from s3 to s0.
   [1065, 1452) -> It remains parked at station s0, which was charging for charging.

Schedule for EV v39:
   [   0,  500) -> It remains parked at station s4.
   [ 500,  556) -> Service a request driving for customer c23 from s4 to s1.
   [ 556, 1170) -> It remains parked at station s1.
   [1170, 1234) -> Service a request driving for customer c23 from s1 to s3.
   [1234, 1452) -> It remains parked at station s3.

Schedule for EV v40:
   [   0,  455) -> It remains parked at station s4.
   [ 455,  531) -> Service a request driving for customer c10 from s4 to s2.
   [ 531,  950) -> It remains parked at station s2.
   [ 950,  987) -> Service a request driving for customer c10 from s2 to s3.
   [ 987, 1110) -> It remains parked at station s3, which was charging for charging.
   [1110, 1174) -> Service a request driving for customer c10 from s3 to s1.
   [1174, 1452) -> It remains parked at station s1.

Schedule for EV v41:
   [   0, 1452) -> It remains parked at station s4.

Schedule for EV v42:
   [   0, 1452) -> It remains parked at station s4.

Schedule for EV v43:
   [   0, 1452) -> It remains parked at station s4.

Schedule for EV v44:
   [   0, 1452) -> It remains parked at station s4.

Schedule for EV v45:
   [   0, 1452) -> It remains parked at station s4.

Schedule for EV v46:
   [   0, 1452) -> It remains parked at station s4.

Schedule for EV v47:
   [   0, 1452) -> It remains parked at station s4, which was charging for charging.

Set of satisfied customers
   {c1, c2, c3, c4, c6, c7, c8, c10, c12, c13, c14, c15, c16, c19, c20, c21, c22, c23, c24, c28, c29, c30, c31, c33, c34, c36, c37, c38, c39}

