Academic license - for non-commercial use only
Gurobi Optimizer version 9.0.3 build v9.0.3rc0 (linux64)
Optimize a model with 51262 rows, 35138 columns and 361758 nonzeros
Model fingerprint: 0x49154ac7
Variable types: 18172 continuous, 16966 integer (16966 binary)
Coefficient statistics:
  Matrix range     [1e+00, 3e+06]
  Objective range  [2e+01, 2e+02]
  Bounds range     [1e+00, 2e+06]
  RHS range        [1e+00, 2e+06]

Loaded user MIP start with objective 3431

Presolve removed 4591 rows and 3046 columns
Presolve time: 1.22s
Presolved: 46671 rows, 32092 columns, 331495 nonzeros
Variable types: 0 continuous, 32092 integer (27898 binary)

Root simplex log...

Iteration    Objective       Primal Inf.    Dual Inf.      Time
   11405    4.3549980e+03   7.537461e+04   0.000000e+00      5s
   15977    4.3549976e+03   1.463765e+05   0.000000e+00     10s
   19025    4.3549974e+03   1.952907e+04   0.000000e+00     15s
   21565    4.3549972e+03   2.799609e+04   0.000000e+00     20s
   23978    4.3549971e+03   8.215480e+04   0.000000e+00     25s
   26264    4.3549969e+03   5.752305e+04   0.000000e+00     30s
   28550    4.3549968e+03   6.137252e+03   0.000000e+00     35s
   30709    4.3549967e+03   1.481248e+04   0.000000e+00     40s
   32741    4.3549966e+03   3.330120e+04   0.000000e+00     45s
   34646    4.3549965e+03   3.526657e+05   0.000000e+00     50s
   36551    4.3549965e+03   1.353444e+04   0.000000e+00     55s
   38329    4.3549964e+03   3.118675e+04   0.000000e+00     60s
   40107    4.3549963e+03   4.852169e+03   0.000000e+00     65s
   41758    4.3549963e+03   2.336010e+04   0.000000e+00     70s
   43409    4.3549962e+03   4.687675e+04   0.000000e+00     75s
   45060    4.3549962e+03   5.824675e+03   0.000000e+00     80s
   46711    4.3549961e+03   1.207738e+04   0.000000e+00     85s
   48235    4.3549960e+03   6.896215e+03   0.000000e+00     90s
   49886    4.3549960e+03   8.879562e+03   0.000000e+00     95s
   51410    4.3149961e+03   2.789081e+04   0.000000e+00    100s
   52934    4.3149960e+03   5.141669e+03   0.000000e+00    105s
   54458    4.3149960e+03   5.932331e+05   0.000000e+00    110s
   56109    4.3149959e+03   5.811781e+03   0.000000e+00    115s
   57506    4.3149959e+03   2.447503e+04   0.000000e+00    120s
   59030    4.3149958e+03   3.492951e+03   0.000000e+00    125s
   60554    4.3149958e+03   1.539394e+03   0.000000e+00    130s
   62205    4.3149957e+03   5.652026e+03   0.000000e+00    135s
   63729    4.3149957e+03   3.234877e+03   0.000000e+00    140s
   65253    4.3149956e+03   1.637003e+03   0.000000e+00    145s
   66777    4.3149956e+03   2.319607e+04   0.000000e+00    150s
   68301    4.3149956e+03   8.827998e+03   0.000000e+00    155s
   69825    4.3149955e+03   6.075665e+03   0.000000e+00    160s
   71222    4.3149955e+03   1.510696e+04   0.000000e+00    165s
   72619    4.3149955e+03   1.653448e+04   0.000000e+00    170s
   74016    4.3149954e+03   4.921792e+03   0.000000e+00    175s
   75413    4.3149954e+03   2.456042e+04   0.000000e+00    180s
   76810    4.3149954e+03   7.314139e+03   0.000000e+00    185s
   78207    4.3149953e+03   7.640426e+03   0.000000e+00    190s
   79477    4.3149953e+03   1.510617e+03   0.000000e+00    195s
   80874    4.3149953e+03   7.540430e+03   0.000000e+00    200s
   82144    4.3149953e+03   1.450673e+04   0.000000e+00    205s
   83541    4.3149952e+03   1.694342e+03   0.000000e+00    210s
   84938    4.3149952e+03   1.836988e+03   0.000000e+00    215s
   86335    4.3149952e+03   1.132718e+03   0.000000e+00    220s
   87732    4.3149952e+03   4.719759e+02   0.000000e+00    225s
   89129    4.3149951e+03   4.136654e+04   0.000000e+00    230s
   90526    4.3149951e+03   7.304797e+02   0.000000e+00    235s
   91923    4.3149951e+03   4.413691e+03   0.000000e+00    240s
   93320    4.3149951e+03   9.247219e+02   0.000000e+00    245s
   94590    4.3149950e+03   4.554995e+02   0.000000e+00    250s
   95987    4.3149950e+03   1.684243e+04   0.000000e+00    255s
   97384    4.3149950e+03   5.089963e+03   0.000000e+00    260s
   98654    4.3149950e+03   6.562734e+02   0.000000e+00    265s
  100051    4.3149950e+03   1.257538e+03   0.000000e+00    270s
  101321    4.3149949e+03   1.789432e+03   0.000000e+00    275s
  102718    4.3149949e+03   2.478952e+02   0.000000e+00    280s
  103988    4.3149949e+03   2.116278e+03   0.000000e+00    285s
  105258    4.3149949e+03   2.948873e+03   0.000000e+00    290s
  106655    4.3149949e+03   1.028077e+03   0.000000e+00    295s
  107925    4.3149948e+03   1.209039e+04   0.000000e+00    300s
  109322    4.3149948e+03   7.648263e+03   0.000000e+00    305s
  110592    4.3149948e+03   1.929540e+03   0.000000e+00    310s
  111989    4.3149948e+03   4.789172e+03   0.000000e+00    315s
  113132    4.3149948e+03   2.562249e+02   0.000000e+00    320s
  114529    4.3149948e+03   1.614098e+02   0.000000e+00    325s
  115799    4.3149948e+03   5.522106e+02   0.000000e+00    330s
  117069    4.3149948e+03   4.638615e+02   0.000000e+00    335s
  118466    4.3149948e+03   1.567109e+02   0.000000e+00    340s
  119736    4.3149947e+03   2.599858e+03   0.000000e+00    345s
  121006    4.3149947e+03   5.298503e+01   0.000000e+00    350s
  122403    4.3149947e+03   9.569200e+02   0.000000e+00    355s
  123673    4.3149947e+03   4.222829e+02   0.000000e+00    360s
  124943    4.3149947e+03   9.188943e+01   0.000000e+00    365s
  126340    4.3149947e+03   5.631627e+01   0.000000e+00    370s
  127610    4.3149947e+03   6.656715e+01   0.000000e+00    375s
  128880    4.3149947e+03   2.981644e+02   0.000000e+00    380s
  130150    4.3149947e+03   1.368610e+03   0.000000e+00    385s
  131547    4.3149947e+03   2.599479e+02   0.000000e+00    390s
  132817    4.3149946e+03   3.987765e+01   0.000000e+00    395s
  134087    4.3149946e+03   1.471618e+01   0.000000e+00    400s
  135230    4.3149946e+03   2.575523e+01   0.000000e+00    405s
  136500    4.3149946e+03   2.248242e+01   0.000000e+00    410s
  137770    4.3149946e+03   2.215573e+02   0.000000e+00    416s
  138913    4.3149946e+03   3.491077e-01   0.000000e+00    420s
  140141    4.3150000e+03   0.000000e+00   0.000000e+00    425s
  140141    4.3150000e+03   0.000000e+00   0.000000e+00    425s

Root relaxation: objective 4.315000e+03, 140141 iterations, 424.14 seconds
Total elapsed time = 717.96s
Total elapsed time = 802.93s
Total elapsed time = 841.79s
Total elapsed time = 855.32s

    Nodes    |    Current Node    |     Objective Bounds      |     Work
 Expl Unexpl |  Obj  Depth IntInf | Incumbent    BestBd   Gap | It/Node Time

     0     0 4315.00000    0 9345 3431.00000 4315.00000  25.8%     -  868s
     0     0 4315.00000    0 11353 3431.00000 4315.00000  25.8%     -  977s
     0     0 4315.00000    0 11496 3431.00000 4315.00000  25.8%     - 1046s
     0     0 4315.00000    0 9531 3431.00000 4315.00000  25.8%     - 1408s
     0     0 4315.00000    0 9870 3431.00000 4315.00000  25.8%     - 1453s
     0     0 4315.00000    0 9202 3431.00000 4315.00000  25.8%     - 1865s
     0     0 4315.00000    0 10012 3431.00000 4315.00000  25.8%     - 1912s
     0     0 4315.00000    0 8703 3431.00000 4315.00000  25.8%     - 2626s
     0     0 4315.00000    0 8701 3431.00000 4315.00000  25.8%     - 2786s
     0     2 4315.00000    0 8701 3431.00000 4315.00000  25.8%     - 3482s
     1     3 4315.00000    1 8422 3431.00000 4315.00000  25.8% 84195 3507s
     2     4 4315.00000    1 8801 3431.00000 4315.00000  25.8% 47433 3547s
     3     5 4315.00000    2 8546 3431.00000 4315.00000  25.8% 33156 3562s
     4     6 4315.00000    2 8079 3431.00000 4315.00000  25.8% 27634 3596s

Cutting planes:
  Gomory: 16
  Implied bound: 847
  MIR: 52
  StrongCG: 1
  RLT: 357
  Relax-and-lift: 13

Explored 5 nodes (1217397 simplex iterations) in 3600.01 seconds
Thread count was 1 (of 40 available processors)

Solution count 1: 3431 

Time limit reached
Best objective 3.431000000000e+03, best bound 4.315000000000e+03, gap 25.7651%

----------

Best objective (UB): 4315.000
Best feasible solution (LB): 3431.000
Gap between the lower bound and upper bound: 25.765%

----------

Number of customers served: 39

Schedule for EV v0:
   [   0, 1135) -> It remains parked at station s0.
   [1135, 1199) -> Service a request driving for customer c26 from s0 to s2.
   [1199, 1399) -> It remains parked at station s2.

Schedule for EV v1:
   [   0,  585) -> It remains parked at station s0.
   [ 585,  644) -> Service a request driving for customer c38 from s0 to s2.
   [ 644,  720) -> It remains parked at station s2.
   [ 720,  784) -> Service a request driving for customer c38 from s2 to s0.
   [ 784, 1090) -> It remains parked at station s0.
   [1090, 1149) -> Service a request driving for customer c25 from s0 to s2.
   [1149, 1399) -> It remains parked at station s2.

Schedule for EV v2:
   [   0,  535) -> It remains parked at station s0.
   [ 535,  594) -> Service a request driving for customer c0 from s0 to s2.
   [ 594,  900) -> It remains parked at station s2.
   [ 900,  925) -> Service a request driving for customer c11 from s2 to s1.
   [ 925,  975) -> It remains parked at station s1, which was charging for charging.
   [ 975, 1014) -> Service a request driving for customer c11 from s1 to s0.
   [1014, 1399) -> It remains parked at station s0, which was charging for charging.

Schedule for EV v3:
   [   0,  970) -> It remains parked at station s0.
   [ 970, 1019) -> Service a request driving for customer c8 from s0 to s1.
   [1019, 1125) -> It remains parked at station s1.
   [1125, 1189) -> Service a request driving for customer c8 from s1 to s0.
   [1189, 1215) -> It remains parked at station s0.
   [1215, 1254) -> Service a request driving for customer c12 from s0 to s2.
   [1254, 1399) -> It remains parked at station s2.

Schedule for EV v4:
   [   0,  530) -> It remains parked at station s0.
   [ 530,  594) -> Service a request driving for customer c30 from s0 to s1.
   [ 594, 1150) -> It remains parked at station s1.
   [1150, 1194) -> Service a request driving for customer c30 from s1 to s0.
   [1194, 1399) -> It remains parked at station s0.

Schedule for EV v5:
   [   0,  345) -> It remains parked at station s0.
   [ 345,  409) -> Service a request driving for customer c9 from s0 to s1.
   [ 409,  425) -> It remains parked at station s1, which was charging for charging.
   [ 425,  450) -> Service a request driving for customer c9 from s1 to s2.
   [ 450,  505) -> It remains parked at station s2, which was charging for charging.
   [ 505,  559) -> Service a request driving for customer c9 from s2 to s0.
   [ 559,  840) -> It remains parked at station s0.
   [ 840,  894) -> Service a request driving for customer c9 from s0 to s1.
   [ 894, 1399) -> It remains parked at station s1, which was charging for charging.

Schedule for EV v6:
   [   0, 1060) -> It remains parked at station s0.
   [1060, 1109) -> Service a request driving for customer c23 from s0 to s1.
   [1109, 1399) -> It remains parked at station s1, which was charging for charging.

Schedule for EV v7:
   [   0,  850) -> It remains parked at station s0.
   [ 850,  889) -> Service a request driving for customer c32 from s0 to s2.
   [ 889, 1085) -> It remains parked at station s2.
   [1085, 1144) -> Service a request driving for customer c32 from s2 to s0.
   [1144, 1399) -> It remains parked at station s0.

Schedule for EV v8:
   [   0, 1020) -> It remains parked at station s0.
   [1020, 1064) -> Service a request driving for customer c46 from s0 to s2.
   [1064, 1120) -> It remains parked at station s2, which was charging for charging.
   [1120, 1174) -> Service a request driving for customer c46 from s2 to s0.
   [1174, 1399) -> It remains parked at station s0.

Schedule for EV v9:
   [   0,  495) -> It remains parked at station s0.
   [ 495,  539) -> Service a request driving for customer c43 from s0 to s2.
   [ 539, 1025) -> It remains parked at station s2, which was charging for charging.
   [1025, 1074) -> Service a request driving for customer c43 from s2 to s0.
   [1074, 1100) -> It remains parked at station s0.
   [1100, 1144) -> Service a request driving for customer c6 from s0 to s2.
   [1144, 1399) -> It remains parked at station s2.

Schedule for EV v10:
   [   0,  595) -> It remains parked at station s0.
   [ 595,  649) -> Service a request driving for customer c22 from s0 to s2.
   [ 649, 1095) -> It remains parked at station s2, which was charging for charging.
   [1095, 1130) -> Service a request driving for customer c22 from s2 to s1.
   [1130, 1140) -> It remains parked at station s1.
   [1140, 1165) -> Service a request driving for customer c16 from s1 to s2.
   [1165, 1399) -> It remains parked at station s2.

Schedule for EV v11:
   [   0,  565) -> It remains parked at station s0.
   [ 565,  604) -> Service a request driving for customer c21 from s0 to s2.
   [ 604, 1105) -> It remains parked at station s2, which was charging for charging.
   [1105, 1154) -> Service a request driving for customer c21 from s2 to s0.
   [1154, 1399) -> It remains parked at station s0.

Schedule for EV v12:
   [   0,  420) -> It remains parked at station s0.
   [ 420,  474) -> Service a request driving for customer c49 from s0 to s1.
   [ 474,  830) -> It remains parked at station s1, which was charging for charging.
   [ 830,  865) -> Service a request driving for customer c49 from s1 to s2.
   [ 865, 1180) -> It remains parked at station s2, which was charging for charging.
   [1180, 1220) -> Service a request driving for customer c49 from s2 to s1.
   [1220, 1399) -> It remains parked at station s1.

Schedule for EV v13:
   [   0, 1035) -> It remains parked at station s0.
   [1035, 1099) -> Service a request driving for customer c44 from s0 to s1.
   [1099, 1105) -> It remains parked at station s1.
   [1105, 1125) -> Service a request driving for customer c44 from s1 to s2.
   [1125, 1399) -> It remains parked at station s2.

Schedule for EV v14:
   [   0,  600) -> It remains parked at station s0, which was charging for charging.
   [ 600,  654) -> Service a request driving for customer c10 from s0 to s1.
   [ 654, 1195) -> It remains parked at station s1.
   [1195, 1215) -> Service a request driving for customer c10 from s1 to s2.
   [1215, 1399) -> It remains parked at station s2.

Schedule for EV v15:
   [   0,  975) -> It remains parked at station s1.
   [ 975, 1034) -> Service a request driving for customer c34 from s1 to s0.
   [1034, 1095) -> It remains parked at station s0.
   [1095, 1149) -> Service a request driving for customer c1 from s0 to s2.
   [1149, 1399) -> It remains parked at station s2.

Schedule for EV v16:
   [   0,  505) -> It remains parked at station s1.
   [ 505,  559) -> Service a request driving for customer c17 from s1 to s0.
   [ 559,  800) -> It remains parked at station s0, which was charging for charging.
   [ 800,  839) -> Service a request driving for customer c20 from s0 to s1.
   [ 839, 1085) -> It remains parked at station s1, which was charging for charging.
   [1085, 1120) -> Service a request driving for customer c20 from s1 to s2.
   [1120, 1255) -> It remains parked at station s2.
   [1255, 1285) -> Service a request driving for customer c20 from s2 to s1.
   [1285, 1399) -> It remains parked at station s1.

Schedule for EV v17:
   [   0,  410) -> It remains parked at station s1.
   [ 410,  464) -> Service a request driving for customer c2 from s1 to s0.
   [ 464,  875) -> It remains parked at station s0, which was charging for charging.
   [ 875,  924) -> Service a request driving for customer c2 from s0 to s1.
   [ 924, 1055) -> It remains parked at station s1.
   [1055, 1085) -> Service a request driving for customer c19 from s1 to s2.
   [1085, 1215) -> It remains parked at station s2, which was charging for charging.
   [1215, 1279) -> Service a request driving for customer c19 from s2 to s0.
   [1279, 1399) -> It remains parked at station s0.

Schedule for EV v18:
   [   0, 1080) -> It remains parked at station s1.
   [1080, 1100) -> Service a request driving for customer c4 from s1 to s2.
   [1100, 1190) -> It remains parked at station s2, which was charging for charging.
   [1190, 1249) -> Service a request driving for customer c4 from s2 to s0.
   [1249, 1399) -> It remains parked at station s0.

Schedule for EV v19:
   [   0,  525) -> It remains parked at station s1.
   [ 525,  540) -> Service a request driving for customer c28 from s1 to s2.
   [ 540, 1130) -> It remains parked at station s2, which was charging for charging.
   [1130, 1194) -> Service a request driving for customer c28 from s2 to s0.
   [1194, 1399) -> It remains parked at station s0.

Schedule for EV v20:
   [   0, 1070) -> It remains parked at station s1.
   [1070, 1105) -> Service a request driving for customer c45 from s1 to s2.
   [1105, 1330) -> It remains parked at station s2, which was charging for charging.
   [1330, 1374) -> Service a request driving for customer c45 from s2 to s0.
   [1374, 1399) -> It remains parked at station s0.

Schedule for EV v21:
   [   0, 1025) -> It remains parked at station s1.
   [1025, 1060) -> Service a request driving for customer c47 from s1 to s2.
   [1060, 1095) -> It remains parked at station s2, which was charging for charging.
   [1095, 1115) -> Service a request driving for customer c18 from s2 to s1.
   [1115, 1399) -> It remains parked at station s1.

Schedule for EV v22:
   [   0, 1399) -> It remains parked at station s1.

Schedule for EV v23:
   [   0, 1399) -> It remains parked at station s1.

Schedule for EV v24:
   [   0, 1399) -> It remains parked at station s1.

Schedule for EV v25:
   [   0, 1399) -> It remains parked at station s1.

Schedule for EV v26:
   [   0, 1399) -> It remains parked at station s1.

Schedule for EV v27:
   [   0,  865) -> It remains parked at station s2.
   [ 865,  914) -> Service a request driving for customer c42 from s2 to s0.
   [ 914, 1080) -> It remains parked at station s0, which was charging for charging.
   [1080, 1144) -> Service a request driving for customer c42 from s0 to s2.
   [1144, 1145) -> It remains parked at station s2.
   [1145, 1184) -> Service a request driving for customer c5 from s2 to s0.
   [1184, 1290) -> It remains parked at station s0.
   [1290, 1334) -> Service a request driving for customer c5 from s0 to s1.
   [1334, 1399) -> It remains parked at station s1.

Schedule for EV v28:
   [   0,  525) -> It remains parked at station s2.
   [ 525,  589) -> Service a request driving for customer c36 from s2 to s0.
   [ 589, 1080) -> It remains parked at station s0.
   [1080, 1139) -> Service a request driving for customer c36 from s0 to s2.
   [1139, 1155) -> It remains parked at station s2.
   [1155, 1194) -> Service a request driving for customer c36 from s2 to s0.
   [1194, 1399) -> It remains parked at station s0.

Schedule for EV v29:
   [   0,  480) -> It remains parked at station s2.
   [ 480,  510) -> Service a request driving for customer c3 from s2 to s1.
   [ 510,  530) -> It remains parked at station s1, which was charging for charging.
   [ 530,  589) -> Service a request driving for customer c3 from s1 to s0.
   [ 589, 1055) -> It remains parked at station s0, which was charging for charging.
   [1055, 1114) -> Service a request driving for customer c3 from s0 to s1.
   [1114, 1190) -> It remains parked at station s1, which was charging for charging.
   [1190, 1254) -> Service a request driving for customer c3 from s1 to s0.
   [1254, 1399) -> It remains parked at station s0.

Schedule for EV v30:
   [   0, 1110) -> It remains parked at station s2.
   [1110, 1169) -> Service a request driving for customer c13 from s2 to s0.
   [1169, 1355) -> It remains parked at station s0.
   [1355, 1399) -> Service a request driving for customer c13 from s0 to s2.

Schedule for EV v31:
   [   0,  500) -> It remains parked at station s2.
   [ 500,  544) -> Service a request driving for customer c29 from s2 to s0.
   [ 544, 1125) -> It remains parked at station s0, which was charging for charging.
   [1125, 1179) -> Service a request driving for customer c29 from s0 to s2.
   [1179, 1399) -> It remains parked at station s2.

Schedule for EV v32:
   [   0,  430) -> It remains parked at station s2.
   [ 430,  470) -> Service a request driving for customer c40 from s2 to s1.
   [ 470,  725) -> It remains parked at station s1, which was charging for charging.
   [ 725,  765) -> Service a request driving for customer c40 from s1 to s2.
   [ 765, 1120) -> It remains parked at station s2.
   [1120, 1164) -> Service a request driving for customer c40 from s2 to s0.
   [1164, 1399) -> It remains parked at station s0.

Schedule for EV v33:
   [   0, 1075) -> It remains parked at station s2.
   [1075, 1110) -> Service a request driving for customer c48 from s2 to s1.
   [1110, 1135) -> It remains parked at station s1.
   [1135, 1179) -> Service a request driving for customer c48 from s1 to s0.
   [1179, 1399) -> It remains parked at station s0.

Set of satisfied customers
   {c0, c1, c2, c3, c4, c5, c6, c8, c9, c10, c11, c12, c13, c16, c17, c18, c19, c20, c21, c22, c23, c25, c26, c28, c29, c30, c32, c34, c36, c38, c40, c42, c43, c44, c45, c46, c47, c48, c49}

