Academic license - for non-commercial use only
Gurobi Optimizer version 9.0.3 build v9.0.3rc0 (linux64)
Optimize a model with 48574 rows, 32946 columns and 243317 nonzeros
Model fingerprint: 0x5892d9eb
Variable types: 16986 continuous, 15960 integer (15960 binary)
Coefficient statistics:
  Matrix range     [1e+00, 3e+06]
  Objective range  [4e+01, 4e+02]
  Bounds range     [1e+00, 2e+06]
  RHS range        [1e+00, 2e+06]

Loaded user MIP start with objective 5450

Presolve removed 6887 rows and 4904 columns
Presolve time: 0.87s
Presolved: 41687 rows, 28042 columns, 208873 nonzeros
Variable types: 0 continuous, 28042 integer (24969 binary)

Root simplex log...

Iteration    Objective       Primal Inf.    Dual Inf.      Time
   11642    9.6189940e+03   7.229806e+04   0.000000e+00      5s
   16872    9.6189929e+03   1.034622e+05   0.000000e+00     10s
   21152    9.6189920e+03   1.257461e+05   0.000000e+00     15s
   24702    9.6189913e+03   2.280725e+04   0.000000e+00     20s
   27982    9.6189907e+03   4.128215e+04   0.000000e+00     25s
   30822    9.6189902e+03   1.197954e+05   0.000000e+00     30s
   33702    9.6189897e+03   5.654998e+04   0.000000e+00     35s
   36252    9.4609898e+03   4.823233e+04   0.000000e+00     40s
   38692    9.3199903e+03   5.403274e+04   0.000000e+00     45s
   41102    9.3199899e+03   3.869800e+04   0.000000e+00     50s
   43442    9.3199896e+03   3.309633e+04   0.000000e+00     55s
   45572    9.3199894e+03   1.865597e+04   0.000000e+00     60s
   47562    9.3199891e+03   4.878396e+04   0.000000e+00     65s
   49562    9.3199889e+03   2.378035e+04   0.000000e+00     70s
   51442    9.3199886e+03   1.248515e+04   0.000000e+00     75s
   53282    9.3199883e+03   3.898884e+03   0.000000e+00     80s
   55032    9.3199881e+03   2.215093e+04   0.000000e+00     85s
   56842    9.3199877e+03   1.441045e+05   0.000000e+00     90s
   58542    9.3199875e+03   1.994265e+04   0.000000e+00     95s
   60342    9.3199871e+03   3.701136e+04   0.000000e+00    100s
   62132    9.2509871e+03   2.891053e+05   0.000000e+00    105s
   63882    9.1789881e+03   1.688008e+05   0.000000e+00    110s
   65632    9.1789877e+03   1.529630e+04   0.000000e+00    115s
   67402    9.1789875e+03   1.012666e+05   0.000000e+00    120s
   69192    9.1789873e+03   1.263690e+03   0.000000e+00    125s
   70762    9.1189874e+03   7.087020e+04   0.000000e+00    130s
   72452    9.1189872e+03   1.387118e+05   0.000000e+00    135s
   74032    9.1189870e+03   7.278950e+03   0.000000e+00    140s
   75512    8.9439881e+03   2.319714e+05   0.000000e+00    145s
   77202    8.9439874e+03   2.846031e+04   0.000000e+00    150s
   78712    8.8089876e+03   2.513043e+04   0.000000e+00    155s
   80372    8.6729883e+03   1.046711e+05   0.000000e+00    160s
   81972    8.6729880e+03   6.644128e+03   0.000000e+00    165s
   83562    8.6729877e+03   6.509586e+04   0.000000e+00    170s
   85202    8.5579876e+03   1.492294e+05   0.000000e+00    175s
   86712    8.4859882e+03   5.427298e+04   0.000000e+00    180s
   88292    8.4859880e+03   2.211616e+04   0.000000e+00    185s
   89792    8.3899878e+03   3.801685e+04   0.000000e+00    190s
   91282    8.3899876e+03   1.139239e+05   0.000000e+00    195s
   92712    8.3899875e+03   5.280000e+03   0.000000e+00    200s
   94142    8.3899872e+03   3.224695e+04   0.000000e+00    205s
   95552    8.3739880e+03   6.612758e+04   0.000000e+00    210s
   97152    8.3739877e+03   4.653207e+03   0.000000e+00    215s
   98662    8.3739875e+03   6.503390e+03   0.000000e+00    220s
  100272    8.3739873e+03   7.200049e+03   0.000000e+00    225s
  101762    8.3739871e+03   3.556470e+03   0.000000e+00    230s
  103192    8.3739870e+03   1.224773e+05   0.000000e+00    235s
  104712    8.3119878e+03   4.656749e+04   0.000000e+00    240s
  106122    8.3119876e+03   2.317622e+03   0.000000e+00    245s
  107532    8.2699875e+03   6.696808e+04   0.000000e+00    250s
  109062    8.2699872e+03   1.993057e+04   0.000000e+00    255s
  110572    8.2699870e+03   5.452572e+03   0.000000e+00    260s
  112032    8.1949873e+03   7.725635e+04   0.000000e+00    265s
  113462    8.1899872e+03   2.250053e+04   0.000000e+00    270s
  114902    8.1899869e+03   1.641895e+04   0.000000e+00    275s
  116422    8.1699879e+03   1.682666e+04   0.000000e+00    280s
  117952    8.1699876e+03   2.948929e+04   0.000000e+00    285s
  119512    8.0999884e+03   2.086532e+04   0.000000e+00    290s
  121072    8.0999882e+03   6.296383e+03   0.000000e+00    295s
  122502    8.0999881e+03   3.829270e+03   0.000000e+00    300s
  123962    8.0999880e+03   1.425512e+04   0.000000e+00    305s
  125322    8.0049878e+03   5.147595e+06   0.000000e+00    310s
  126452    7.9869879e+03   1.388580e+06   0.000000e+00    315s
  127552    7.8854881e+03   3.565588e+06   0.000000e+00    320s
  128642    7.8844878e+03   1.133493e+06   0.000000e+00    325s
  129742    7.8844876e+03   3.577599e+05   0.000000e+00    330s
  130742    7.8844874e+03   2.014692e+05   0.000000e+00    335s
  131772    7.8229875e+03   2.381818e+06   0.000000e+00    340s
  132782    7.8229872e+03   3.070037e+05   0.000000e+00    345s
  133712    7.8229870e+03   2.639517e+05   0.000000e+00    350s
  134732    7.8229868e+03   5.241860e+04   0.000000e+00    355s
  135732    7.8229867e+03   9.051177e+04   0.000000e+00    360s
  136752    7.8229865e+03   5.572478e+04   0.000000e+00    365s
  137702    7.8229864e+03   6.752476e+04   0.000000e+00    370s
  138682    7.8229863e+03   5.060125e+05   0.000000e+00    375s
  139762    7.8229863e+03   2.766589e+04   0.000000e+00    380s
  140752    7.8229862e+03   1.322695e+04   0.000000e+00    386s
  141742    7.8229862e+03   1.237576e+03   0.000000e+00    390s
  142732    7.8229862e+03   3.654661e+03   0.000000e+00    395s
  142849    7.8230000e+03   0.000000e+00   0.000000e+00    396s
  142849    7.8230000e+03   0.000000e+00   0.000000e+00    396s

Root relaxation: objective 7.823000e+03, 142849 iterations, 394.76 seconds
Total elapsed time = 543.75s
Total elapsed time = 577.10s
Total elapsed time = 592.60s
Total elapsed time = 606.28s

    Nodes    |    Current Node    |     Objective Bounds      |     Work
 Expl Unexpl |  Obj  Depth IntInf | Incumbent    BestBd   Gap | It/Node Time

     0     0 7823.00000    0 12295 5450.00000 7823.00000  43.5%     -  636s
     0     0 7823.00000    0 11913 5450.00000 7823.00000  43.5%     -  912s
     0     0 7823.00000    0 11332 5450.00000 7823.00000  43.5%     -  956s
     0     0 7823.00000    0 9499 5450.00000 7823.00000  43.5%     - 1232s
     0     0 7823.00000    0 9664 5450.00000 7823.00000  43.5%     - 1262s
     0     0 7823.00000    0 9011 5450.00000 7823.00000  43.5%     - 1529s
     0     0 7823.00000    0 9317 5450.00000 7823.00000  43.5%     - 1561s
     0     0 7823.00000    0 8741 5450.00000 7823.00000  43.5%     - 1775s
H    0     0                    5502.0000000 7823.00000  42.2%     - 1776s
     0     0 7823.00000    0 8753 5502.00000 7823.00000  42.2%     - 1800s
     0     0 7823.00000    0 9278 5502.00000 7823.00000  42.2%     - 2038s
     0     0 7823.00000    0 9274 5502.00000 7823.00000  42.2%     - 2238s
H    0     0                    5692.0000000 7823.00000  37.4%     - 2420s
     0     2 7823.00000    0 9274 5692.00000 7823.00000  37.4%     - 2790s
     1     3 7823.00000    1 8269 5692.00000 7823.00000  37.4% 92183 2819s
     2     4 7823.00000    2 7421 5692.00000 7823.00000  37.4% 49614 2839s
     3     5 7823.00000    3 7689 5692.00000 7823.00000  37.4% 35473 2859s
     4     6 7823.00000    3 7541 5692.00000 7823.00000  37.4% 28131 2875s
     5     7 7823.00000    4 7471 5692.00000 7823.00000  37.4% 23641 2890s
     6     8 7823.00000    5 7620 5692.00000 7823.00000  37.4% 20734 2906s
     7     9 7823.00000    6 7347 5692.00000 7823.00000  37.4% 18911 2926s
     8    10 7823.00000    7 7204 5692.00000 7823.00000  37.4% 17184 2939s
     9    11 7823.00000    8 6888 5692.00000 7823.00000  37.4% 15995 2955s
    10    12 7823.00000    9 6823 5692.00000 7823.00000  37.4% 14815 2965s
    11    13 7823.00000   10 6582 5692.00000 7823.00000  37.4% 13710 2972s
    12    14 7823.00000   11 6693 5692.00000 7823.00000  37.4% 12774 2978s
    13    15 7823.00000   11 6947 5692.00000 7823.00000  37.4% 13705 3025s
    14    16 7823.00000   12 6797 5692.00000 7823.00000  37.4% 13734 3049s
    15    17 7823.00000   13 6637 5692.00000 7823.00000  37.4% 13039 3057s
    16    18 7823.00000   13 6757 5692.00000 7823.00000  37.4% 12503 3067s
    17    19 7823.00000   14 6657 5692.00000 7823.00000  37.4% 11968 3074s
    18    20 7823.00000   15 6523 5692.00000 7823.00000  37.4% 11475 3081s
    19    21 7823.00000   15 6694 5692.00000 7823.00000  37.4% 11101 3091s
    20    22 7823.00000   16 6295 5692.00000 7823.00000  37.4% 10718 3099s
    21    23 7823.00000   17 6504 5692.00000 7823.00000  37.4% 10400 3108s
    22    24 7823.00000   17 6437 5692.00000 7823.00000  37.4% 10079 3115s
    23    25 7823.00000   18 6897 5692.00000 7823.00000  37.4% 10218 3136s
    24    26 7823.00000   19 6764 5692.00000 7823.00000  37.4%  9958 3145s
    25    27 7823.00000   20 6776 5692.00000 7823.00000  37.4%  9726 3153s
    26    28 7823.00000   21 6426 5692.00000 7823.00000  37.4%  9496 3161s
    27    29 7823.00000   22 6198 5692.00000 7823.00000  37.4%  9298 3169s
    28    30 7823.00000   23 5948 5692.00000 7823.00000  37.4%  9063 3175s
    29    31 7823.00000   23 6434 5692.00000 7823.00000  37.4%  8854 3181s
    30    32 7823.00000   24 6312 5692.00000 7823.00000  37.4%  9180 3211s
    31    33 7823.00000   24 5999 5692.00000 7823.00000  37.4%  8951 3215s
    33    35 7823.00000   26 6062 5692.00000 7823.00000  37.4%  8508 3221s
    34    36 7823.00000   26 5776 5692.00000 7823.00000  37.4%  8349 3227s
    35    37 7823.00000   27 5720 5692.00000 7823.00000  37.4%  8168 3231s
    36    38 7823.00000   28 5887 5692.00000 7823.00000  37.4%  8000 3235s
    37    39 7823.00000   28 5628 5692.00000 7823.00000  37.4%  7898 3243s
    38    40 7823.00000   29 5819 5692.00000 7823.00000  37.4%  7738 3246s
    39    41 7823.00000   30 5750 5692.00000 7823.00000  37.4%  7590 3250s
    41    43 7823.00000   32 5541 5692.00000 7823.00000  37.4%  7310 3257s
    42    44 7823.00000   32 5260 5692.00000 7823.00000  37.4%  7199 3261s
    43    45 7823.00000   33 5009 5692.00000 7823.00000  37.4%  7082 3265s
    44    46 7823.00000   33 5443 5692.00000 7823.00000  37.4%  6973 3270s
    45    47 7823.00000   34 5096 5692.00000 7823.00000  37.4%  6879 3275s
    47    49 7823.00000   36 4444 5692.00000 7823.00000  37.4%  6664 3281s
    49    51 7823.00000   38 4296 5692.00000 7823.00000  37.4%  6445 3286s
    51    53 7823.00000   39 4217 5692.00000 7823.00000  37.4%  6245 3290s
    54    56 7823.00000   42 3415 5692.00000 7823.00000  37.4%  5973 3296s
    57    59 7823.00000   44 3399 5692.00000 7823.00000  37.4%  5700 3300s
    61    63 7823.00000   48 3265 5692.00000 7823.00000  37.4%  5383 3305s
    64    66 7823.00000   50 3428 5692.00000 7823.00000  37.4%  5187 3310s
    71    73 7823.00000   55 2352 5692.00000 7823.00000  37.4%  4732 3315s
    80    82 7823.00000   63 1675 5692.00000 7823.00000  37.4%  4250 3320s
    90    92 7823.00000   73 1687 5692.00000 7823.00000  37.4%  3824 3325s
   102   104 7823.00000   85 1884 5692.00000 7823.00000  37.4%  3416 3330s
H  108   108                    5696.0000000 7823.00000  37.3%  3252 3334s
   110   112 7823.00000   91 1598 5696.00000 7823.00000  37.3%  3211 3335s
   121   123 7823.00000  102 1077 5696.00000 7823.00000  37.3%  2952 3340s
   146   148 7823.00000  127   93 5696.00000 7823.00000  37.3%  2474 3345s
*  149     2             130    7823.0000000 7823.00000  0.00%  2425 3345s

Cutting planes:
  Gomory: 1
  Implied bound: 540
  MIR: 55
  StrongCG: 5
  RLT: 386
  Relax-and-lift: 10

Explored 150 nodes (1213974 simplex iterations) in 3345.47 seconds
Thread count was 1 (of 40 available processors)

Solution count 5: 7823 5696 5692 ... 5450

Optimal solution found (tolerance 1.00e-04)
Best objective 7.823000000000e+03, best bound 7.823000000000e+03, gap 0.0000%

----------

Best objective (UB): 7823.000
Best feasible solution (LB): 7823.000
Gap between the lower bound and upper bound: 0.000%

----------

Number of customers served: 45

Schedule for EV v0:
   [   0,  335) -> It remains parked at station s0.
   [ 335,  412) -> Service a request driving for customer c4 from s0 to s1.
   [ 412,  480) -> It remains parked at station s1, which was charging for charging.
   [ 480,  555) -> Service a request driving for customer c20 from s1 to s2.
   [ 555,  585) -> It remains parked at station s2.
   [ 585,  676) -> Service a request driving for customer c29 from s2 to s0.
   [ 676, 1175) -> It remains parked at station s0, which was charging for charging.
   [1175, 1232) -> Service a request driving for customer c29 from s0 to s1.
   [1232, 1461) -> It remains parked at station s1.

Schedule for EV v1:
   [   0,  520) -> It remains parked at station s0.
   [ 520,  572) -> Service a request driving for customer c36 from s0 to s1.
   [ 572, 1125) -> It remains parked at station s1, which was charging for charging.
   [1125, 1177) -> Service a request driving for customer c30 from s1 to s0.
   [1177, 1355) -> It remains parked at station s0.
   [1355, 1461) -> Service a request driving for customer c7 from s0 to s2.

Schedule for EV v2:
   [   0,  460) -> It remains parked at station s0.
   [ 460,  551) -> Service a request driving for customer c0 from s0 to s2.
   [ 551,  560) -> It remains parked at station s2.
   [ 560,  615) -> Service a request driving for customer c28 from s2 to s1.
   [ 615, 1115) -> It remains parked at station s1, which was charging for charging.
   [1115, 1220) -> Service a request driving for customer c28 from s1 to s3.
   [1220, 1461) -> It remains parked at station s3.

Schedule for EV v3:
   [   0,  520) -> It remains parked at station s0.
   [ 520,  572) -> Service a request driving for customer c16 from s0 to s1.
   [ 572, 1110) -> It remains parked at station s1.
   [1110, 1180) -> Service a request driving for customer c38 from s1 to s2.
   [1180, 1461) -> It remains parked at station s2.

Schedule for EV v4:
   [   0,  395) -> It remains parked at station s0.
   [ 395,  536) -> Service a request driving for customer c23 from s0 to s3.
   [ 536, 1010) -> It remains parked at station s3.
   [1010, 1075) -> Service a request driving for customer c32 from s3 to s2.
   [1075, 1100) -> It remains parked at station s2, which was charging for charging.
   [1100, 1165) -> Service a request driving for customer c11 from s2 to s1.
   [1165, 1180) -> It remains parked at station s1.
   [1180, 1252) -> Service a request driving for customer c33 from s1 to s0.
   [1252, 1461) -> It remains parked at station s0.

Schedule for EV v5:
   [   0,  345) -> It remains parked at station s0.
   [ 345,  471) -> Service a request driving for customer c1 from s0 to s3.
   [ 471,  495) -> It remains parked at station s3.
   [ 495,  545) -> Service a request driving for customer c28 from s3 to s2.
   [ 545,  565) -> It remains parked at station s2, which was charging for charging.
   [ 565,  615) -> Service a request driving for customer c0 from s2 to s3.
   [ 615,  925) -> It remains parked at station s3, which was charging for charging.
   [ 925,  980) -> Service a request driving for customer c56 from s3 to s2.
   [ 980, 1020) -> It remains parked at station s2.
   [1020, 1065) -> Service a request driving for customer c52 from s2 to s3.
   [1065, 1080) -> It remains parked at station s3, which was charging for charging.
   [1080, 1196) -> Service a request driving for customer c51 from s3 to s0.
   [1196, 1350) -> It remains parked at station s0, which was charging for charging.
   [1350, 1451) -> Service a request driving for customer c24 from s0 to s2.
   [1451, 1461) -> It remains parked at station s2.

Schedule for EV v6:
   [   0,  495) -> It remains parked at station s1.
   [ 495,  562) -> Service a request driving for customer c42 from s1 to s0.
   [ 562,  570) -> It remains parked at station s0.
   [ 570,  637) -> Service a request driving for customer c27 from s0 to s1.
   [ 637,  985) -> It remains parked at station s1, which was charging for charging.
   [ 985, 1052) -> Service a request driving for customer c36 from s1 to s0.
   [1052, 1110) -> It remains parked at station s0, which was charging for charging.
   [1110, 1162) -> Service a request driving for customer c2 from s0 to s1.
   [1162, 1185) -> It remains parked at station s1, which was charging for charging.
   [1185, 1255) -> Service a request driving for customer c46 from s1 to s2.
   [1255, 1280) -> It remains parked at station s2, which was charging for charging.
   [1280, 1345) -> Service a request driving for customer c31 from s2 to s3.
   [1345, 1461) -> It remains parked at station s3.

Schedule for EV v7:
   [   0,  525) -> It remains parked at station s1.
   [ 525,  595) -> Service a request driving for customer c9 from s1 to s2.
   [ 595, 1085) -> It remains parked at station s2.
   [1085, 1166) -> Service a request driving for customer c24 from s2 to s0.
   [1166, 1180) -> It remains parked at station s0, which was charging for charging.
   [1180, 1271) -> Service a request driving for customer c59 from s0 to s2.
   [1271, 1355) -> It remains parked at station s2, which was charging for charging.
   [1355, 1430) -> Service a request driving for customer c56 from s2 to s1.
   [1430, 1461) -> It remains parked at station s1.

Schedule for EV v8:
   [   0,  570) -> It remains parked at station s1.
   [ 570,  647) -> Service a request driving for customer c57 from s1 to s0.
   [ 647,  875) -> It remains parked at station s0, which was charging for charging.
   [ 875,  976) -> Service a request driving for customer c53 from s0 to s2.
   [ 976, 1100) -> It remains parked at station s2.
   [1100, 1155) -> Service a request driving for customer c14 from s2 to s1.
   [1155, 1461) -> It remains parked at station s1, which was charging for charging.

Schedule for EV v9:
   [   0,  505) -> It remains parked at station s1.
   [ 505,  615) -> Service a request driving for customer c47 from s1 to s3.
   [ 615, 1035) -> It remains parked at station s3.
   [1035, 1155) -> Service a request driving for customer c39 from s3 to s1.
   [1155, 1461) -> It remains parked at station s1, which was charging for charging.

Schedule for EV v10:
   [   0,  315) -> It remains parked at station s2.
   [ 315,  385) -> Service a request driving for customer c11 from s2 to s3.
   [ 385,  430) -> It remains parked at station s3.
   [ 430,  546) -> Service a request driving for customer c8 from s3 to s0.
   [ 546,  550) -> It remains parked at station s0, which was charging for charging.
   [ 550,  627) -> Service a request driving for customer c45 from s0 to s1.
   [ 627,  645) -> It remains parked at station s1, which was charging for charging.
   [ 645,  710) -> Service a request driving for customer c16 from s1 to s2.
   [ 710, 1035) -> It remains parked at station s2.
   [1035, 1105) -> Service a request driving for customer c44 from s2 to s1.
   [1105, 1130) -> It remains parked at station s1, which was charging for charging.
   [1130, 1240) -> Service a request driving for customer c25 from s1 to s3.
   [1240, 1320) -> It remains parked at station s3, which was charging for charging.
   [1320, 1461) -> Service a request driving for customer c28 from s3 to s0.

Schedule for EV v11:
   [   0,  495) -> It remains parked at station s2.
   [ 495,  540) -> Service a request driving for customer c51 from s2 to s3.
   [ 540,  565) -> It remains parked at station s3.
   [ 565,  635) -> Service a request driving for customer c3 from s3 to s2.
   [ 635, 1090) -> It remains parked at station s2.
   [1090, 1150) -> Service a request driving for customer c32 from s2 to s1.
   [1150, 1340) -> It remains parked at station s1, which was charging for charging.
   [1340, 1410) -> Service a request driving for customer c44 from s1 to s2.
   [1410, 1461) -> It remains parked at station s2.

Schedule for EV v12:
   [   0,  515) -> It remains parked at station s2.
   [ 515,  565) -> Service a request driving for customer c56 from s2 to s3.
   [ 565,  570) -> It remains parked at station s3.
   [ 570,  670) -> Service a request driving for customer c1 from s3 to s1.
   [ 670, 1025) -> It remains parked at station s1, which was charging for charging.
   [1025, 1102) -> Service a request driving for customer c4 from s1 to s0.
   [1102, 1165) -> It remains parked at station s0, which was charging for charging.
   [1165, 1281) -> Service a request driving for customer c22 from s0 to s3.
   [1281, 1461) -> It remains parked at station s3.

Schedule for EV v13:
   [   0,  370) -> It remains parked at station s2.
   [ 370,  415) -> Service a request driving for customer c18 from s2 to s3.
   [ 415,  450) -> It remains parked at station s3, which was charging for charging.
   [ 450,  495) -> Service a request driving for customer c7 from s3 to s2.
   [ 495,  510) -> It remains parked at station s2.
   [ 510,  560) -> Service a request driving for customer c21 from s2 to s3.
   [ 560,  590) -> It remains parked at station s3, which was charging for charging.
   [ 590,  655) -> Service a request driving for customer c23 from s3 to s2.
   [ 655,  775) -> It remains parked at station s2.
   [ 775,  825) -> Service a request driving for customer c39 from s2 to s3.
   [ 825, 1035) -> It remains parked at station s3, which was charging for charging.
   [1035, 1090) -> Service a request driving for customer c11 from s3 to s2.
   [1090, 1191) -> Service a request driving for customer c20 from s2 to s0.
   [1191, 1461) -> It remains parked at station s0, which was charging for charging.

Schedule for EV v14:
   [   0,  540) -> It remains parked at station s2.
   [ 540,  641) -> Service a request driving for customer c14 from s2 to s0.
   [ 641,  995) -> It remains parked at station s0, which was charging for charging.
   [ 995, 1081) -> Service a request driving for customer c14 from s0 to s2.
   [1081, 1115) -> It remains parked at station s2.
   [1115, 1180) -> Service a request driving for customer c34 from s2 to s3.
   [1180, 1461) -> It remains parked at station s3.

Schedule for EV v15:
   [   0,  310) -> It remains parked at station s2.
   [ 310,  416) -> Service a request driving for customer c16 from s2 to s0.
   [ 416,  480) -> It remains parked at station s0, which was charging for charging.
   [ 480,  621) -> Service a request driving for customer c35 from s0 to s3.
   [ 621,  790) -> It remains parked at station s3, which was charging for charging.
   [ 790,  905) -> Service a request driving for customer c38 from s3 to s1.
   [ 905, 1050) -> It remains parked at station s1, which was charging for charging.
   [1050, 1120) -> Service a request driving for customer c1 from s1 to s2.
   [1120, 1130) -> It remains parked at station s2, which was charging for charging.
   [1130, 1175) -> Service a request driving for customer c21 from s2 to s3.
   [1175, 1190) -> It remains parked at station s3, which was charging for charging.
   [1190, 1300) -> Service a request driving for customer c34 from s3 to s1.
   [1300, 1461) -> It remains parked at station s1, which was charging for charging.

Schedule for EV v16:
   [   0,  485) -> It remains parked at station s2.
   [ 485,  586) -> Service a request driving for customer c38 from s2 to s0.
   [ 586,  600) -> It remains parked at station s0, which was charging for charging.
   [ 600,  741) -> Service a request driving for customer c38 from s0 to s3.
   [ 741,  870) -> It remains parked at station s3.
   [ 870,  940) -> Service a request driving for customer c31 from s3 to s2.
   [ 940, 1085) -> It remains parked at station s2, which was charging for charging.
   [1085, 1191) -> Service a request driving for customer c53 from s2 to s0.
   [1191, 1461) -> It remains parked at station s0, which was charging for charging.

Schedule for EV v17:
   [   0,  435) -> It remains parked at station s2.
   [ 435,  531) -> Service a request driving for customer c41 from s2 to s0.
   [ 531,  585) -> It remains parked at station s0, which was charging for charging.
   [ 585,  711) -> Service a request driving for customer c8 from s0 to s3.
   [ 711,  815) -> It remains parked at station s3.
   [ 815,  885) -> Service a request driving for customer c21 from s3 to s2.
   [ 885, 1125) -> It remains parked at station s2, which was charging for charging.
   [1125, 1231) -> Service a request driving for customer c16 from s2 to s0.
   [1231, 1461) -> It remains parked at station s0.

Schedule for EV v18:
   [   0,  470) -> It remains parked at station s3.
   [ 470,  606) -> Service a request driving for customer c26 from s3 to s0.
   [ 606,  610) -> It remains parked at station s0, which was charging for charging.
   [ 610,  682) -> Service a request driving for customer c25 from s0 to s1.
   [ 682,  700) -> It remains parked at station s1.
   [ 700,  767) -> Service a request driving for customer c27 from s1 to s0.
   [ 767,  830) -> It remains parked at station s0, which was charging for charging.
   [ 830,  931) -> Service a request driving for customer c27 from s0 to s2.
   [ 931,  990) -> It remains parked at station s2.
   [ 990, 1086) -> Service a request driving for customer c27 from s2 to s0.
   [1086, 1130) -> It remains parked at station s0, which was charging for charging.
   [1130, 1271) -> Service a request driving for customer c4 from s0 to s3.
   [1271, 1461) -> It remains parked at station s3, which was charging for charging.

Schedule for EV v19:
   [   0,  520) -> It remains parked at station s3.
   [ 520,  590) -> Service a request driving for customer c48 from s3 to s2.
   [ 590,  680) -> It remains parked at station s2, which was charging for charging.
   [ 680,  745) -> Service a request driving for customer c7 from s2 to s3.
   [ 745,  900) -> It remains parked at station s3, which was charging for charging.
   [ 900, 1036) -> Service a request driving for customer c7 from s3 to s0.
   [1036, 1110) -> It remains parked at station s0.
   [1110, 1226) -> Service a request driving for customer c57 from s0 to s3.
   [1226, 1245) -> It remains parked at station s3, which was charging for charging.
   [1245, 1290) -> Service a request driving for customer c21 from s3 to s2.
   [1290, 1330) -> It remains parked at station s2.
   [1330, 1411) -> Service a request driving for customer c9 from s2 to s0.
   [1411, 1461) -> It remains parked at station s0.

Schedule for EV v20:
   [   0,  340) -> It remains parked at station s3.
   [ 340,  445) -> Service a request driving for customer c9 from s3 to s1.
   [ 445,  520) -> It remains parked at station s1, which was charging for charging.
   [ 520,  615) -> Service a request driving for customer c19 from s1 to s3.
   [ 615,  985) -> It remains parked at station s3.
   [ 985, 1121) -> Service a request driving for customer c59 from s3 to s0.
   [1121, 1165) -> It remains parked at station s0.
   [1165, 1286) -> Service a request driving for customer c36 from s0 to s3.
   [1286, 1461) -> It remains parked at station s3.

Set of satisfied customers
   {c0, c1, c2, c3, c4, c7, c8, c9, c11, c14, c16, c18, c19, c20, c21, c22, c23, c24, c25, c26, c27, c28, c29, c30, c31, c32, c33, c34, c35, c36, c38, c39, c41, c42, c44, c45, c46, c47, c48, c51, c52, c53, c56, c57, c59}

