Academic license - for non-commercial use only
Gurobi Optimizer version 9.0.3 build v9.0.3rc0 (linux64)
Optimize a model with 38710 rows, 26623 columns and 214914 nonzeros
Model fingerprint: 0xdd620700
Variable types: 13551 continuous, 13072 integer (13072 binary)
Coefficient statistics:
  Matrix range     [1e+00, 3e+06]
  Objective range  [4e+01, 4e+02]
  Bounds range     [1e+00, 2e+06]
  RHS range        [1e+00, 2e+06]

Loaded user MIP start with objective 4435

Presolve removed 3305 rows and 2313 columns
Presolve time: 0.53s
Presolved: 35405 rows, 24310 columns, 199624 nonzeros
Variable types: 0 continuous, 24310 integer (21223 binary)

Root simplex log...

Iteration    Objective       Primal Inf.    Dual Inf.      Time
   13512    1.1964992e+04   3.093102e+04   0.000000e+00      5s
   17942    1.1964991e+04   8.788230e+04   0.000000e+00     10s
   21894    1.1964991e+04   1.306103e+04   0.000000e+00     15s
   25314    1.1964990e+04   2.647700e+04   0.000000e+00     20s
   28644    1.1964990e+04   7.531998e+04   0.000000e+00     25s
   31766    1.1964989e+04   5.000824e+04   0.000000e+00     30s
   34696    1.1964989e+04   2.190584e+05   0.000000e+00     35s
   37456    1.1964988e+04   1.192241e+04   0.000000e+00     40s
   40276    1.1964988e+04   1.247382e+04   0.000000e+00     45s
   42856    1.1964987e+04   4.822315e+04   0.000000e+00     50s
   45466    1.1964987e+04   1.035572e+04   0.000000e+00     55s
   47946    1.1964986e+04   2.816041e+04   0.000000e+00     60s
   50446    1.1964986e+04   2.853195e+04   0.000000e+00     65s
   52746    1.1923986e+04   2.823207e+04   0.000000e+00     70s
   55066    1.1602986e+04   8.114269e+04   0.000000e+00     75s
   57376    1.1328987e+04   4.600940e+04   0.000000e+00     80s
   59796    1.1328987e+04   4.159262e+04   0.000000e+00     85s
   62216    1.1328986e+04   1.411998e+05   0.000000e+00     90s
   64606    1.1328986e+04   2.710633e+04   0.000000e+00     95s
   66836    1.1328986e+04   1.607921e+04   0.000000e+00    100s
   69096    1.1328985e+04   7.764383e+04   0.000000e+00    105s
   71306    1.0880986e+04   7.404277e+03   0.000000e+00    110s
   73624    1.0739986e+04   1.071868e+04   0.000000e+00    115s
   75766    1.0739986e+04   6.460928e+04   0.000000e+00    120s
   78006    1.0714986e+04   4.855207e+04   0.000000e+00    125s
   80278    1.0585987e+04   5.414727e+04   0.000000e+00    130s
   82548    1.0585986e+04   2.117661e+04   0.000000e+00    135s
   84710    1.0585986e+04   3.059977e+04   0.000000e+00    140s
   86930    1.0585985e+04   4.519347e+04   0.000000e+00    145s
   89080    1.0585985e+04   7.996719e+04   0.000000e+00    150s
   91152    1.0528985e+04   6.003831e+04   0.000000e+00    155s
   93444    1.0353986e+04   2.247475e+05   0.000000e+00    160s
   95564    1.0247986e+04   2.936187e+05   0.000000e+00    165s
   97754    1.0202985e+04   2.742452e+05   0.000000e+00    170s
  100054    1.0099986e+04   2.664844e+04   0.000000e+00    175s
  102194    9.9909860e+03   1.316044e+04   0.000000e+00    180s
  104394    9.9909855e+03   1.510640e+05   0.000000e+00    185s
  106634    9.8779859e+03   6.329083e+04   0.000000e+00    190s
  108394    9.7109854e+03   1.005456e+06   0.000000e+00    195s
  110044    9.5579857e+03   5.115272e+06   0.000000e+00    200s
  111764    9.2199860e+03   1.853464e+06   0.000000e+00    205s
  113284    9.2199849e+03   2.869610e+06   0.000000e+00    210s
  114754    9.2199843e+03   8.516142e+05   0.000000e+00    215s
Warning: Markowitz tolerance tightened to 0.125
  116154    9.2199831e+03   8.127114e+05   0.000000e+00    220s
  117554    9.2199825e+03   3.035869e+05   0.000000e+00    225s
  119044    9.2199817e+03   8.137656e+05   0.000000e+00    230s
  120376    9.2199808e+03   1.386780e+06   0.000000e+00    235s
  121816    8.9079804e+03   9.053513e+05   0.000000e+00    240s
  123126    8.2809847e+03   6.170790e+06   0.000000e+00    245s
  124376    8.2749834e+03   2.681365e+06   0.000000e+00    250s
  125736    8.2749828e+03   4.800745e+05   0.000000e+00    255s
  127076    8.2219833e+03   1.121682e+06   0.000000e+00    260s
  128416    8.1629833e+03   5.745203e+05   0.000000e+00    265s
  129666    8.1589821e+03   2.798222e+05   0.000000e+00    270s
  130956    8.1559819e+03   9.429569e+05   0.000000e+00    275s
  132226    8.1559814e+03   2.403991e+05   0.000000e+00    280s
  133486    8.1559806e+03   5.000275e+05   0.000000e+00    285s
  134736    8.1559800e+03   1.126288e+06   0.000000e+00    290s
  136096    8.1559793e+03   5.993939e+05   0.000000e+00    295s
  137286    8.1559786e+03   7.601786e+05   0.000000e+00    300s
  138576    8.1029829e+03   1.236436e+06   0.000000e+00    305s
  139876    8.1029825e+03   2.579222e+05   0.000000e+00    310s
  141146    8.1029821e+03   3.267844e+05   0.000000e+00    315s
  142436    8.1029818e+03   2.982066e+05   0.000000e+00    320s
  143716    8.1029815e+03   2.888014e+05   0.000000e+00    325s
  144916    8.1029812e+03   1.002264e+06   0.000000e+00    330s
  146216    8.1029809e+03   4.345012e+05   0.000000e+00    335s
  147536    8.1029807e+03   5.912182e+04   0.000000e+00    340s
  148846    8.1029804e+03   7.134866e+05   0.000000e+00    345s
  150206    8.0919798e+03   5.255222e+05   0.000000e+00    350s
  151626    8.0919796e+03   6.631215e+04   0.000000e+00    355s
  152956    8.0919795e+03   2.941800e+05   0.000000e+00    360s
  154476    8.0919793e+03   1.867373e+05   0.000000e+00    366s
  155686    8.0919792e+03   8.755509e+04   0.000000e+00    370s
  157076    8.0859802e+03   1.318647e+05   0.000000e+00    375s
  158476    8.0859801e+03   5.501474e+04   0.000000e+00    380s
  159866    8.0859800e+03   4.061341e+04   0.000000e+00    385s
  161266    8.0859799e+03   1.380263e+06   0.000000e+00    390s
  162766    8.0859798e+03   5.498860e+03   0.000000e+00    395s
  163991    8.0860000e+03   0.000000e+00   0.000000e+00    400s
  163991    8.0860000e+03   0.000000e+00   0.000000e+00    400s

Root relaxation: objective 8.086000e+03, 163991 iterations, 399.09 seconds
Total elapsed time = 623.18s
Total elapsed time = 660.83s
Total elapsed time = 709.90s
Total elapsed time = 714.16s

    Nodes    |    Current Node    |     Objective Bounds      |     Work
 Expl Unexpl |  Obj  Depth IntInf | Incumbent    BestBd   Gap | It/Node Time

     0     0 8086.00000    0 9223 4435.00000 8086.00000  82.3%     -  716s
     0     0 8086.00000    0 9886 4435.00000 8086.00000  82.3%     -  770s
     0     0 8086.00000    0 9443 4435.00000 8086.00000  82.3%     -  802s
     0     0 8086.00000    0 8554 4435.00000 8086.00000  82.3%     -  958s
     0     0 8086.00000    0 8838 4435.00000 8086.00000  82.3%     -  978s
     0     0 8086.00000    0 8321 4435.00000 8086.00000  82.3%     - 1177s
     0     0 8086.00000    0 8704 4435.00000 8086.00000  82.3%     - 1199s
     0     0 8086.00000    0 8301 4435.00000 8086.00000  82.3%     - 1384s
     0     0 8086.00000    0 8767 4435.00000 8086.00000  82.3%     - 1406s
     0     0 8086.00000    0 8295 4435.00000 8086.00000  82.3%     - 1525s
     0     0 8086.00000    0 8291 4435.00000 8086.00000  82.3%     - 1655s
H    0     0                    4595.0000000 8086.00000  76.0%     - 1809s
     0     2 8086.00000    0 8291 4595.00000 8086.00000  76.0%     - 2097s
     1     3 8086.00000    1 8180 4595.00000 8086.00000  76.0% 88818 2116s
     2     4 8086.00000    1 7386 4595.00000 8086.00000  76.0% 47556 2130s
     3     5 8086.00000    2 7211 4595.00000 8086.00000  76.0% 33187 2139s
     4     6 8086.00000    3 6872 4595.00000 8086.00000  76.0% 26083 2149s
     5     7 8086.00000    4 6825 4595.00000 8086.00000  76.0% 21685 2156s
     6     8 8086.00000    5 6959 4595.00000 8086.00000  76.0% 18536 2162s
     7     9 8086.00000    5 7212 4595.00000 8086.00000  76.0% 16610 2171s
     8    10 8086.00000    6 6495 4595.00000 8086.00000  76.0% 14881 2176s
     9    11 8086.00000    7 6328 4595.00000 8086.00000  76.0% 13545 2181s
    10    12 8086.00000    8 6438 4595.00000 8086.00000  76.0% 12504 2186s
    12    14 8086.00000    9 6577 4595.00000 8086.00000  76.0% 11567 2205s
    13    15 8055.00000   10 6474 4595.00000 8086.00000  76.0% 12537 2237s
    14    16 8086.00000   10 6351 4595.00000 8086.00000  76.0% 11853 2242s
    16    18 8086.00000   12 6033 4595.00000 8086.00000  76.0% 10575 2247s
    18    20 8086.00000   14 5978 4595.00000 8086.00000  76.0%  9594 2252s
    19    21 8086.00000   14 6034 4595.00000 8086.00000  76.0%  9275 2257s
    20    22 8086.00000   15 6050 4595.00000 8086.00000  76.0%  8958 2262s
    21    23 8086.00000   15 6136 4595.00000 8086.00000  76.0%  8647 2265s
    23    25 8086.00000   16 5713 4595.00000 8086.00000  76.0%  8091 2272s
    25    27 8086.00000   18 5503 4595.00000 8086.00000  76.0%  7595 2277s
    27    29 8086.00000   19 4932 4595.00000 8086.00000  76.0%  7146 2281s
    30    32 8086.00000   21 5020 4595.00000 8086.00000  76.0%  6569 2286s
    32    34 8086.00000   23 5078 4595.00000 8086.00000  76.0%  6258 2291s
    35    37 8086.00000   25 5023 4595.00000 8086.00000  76.0%  5832 2296s
    37    39 8086.00000   26 4681 4595.00000 8086.00000  76.0%  5599 2300s
    38    40 8086.00000   26 5377 4595.00000 8086.00000  76.0%  5637 2309s
    39    41 8086.00000   27 5064 4595.00000 8086.00000  76.0%  5549 2312s
    40    42 8086.00000   27 5495 4595.00000 8086.00000  76.0%  5465 2315s
    43    45 8086.00000   30 4575 4595.00000 8086.00000  76.0%  5182 2321s
    45    47 8086.00000   31 4750 4595.00000 8086.00000  76.0%  5056 2328s
    46    48 8086.00000   32 4693 4595.00000 8086.00000  76.0%  4973 2330s
    49    51 8086.00000   34 4290 4595.00000 8086.00000  76.0%  4743 2335s
    51    53 8086.00000   35 4183 4595.00000 8086.00000  76.0%  4712 2343s
    52    54 8086.00000   36 4147 4595.00000 8086.00000  76.0%  4650 2345s
H   54    54                    4781.0000000 8086.00000  69.1%  4503 2348s
    56    58 8086.00000   39 4075 4781.00000 8086.00000  69.1%  4398 2351s
    58    60 8086.00000   40 4222 4781.00000 8086.00000  69.1%  4299 2355s
    62    64 8086.00000   43 4108 4781.00000 8086.00000  69.1%  4094 2361s
    65    67 8086.00000   45 4197 4781.00000 8086.00000  69.1%  3957 2365s
    68    70 8086.00000   48 3859 4781.00000 8086.00000  69.1%  3870 2372s
    71    73 8086.00000   50 3543 4781.00000 8086.00000  69.1%  3749 2376s
    75    77 8086.00000   52 3797 4781.00000 8086.00000  69.1%  3610 2381s
    81    83 8086.00000   57 2328 4781.00000 8086.00000  69.1%  3389 2385s
    96    98 8086.00000   71 1171 4781.00000 8086.00000  69.1%  2910 2390s
H  108     2                    8086.0000000 8086.00000  0.00%  2593 2391s

Cutting planes:
  Implied bound: 461
  MIR: 52
  StrongCG: 5
  RLT: 269
  Relax-and-lift: 4

Explored 109 nodes (1084197 simplex iterations) in 2391.12 seconds
Thread count was 1 (of 40 available processors)

Solution count 4: 8086 4781 4595 4435 

Optimal solution found (tolerance 1.00e-04)
Best objective 8.086000000000e+03, best bound 8.086000000000e+03, gap 0.0000%

----------

Best objective (UB): 8086.000
Best feasible solution (LB): 8086.000
Gap between the lower bound and upper bound: 0.000%

----------

Number of customers served: 51

Schedule for EV v0:
   [   0,  465) -> It remains parked at station s0.
   [ 465,  516) -> Service a request driving for customer c56 from s0 to s1.
   [ 516,  530) -> It remains parked at station s1.
   [ 530,  610) -> Service a request driving for customer c22 from s1 to s2.
   [ 610,  615) -> It remains parked at station s2.
   [ 615,  720) -> Service a request driving for customer c22 from s2 to s0.
   [ 720, 1120) -> It remains parked at station s0, which was charging for charging.
   [1120, 1225) -> Service a request driving for customer c31 from s0 to s2.
   [1225, 1425) -> It remains parked at station s2.

Schedule for EV v1:
   [   0,  485) -> It remains parked at station s0.
   [ 485,  575) -> Service a request driving for customer c72 from s0 to s2.
   [ 575,  725) -> It remains parked at station s2, which was charging for charging.
   [ 725,  820) -> Service a request driving for customer c25 from s2 to s0.
   [ 820,  910) -> It remains parked at station s0.
   [ 910, 1000) -> Service a request driving for customer c38 from s0 to s2.
   [1000, 1090) -> It remains parked at station s2.
   [1090, 1180) -> Service a request driving for customer c65 from s2 to s0.
   [1180, 1425) -> It remains parked at station s0, which was charging for charging.

Schedule for EV v2:
   [   0,  460) -> It remains parked at station s0.
   [ 460,  575) -> Service a request driving for customer c44 from s0 to s2.
   [ 575, 1080) -> It remains parked at station s2, which was charging for charging.
   [1080, 1180) -> Service a request driving for customer c63 from s2 to s0.
   [1180, 1425) -> It remains parked at station s0, which was charging for charging.

Schedule for EV v3:
   [   0,  490) -> It remains parked at station s0.
   [ 490,  531) -> Service a request driving for customer c6 from s0 to s1.
   [ 531,  535) -> It remains parked at station s1, which was charging for charging.
   [ 535,  625) -> Service a request driving for customer c7 from s1 to s2.
   [ 625, 1075) -> It remains parked at station s2.
   [1075, 1150) -> Service a request driving for customer c70 from s2 to s1.
   [1150, 1245) -> It remains parked at station s1, which was charging for charging.
   [1245, 1281) -> Service a request driving for customer c53 from s1 to s0.
   [1281, 1425) -> It remains parked at station s0, which was charging for charging.

Schedule for EV v4:
   [   0,  505) -> It remains parked at station s0.
   [ 505,  615) -> Service a request driving for customer c51 from s0 to s2.
   [ 615,  850) -> It remains parked at station s2.
   [ 850,  915) -> Service a request driving for customer c26 from s2 to s1.
   [ 915, 1055) -> It remains parked at station s1.
   [1055, 1091) -> Service a request driving for customer c47 from s1 to s0.
   [1091, 1110) -> It remains parked at station s0, which was charging for charging.
   [1110, 1146) -> Service a request driving for customer c77 from s0 to s1.
   [1146, 1255) -> It remains parked at station s1, which was charging for charging.
   [1255, 1320) -> Service a request driving for customer c8 from s1 to s2.
   [1320, 1350) -> It remains parked at station s2, which was charging for charging.
   [1350, 1425) -> Service a request driving for customer c55 from s2 to s1.

Schedule for EV v5:
   [   0,  335) -> It remains parked at station s1.
   [ 335,  405) -> Service a request driving for customer c76 from s1 to s2.
   [ 405,  480) -> It remains parked at station s2.
   [ 480,  570) -> Service a request driving for customer c76 from s2 to s1.
   [ 570,  590) -> It remains parked at station s1.
   [ 590,  670) -> Service a request driving for customer c56 from s1 to s2.
   [ 670,  830) -> It remains parked at station s2.
   [ 830,  915) -> Service a request driving for customer c47 from s2 to s1.
   [ 915, 1035) -> It remains parked at station s1, which was charging for charging.
   [1035, 1100) -> Service a request driving for customer c57 from s1 to s2.
   [1100, 1115) -> It remains parked at station s2.
   [1115, 1220) -> Service a request driving for customer c72 from s2 to s0.
   [1220, 1425) -> It remains parked at station s0, which was charging for charging.

Schedule for EV v6:
   [   0,  450) -> It remains parked at station s1.
   [ 450,  525) -> Service a request driving for customer c33 from s1 to s2.
   [ 525,  625) -> Service a request driving for customer c38 from s2 to s0.
   [ 625,  710) -> It remains parked at station s0.
   [ 710,  746) -> Service a request driving for customer c34 from s0 to s1.
   [ 746, 1090) -> It remains parked at station s1.
   [1090, 1141) -> Service a request driving for customer c76 from s1 to s0.
   [1141, 1155) -> It remains parked at station s0, which was charging for charging.
   [1155, 1191) -> Service a request driving for customer c40 from s0 to s1.
   [1191, 1270) -> It remains parked at station s1, which was charging for charging.
   [1270, 1321) -> Service a request driving for customer c50 from s1 to s0.
   [1321, 1425) -> It remains parked at station s0.

Schedule for EV v7:
   [   0,  330) -> It remains parked at station s1.
   [ 330,  376) -> Service a request driving for customer c51 from s1 to s0.
   [ 376,  435) -> It remains parked at station s0.
   [ 435,  471) -> Service a request driving for customer c7 from s0 to s1.
   [ 471,  525) -> It remains parked at station s1.
   [ 525,  605) -> Service a request driving for customer c52 from s1 to s2.
   [ 605,  980) -> It remains parked at station s2.
   [ 980, 1045) -> Service a request driving for customer c11 from s2 to s1.
   [1045, 1075) -> It remains parked at station s1, which was charging for charging.
   [1075, 1155) -> Service a request driving for customer c18 from s1 to s2.
   [1155, 1210) -> It remains parked at station s2, which was charging for charging.
   [1210, 1290) -> Service a request driving for customer c67 from s2 to s1.
   [1290, 1350) -> It remains parked at station s1, which was charging for charging.
   [1350, 1425) -> Service a request driving for customer c70 from s1 to s2.

Schedule for EV v8:
   [   0,  350) -> It remains parked at station s1.
   [ 350,  401) -> Service a request driving for customer c56 from s1 to s0.
   [ 401,  435) -> It remains parked at station s0.
   [ 435,  540) -> Service a request driving for customer c5 from s0 to s2.
   [ 540,  630) -> Service a request driving for customer c8 from s2 to s1.
   [ 630,  870) -> It remains parked at station s1, which was charging for charging.
   [ 870,  950) -> Service a request driving for customer c69 from s1 to s2.
   [ 950,  975) -> It remains parked at station s2.
   [ 975, 1070) -> Service a request driving for customer c9 from s2 to s0.
   [1070, 1180) -> Service a request driving for customer c13 from s0 to s2.
   [1180, 1425) -> It remains parked at station s2.

Schedule for EV v9:
   [   0,  390) -> It remains parked at station s1.
   [ 390,  451) -> Service a request driving for customer c29 from s1 to s0.
   [ 451,  460) -> It remains parked at station s0, which was charging for charging.
   [ 460,  521) -> Service a request driving for customer c77 from s0 to s1.
   [ 521,  530) -> It remains parked at station s1.
   [ 530,  605) -> Service a request driving for customer c27 from s1 to s2.
   [ 605,  720) -> It remains parked at station s2.
   [ 720,  830) -> Service a request driving for customer c5 from s2 to s0.
   [ 830, 1045) -> It remains parked at station s0, which was charging for charging.
   [1045, 1135) -> Service a request driving for customer c36 from s0 to s2.
   [1135, 1235) -> It remains parked at station s2, which was charging for charging.
   [1235, 1345) -> Service a request driving for customer c33 from s2 to s0.
   [1345, 1425) -> It remains parked at station s0.

Schedule for EV v10:
   [   0,  310) -> It remains parked at station s1.
   [ 310,  371) -> Service a request driving for customer c31 from s1 to s0.
   [ 371,  380) -> It remains parked at station s0, which was charging for charging.
   [ 380,  490) -> Service a request driving for customer c23 from s0 to s2.
   [ 490,  520) -> It remains parked at station s2, which was charging for charging.
   [ 520,  615) -> Service a request driving for customer c34 from s2 to s0.
   [ 615,  630) -> It remains parked at station s0, which was charging for charging.
   [ 630,  691) -> Service a request driving for customer c28 from s0 to s1.
   [ 691, 1000) -> It remains parked at station s1.
   [1000, 1036) -> Service a request driving for customer c61 from s1 to s0.
   [1036, 1040) -> It remains parked at station s0, which was charging for charging.
   [1040, 1096) -> Service a request driving for customer c25 from s0 to s1.
   [1096, 1140) -> It remains parked at station s1, which was charging for charging.
   [1140, 1225) -> Service a request driving for customer c43 from s1 to s2.
   [1225, 1425) -> It remains parked at station s2.

Schedule for EV v11:
   [   0,  480) -> It remains parked at station s1.
   [ 480,  521) -> Service a request driving for customer c28 from s1 to s0.
   [ 521,  525) -> It remains parked at station s0, which was charging for charging.
   [ 525,  635) -> Service a request driving for customer c29 from s0 to s2.
   [ 635, 1080) -> It remains parked at station s2, which was charging for charging.
   [1080, 1155) -> Service a request driving for customer c51 from s2 to s1.
   [1155, 1165) -> It remains parked at station s1, which was charging for charging.
   [1165, 1235) -> Service a request driving for customer c23 from s1 to s2.
   [1235, 1285) -> It remains parked at station s2, which was charging for charging.
   [1285, 1350) -> Service a request driving for customer c36 from s2 to s1.
   [1350, 1425) -> It remains parked at station s1.

Schedule for EV v12:
   [   0,  500) -> It remains parked at station s1.
   [ 500,  575) -> Service a request driving for customer c74 from s1 to s2.
   [ 575,  655) -> It remains parked at station s2.
   [ 655,  740) -> Service a request driving for customer c74 from s2 to s1.
   [ 740, 1050) -> It remains parked at station s1, which was charging for charging.
   [1050, 1111) -> Service a request driving for customer c42 from s1 to s0.
   [1111, 1150) -> It remains parked at station s0.
   [1150, 1265) -> Service a request driving for customer c22 from s0 to s2.
   [1265, 1425) -> It remains parked at station s2.

Schedule for EV v13:
   [   0,  420) -> It remains parked at station s1.
   [ 420,  490) -> Service a request driving for customer c36 from s1 to s2.
   [ 490,  505) -> It remains parked at station s2, which was charging for charging.
   [ 505,  570) -> Service a request driving for customer c63 from s2 to s1.
   [ 570,  575) -> It remains parked at station s1, which was charging for charging.
   [ 575,  626) -> Service a request driving for customer c78 from s1 to s0.
   [ 626,  940) -> It remains parked at station s0, which was charging for charging.
   [ 940, 1050) -> Service a request driving for customer c63 from s0 to s2.
   [1050, 1090) -> It remains parked at station s2.
   [1090, 1155) -> Service a request driving for customer c23 from s2 to s1.
   [1155, 1160) -> It remains parked at station s1, which was charging for charging.
   [1160, 1206) -> Service a request driving for customer c16 from s1 to s0.
   [1206, 1425) -> It remains parked at station s0, which was charging for charging.

Schedule for EV v14:
   [   0,  455) -> It remains parked at station s2.
   [ 455,  545) -> Service a request driving for customer c78 from s2 to s1.
   [ 545,  555) -> It remains parked at station s1, which was charging for charging.
   [ 555,  645) -> Service a request driving for customer c65 from s1 to s2.
   [ 645,  675) -> It remains parked at station s2.
   [ 675,  765) -> Service a request driving for customer c2 from s2 to s1.
   [ 765, 1025) -> It remains parked at station s1, which was charging for charging.
   [1025, 1081) -> Service a request driving for customer c45 from s1 to s0.
   [1081, 1120) -> It remains parked at station s0.
   [1120, 1220) -> Service a request driving for customer c9 from s0 to s2.
   [1220, 1425) -> It remains parked at station s2, which was charging for charging.

Schedule for EV v15:
   [   0,  485) -> It remains parked at station s2.
   [ 485,  575) -> Service a request driving for customer c55 from s2 to s1.
   [ 575,  580) -> It remains parked at station s1, which was charging for charging.
   [ 580,  645) -> Service a request driving for customer c1 from s1 to s2.
   [ 645,  710) -> Service a request driving for customer c53 from s2 to s1.
   [ 710,  730) -> It remains parked at station s1, which was charging for charging.
   [ 730,  776) -> Service a request driving for customer c63 from s1 to s0.
   [ 776,  870) -> It remains parked at station s0, which was charging for charging.
   [ 870,  980) -> Service a request driving for customer c33 from s0 to s2.
   [ 980, 1020) -> It remains parked at station s2, which was charging for charging.
   [1020, 1090) -> Service a request driving for customer c69 from s2 to s1.
   [1090, 1095) -> It remains parked at station s1, which was charging for charging.
   [1095, 1180) -> Service a request driving for customer c55 from s1 to s2.
   [1180, 1195) -> It remains parked at station s2.
   [1195, 1285) -> Service a request driving for customer c44 from s2 to s1.
   [1285, 1425) -> It remains parked at station s1.

Schedule for EV v16:
   [   0,  315) -> It remains parked at station s2.
   [ 315,  425) -> Service a request driving for customer c39 from s2 to s0.
   [ 425,  535) -> It remains parked at station s0.
   [ 535,  650) -> Service a request driving for customer c2 from s0 to s2.
   [ 650,  780) -> It remains parked at station s2.
   [ 780,  875) -> Service a request driving for customer c36 from s2 to s0.
   [ 875, 1040) -> It remains parked at station s0.
   [1040, 1150) -> Service a request driving for customer c24 from s0 to s2.
   [1150, 1245) -> Service a request driving for customer c27 from s2 to s0.
   [1245, 1425) -> It remains parked at station s0.

Schedule for EV v17:
   [   0,  500) -> It remains parked at station s2.
   [ 500,  615) -> Service a request driving for customer c18 from s2 to s0.
   [ 615,  715) -> It remains parked at station s0, which was charging for charging.
   [ 715,  815) -> Service a request driving for customer c39 from s0 to s2.
   [ 815,  895) -> It remains parked at station s2.
   [ 895,  970) -> Service a request driving for customer c66 from s2 to s1.
   [ 970, 1035) -> It remains parked at station s1, which was charging for charging.
   [1035, 1086) -> Service a request driving for customer c77 from s1 to s0.
   [1086, 1120) -> It remains parked at station s0.
   [1120, 1235) -> Service a request driving for customer c61 from s0 to s2.
   [1235, 1425) -> It remains parked at station s2.

Schedule for EV v18:
   [   0,  325) -> It remains parked at station s2.
   [ 325,  390) -> Service a request driving for customer c20 from s2 to s1.
   [ 390,  425) -> It remains parked at station s1.
   [ 425,  500) -> Service a request driving for customer c34 from s1 to s2.
   [ 500,  535) -> It remains parked at station s2.
   [ 535,  645) -> Service a request driving for customer c33 from s2 to s0.
   [ 645,  970) -> It remains parked at station s0, which was charging for charging.
   [ 970, 1006) -> Service a request driving for customer c18 from s0 to s1.
   [1006, 1075) -> It remains parked at station s1.
   [1075, 1140) -> Service a request driving for customer c28 from s1 to s2.
   [1140, 1145) -> It remains parked at station s2.
   [1145, 1250) -> Service a request driving for customer c52 from s2 to s0.
   [1250, 1300) -> It remains parked at station s0, which was charging for charging.
   [1300, 1400) -> Service a request driving for customer c27 from s0 to s2.
   [1400, 1425) -> It remains parked at station s2, which was charging for charging.

Set of satisfied customers
   {c1, c2, c5, c6, c7, c8, c9, c11, c13, c16, c18, c20, c22, c23, c24, c25, c26, c27, c28, c29, c31, c33, c34, c36, c38, c39, c40, c42, c43, c44, c45, c47, c50, c51, c52, c53, c55, c56, c57, c61, c63, c65, c66, c67, c69, c70, c72, c74, c76, c77, c78}

