Academic license - for non-commercial use only
Gurobi Optimizer version 9.0.3 build v9.0.3rc0 (linux64)
Optimize a model with 79169 rows, 54117 columns and 503751 nonzeros
Model fingerprint: 0xb8eba0bd
Variable types: 27873 continuous, 26244 integer (26244 binary)
Coefficient statistics:
  Matrix range     [1e+00, 3e+06]
  Objective range  [5e+01, 4e+02]
  Bounds range     [1e+00, 2e+06]
  RHS range        [1e+00, 2e+06]

Loaded user MIP start with objective 6549

Presolve removed 5221 rows and 3847 columns
Presolve time: 1.49s
Presolved: 73948 rows, 50270 columns, 469915 nonzeros
Variable types: 0 continuous, 50270 integer (43712 binary)

Root simplex log...

Iteration    Objective       Primal Inf.    Dual Inf.      Time
   16428    1.7718984e+04   6.142686e+04   0.000000e+00      5s
   21233    1.7718980e+04   1.715719e+05   0.000000e+00     10s
   25263    1.7718976e+04   1.231242e+05   0.000000e+00     15s
   27743    1.7718973e+04   6.064008e+04   0.000000e+00     20s
   30068    1.7718971e+04   3.459713e+04   0.000000e+00     25s
   32238    1.7718969e+04   1.012574e+05   0.000000e+00     30s
   34098    1.7718969e+04   1.139636e+05   0.000000e+00     35s
   35803    1.7718968e+04   3.112842e+04   0.000000e+00     40s
   37198    1.7718968e+04   1.033962e+05   0.000000e+00     45s
   38748    1.7718967e+04   4.849150e+04   0.000000e+00     50s
   40143    1.7718967e+04   7.671020e+04   0.000000e+00     55s
   41383    1.7718966e+04   9.646055e+04   0.000000e+00     60s
   42778    1.7718966e+04   4.159323e+04   0.000000e+00     65s
   44018    1.7718966e+04   4.122920e+05   0.000000e+00     70s
   45253    1.7718966e+04   5.806864e+04   0.000000e+00     75s
   46493    1.7718965e+04   8.324342e+04   0.000000e+00     80s
   47578    1.7718965e+04   4.639678e+04   0.000000e+00     85s
   48813    1.7718965e+04   1.365614e+06   0.000000e+00     90s
   49898    1.7718964e+04   6.517020e+04   0.000000e+00     95s
   50978    1.7718964e+04   8.683610e+04   0.000000e+00    100s
   52218    1.7718964e+04   2.468985e+04   0.000000e+00    106s
   53298    1.7718964e+04   4.798191e+04   0.000000e+00    110s
   54358    1.7718964e+04   1.601751e+05   0.000000e+00    115s
   55423    1.7718963e+04   4.277421e+06   0.000000e+00    120s
   56493    1.7718963e+04   8.959086e+05   0.000000e+00    125s
   57563    1.7718963e+04   9.348171e+05   0.000000e+00    130s
   58783    1.7718963e+04   8.434251e+04   0.000000e+00    136s
   59858    1.7718962e+04   5.413583e+04   0.000000e+00    141s
   60773    1.7718962e+04   3.081768e+05   0.000000e+00    145s
   61828    1.7718962e+04   3.358896e+04   0.000000e+00    150s
Warning: Markowitz tolerance tightened to 0.03125
   62903    1.7718962e+04   1.556262e+05   0.000000e+00    155s
   63963    1.7718962e+04   6.769743e+04   0.000000e+00    161s
   65013    1.7718961e+04   2.245655e+04   0.000000e+00    166s
   65893    1.7718961e+04   8.758205e+04   0.000000e+00    170s
   66938    1.7718961e+04   4.120974e+04   0.000000e+00    175s
   67983    1.7718961e+04   7.482674e+04   0.000000e+00    181s
   68878    1.7718961e+04   1.536317e+05   0.000000e+00    185s
   69923    1.7718960e+04   1.405472e+05   0.000000e+00    191s
   70783    1.7718960e+04   2.496987e+04   0.000000e+00    195s
   71818    1.7718960e+04   8.963626e+04   0.000000e+00    200s
   72818    1.7718960e+04   4.949894e+04   0.000000e+00    206s
   73878    1.7718960e+04   1.584053e+04   0.000000e+00    211s
   74753    1.7718959e+04   2.022767e+04   0.000000e+00    215s
   75808    1.7718959e+04   5.963524e+04   0.000000e+00    221s
   76848    1.7718959e+04   2.654081e+04   0.000000e+00    226s
   77753    1.7718959e+04   8.878462e+04   0.000000e+00    230s
   78783    1.7718959e+04   4.136661e+04   0.000000e+00    235s
   79828    1.7718958e+04   3.771879e+05   0.000000e+00    240s
   80828    1.7718958e+04   3.963933e+04   0.000000e+00    245s
   81693    1.7718958e+04   5.385930e+04   0.000000e+00    250s
   82718    1.7718958e+04   6.096615e+04   0.000000e+00    255s
   83728    1.7718958e+04   4.129975e+04   0.000000e+00    260s
   84793    1.7718958e+04   1.187157e+05   0.000000e+00    266s
   85693    1.7718957e+04   6.957581e+04   0.000000e+00    270s
   86523    1.7718957e+04   1.431213e+04   0.000000e+00    275s
   87483    1.7718957e+04   1.766857e+06   0.000000e+00    280s
   88363    1.7718957e+04   2.266778e+04   0.000000e+00    285s
   89223    1.7718957e+04   3.993428e+04   0.000000e+00    290s
   90103    1.7718957e+04   4.770497e+04   0.000000e+00    295s
   91108    1.7718956e+04   1.210483e+05   0.000000e+00    301s
   91958    1.7718956e+04   2.246274e+06   0.000000e+00    306s
   92728    1.7718956e+04   9.234904e+04   0.000000e+00    310s
   93638    1.7718956e+04   1.893091e+06   0.000000e+00    315s
   94458    1.7718956e+04   6.124287e+04   0.000000e+00    320s
   95298    1.7718956e+04   9.852071e+04   0.000000e+00    325s
   96158    1.7718956e+04   1.097369e+05   0.000000e+00    330s
   97038    1.7718955e+04   3.150453e+05   0.000000e+00    335s
   98018    1.7718955e+04   1.193421e+04   0.000000e+00    341s
   98738    1.7718955e+04   7.691109e+03   0.000000e+00    345s
   99578    1.7718955e+04   7.392574e+04   0.000000e+00    350s
  100518    1.7718955e+04   6.392020e+04   0.000000e+00    356s
  101283    1.7718955e+04   1.164640e+05   0.000000e+00    360s
  102163    1.7718955e+04   1.777049e+05   0.000000e+00    366s
  103003    1.7718955e+04   1.957871e+04   0.000000e+00    371s
  103853    1.7718954e+04   2.413160e+05   0.000000e+00    376s
  104683    1.7718954e+04   2.947310e+05   0.000000e+00    381s
  105443    1.7718954e+04   4.687327e+04   0.000000e+00    385s
  106328    1.7718954e+04   4.523277e+04   0.000000e+00    391s
  107063    1.7718954e+04   2.422638e+04   0.000000e+00    395s
  107948    1.7718954e+04   1.964116e+04   0.000000e+00    400s
  108823    1.7718954e+04   2.554544e+04   0.000000e+00    405s
  109688    1.7718954e+04   6.581768e+04   0.000000e+00    410s
  110448    1.7718953e+04   1.798451e+05   0.000000e+00    415s
  111363    1.7718953e+04   3.574502e+04   0.000000e+00    421s
  112098    1.7718953e+04   6.111190e+04   0.000000e+00    425s
  113023    1.7718953e+04   1.478533e+05   0.000000e+00    431s
  113798    1.7718953e+04   8.227047e+05   0.000000e+00    435s
  114723    1.7718953e+04   8.419580e+04   0.000000e+00    441s
  115473    1.7718953e+04   2.416501e+05   0.000000e+00    445s
  116378    1.7718952e+04   1.521316e+04   0.000000e+00    450s
  117293    1.7718952e+04   1.595268e+06   0.000000e+00    456s
  118053    1.7718952e+04   2.068209e+05   0.000000e+00    460s
  118963    1.7718952e+04   8.822970e+04   0.000000e+00    466s
  119693    1.7718952e+04   8.783675e+05   0.000000e+00    470s
  120593    1.7718952e+04   1.286788e+05   0.000000e+00    476s
  121358    1.7718952e+04   1.106885e+05   0.000000e+00    480s
  122218    1.7718951e+04   1.531933e+04   0.000000e+00    486s
  122968    1.7718951e+04   1.825244e+05   0.000000e+00    490s
  123743    1.7718951e+04   5.199246e+04   0.000000e+00    495s
  124518    1.7718951e+04   4.671802e+04   0.000000e+00    500s
  125448    1.7718951e+04   8.295668e+03   0.000000e+00    506s
  126218    1.7718951e+04   3.823782e+04   0.000000e+00    511s
  126978    1.7718951e+04   3.244440e+04   0.000000e+00    515s
  127748    1.7718950e+04   2.922077e+04   0.000000e+00    520s
  128608    1.7718950e+04   1.549275e+04   0.000000e+00    526s
  129353    1.7718950e+04   1.528041e+05   0.000000e+00    530s
  130233    1.7718950e+04   5.364386e+03   0.000000e+00    536s
  130923    1.7718950e+04   3.564396e+04   0.000000e+00    540s
  131753    1.7718950e+04   8.617569e+03   0.000000e+00    545s
  132508    1.7718950e+04   2.428875e+04   0.000000e+00    550s
  133318    1.7718950e+04   1.074187e+05   0.000000e+00    555s
  134108    1.7718950e+04   2.288822e+05   0.000000e+00    560s
  134948    1.7718950e+04   2.699372e+05   0.000000e+00    566s
  135718    1.7718950e+04   1.768270e+04   0.000000e+00    571s
  136468    1.7718949e+04   8.946435e+05   0.000000e+00    576s
  137193    1.7718949e+04   9.470618e+03   0.000000e+00    581s
  137953    1.7718949e+04   1.851184e+05   0.000000e+00    585s
  138728    1.7718949e+04   4.531414e+04   0.000000e+00    591s
  139473    1.7718949e+04   8.802669e+04   0.000000e+00    596s
  140153    1.7718949e+04   6.735912e+04   0.000000e+00    600s
  140898    1.7718949e+04   1.888789e+04   0.000000e+00    605s
  141708    1.7718949e+04   1.074941e+05   0.000000e+00    611s
  142533    1.7718949e+04   1.502137e+04   0.000000e+00    616s
  143213    1.7718948e+04   8.290555e+04   0.000000e+00    620s
  143933    1.7718948e+04   1.570797e+04   0.000000e+00    625s
  144723    1.7718948e+04   2.269794e+04   0.000000e+00    631s
  145463    1.7718948e+04   2.621736e+04   0.000000e+00    635s
  146188    1.7718948e+04   2.341309e+04   0.000000e+00    640s
  146888    1.7718948e+04   5.110108e+04   0.000000e+00    645s
  147713    1.7718948e+04   1.484646e+04   0.000000e+00    651s
  148393    1.7718948e+04   1.828354e+04   0.000000e+00    656s
  149098    1.7718948e+04   5.567812e+05   0.000000e+00    660s
  149863    1.7718948e+04   1.605568e+05   0.000000e+00    665s
  150588    1.7718948e+04   6.637259e+04   0.000000e+00    670s
  151433    1.7718947e+04   3.361763e+04   0.000000e+00    676s
  152138    1.7718947e+04   6.118593e+05   0.000000e+00    681s
  152828    1.7718947e+04   1.831481e+05   0.000000e+00    685s
  153518    1.7718947e+04   2.414754e+04   0.000000e+00    690s
  154233    1.7718947e+04   4.515813e+04   0.000000e+00    695s
  155093    1.7718947e+04   2.344553e+04   0.000000e+00    701s
  155708    1.7718947e+04   1.654280e+05   0.000000e+00    705s
  156483    1.7718947e+04   8.327243e+04   0.000000e+00    711s
  157103    1.7718947e+04   4.532173e+04   0.000000e+00    715s
  157833    1.7718947e+04   2.126860e+04   0.000000e+00    720s
  158548    1.7718946e+04   1.281378e+04   0.000000e+00    725s
  159313    1.7718946e+04   1.055833e+05   0.000000e+00    731s
  159928    1.7718946e+04   1.052736e+05   0.000000e+00    735s
  160678    1.7718946e+04   1.075485e+05   0.000000e+00    740s
  161368    1.7718946e+04   7.297931e+04   0.000000e+00    745s
  162068    1.7718946e+04   4.168363e+04   0.000000e+00    750s
  162788    1.7718946e+04   1.117996e+05   0.000000e+00    755s
  163488    1.7718946e+04   2.453549e+04   0.000000e+00    760s
  164213    1.7718946e+04   2.014873e+04   0.000000e+00    765s
  164948    1.7718946e+04   5.640983e+04   0.000000e+00    770s
  165718    1.7718946e+04   1.925881e+04   0.000000e+00    776s
  166408    1.7718946e+04   1.312234e+04   0.000000e+00    780s
  167178    1.7718945e+04   1.549959e+06   0.000000e+00    786s
  167808    1.7718945e+04   8.683727e+04   0.000000e+00    790s
  168658    1.7718945e+04   3.527901e+05   0.000000e+00    796s
  169348    1.7718945e+04   9.215389e+04   0.000000e+00    801s
  170028    1.7718944e+04   5.229774e+04   0.000000e+00    806s
  170818    1.7718944e+04   1.316066e+05   0.000000e+00    811s
  171468    1.7718944e+04   4.621273e+04   0.000000e+00    815s
  172108    1.7718944e+04   3.624821e+04   0.000000e+00    820s
  172943    1.7718944e+04   3.283052e+04   0.000000e+00    826s
  173643    1.7718944e+04   3.482730e+04   0.000000e+00    831s
  174323    1.7718944e+04   1.244331e+04   0.000000e+00    835s
  175058    1.7718943e+04   1.443499e+05   0.000000e+00    841s
  175798    1.7718943e+04   1.008920e+04   0.000000e+00    846s
  176593    1.7718943e+04   8.403999e+05   0.000000e+00    851s
  177283    1.7718943e+04   1.922914e+05   0.000000e+00    856s
  177953    1.7718943e+04   1.611098e+04   0.000000e+00    860s
  178743    1.7718943e+04   2.199542e+04   0.000000e+00    866s
  179423    1.7718943e+04   3.844641e+04   0.000000e+00    870s
  180193    1.7718943e+04   5.202254e+04   0.000000e+00    876s
  180903    1.7718943e+04   3.516066e+04   0.000000e+00    880s
  181703    1.7718943e+04   1.026941e+05   0.000000e+00    886s
  182413    1.7718942e+04   3.332223e+04   0.000000e+00    891s
  183093    1.7718942e+04   8.531809e+04   0.000000e+00    896s
  183853    1.7718942e+04   1.361235e+05   0.000000e+00    901s
  184493    1.7718942e+04   6.754199e+03   0.000000e+00    905s
  185253    1.7718942e+04   1.494651e+04   0.000000e+00    911s
  185903    1.7718942e+04   6.222915e+04   0.000000e+00    915s
  186673    1.7718942e+04   3.989710e+04   0.000000e+00    921s
  187323    1.7718942e+04   5.108093e+04   0.000000e+00    925s
  187993    1.7718942e+04   1.332576e+05   0.000000e+00    930s
  188793    1.7718942e+04   2.609261e+04   0.000000e+00    936s
  189493    1.7718941e+04   5.149277e+05   0.000000e+00    941s
  190193    1.7718941e+04   8.793571e+04   0.000000e+00    946s
  190883    1.7718941e+04   1.328884e+05   0.000000e+00    951s
  191563    1.7718941e+04   1.178038e+05   0.000000e+00    956s
  192223    1.7718941e+04   4.419072e+04   0.000000e+00    960s
  192933    1.7718941e+04   8.184506e+04   0.000000e+00    966s
  193573    1.7718940e+04   2.396455e+05   0.000000e+00    970s
  194283    1.7718940e+04   3.546809e+04   0.000000e+00    976s
  194923    1.7718940e+04   1.270804e+05   0.000000e+00    980s
  195553    1.7718940e+04   3.168999e+04   0.000000e+00    985s
  196223    1.7718940e+04   3.900021e+04   0.000000e+00    990s
  197013    1.7718940e+04   1.538550e+05   0.000000e+00    996s
  197643    1.7718940e+04   1.800435e+04   0.000000e+00   1000s
  198313    1.7718940e+04   2.766975e+04   0.000000e+00   1005s
  199043    1.7718938e+04   1.790846e+06   0.000000e+00   1011s
  199653    1.7718937e+04   1.624385e+06   0.000000e+00   1016s
  200273    1.7513943e+04   1.044856e+05   0.000000e+00   1021s
  200913    1.7513942e+04   1.028027e+06   0.000000e+00   1025s
  201583    1.7513942e+04   5.969173e+04   0.000000e+00   1030s
  202353    1.7513942e+04   2.187680e+05   0.000000e+00   1036s
  203003    1.7513941e+04   4.079988e+04   0.000000e+00   1041s
  203673    1.7513941e+04   2.528762e+05   0.000000e+00   1045s
  204353    1.7513941e+04   1.513768e+05   0.000000e+00   1050s
  205063    1.7513940e+04   5.387438e+04   0.000000e+00   1056s
  205763    1.7218946e+04   1.521998e+05   0.000000e+00   1061s
  206423    1.7218946e+04   2.553857e+05   0.000000e+00   1066s
  207063    1.7218946e+04   4.637790e+04   0.000000e+00   1070s
  207783    1.7218946e+04   1.431398e+05   0.000000e+00   1076s
  208443    1.7218945e+04   3.720487e+05   0.000000e+00   1081s
  209118    1.7218945e+04   3.424216e+04   0.000000e+00   1086s
  209748    1.7218945e+04   1.629224e+04   0.000000e+00   1090s
  210488    1.7218945e+04   4.642860e+04   0.000000e+00   1096s
  211148    1.7218945e+04   2.563815e+04   0.000000e+00   1100s
  211778    1.7218945e+04   6.595504e+04   0.000000e+00   1105s
  212538    1.7218945e+04   2.232922e+04   0.000000e+00   1111s
  213138    1.7218944e+04   3.946689e+04   0.000000e+00   1115s
  213708    1.7218944e+04   4.992681e+04   0.000000e+00   1120s
  214338    1.7218944e+04   1.546857e+05   0.000000e+00   1125s
  214998    1.7218943e+04   5.094597e+06   0.000000e+00   1130s
  215608    1.7218943e+04   1.645377e+04   0.000000e+00   1135s
  216338    1.7218943e+04   7.518814e+04   0.000000e+00   1141s
  216938    1.7218943e+04   1.345606e+05   0.000000e+00   1145s
  217688    1.7218943e+04   3.747266e+04   0.000000e+00   1151s
  218228    1.7218942e+04   9.091130e+03   0.000000e+00   1155s
  218983    1.7218942e+04   1.556485e+04   0.000000e+00   1161s
  219643    1.7218942e+04   5.387710e+04   0.000000e+00   1166s
  220233    1.7218942e+04   1.875571e+04   0.000000e+00   1170s
  220943    1.7218942e+04   4.827373e+04   0.000000e+00   1176s
  221473    1.7218942e+04   9.334239e+05   0.000000e+00   1181s
  221983    1.7218941e+04   1.808424e+07   0.000000e+00   1185s
  222493    1.7218940e+04   2.281996e+07   0.000000e+00   1191s
  223053    1.7218940e+04   2.039907e+06   0.000000e+00   1196s
  223563    1.7218939e+04   3.432756e+06   0.000000e+00   1201s
  224033    1.7218938e+04   1.486819e+07   0.000000e+00   1206s
  224503    1.7218938e+04   1.058438e+07   0.000000e+00   1211s
  225043    1.7218937e+04   1.001852e+07   0.000000e+00   1216s
  225433    1.7218935e+04   1.778191e+07   0.000000e+00   1220s
  225903    1.6111951e+04   7.823274e+06   0.000000e+00   1225s
  226473    1.6111950e+04   3.279298e+07   0.000000e+00   1231s
  226873    1.6111949e+04   3.658692e+07   0.000000e+00   1236s
  227353    1.6111948e+04   1.326390e+07   0.000000e+00   1241s
  227863    1.6111947e+04   2.937565e+07   0.000000e+00   1246s
  228293    1.6111946e+04   3.212844e+07   0.000000e+00   1251s
  228753    1.6111945e+04   1.228148e+06   0.000000e+00   1256s
Warning: Markowitz tolerance tightened to 0.0625
  229173    1.6111945e+04   2.403134e+06   0.000000e+00   1261s
  229633    1.6111944e+04   6.431306e+06   0.000000e+00   1266s
  230003    1.6111944e+04   3.247391e+06   0.000000e+00   1270s
  230453    1.6111943e+04   4.491182e+07   0.000000e+00   1275s
  230893    1.6111943e+04   4.360618e+07   0.000000e+00   1280s
  231303    1.6111942e+04   1.099761e+06   0.000000e+00   1285s
  231803    1.6111942e+04   3.851287e+06   0.000000e+00   1291s
  232233    1.6111941e+04   6.008661e+06   0.000000e+00   1296s
  232623    1.6111941e+04   1.188327e+07   0.000000e+00   1301s
  233023    1.6111941e+04   1.014370e+07   0.000000e+00   1305s
  233453    1.6111940e+04   6.546530e+06   0.000000e+00   1310s
  233923    1.6111940e+04   1.579264e+07   0.000000e+00   1316s
  234353    1.6111938e+04   4.102755e+06   0.000000e+00   1321s
  234868    1.5625943e+04   1.808481e+06   0.000000e+00   1327s
  235163    1.5625943e+04   9.192721e+05   0.000000e+00   1330s
  235583    1.5625942e+04   3.280878e+06   0.000000e+00   1335s
  236063    1.5625942e+04   4.697955e+06   0.000000e+00   1341s
  236443    1.5625942e+04   1.624530e+06   0.000000e+00   1346s
  236823    1.5625941e+04   1.164166e+06   0.000000e+00   1350s
  237233    1.5625941e+04   1.956904e+06   0.000000e+00   1355s
  237633    1.5625941e+04   6.434588e+06   0.000000e+00   1360s
  238023    1.5625940e+04   9.836472e+05   0.000000e+00   1365s
  238473    1.5625940e+04   1.153156e+07   0.000000e+00   1371s
  238863    1.5417941e+04   4.339792e+06   0.000000e+00   1375s
  239263    1.5417940e+04   5.201388e+06   0.000000e+00   1380s
  239733    1.5417940e+04   2.198702e+05   0.000000e+00   1386s
  240123    1.5417939e+04   1.204404e+07   0.000000e+00   1391s
  240533    1.5417939e+04   1.608378e+06   0.000000e+00   1396s
  240923    1.5417939e+04   1.233683e+06   0.000000e+00   1401s
  241343    1.5417938e+04   4.486935e+06   0.000000e+00   1406s
  241723    1.5417938e+04   1.497354e+06   0.000000e+00   1411s
  242123    1.5417938e+04   8.926039e+06   0.000000e+00   1416s
  242433    1.5417937e+04   1.600669e+06   0.000000e+00   1420s
  242833    1.5417937e+04   1.339975e+06   0.000000e+00   1425s
  243213    1.5417937e+04   1.507059e+07   0.000000e+00   1430s
  243593    1.5417936e+04   5.278168e+06   0.000000e+00   1435s
  244063    1.5417936e+04   4.396762e+06   0.000000e+00   1441s
  244423    1.5417935e+04   1.947602e+06   0.000000e+00   1446s
  244793    1.5417935e+04   7.476258e+07   0.000000e+00   1450s
  245243    1.5417935e+04   9.985459e+06   0.000000e+00   1456s
  245603    1.5417934e+04   3.666072e+06   0.000000e+00   1460s
  246093    1.5417934e+04   1.758758e+07   0.000000e+00   1466s
  246403    1.5417933e+04   3.080853e+06   0.000000e+00   1470s
  246893    1.5417933e+04   1.061270e+06   0.000000e+00   1476s
  247273    1.5417933e+04   1.616664e+06   0.000000e+00   1481s
  247668    1.5417932e+04   3.561635e+06   0.000000e+00   1486s
  248083    1.5417932e+04   2.265429e+06   0.000000e+00   1491s
  248503    1.5417932e+04   5.019191e+07   0.000000e+00   1496s
  248903    1.5417931e+04   7.548177e+05   0.000000e+00   1501s
  249293    1.5417931e+04   1.675470e+07   0.000000e+00   1506s
  249653    1.5417931e+04   1.030471e+06   0.000000e+00   1511s
  250013    1.5417930e+04   4.940839e+06   0.000000e+00   1515s
  250483    1.5417930e+04   2.225734e+06   0.000000e+00   1521s
  250803    1.5417929e+04   1.366632e+06   0.000000e+00   1525s
  251193    1.5417929e+04   9.592564e+06   0.000000e+00   1531s
  251593    1.5417929e+04   1.045362e+07   0.000000e+00   1536s
  251973    1.5417928e+04   9.411251e+07   0.000000e+00   1541s
  252353    1.5417928e+04   4.719538e+06   0.000000e+00   1546s
  252733    1.5417928e+04   8.617427e+06   0.000000e+00   1551s
  253093    1.5417927e+04   1.448931e+07   0.000000e+00   1556s
  253453    1.5417927e+04   8.700975e+05   0.000000e+00   1560s
  253928    1.5417927e+04   3.621555e+06   0.000000e+00   1567s
  254238    1.5417926e+04   2.320254e+07   0.000000e+00   1571s
  254618    1.5417926e+04   1.627160e+06   0.000000e+00   1576s
  254918    1.5417925e+04   2.084751e+06   0.000000e+00   1580s
  255318    1.5417925e+04   3.231102e+06   0.000000e+00   1586s
  255723    1.5417924e+04   7.276411e+06   0.000000e+00   1591s
  256128    1.5417924e+04   4.204483e+06   0.000000e+00   1596s
  256513    1.5417924e+04   1.405407e+06   0.000000e+00   1601s
  256798    1.5417923e+04   6.752260e+06   0.000000e+00   1605s
  257188    1.5417923e+04   6.243147e+07   0.000000e+00   1611s
  257588    1.5417923e+04   1.236751e+06   0.000000e+00   1616s
  257878    1.5417922e+04   5.231500e+06   0.000000e+00   1620s
  258278    1.5417922e+04   2.393779e+06   0.000000e+00   1626s
  258668    1.5417922e+04   8.348616e+05   0.000000e+00   1631s
  258958    1.5417921e+04   1.108552e+07   0.000000e+00   1635s
  259328    1.5417921e+04   3.733770e+06   0.000000e+00   1640s
  259708    1.5417921e+04   6.211495e+06   0.000000e+00   1645s
  260088    1.5417920e+04   6.264895e+06   0.000000e+00   1651s
  260458    1.5417920e+04   4.707318e+06   0.000000e+00   1656s
  260758    1.5417920e+04   1.544848e+06   0.000000e+00   1660s
  261158    1.5417919e+04   4.487878e+06   0.000000e+00   1666s
  261478    1.5417919e+04   3.491283e+07   0.000000e+00   1670s
  261808    1.5417918e+04   8.059539e+06   0.000000e+00   1675s
  262228    1.5417918e+04   3.287783e+06   0.000000e+00   1681s
  262548    1.5417917e+04   2.622266e+06   0.000000e+00   1686s
  262868    1.5417917e+04   3.879321e+06   0.000000e+00   1691s
  263198    1.5417916e+04   9.634658e+06   0.000000e+00   1695s
  263618    1.5417915e+04   2.062098e+08   0.000000e+00   1701s
  263918    1.5417913e+04   6.011564e+06   0.000000e+00   1706s
  264383    1.5417907e+04   8.535067e+06   0.000000e+00   1712s
  264643    1.5417907e+04   1.024967e+07   0.000000e+00   1716s
  265048    1.5417905e+04   1.804349e+06   0.000000e+00   1721s
  265343    1.5417904e+04   4.543665e+08   0.000000e+00   1725s
  265693    1.5417903e+04   8.376177e+06   0.000000e+00   1730s
  266073    1.5417903e+04   8.417800e+06   0.000000e+00   1736s
  266463    1.5417901e+04   1.450829e+08   0.000000e+00   1741s
  266848    1.5417900e+04   3.305514e+07   0.000000e+00   1747s
  267168    1.5417898e+04   2.028725e+07   0.000000e+00   1751s
  267548    1.5417897e+04   5.573253e+07   0.000000e+00   1756s
  267848    1.5417896e+04   1.608027e+07   0.000000e+00   1761s
  268243    1.5417895e+04   1.753625e+07   0.000000e+00   1766s
  268638    1.5417894e+04   3.370227e+06   0.000000e+00   1772s
  268898    1.5417894e+04   2.419377e+07   0.000000e+00   1775s
  269298    1.5417892e+04   1.706509e+07   0.000000e+00   1781s
  269653    1.5354893e+04   9.137878e+06   0.000000e+00   1786s
  270013    1.4822916e+04   3.832749e+06   0.000000e+00   1791s
  270448    1.4822914e+04   1.363270e+08   0.000000e+00   1797s
  270698    1.4822914e+04   2.268545e+07   0.000000e+00   1800s
  271158    1.4822913e+04   7.104028e+06   0.000000e+00   1806s
  271468    1.4763911e+04   3.552363e+09   0.000000e+00   1811s
  271933    1.4763907e+04   6.891375e+06   0.000000e+00   1817s
  272243    1.4763906e+04   3.290138e+07   0.000000e+00   1822s
  272553    1.4763906e+04   1.979030e+06   0.000000e+00   1826s
  272863    1.4763905e+04   1.187712e+07   0.000000e+00   1830s
  273303    1.4763904e+04   1.697779e+07   0.000000e+00   1836s
  273668    1.4763903e+04   7.960690e+05   0.000000e+00   1841s
  273978    1.4763902e+04   8.735723e+06   0.000000e+00   1846s
  274383    1.4763902e+04   1.273527e+07   0.000000e+00   1851s
  274653    1.4763902e+04   6.550869e+06   0.000000e+00   1855s
  275073    1.4763901e+04   2.319015e+07   0.000000e+00   1861s
  275413    1.4763901e+04   7.375723e+06   0.000000e+00   1866s
  275733    1.4763900e+04   3.654634e+07   0.000000e+00   1870s
  276193    1.4763899e+04   3.851872e+06   0.000000e+00   1876s
  276523    1.4763899e+04   5.088432e+06   0.000000e+00   1881s
  276813    1.4763898e+04   6.349555e+06   0.000000e+00   1885s
  277173    1.4763897e+04   1.559570e+08   0.000000e+00   1891s
  277608    1.4763896e+04   1.817022e+06   0.000000e+00   1897s
  277868    1.4763895e+04   3.697693e+06   0.000000e+00   1900s
  278278    1.4763895e+04   1.565723e+06   0.000000e+00   1906s
  278598    1.4763894e+04   1.189896e+07   0.000000e+00   1910s
  279018    1.4763894e+04   4.383898e+06   0.000000e+00   1916s
  279313    1.4763894e+04   5.091612e+07   0.000000e+00   1920s
  279688    1.4763893e+04   2.383022e+06   0.000000e+00   1925s
  280138    1.4763893e+04   3.474838e+06   0.000000e+00   1931s
  280573    1.4763892e+04   1.634538e+07   0.000000e+00   1937s
  280923    1.4763890e+04   4.363601e+06   0.000000e+00   1941s
  281328    1.4763889e+04   5.511594e+06   0.000000e+00   1947s
  281713    1.4763888e+04   3.254011e+06   0.000000e+00   1952s
  282018    1.4763887e+04   1.445852e+08   0.000000e+00   1956s
  282388    1.4603911e+04   1.187529e+06   0.000000e+00   1961s
  282853    1.4416912e+04   6.838140e+06   0.000000e+00   1967s
  283158    1.4416911e+04   6.524186e+07   0.000000e+00   1971s
  283528    1.4416910e+04   1.010733e+08   0.000000e+00   1976s
  283928    1.4416909e+04   6.446984e+06   0.000000e+00   1981s
  284238    1.4416908e+04   2.164296e+07   0.000000e+00   1985s
  284633    1.4416906e+04   2.105514e+07   0.000000e+00   1991s
  285038    1.4416905e+04   4.450144e+06   0.000000e+00   1996s
  285433    1.4416904e+04   1.497733e+07   0.000000e+00   2001s
  285743    1.4416904e+04   2.014735e+06   0.000000e+00   2006s
  286113    1.4272927e+04   6.848875e+06   0.000000e+00   2010s
  286553    1.4272925e+04   9.043673e+06   0.000000e+00   2016s
  286863    1.4199921e+04   9.853521e+06   0.000000e+00   2020s
  287313    1.4094921e+04   2.056495e+06   0.000000e+00   2026s
  287623    1.4094921e+04   1.072584e+07   0.000000e+00   2030s
  288013    1.4094920e+04   1.975723e+07   0.000000e+00   2036s
  288413    1.4094920e+04   2.339667e+06   0.000000e+00   2041s
  288673    1.4094919e+04   2.005060e+06   0.000000e+00   2045s
  289158    1.4094918e+04   1.710190e+07   0.000000e+00   2052s
  289418    1.4037921e+04   2.134295e+06   0.000000e+00   2055s
  289903    1.4037920e+04   5.818553e+06   0.000000e+00   2062s
  290233    1.3989923e+04   2.284536e+06   0.000000e+00   2066s
  290513    1.3989922e+04   3.772166e+06   0.000000e+00   2070s
  290908    1.3989922e+04   4.808202e+06   0.000000e+00   2076s
  291218    1.3989921e+04   5.975806e+06   0.000000e+00   2081s
  291613    1.3989920e+04   4.283953e+06   0.000000e+00   2086s
  291908    1.3989920e+04   8.011062e+06   0.000000e+00   2090s
  292308    1.3989920e+04   1.212111e+07   0.000000e+00   2096s
  292618    1.3989919e+04   9.611430e+06   0.000000e+00   2100s
  292958    1.3989919e+04   4.885880e+06   0.000000e+00   2105s
  293353    1.3989918e+04   1.812006e+06   0.000000e+00   2111s
  293663    1.3989918e+04   3.103186e+06   0.000000e+00   2115s
  294083    1.3932921e+04   2.564443e+06   0.000000e+00   2121s
  294423    1.3932920e+04   6.241918e+06   0.000000e+00   2126s
  294718    1.3932919e+04   1.877721e+06   0.000000e+00   2130s
  295058    1.3932919e+04   1.810903e+06   0.000000e+00   2135s
  295443    1.3932919e+04   2.379671e+07   0.000000e+00   2140s
  295853    1.3932918e+04   1.489964e+07   0.000000e+00   2146s
  296143    1.3932918e+04   9.725076e+06   0.000000e+00   2151s
  296548    1.3932917e+04   2.034949e+06   0.000000e+00   2156s
  296828    1.3932917e+04   2.620591e+07   0.000000e+00   2160s
  297218    1.3921914e+04   4.401508e+06   0.000000e+00   2166s
  297598    1.3921913e+04   4.203519e+06   0.000000e+00   2171s
  297898    1.3873920e+04   5.500210e+06   0.000000e+00   2175s
  298338    1.3873919e+04   1.372131e+06   0.000000e+00   2181s
  298618    1.3873919e+04   5.569874e+06   0.000000e+00   2187s
  298888    1.3873918e+04   1.007275e+07   0.000000e+00   2192s
  299068    1.3873918e+04   6.054465e+07   0.000000e+00   2195s
  299358    1.3873918e+04   7.165385e+06   0.000000e+00   2201s
  299713    1.3873918e+04   1.417349e+06   0.000000e+00   2207s
  300018    1.3873917e+04   3.827203e+06   0.000000e+00   2213s
  300173    1.3873917e+04   4.000774e+07   0.000000e+00   2215s
  300483    1.3873916e+04   7.862718e+06   0.000000e+00   2221s
  300778    1.3873915e+04   9.099772e+06   0.000000e+00   2226s
  301048    1.3873915e+04   2.383034e+07   0.000000e+00   2231s
  301288    1.3873915e+04   3.578804e+06   0.000000e+00   2236s
  301578    1.3873914e+04   1.149528e+06   0.000000e+00   2241s
  301828    1.3873914e+04   3.849420e+06   0.000000e+00   2245s
  302158    1.3873913e+04   7.627269e+06   0.000000e+00   2250s
  302508    1.3873913e+04   2.028906e+06   0.000000e+00   2255s
  302923    1.3873912e+04   3.267948e+06   0.000000e+00   2261s
  303223    1.3873911e+04   1.701954e+07   0.000000e+00   2265s
  303603    1.3873910e+04   4.634776e+07   0.000000e+00   2271s
  303953    1.3873910e+04   6.840399e+05   0.000000e+00   2276s
  304263    1.3873910e+04   1.706462e+06   0.000000e+00   2280s
  304733    1.3873909e+04   3.400739e+06   0.000000e+00   2287s
  305113    1.3873908e+04   2.090438e+07   0.000000e+00   2292s
  305398    1.3873907e+04   3.482347e+06   0.000000e+00   2296s
  305718    1.3873906e+04   4.205629e+07   0.000000e+00   2300s
  306168    1.3873905e+04   1.186057e+07   0.000000e+00   2307s
  306478    1.3873904e+04   1.227518e+09   0.000000e+00   2311s
  306773    1.3873903e+04   4.546135e+07   0.000000e+00   2315s
  307203    1.3799917e+04   6.915005e+07   0.000000e+00   2321s
  307598    1.3759918e+04   4.982256e+08   0.000000e+00   2326s
  307908    1.3759918e+04   1.284617e+07   0.000000e+00   2331s
  308323    1.3759918e+04   1.622690e+07   0.000000e+00   2336s
  308628    1.3759917e+04   2.903071e+06   0.000000e+00   2340s
  309108    1.3759917e+04   5.119773e+06   0.000000e+00   2347s
  309438    1.3759917e+04   4.448594e+06   0.000000e+00   2351s
  309718    1.3759916e+04   2.835270e+06   0.000000e+00   2355s
  310148    1.3759916e+04   3.249194e+06   0.000000e+00   2361s
  310448    1.3759916e+04   2.697852e+06   0.000000e+00   2365s
  310828    1.3759915e+04   6.538100e+06   0.000000e+00   2371s
  311178    1.3759915e+04   2.204946e+06   0.000000e+00   2375s
  311583    1.3759914e+04   6.377949e+06   0.000000e+00   2381s
  312028    1.3759914e+04   1.742061e+07   0.000000e+00   2387s
  312338    1.3716918e+04   2.756203e+06   0.000000e+00   2391s
  312643    1.3702915e+04   1.936915e+06   0.000000e+00   2395s
  313038    1.3702915e+04   6.111843e+06   0.000000e+00   2401s
  313408    1.3702914e+04   3.017636e+06   0.000000e+00   2406s
  313788    1.3702913e+04   4.343082e+07   0.000000e+00   2411s
  314138    1.3702913e+04   4.707918e+06   0.000000e+00   2416s
  314553    1.3702912e+04   9.784101e+06   0.000000e+00   2422s
  314813    1.3702912e+04   3.037848e+07   0.000000e+00   2425s
  315203    1.3702911e+04   5.203114e+06   0.000000e+00   2431s
  315643    1.3702911e+04   1.590400e+07   0.000000e+00   2437s
  315938    1.3702910e+04   4.521577e+06   0.000000e+00   2441s
  316353    1.3702910e+04   5.002043e+05   0.000000e+00   2447s
  316638    1.3667911e+04   1.729090e+06   0.000000e+00   2451s
  317088    1.3667911e+04   1.030181e+06   0.000000e+00   2457s
  317358    1.3667911e+04   1.683497e+06   0.000000e+00   2460s
  317748    1.3667910e+04   1.096276e+06   0.000000e+00   2465s
  318188    1.3667910e+04   4.402855e+06   0.000000e+00   2471s
  318498    1.3667910e+04   1.366125e+06   0.000000e+00   2476s
  318903    1.3667910e+04   4.108425e+06   0.000000e+00   2481s
  319283    1.3667909e+04   9.075985e+06   0.000000e+00   2487s
  319553    1.3667909e+04   1.749814e+06   0.000000e+00   2490s
  319893    1.3667909e+04   4.821342e+06   0.000000e+00   2495s
  320323    1.3667907e+04   1.035216e+06   0.000000e+00   2501s
  320743    1.3667907e+04   1.080572e+06   0.000000e+00   2507s
  321028    1.3667907e+04   1.011925e+06   0.000000e+00   2510s
  321418    1.3667906e+04   8.492600e+06   0.000000e+00   2516s
  321738    1.3667906e+04   1.104687e+06   0.000000e+00   2520s
  322128    1.3667906e+04   1.179010e+07   0.000000e+00   2525s
  322528    1.3667905e+04   2.167130e+07   0.000000e+00   2531s
  322898    1.3667905e+04   2.326366e+06   0.000000e+00   2536s
  323203    1.3667905e+04   1.626847e+06   0.000000e+00   2540s
  323643    1.3667904e+04   6.550585e+06   0.000000e+00   2546s
  323948    1.3667904e+04   4.583434e+06   0.000000e+00   2551s
  324373    1.3667904e+04   1.507246e+07   0.000000e+00   2556s
  324663    1.3667904e+04   1.022992e+06   0.000000e+00   2560s
  325123    1.3667903e+04   2.121427e+06   0.000000e+00   2566s
  325483    1.3667903e+04   2.290832e+07   0.000000e+00   2571s
  325773    1.3667903e+04   1.523453e+06   0.000000e+00   2575s
  326153    1.3667902e+04   2.604135e+06   0.000000e+00   2580s
  326513    1.3667902e+04   6.665429e+06   0.000000e+00   2585s
  326913    1.3667902e+04   1.646499e+06   0.000000e+00   2590s
  327253    1.3667902e+04   4.245155e+06   0.000000e+00   2595s
  327613    1.3667901e+04   6.823572e+06   0.000000e+00   2600s
  327983    1.3667901e+04   1.127454e+07   0.000000e+00   2605s
  328383    1.3667900e+04   8.689478e+05   0.000000e+00   2610s
  328743    1.3667900e+04   4.117139e+06   0.000000e+00   2615s
  329133    1.3667900e+04   2.046149e+06   0.000000e+00   2621s
  329528    1.3667899e+04   1.148139e+07   0.000000e+00   2626s
  329908    1.3667899e+04   1.287773e+06   0.000000e+00   2631s
  330288    1.3667899e+04   1.342359e+06   0.000000e+00   2636s
  330628    1.3667899e+04   6.229169e+06   0.000000e+00   2641s
  330978    1.3667898e+04   1.045982e+06   0.000000e+00   2646s
  331368    1.3667898e+04   7.064827e+06   0.000000e+00   2651s
  331788    1.3667898e+04   2.360885e+06   0.000000e+00   2657s
  332073    1.3667898e+04   2.284243e+06   0.000000e+00   2661s
  332483    1.3667897e+04   5.765396e+05   0.000000e+00   2666s
  332908    1.3667897e+04   1.184365e+06   0.000000e+00   2672s
  333178    1.3667897e+04   1.597925e+06   0.000000e+00   2675s
  333548    1.3667897e+04   5.329491e+05   0.000000e+00   2680s
  333938    1.3667896e+04   4.328028e+06   0.000000e+00   2686s
  334278    1.3667896e+04   6.919207e+05   0.000000e+00   2690s
  334628    1.3667896e+04   6.403298e+06   0.000000e+00   2695s
  335078    1.3667895e+04   2.992987e+06   0.000000e+00   2701s
  335518    1.3667895e+04   9.678101e+06   0.000000e+00   2707s
  335828    1.3667894e+04   2.458911e+06   0.000000e+00   2711s
  336133    1.3667893e+04   2.010291e+07   0.000000e+00   2715s
  336598    1.3667891e+04   9.460971e+05   0.000000e+00   2721s
  337033    1.3667891e+04   1.853591e+07   0.000000e+00   2727s
  337343    1.3667890e+04   8.828150e+05   0.000000e+00   2731s
  337753    1.3667890e+04   4.188932e+06   0.000000e+00   2736s
  338153    1.3667889e+04   5.954758e+06   0.000000e+00   2741s
  338433    1.3574904e+04   1.421949e+07   0.000000e+00   2745s
  338923    1.3574903e+04   4.287282e+06   0.000000e+00   2752s
  339193    1.3574903e+04   1.181311e+06   0.000000e+00   2756s
  339583    1.3574902e+04   7.585984e+06   0.000000e+00   2761s
  340008    1.3574902e+04   4.810662e+06   0.000000e+00   2767s
  340293    1.3574902e+04   1.659854e+06   0.000000e+00   2771s
  340653    1.3574901e+04   9.092026e+06   0.000000e+00   2776s
  341023    1.3574901e+04   4.288409e+07   0.000000e+00   2781s
  341353    1.3574900e+04   8.988481e+05   0.000000e+00   2785s
  341823    1.3572896e+04   2.732558e+06   0.000000e+00   2792s
  342133    1.3572896e+04   6.685578e+06   0.000000e+00   2796s
  342553    1.3572896e+04   7.249156e+05   0.000000e+00   2802s
  342863    1.3572895e+04   9.664101e+05   0.000000e+00   2806s
  343173    1.3572895e+04   3.528797e+06   0.000000e+00   2810s
  343638    1.3572894e+04   1.375097e+06   0.000000e+00   2817s
  343948    1.3572894e+04   7.406942e+06   0.000000e+00   2821s
  344393    1.3572894e+04   3.542864e+06   0.000000e+00   2827s
  344703    1.3572893e+04   1.250790e+06   0.000000e+00   2831s
  345013    1.3572893e+04   3.336016e+06   0.000000e+00   2836s
  345423    1.3572892e+04   1.009382e+06   0.000000e+00   2841s
  345708    1.3572892e+04   4.659219e+07   0.000000e+00   2845s
  346143    1.3572891e+04   2.885188e+06   0.000000e+00   2851s
  346523    1.3572891e+04   7.214560e+06   0.000000e+00   2856s
  346883    1.3572890e+04   6.428156e+06   0.000000e+00   2861s
  347183    1.3572890e+04   2.650660e+06   0.000000e+00   2866s
  347608    1.3572890e+04   3.290674e+06   0.000000e+00   2871s
  347988    1.3572889e+04   1.287166e+06   0.000000e+00   2877s
  348308    1.3572889e+04   1.215315e+06   0.000000e+00   2881s
  348688    1.3572888e+04   4.058355e+06   0.000000e+00   2886s
  349058    1.3572888e+04   1.312943e+07   0.000000e+00   2891s
  349338    1.3572887e+04   3.217303e+07   0.000000e+00   2895s
  349698    1.3572887e+04   4.479621e+06   0.000000e+00   2900s
  350098    1.3572886e+04   1.241060e+06   0.000000e+00   2906s
  350508    1.3572886e+04   4.212573e+06   0.000000e+00   2912s
  350813    1.3572885e+04   2.548513e+06   0.000000e+00   2916s
  351183    1.3572885e+04   4.023982e+07   0.000000e+00   2921s
  351583    1.3572884e+04   6.217154e+06   0.000000e+00   2926s
  351873    1.3572884e+04   1.869426e+07   0.000000e+00   2930s
  352263    1.3572884e+04   3.757982e+06   0.000000e+00   2936s
  352573    1.3572883e+04   1.614707e+07   0.000000e+00   2940s
  352998    1.3572883e+04   1.225932e+07   0.000000e+00   2946s
  353298    1.3572882e+04   1.643072e+06   0.000000e+00   2951s
  353628    1.3572882e+04   6.462910e+07   0.000000e+00   2955s
  354073    1.3572881e+04   9.790751e+06   0.000000e+00   2962s
  354313    1.3572881e+04   3.188451e+06   0.000000e+00   2965s
  354723    1.3572881e+04   2.708839e+06   0.000000e+00   2971s
  355163    1.3572881e+04   2.271869e+06   0.000000e+00   2977s
  355473    1.3572880e+04   2.608687e+07   0.000000e+00   2981s
  355768    1.3572880e+04   2.100056e+06   0.000000e+00   2985s
  356198    1.3572879e+04   1.777591e+06   0.000000e+00   2991s
  356493    1.3572879e+04   1.039503e+06   0.000000e+00   2995s
  356958    1.3572879e+04   1.295649e+06   0.000000e+00   3002s
  357243    1.3572878e+04   1.245598e+07   0.000000e+00   3006s
  357638    1.3572877e+04   1.387152e+08   0.000000e+00   3011s
  358008    1.3572877e+04   1.928133e+06   0.000000e+00   3016s
  358293    1.3572876e+04   1.333323e+07   0.000000e+00   3020s
  358758    1.3572876e+04   4.783763e+06   0.000000e+00   3026s
  359048    1.3572876e+04   4.673220e+06   0.000000e+00   3031s
  359428    1.3538889e+04   1.968004e+07   0.000000e+00   3036s
  359788    1.3538889e+04   4.077482e+06   0.000000e+00   3041s
  360148    1.3538888e+04   3.112000e+06   0.000000e+00   3046s
  360453    1.3538887e+04   2.039255e+06   0.000000e+00   3050s
  360848    1.3538887e+04   4.963422e+07   0.000000e+00   3056s
  361248    1.3538886e+04   1.603910e+07   0.000000e+00   3062s
  361578    1.3538885e+04   5.539957e+06   0.000000e+00   3066s
  361838    1.3538885e+04   1.942980e+07   0.000000e+00   3070s
  362233    1.3538884e+04   1.412113e+06   0.000000e+00   3076s
  362613    1.3538884e+04   4.962163e+05   0.000000e+00   3081s
  362973    1.3538884e+04   1.442567e+06   0.000000e+00   3086s
  363273    1.3538883e+04   3.447997e+07   0.000000e+00   3091s
  363708    1.3538883e+04   3.250518e+06   0.000000e+00   3097s
  363948    1.3538883e+04   1.405139e+06   0.000000e+00   3100s
  364328    1.3538882e+04   7.888771e+06   0.000000e+00   3106s
  364598    1.3538882e+04   7.753000e+05   0.000000e+00   3110s
  365078    1.3538881e+04   1.709050e+07   0.000000e+00   3117s
  365348    1.3538881e+04   4.995936e+06   0.000000e+00   3121s
  365653    1.3538880e+04   5.204382e+06   0.000000e+00   3125s
  366038    1.3538880e+04   1.102788e+07   0.000000e+00   3131s
  366498    1.3538879e+04   7.735057e+06   0.000000e+00   3137s
  366808    1.3538878e+04   8.619477e+05   0.000000e+00   3142s
  367118    1.3538878e+04   1.641563e+07   0.000000e+00   3146s
  367488    1.3538877e+04   1.609782e+07   0.000000e+00   3151s
  367748    1.3538876e+04   1.006134e+07   0.000000e+00   3155s
  368188    1.3538875e+04   1.036470e+06   0.000000e+00   3161s
  368528    1.3538874e+04   4.162051e+06   0.000000e+00   3166s
  368818    1.3538874e+04   1.013159e+07   0.000000e+00   3170s
  369283    1.3538873e+04   3.294690e+06   0.000000e+00   3177s
  369578    1.3538873e+04   8.783271e+05   0.000000e+00   3181s
  369958    1.3538873e+04   3.684315e+07   0.000000e+00   3186s
  370318    1.3522881e+04   2.877748e+07   0.000000e+00   3192s
  370568    1.3522878e+04   7.671377e+06   0.000000e+00   3195s
  370998    1.3522877e+04   1.169033e+07   0.000000e+00   3202s
  371278    1.3522877e+04   4.271455e+06   0.000000e+00   3206s
  371578    1.3522877e+04   1.418827e+06   0.000000e+00   3211s
  372003    1.3522876e+04   7.340898e+06   0.000000e+00   3217s
  372313    1.3522876e+04   2.391510e+06   0.000000e+00   3221s
  372623    1.3522875e+04   8.002157e+05   0.000000e+00   3226s
  373048    1.3522875e+04   1.648148e+06   0.000000e+00   3232s
  373288    1.3522875e+04   1.042368e+06   0.000000e+00   3235s
  373658    1.3522874e+04   4.735010e+06   0.000000e+00   3241s
  373963    1.3522874e+04   8.549150e+06   0.000000e+00   3245s
  374373    1.3522874e+04   6.859639e+06   0.000000e+00   3251s
  374668    1.3522873e+04   1.936885e+06   0.000000e+00   3255s
  375098    1.3522873e+04   1.002359e+06   0.000000e+00   3261s
  375398    1.3522872e+04   8.199100e+05   0.000000e+00   3266s
  375728    1.3522872e+04   1.001663e+07   0.000000e+00   3271s
  376033    1.3522872e+04   1.342261e+07   0.000000e+00   3275s
  376498    1.3522871e+04   1.883805e+06   0.000000e+00   3282s
  376808    1.3522871e+04   1.250175e+07   0.000000e+00   3286s
  377118    1.3522870e+04   1.181794e+07   0.000000e+00   3291s
  377488    1.3522870e+04   9.222678e+05   0.000000e+00   3296s
  377793    1.3522870e+04   1.227503e+07   0.000000e+00   3300s
  378218    1.3522869e+04   6.589927e+06   0.000000e+00   3306s
  378523    1.3522869e+04   6.856481e+06   0.000000e+00   3311s
  378808    1.3522868e+04   2.172770e+07   0.000000e+00   3315s
  379248    1.3522868e+04   3.319878e+06   0.000000e+00   3321s
  379508    1.3522867e+04   1.119069e+07   0.000000e+00   3325s
  379898    1.3522867e+04   2.575939e+07   0.000000e+00   3331s
  380258    1.3522867e+04   1.897252e+07   0.000000e+00   3336s
  380618    1.3522866e+04   2.264626e+06   0.000000e+00   3341s
  380898    1.3522866e+04   5.688766e+05   0.000000e+00   3345s
  381303    1.3522866e+04   1.770307e+06   0.000000e+00   3351s
  381608    1.3522865e+04   1.641227e+06   0.000000e+00   3355s
  381958    1.3522865e+04   3.722908e+06   0.000000e+00   3360s
  382398    1.3522865e+04   1.122912e+06   0.000000e+00   3367s
  382628    1.3522864e+04   1.400848e+06   0.000000e+00   3370s
  383043    1.3522864e+04   1.112247e+06   0.000000e+00   3376s
  383383    1.3522864e+04   1.615068e+07   0.000000e+00   3381s
  383758    1.3522863e+04   2.142244e+06   0.000000e+00   3386s
  384068    1.3522863e+04   6.887156e+06   0.000000e+00   3391s
  384378    1.3522863e+04   1.978217e+06   0.000000e+00   3395s
  384748    1.3515355e+04   4.398518e+06   0.000000e+00   3400s
  385118    1.3515355e+04   1.406718e+06   0.000000e+00   3405s
  385578    1.3515354e+04   1.571494e+06   0.000000e+00   3412s
  385848    1.3498866e+04   2.253704e+06   0.000000e+00   3416s
  386248    1.3498866e+04   3.074009e+06   0.000000e+00   3421s
  386508    1.3498866e+04   5.331160e+05   0.000000e+00   3425s
  386898    1.3498865e+04   1.456731e+06   0.000000e+00   3431s
  387198    1.3498865e+04   6.072939e+05   0.000000e+00   3435s
  387578    1.3498864e+04   9.988972e+05   0.000000e+00   3441s
  387928    1.3498863e+04   1.064850e+06   0.000000e+00   3446s
  388318    1.3498863e+04   1.809114e+06   0.000000e+00   3451s
  388708    1.3498862e+04   1.991208e+07   0.000000e+00   3457s
  388958    1.3498862e+04   7.376451e+07   0.000000e+00   3460s
  389408    1.3498860e+04   1.643816e+07   0.000000e+00   3467s
  389688    1.3498860e+04   1.269903e+06   0.000000e+00   3471s
  390018    1.3498859e+04   2.018246e+07   0.000000e+00   3476s
  390388    1.3498859e+04   7.334625e+06   0.000000e+00   3481s
  390658    1.3498858e+04   3.787011e+06   0.000000e+00   3485s
  391098    1.3498858e+04   7.220688e+06   0.000000e+00   3491s
  391408    1.3498857e+04   2.557471e+06   0.000000e+00   3496s
  391778    1.3498857e+04   1.817583e+07   0.000000e+00   3501s
  392118    1.3498857e+04   1.087861e+06   0.000000e+00   3506s
  392458    1.3498856e+04   8.618534e+06   0.000000e+00   3511s
  392753    1.3498856e+04   2.008699e+06   0.000000e+00   3515s
  393193    1.3498856e+04   5.495735e+05   0.000000e+00   3521s
  393488    1.3498856e+04   2.084362e+06   0.000000e+00   3526s
  393898    1.3498855e+04   3.009090e+06   0.000000e+00   3531s
  394208    1.3498855e+04   1.922178e+06   0.000000e+00   3536s
  394633    1.3498855e+04   1.325965e+06   0.000000e+00   3542s
  394903    1.3498855e+04   4.802070e+06   0.000000e+00   3545s
  395328    1.3498854e+04   5.186622e+06   0.000000e+00   3551s
  395608    1.3498854e+04   1.105782e+07   0.000000e+00   3555s
  395998    1.3498853e+04   4.910682e+05   0.000000e+00   3561s
  396298    1.3498853e+04   4.573845e+05   0.000000e+00   3565s
  396668    1.3498853e+04   2.061651e+06   0.000000e+00   3570s
  397088    1.3498852e+04   2.164184e+06   0.000000e+00   3576s
  397428    1.3498852e+04   8.755894e+05   0.000000e+00   3581s
  397873    1.3498852e+04   3.149437e+06   0.000000e+00   3587s
  398183    1.3498851e+04   1.416732e+06   0.000000e+00   3591s
  398463    1.3498851e+04   1.148167e+06   0.000000e+00   3595s

Root relaxation: time limit, 398787 iterations, 3598.44 seconds

    Nodes    |    Current Node    |     Objective Bounds      |     Work
 Expl Unexpl |  Obj  Depth IntInf | Incumbent    BestBd   Gap | It/Node Time

     0     0          -    0      6549.00000 17719.0000   171%     - 3600s

Explored 0 nodes (398787 simplex iterations) in 3600.04 seconds
Thread count was 1 (of 40 available processors)

Solution count 1: 6549 

Time limit reached
Best objective 6.549000000000e+03, best bound 1.771900000000e+04, gap 170.5604%

----------

Best objective (UB): 17719.000
Best feasible solution (LB): 6549.000
Gap between the lower bound and upper bound: 170.560%

----------

Number of customers served: 33

Schedule for EV v0:
   [   0, 1115) -> It remains parked at station s0.
   [1115, 1225) -> Service a request driving for customer c79 from s0 to s2.
   [1225, 1250) -> It remains parked at station s2.
   [1250, 1345) -> Service a request driving for customer c19 from s2 to s0.
   [1345, 1485) -> It remains parked at station s0.

Schedule for EV v1:
   [   0, 1060) -> It remains parked at station s0.
   [1060, 1165) -> Service a request driving for customer c2 from s0 to s2.
   [1165, 1485) -> It remains parked at station s2.

Schedule for EV v2:
   [   0,  830) -> It remains parked at station s0.
   [ 830,  930) -> Service a request driving for customer c1 from s0 to s2.
   [ 930, 1025) -> It remains parked at station s2.
   [1025, 1134) -> Service a request driving for customer c1 from s2 to s1.
   [1134, 1485) -> It remains parked at station s1.

Schedule for EV v3:
   [   0,  505) -> It remains parked at station s0.
   [ 505,  605) -> Service a request driving for customer c29 from s0 to s2.
   [ 605, 1020) -> It remains parked at station s2.
   [1020, 1130) -> Service a request driving for customer c29 from s2 to s0.
   [1130, 1165) -> It remains parked at station s0.
   [1165, 1280) -> Service a request driving for customer c29 from s0 to s2.
   [1280, 1315) -> It remains parked at station s2.
   [1315, 1405) -> Service a request driving for customer c29 from s2 to s0.
   [1405, 1485) -> It remains parked at station s0.

Schedule for EV v4:
   [   0,  485) -> It remains parked at station s0.
   [ 485,  595) -> Service a request driving for customer c30 from s0 to s2.
   [ 595, 1270) -> It remains parked at station s2.
   [1270, 1364) -> Service a request driving for customer c30 from s2 to s1.
   [1364, 1485) -> It remains parked at station s1.

Schedule for EV v5:
   [   0,  390) -> It remains parked at station s0.
   [ 390,  500) -> Service a request driving for customer c35 from s0 to s2.
   [ 500,  535) -> It remains parked at station s2, which was charging for charging.
   [ 535,  639) -> Service a request driving for customer c35 from s2 to s1.
   [ 639,  825) -> It remains parked at station s1.
   [ 825,  924) -> Service a request driving for customer c35 from s1 to s2.
   [ 924, 1060) -> It remains parked at station s2, which was charging for charging.
   [1060, 1149) -> Service a request driving for customer c35 from s2 to s1.
   [1149, 1485) -> It remains parked at station s1.

Schedule for EV v6:
   [   0,  460) -> It remains parked at station s0.
   [ 460,  550) -> Service a request driving for customer c11 from s0 to s2.
   [ 550, 1030) -> It remains parked at station s2, which was charging for charging.
   [1030, 1140) -> Service a request driving for customer c11 from s2 to s0.
   [1140, 1280) -> It remains parked at station s0.
   [1280, 1380) -> Service a request driving for customer c11 from s0 to s2.
   [1380, 1485) -> It remains parked at station s2.

Schedule for EV v7:
   [   0, 1105) -> It remains parked at station s0.
   [1105, 1205) -> Service a request driving for customer c36 from s0 to s2.
   [1205, 1485) -> It remains parked at station s2.

Schedule for EV v8:
   [   0,  875) -> It remains parked at station s0.
   [ 875,  970) -> Service a request driving for customer c21 from s0 to s2.
   [ 970, 1085) -> It remains parked at station s2, which was charging for charging.
   [1085, 1189) -> Service a request driving for customer c21 from s2 to s1.
   [1189, 1485) -> It remains parked at station s1.

Schedule for EV v9:
   [   0,  990) -> It remains parked at station s0.
   [ 990, 1085) -> Service a request driving for customer c44 from s0 to s2.
   [1085, 1110) -> It remains parked at station s2.
   [1110, 1209) -> Service a request driving for customer c44 from s2 to s1.
   [1209, 1485) -> It remains parked at station s1.

Schedule for EV v10:
   [   0, 1030) -> It remains parked at station s0.
   [1030, 1120) -> Service a request driving for customer c7 from s0 to s2.
   [1120, 1330) -> It remains parked at station s2.
   [1330, 1424) -> Service a request driving for customer c7 from s2 to s1.
   [1424, 1485) -> It remains parked at station s1.

Schedule for EV v11:
   [   0,  960) -> It remains parked at station s0.
   [ 960, 1050) -> Service a request driving for customer c47 from s0 to s2.
   [1050, 1100) -> It remains parked at station s2, which was charging for charging.
   [1100, 1190) -> Service a request driving for customer c88 from s2 to s0.
   [1190, 1485) -> It remains parked at station s0.

Schedule for EV v12:
   [   0,  515) -> It remains parked at station s0.
   [ 515,  573) -> Service a request driving for customer c58 from s0 to s1.
   [ 573,  930) -> It remains parked at station s1.
   [ 930,  983) -> Service a request driving for customer c58 from s1 to s0.
   [ 983, 1035) -> It remains parked at station s0.
   [1035, 1140) -> Service a request driving for customer c58 from s0 to s2.
   [1140, 1485) -> It remains parked at station s2.

Schedule for EV v13:
   [   0,  415) -> It remains parked at station s0, which was charging for charging.
   [ 415,  463) -> Service a request driving for customer c74 from s0 to s1.
   [ 463, 1135) -> It remains parked at station s1.
   [1135, 1229) -> Service a request driving for customer c74 from s1 to s2.
   [1229, 1485) -> It remains parked at station s2, which was charging for charging.

Schedule for EV v14:
   [   0,  820) -> It remains parked at station s1.
   [ 820,  934) -> Service a request driving for customer c62 from s1 to s2.
   [ 934, 1370) -> It remains parked at station s2.
   [1370, 1485) -> Service a request driving for customer c62 from s2 to s0.

Schedule for EV v15:
   [   0,  770) -> It remains parked at station s1.
   [ 770,  884) -> Service a request driving for customer c37 from s1 to s2.
   [ 884, 1165) -> It remains parked at station s2.
   [1165, 1269) -> Service a request driving for customer c37 from s2 to s1.
   [1269, 1485) -> It remains parked at station s1.

Schedule for EV v16:
   [   0,  390) -> It remains parked at station s1.
   [ 390,  504) -> Service a request driving for customer c69 from s1 to s2.
   [ 504,  510) -> It remains parked at station s2.
   [ 510,  624) -> Service a request driving for customer c69 from s2 to s1.
   [ 624,  680) -> It remains parked at station s1.
   [ 680,  794) -> Service a request driving for customer c69 from s1 to s2.
   [ 794, 1105) -> It remains parked at station s2.
   [1105, 1199) -> Service a request driving for customer c69 from s2 to s1.
   [1199, 1485) -> It remains parked at station s1.

Schedule for EV v17:
   [   0,  590) -> It remains parked at station s1.
   [ 590,  699) -> Service a request driving for customer c68 from s1 to s2.
   [ 699, 1060) -> It remains parked at station s2.
   [1060, 1165) -> Service a request driving for customer c68 from s2 to s0.
   [1165, 1485) -> It remains parked at station s0.

Schedule for EV v18:
   [   0,  495) -> It remains parked at station s1.
   [ 495,  604) -> Service a request driving for customer c18 from s1 to s2.
   [ 604,  910) -> It remains parked at station s2.
   [ 910, 1009) -> Service a request driving for customer c18 from s2 to s1.
   [1009, 1165) -> It remains parked at station s1.
   [1165, 1274) -> Service a request driving for customer c18 from s1 to s2.
   [1274, 1485) -> It remains parked at station s2.

Schedule for EV v19:
   [   0,  530) -> It remains parked at station s1.
   [ 530,  603) -> Service a request driving for customer c4 from s1 to s0.
   [ 603,  630) -> It remains parked at station s0.
   [ 630,  745) -> Service a request driving for customer c4 from s0 to s2.
   [ 745, 1090) -> It remains parked at station s2.
   [1090, 1190) -> Service a request driving for customer c4 from s2 to s0.
   [1190, 1365) -> It remains parked at station s0.
   [1365, 1480) -> Service a request driving for customer c4 from s0 to s2.
   [1480, 1485) -> It remains parked at station s2.

Schedule for EV v20:
   [   0, 1105) -> It remains parked at station s1.
   [1105, 1204) -> Service a request driving for customer c26 from s1 to s2.
   [1204, 1485) -> It remains parked at station s2.

Schedule for EV v21:
   [   0,  445) -> It remains parked at station s2.
   [ 445,  560) -> Service a request driving for customer c24 from s2 to s0.
   [ 560,  920) -> It remains parked at station s0, which was charging for charging.
   [ 920,  988) -> Service a request driving for customer c25 from s0 to s1.
   [ 988, 1070) -> It remains parked at station s1.
   [1070, 1143) -> Service a request driving for customer c25 from s1 to s0.
   [1143, 1275) -> It remains parked at station s0.
   [1275, 1338) -> Service a request driving for customer c25 from s0 to s1.
   [1338, 1485) -> It remains parked at station s1.

Schedule for EV v22:
   [   0,  955) -> It remains parked at station s2.
   [ 955, 1070) -> Service a request driving for customer c40 from s2 to s0.
   [1070, 1485) -> It remains parked at station s0, which was charging for charging.

Schedule for EV v23:
   [   0,  580) -> It remains parked at station s2.
   [ 580,  690) -> Service a request driving for customer c45 from s2 to s0.
   [ 690,  940) -> It remains parked at station s0, which was charging for charging.
   [ 940, 1008) -> Service a request driving for customer c42 from s0 to s1.
   [1008, 1485) -> It remains parked at station s1.

Schedule for EV v24:
   [   0,  950) -> It remains parked at station s2.
   [ 950, 1060) -> Service a request driving for customer c64 from s2 to s0.
   [1060, 1070) -> It remains parked at station s0, which was charging for charging.
   [1070, 1123) -> Service a request driving for customer c66 from s0 to s1.
   [1123, 1155) -> It remains parked at station s1.
   [1155, 1228) -> Service a request driving for customer c66 from s1 to s0.
   [1228, 1485) -> It remains parked at station s0.

Schedule for EV v25:
   [   0,  530) -> It remains parked at station s2.
   [ 530,  629) -> Service a request driving for customer c32 from s2 to s1.
   [ 629,  790) -> It remains parked at station s1.
   [ 790,  904) -> Service a request driving for customer c32 from s1 to s2.
   [ 904,  945) -> It remains parked at station s2.
   [ 945, 1050) -> Service a request driving for customer c27 from s2 to s0.
   [1050, 1130) -> It remains parked at station s0.
   [1130, 1220) -> Service a request driving for customer c27 from s0 to s2.
   [1220, 1285) -> It remains parked at station s2.
   [1285, 1399) -> Service a request driving for customer c27 from s2 to s1.
   [1399, 1485) -> It remains parked at station s1.

Schedule for EV v26:
   [   0,  545) -> It remains parked at station s2.
   [ 545,  649) -> Service a request driving for customer c28 from s2 to s1.
   [ 649, 1175) -> It remains parked at station s1.
   [1175, 1279) -> Service a request driving for customer c28 from s1 to s2.
   [1279, 1485) -> It remains parked at station s2.

Set of satisfied customers
   {c1, c2, c4, c7, c11, c18, c19, c21, c24, c25, c26, c27, c28, c29, c30, c32, c35, c36, c37, c40, c42, c44, c45, c47, c58, c62, c64, c66, c68, c69, c74, c79, c88}

