Academic license - for non-commercial use only
Gurobi Optimizer version 9.0.3 build v9.0.3rc0 (linux64)
Optimize a model with 83215 rows, 57072 columns and 578245 nonzeros
Model fingerprint: 0x86f09d9a
Variable types: 28820 continuous, 28252 integer (28252 binary)
Coefficient statistics:
  Matrix range     [1e+00, 3e+06]
  Objective range  [3e+01, 3e+02]
  Bounds range     [1e+00, 2e+06]
  RHS range        [1e+00, 2e+06]

Loaded user MIP start with objective 5109

Presolve removed 4075 rows and 2985 columns
Presolve time: 1.69s
Presolved: 79140 rows, 54087 columns, 550327 nonzeros
Variable types: 0 continuous, 54087 integer (47191 binary)

Root simplex log...

Iteration    Objective       Primal Inf.    Dual Inf.      Time
   16217    1.5885992e+04   6.961729e+04   0.000000e+00      5s
   20857    1.5885991e+04   3.089471e+04   0.000000e+00     10s
   24697    1.5885990e+04   1.093038e+05   0.000000e+00     15s
   27737    1.5885989e+04   2.156676e+04   0.000000e+00     20s
   30137    1.5885989e+04   7.815100e+04   0.000000e+00     25s
   32377    1.5885989e+04   2.542503e+05   0.000000e+00     30s
   34617    1.5885988e+04   2.962342e+04   0.000000e+00     35s
   36537    1.5885988e+04   1.441617e+04   0.000000e+00     40s
   38297    1.5885988e+04   2.964552e+04   0.000000e+00     45s
   40217    1.5885988e+04   1.981667e+04   0.000000e+00     50s
   41977    1.5885987e+04   3.452413e+04   0.000000e+00     55s
   43577    1.5885987e+04   1.399645e+05   0.000000e+00     60s
   45017    1.5885987e+04   2.120188e+05   0.000000e+00     65s
   46297    1.5885987e+04   1.103264e+04   0.000000e+00     70s
   47577    1.5885987e+04   2.051551e+05   0.000000e+00     75s
   48697    1.5885987e+04   2.067500e+05   0.000000e+00     80s
   50137    1.5885986e+04   1.663525e+04   0.000000e+00     85s
   51577    1.5885986e+04   6.059444e+05   0.000000e+00     90s
   53017    1.5885986e+04   3.022641e+04   0.000000e+00     95s
   54297    1.5885986e+04   4.171269e+04   0.000000e+00    100s
   55737    1.5885986e+04   3.303035e+04   0.000000e+00    106s
   57017    1.5885986e+04   1.734269e+04   0.000000e+00    110s
   58297    1.5885986e+04   6.417847e+04   0.000000e+00    115s
   59577    1.5885986e+04   2.381053e+05   0.000000e+00    120s
   60857    1.5885985e+04   2.233492e+04   0.000000e+00    126s
   61977    1.5885985e+04   2.510806e+04   0.000000e+00    130s
   63417    1.5885985e+04   1.134218e+05   0.000000e+00    135s
   64697    1.5885985e+04   6.481505e+04   0.000000e+00    140s
   65977    1.5885985e+04   3.848669e+04   0.000000e+00    145s
Warning: Markowitz tolerance tightened to 0.03125
   67257    1.5885985e+04   9.149059e+04   0.000000e+00    150s
   68537    1.5885985e+04   2.057556e+05   0.000000e+00    155s
   69817    1.5885984e+04   5.680692e+05   0.000000e+00    160s
   70937    1.5885984e+04   4.887959e+04   0.000000e+00    165s
   72217    1.5885984e+04   5.866926e+04   0.000000e+00    170s
   73337    1.5885984e+04   4.212941e+04   0.000000e+00    175s
   74617    1.5885984e+04   3.429947e+04   0.000000e+00    181s
   75737    1.5885984e+04   6.396273e+04   0.000000e+00    186s
   76857    1.5885984e+04   5.645074e+04   0.000000e+00    190s
   77977    1.5885983e+04   2.032635e+04   0.000000e+00    195s
   79097    1.5885983e+04   8.899649e+04   0.000000e+00    200s
   80217    1.5885983e+04   1.660972e+05   0.000000e+00    205s
   81337    1.5885983e+04   3.853668e+04   0.000000e+00    210s
   82457    1.5885983e+04   2.546176e+04   0.000000e+00    215s
   83577    1.5885983e+04   6.872688e+05   0.000000e+00    220s
   84697    1.5885983e+04   6.653485e+04   0.000000e+00    225s
   85817    1.5885983e+04   4.949977e+04   0.000000e+00    231s
   86927    1.5885983e+04   3.411239e+04   0.000000e+00    236s
   88047    1.5885982e+04   2.501231e+04   0.000000e+00    240s
   89167    1.5885982e+04   7.022219e+04   0.000000e+00    245s
   90287    1.5885982e+04   5.289880e+04   0.000000e+00    251s
   91397    1.5885982e+04   1.046237e+05   0.000000e+00    256s
   92517    1.5885982e+04   1.446612e+05   0.000000e+00    261s
   93617    1.5885982e+04   6.647200e+04   0.000000e+00    266s
   94707    1.5885982e+04   2.469203e+04   0.000000e+00    271s
   95657    1.5885982e+04   1.687496e+05   0.000000e+00    275s
   96757    1.5885982e+04   1.719953e+04   0.000000e+00    280s
   97847    1.5885981e+04   6.508115e+04   0.000000e+00    285s
   98927    1.5885981e+04   2.956870e+04   0.000000e+00    290s
   99997    1.5885981e+04   3.961901e+04   0.000000e+00    295s
  101097    1.5885981e+04   2.334842e+05   0.000000e+00    300s
  102217    1.5885981e+04   5.109329e+04   0.000000e+00    306s
  103177    1.5885981e+04   5.384116e+04   0.000000e+00    310s
  104237    1.5885981e+04   3.200567e+04   0.000000e+00    315s
  105157    1.5885981e+04   1.828606e+05   0.000000e+00    320s
  106247    1.5885981e+04   6.082829e+05   0.000000e+00    326s
  107187    1.5885981e+04   3.729676e+04   0.000000e+00    330s
  108297    1.5885980e+04   8.609949e+04   0.000000e+00    336s
  109227    1.5885980e+04   4.716198e+05   0.000000e+00    341s
  110147    1.5885980e+04   6.493706e+05   0.000000e+00    346s
  110927    1.5885980e+04   2.319077e+05   0.000000e+00    350s
  111857    1.5885980e+04   2.744006e+05   0.000000e+00    355s
  112787    1.5885980e+04   4.695630e+04   0.000000e+00    361s
  113587    1.5885980e+04   6.959623e+04   0.000000e+00    365s
  114537    1.5885980e+04   2.360197e+05   0.000000e+00    370s
  115497    1.5885980e+04   2.059182e+04   0.000000e+00    375s
  116437    1.5885980e+04   1.559914e+05   0.000000e+00    380s
  117347    1.5885980e+04   3.054282e+04   0.000000e+00    385s
  118297    1.5885979e+04   1.513330e+04   0.000000e+00    390s
  119217    1.5885979e+04   5.169344e+04   0.000000e+00    396s
  120127    1.5885979e+04   1.388760e+05   0.000000e+00    401s
  121057    1.5885979e+04   2.610893e+05   0.000000e+00    406s
  122007    1.5885979e+04   4.424825e+04   0.000000e+00    411s
  122807    1.5885979e+04   1.170893e+04   0.000000e+00    415s
  123767    1.5885979e+04   7.681799e+04   0.000000e+00    420s
  124677    1.5885979e+04   1.071287e+05   0.000000e+00    425s
  125597    1.5885979e+04   5.971564e+04   0.000000e+00    430s
  126507    1.5885978e+04   8.059624e+03   0.000000e+00    435s
  127427    1.5885978e+04   8.724175e+05   0.000000e+00    440s
  128377    1.5885978e+04   4.972211e+04   0.000000e+00    446s
  129177    1.5885978e+04   1.711102e+05   0.000000e+00    450s
  130087    1.5885978e+04   8.972971e+04   0.000000e+00    455s
  131017    1.5885978e+04   1.306735e+05   0.000000e+00    461s
  131927    1.5885978e+04   6.134557e+04   0.000000e+00    466s
  132857    1.5885978e+04   1.311475e+04   0.000000e+00    471s
  133767    1.5885978e+04   6.607398e+04   0.000000e+00    476s
  134687    1.5885978e+04   5.953200e+04   0.000000e+00    481s
  135477    1.5885977e+04   6.100863e+04   0.000000e+00    485s
  136407    1.5885977e+04   2.304546e+04   0.000000e+00    490s
  137357    1.5885977e+04   1.379546e+05   0.000000e+00    496s
  138137    1.5885977e+04   3.554029e+04   0.000000e+00    500s
  139067    1.5885977e+04   7.093550e+04   0.000000e+00    506s
  139847    1.5885977e+04   1.995035e+05   0.000000e+00    511s
  140587    1.5885977e+04   8.832226e+04   0.000000e+00    515s
  141517    1.5885977e+04   3.287960e+04   0.000000e+00    521s
  142287    1.5885977e+04   1.446501e+05   0.000000e+00    525s
  143177    1.5885977e+04   1.135565e+05   0.000000e+00    531s
  143947    1.5885977e+04   1.587311e+04   0.000000e+00    535s
  144837    1.5885977e+04   1.256502e+05   0.000000e+00    541s
  145617    1.5885977e+04   8.766436e+04   0.000000e+00    546s
  146367    1.5885977e+04   3.980187e+04   0.000000e+00    550s
  147277    1.5885976e+04   2.813809e+04   0.000000e+00    556s
  148017    1.5885976e+04   3.769461e+04   0.000000e+00    560s
  148907    1.5885976e+04   3.611285e+04   0.000000e+00    566s
  149657    1.5885976e+04   5.535184e+04   0.000000e+00    571s
  150417    1.5885976e+04   4.012291e+04   0.000000e+00    575s
  151217    1.5885976e+04   8.464130e+04   0.000000e+00    580s
  152017    1.5885976e+04   4.586421e+04   0.000000e+00    585s
  152777    1.5885976e+04   3.172585e+04   0.000000e+00    590s
  153557    1.5885976e+04   2.394100e+04   0.000000e+00    595s
  154487    1.5885976e+04   5.254974e+04   0.000000e+00    601s
  155287    1.5885976e+04   1.139108e+04   0.000000e+00    606s
  156037    1.5885976e+04   2.385582e+04   0.000000e+00    611s
  156777    1.5885976e+04   2.619258e+04   0.000000e+00    615s
  157567    1.5885976e+04   1.499005e+05   0.000000e+00    621s
  158327    1.5885976e+04   4.633031e+04   0.000000e+00    626s
  159087    1.5885976e+04   3.301573e+04   0.000000e+00    631s
  159847    1.5885975e+04   2.108590e+04   0.000000e+00    636s
  160537    1.5885975e+04   4.685958e+05   0.000000e+00    640s
  161287    1.5885975e+04   8.543736e+03   0.000000e+00    645s
  162057    1.5885975e+04   2.001971e+04   0.000000e+00    650s
  162817    1.5885975e+04   1.876895e+05   0.000000e+00    655s
  163537    1.5885975e+04   6.255095e+04   0.000000e+00    660s
  164387    1.5885975e+04   3.810277e+04   0.000000e+00    666s
  165137    1.5885975e+04   4.999162e+04   0.000000e+00    671s
  165937    1.5885975e+04   2.928719e+04   0.000000e+00    676s
  166647    1.5885975e+04   2.256542e+05   0.000000e+00    680s
  167387    1.5885975e+04   2.075487e+04   0.000000e+00    685s
  168137    1.5885975e+04   1.606519e+04   0.000000e+00    690s
  168887    1.5885975e+04   3.055491e+05   0.000000e+00    695s
  169617    1.5885975e+04   3.708595e+05   0.000000e+00    700s
  170367    1.5885975e+04   1.366308e+04   0.000000e+00    706s
  171047    1.5885974e+04   8.548539e+04   0.000000e+00    711s
  171627    1.5885974e+04   1.111603e+05   0.000000e+00    715s
  172337    1.5885974e+04   4.025169e+04   0.000000e+00    720s
  173057    1.5885973e+04   3.126415e+04   0.000000e+00    726s
  173717    1.5885973e+04   3.218737e+05   0.000000e+00    730s
  174397    1.5885973e+04   5.445359e+04   0.000000e+00    735s
  175067    1.5885973e+04   2.686521e+04   0.000000e+00    740s
  175847    1.5885973e+04   4.642577e+04   0.000000e+00    746s
  176497    1.5885972e+04   1.178894e+05   0.000000e+00    751s
  177167    1.5885972e+04   2.498513e+05   0.000000e+00    756s
  177757    1.5885972e+04   8.681479e+04   0.000000e+00    760s
  178437    1.5885972e+04   1.864646e+04   0.000000e+00    765s
  179127    1.5885972e+04   6.341652e+04   0.000000e+00    770s
  179787    1.5885972e+04   8.326066e+05   0.000000e+00    775s
  180467    1.5885971e+04   9.441204e+04   0.000000e+00    780s
  181267    1.5885971e+04   4.519888e+04   0.000000e+00    786s
  181907    1.5885971e+04   4.345061e+04   0.000000e+00    791s
  182547    1.5885971e+04   7.673453e+04   0.000000e+00    795s
  183367    1.5885971e+04   3.260862e+04   0.000000e+00    801s
  183947    1.5885971e+04   3.891032e+04   0.000000e+00    805s
  184597    1.5885971e+04   3.307815e+04   0.000000e+00    810s
  185347    1.5885971e+04   9.854172e+04   0.000000e+00    816s
  186037    1.5885971e+04   1.370782e+04   0.000000e+00    821s
  186707    1.5885970e+04   3.294346e+04   0.000000e+00    826s
  187357    1.5885970e+04   8.966527e+04   0.000000e+00    830s
  188007    1.5885970e+04   5.984992e+04   0.000000e+00    835s
  188687    1.5885970e+04   2.159344e+05   0.000000e+00    840s
  189447    1.5885970e+04   2.852887e+04   0.000000e+00    846s
  190107    1.5885970e+04   4.557945e+04   0.000000e+00    850s
  190847    1.5885969e+04   7.278007e+04   0.000000e+00    856s
  191507    1.5885969e+04   4.091727e+04   0.000000e+00    861s
  192177    1.5885969e+04   2.512151e+06   0.000000e+00    866s
  192807    1.5885969e+04   2.925639e+04   0.000000e+00    871s
  193407    1.5885968e+04   4.079969e+06   0.000000e+00    876s
  194007    1.5885966e+04   6.010482e+05   0.000000e+00    880s
  194637    1.5777969e+04   2.008699e+05   0.000000e+00    886s
  195317    1.5777969e+04   1.322663e+05   0.000000e+00    890s
  195977    1.5777969e+04   7.212956e+04   0.000000e+00    895s
  196617    1.5777968e+04   1.667609e+05   0.000000e+00    900s
  197367    1.5777968e+04   9.970601e+04   0.000000e+00    906s
  197987    1.5777965e+04   4.047583e+05   0.000000e+00    911s
  198667    1.5495971e+04   8.682959e+04   0.000000e+00    916s
  199257    1.5495971e+04   3.785070e+04   0.000000e+00    920s
  200017    1.5495971e+04   1.192627e+05   0.000000e+00    926s
  200657    1.5495971e+04   6.318095e+04   0.000000e+00    930s
  201287    1.5495970e+04   2.659573e+05   0.000000e+00    935s
  202067    1.5495970e+04   1.728076e+05   0.000000e+00    941s
  202727    1.5495970e+04   6.017472e+04   0.000000e+00    945s
  203447    1.5495970e+04   4.678443e+04   0.000000e+00    950s
  204097    1.5495970e+04   8.241855e+04   0.000000e+00    955s
  204777    1.5495970e+04   2.933231e+04   0.000000e+00    960s
  205517    1.5495970e+04   5.175533e+04   0.000000e+00    966s
  206137    1.5495969e+04   3.534808e+04   0.000000e+00    970s
  206877    1.5495969e+04   6.477413e+04   0.000000e+00    976s
  207517    1.5495969e+04   1.103863e+04   0.000000e+00    981s
  208147    1.5495969e+04   5.380443e+04   0.000000e+00    985s
  208787    1.5495969e+04   2.690021e+04   0.000000e+00    990s
  209447    1.5495969e+04   6.578126e+04   0.000000e+00    995s
  210187    1.5495969e+04   2.473871e+05   0.000000e+00   1000s
  210847    1.5495969e+04   1.306408e+04   0.000000e+00   1005s
  211607    1.5495968e+04   3.523191e+04   0.000000e+00   1011s
  212167    1.5495968e+04   9.946230e+04   0.000000e+00   1015s
  212837    1.5454968e+04   2.147298e+04   0.000000e+00   1020s
  213537    1.5454968e+04   1.498971e+04   0.000000e+00   1025s
  214237    1.5454968e+04   4.115824e+04   0.000000e+00   1031s
  214837    1.5454968e+04   1.042666e+04   0.000000e+00   1035s
  215537    1.5454968e+04   3.309939e+04   0.000000e+00   1040s
  216287    1.5454968e+04   1.423240e+05   0.000000e+00   1045s
  216967    1.5454968e+04   2.316024e+04   0.000000e+00   1050s
  217707    1.5454968e+04   2.382346e+04   0.000000e+00   1056s
  218397    1.5454966e+04   1.149364e+05   0.000000e+00   1061s
  219017    1.5454965e+04   1.395405e+05   0.000000e+00   1066s
  219627    1.5454965e+04   1.375891e+04   0.000000e+00   1070s
  220387    1.5272966e+04   4.963625e+04   0.000000e+00   1076s
  220997    1.5272965e+04   1.103295e+05   0.000000e+00   1080s
  221657    1.5272965e+04   8.167810e+04   0.000000e+00   1085s
  222347    1.5272964e+04   7.168961e+04   0.000000e+00   1090s
  223017    1.5169968e+04   3.101437e+05   0.000000e+00   1096s
  223657    1.5169968e+04   1.420272e+05   0.000000e+00   1101s
  224227    1.5169968e+04   2.633302e+04   0.000000e+00   1105s
  224967    1.5169967e+04   1.971530e+04   0.000000e+00   1111s
  225537    1.5169967e+04   8.228171e+04   0.000000e+00   1115s
  226227    1.5169967e+04   4.717636e+04   0.000000e+00   1120s
  226997    1.5169967e+04   1.376066e+04   0.000000e+00   1126s
  227647    1.5169967e+04   3.255321e+04   0.000000e+00   1131s
  228287    1.5169967e+04   1.482166e+05   0.000000e+00   1136s
  229027    1.5169967e+04   3.268483e+04   0.000000e+00   1141s
  229597    1.5169967e+04   1.579046e+05   0.000000e+00   1145s
  230327    1.5169967e+04   3.431630e+04   0.000000e+00   1150s
  231097    1.5169966e+04   3.728326e+05   0.000000e+00   1156s
  231677    1.5169966e+04   2.011046e+04   0.000000e+00   1160s
  232337    1.5169966e+04   2.080983e+05   0.000000e+00   1165s
  232977    1.5169966e+04   8.031570e+04   0.000000e+00   1170s
  233707    1.5169966e+04   4.122501e+04   0.000000e+00   1175s
  234347    1.5169966e+04   1.329787e+05   0.000000e+00   1180s
  234997    1.5169966e+04   4.231909e+05   0.000000e+00   1185s
  235687    1.5169965e+04   1.504632e+04   0.000000e+00   1190s
  236307    1.5169965e+04   5.333747e+05   0.000000e+00   1195s
  236877    1.5169965e+04   1.727096e+06   0.000000e+00   1200s
  237367    1.5169964e+04   6.211378e+06   0.000000e+00   1206s
  237847    1.4727967e+04   8.072761e+06   0.000000e+00   1211s
  238287    1.4727966e+04   2.756632e+06   0.000000e+00   1216s
  238717    1.4727966e+04   5.607537e+05   0.000000e+00   1221s
  239097    1.4727966e+04   2.501868e+07   0.000000e+00   1225s
  239497    1.4727965e+04   6.498699e+06   0.000000e+00   1230s
  239947    1.4727965e+04   3.104691e+06   0.000000e+00   1235s
  240537    1.4503966e+04   1.214818e+06   0.000000e+00   1241s
  241007    1.4499966e+04   2.470062e+07   0.000000e+00   1246s
  241547    1.4387967e+04   2.829810e+06   0.000000e+00   1251s
  242007    1.4387966e+04   8.912286e+05   0.000000e+00   1256s
  242467    1.4387966e+04   9.270773e+06   0.000000e+00   1261s
  242897    1.4387966e+04   2.042440e+07   0.000000e+00   1265s
  243457    1.4387966e+04   1.923593e+06   0.000000e+00   1271s
  243887    1.4387965e+04   1.543155e+06   0.000000e+00   1275s
  244367    1.4387965e+04   1.624322e+07   0.000000e+00   1280s
  244937    1.4387965e+04   1.883783e+06   0.000000e+00   1286s
  245397    1.4387964e+04   3.080493e+06   0.000000e+00   1291s
  245847    1.4387964e+04   3.593391e+05   0.000000e+00   1296s
  246357    1.4387964e+04   1.240757e+06   0.000000e+00   1301s
  246797    1.4387963e+04   8.936902e+05   0.000000e+00   1306s
  247257    1.4387963e+04   1.057512e+06   0.000000e+00   1311s
  247657    1.4387963e+04   1.794396e+06   0.000000e+00   1316s
  248167    1.4387963e+04   1.193763e+06   0.000000e+00   1321s
  248567    1.4387962e+04   3.353560e+06   0.000000e+00   1326s
  249047    1.4387962e+04   7.488276e+06   0.000000e+00   1331s
  249477    1.4387962e+04   2.259322e+06   0.000000e+00   1336s
  249897    1.4387961e+04   2.657604e+06   0.000000e+00   1341s
  250327    1.4387961e+04   1.522585e+06   0.000000e+00   1346s
  250717    1.4387961e+04   9.544681e+06   0.000000e+00   1350s
  251197    1.4387960e+04   9.987081e+06   0.000000e+00   1356s
  251657    1.4387960e+04   1.048054e+06   0.000000e+00   1361s
  252097    1.3945964e+04   2.444559e+06   0.000000e+00   1366s
  252477    1.3945963e+04   3.532473e+06   0.000000e+00   1371s
  252827    1.3945963e+04   6.781601e+06   0.000000e+00   1375s
  253277    1.3945963e+04   1.387498e+06   0.000000e+00   1380s
  253737    1.3945962e+04   1.891193e+06   0.000000e+00   1386s
  254127    1.3945962e+04   5.515010e+06   0.000000e+00   1390s
  254637    1.3823963e+04   1.529483e+06   0.000000e+00   1396s
  255047    1.3823963e+04   2.387927e+06   0.000000e+00   1401s
  255447    1.3823962e+04   8.270631e+05   0.000000e+00   1406s
  255857    1.3823962e+04   2.442384e+06   0.000000e+00   1411s
  256277    1.3823962e+04   6.068801e+06   0.000000e+00   1416s
  256637    1.3823962e+04   4.718237e+05   0.000000e+00   1420s
  257127    1.3823962e+04   2.708270e+06   0.000000e+00   1426s
  257547    1.3823961e+04   2.518682e+06   0.000000e+00   1431s
  257887    1.3823961e+04   8.456044e+05   0.000000e+00   1435s
  258297    1.3701963e+04   5.728547e+05   0.000000e+00   1441s
  258737    1.3574964e+04   1.988015e+06   0.000000e+00   1446s
  259137    1.3568963e+04   3.311962e+06   0.000000e+00   1451s
  259537    1.3568963e+04   5.789374e+06   0.000000e+00   1456s
  259837    1.3568963e+04   8.073887e+06   0.000000e+00   1460s
  260257    1.3568963e+04   1.191916e+06   0.000000e+00   1466s
  260617    1.3568962e+04   4.442780e+06   0.000000e+00   1470s
  261087    1.3568962e+04   2.935017e+06   0.000000e+00   1476s
  261487    1.3568962e+04   1.499892e+06   0.000000e+00   1481s
  261827    1.3568962e+04   6.899128e+05   0.000000e+00   1485s
  262267    1.3568961e+04   6.905244e+05   0.000000e+00   1491s
  262617    1.3568961e+04   1.031951e+06   0.000000e+00   1495s
  263037    1.3568961e+04   1.818172e+06   0.000000e+00   1500s
  263407    1.3568960e+04   1.452733e+06   0.000000e+00   1505s
  263917    1.3568960e+04   7.725649e+06   0.000000e+00   1511s
  264227    1.3568960e+04   6.983574e+05   0.000000e+00   1515s
  264607    1.3568959e+04   1.470371e+07   0.000000e+00   1520s
  265017    1.3568959e+04   2.494327e+07   0.000000e+00   1526s
  265417    1.3568958e+04   3.847615e+06   0.000000e+00   1531s
  265787    1.3568958e+04   1.054353e+06   0.000000e+00   1536s
  266187    1.3568958e+04   7.367274e+06   0.000000e+00   1541s
  266567    1.3568958e+04   3.444628e+06   0.000000e+00   1546s
  267017    1.3568957e+04   3.604327e+06   0.000000e+00   1551s
  267347    1.3568957e+04   2.054102e+07   0.000000e+00   1556s
  267777    1.3568956e+04   1.949658e+07   0.000000e+00   1561s
  268067    1.3568956e+04   8.632173e+06   0.000000e+00   1565s
  268497    1.3568956e+04   7.753882e+06   0.000000e+00   1571s
  268817    1.3568956e+04   1.253863e+07   0.000000e+00   1575s
  269217    1.3568955e+04   2.621293e+06   0.000000e+00   1581s
  269577    1.3568955e+04   3.372888e+06   0.000000e+00   1585s
  269957    1.3474956e+04   2.985264e+07   0.000000e+00   1590s
  270327    1.3474956e+04   2.873993e+06   0.000000e+00   1595s
  270717    1.3474955e+04   5.462961e+06   0.000000e+00   1600s
  271117    1.3474955e+04   1.682006e+06   0.000000e+00   1606s
  271597    1.3474955e+04   3.579439e+06   0.000000e+00   1612s
  271877    1.3474954e+04   1.124600e+06   0.000000e+00   1615s
  272297    1.3474954e+04   1.928429e+06   0.000000e+00   1621s
  272697    1.3474954e+04   1.133421e+06   0.000000e+00   1626s
  273077    1.3474953e+04   2.597962e+06   0.000000e+00   1631s
  273467    1.3474953e+04   2.673319e+07   0.000000e+00   1636s
  273787    1.3474953e+04   3.132630e+06   0.000000e+00   1640s
  274217    1.3474952e+04   3.233294e+06   0.000000e+00   1645s
  274617    1.3474952e+04   8.434739e+06   0.000000e+00   1650s
  274997    1.3474952e+04   5.472254e+06   0.000000e+00   1655s
  275417    1.3474952e+04   4.830593e+06   0.000000e+00   1661s
  275867    1.3474951e+04   6.541329e+06   0.000000e+00   1666s
  276257    1.3474951e+04   1.774829e+06   0.000000e+00   1671s
  276557    1.3474951e+04   6.447789e+05   0.000000e+00   1675s
  277017    1.3474951e+04   3.035105e+06   0.000000e+00   1681s
  277377    1.3474950e+04   2.335628e+07   0.000000e+00   1686s
  277857    1.3474950e+04   5.085588e+06   0.000000e+00   1692s
  278157    1.3474950e+04   4.728024e+06   0.000000e+00   1696s
  278607    1.3474949e+04   3.631707e+06   0.000000e+00   1703s
  278747    1.3474949e+04   6.384868e+06   0.000000e+00   1705s
  279067    1.3474949e+04   8.373552e+06   0.000000e+00   1711s
  279347    1.3474949e+04   1.216554e+07   0.000000e+00   1716s
  279627    1.3474948e+04   3.581980e+06   0.000000e+00   1720s
  279927    1.3474948e+04   4.057722e+06   0.000000e+00   1725s
  280247    1.3474947e+04   9.147877e+07   0.000000e+00   1731s
  280547    1.3474947e+04   1.348486e+07   0.000000e+00   1736s
  280847    1.3474947e+04   1.729000e+07   0.000000e+00   1741s
  281187    1.3474947e+04   2.601062e+06   0.000000e+00   1747s
  281397    1.3474946e+04   8.340386e+06   0.000000e+00   1750s
  281707    1.3474946e+04   1.384640e+07   0.000000e+00   1755s
  282057    1.3474946e+04   1.107402e+08   0.000000e+00   1762s
  282307    1.3474945e+04   9.733537e+06   0.000000e+00   1766s
  282617    1.3474945e+04   8.636125e+06   0.000000e+00   1771s
  282897    1.3474944e+04   4.721266e+06   0.000000e+00   1776s
  283237    1.3474944e+04   3.450976e+06   0.000000e+00   1782s
  283447    1.3474944e+04   5.640431e+06   0.000000e+00   1785s
  283747    1.3474943e+04   5.524900e+06   0.000000e+00   1790s
  284027    1.3474943e+04   1.962230e+07   0.000000e+00   1795s
  284327    1.3474942e+04   2.898390e+07   0.000000e+00   1801s
  284607    1.3474942e+04   2.532218e+06   0.000000e+00   1805s
  284897    1.3474942e+04   8.434911e+06   0.000000e+00   1810s
  285277    1.3474941e+04   1.343409e+07   0.000000e+00   1816s
  285587    1.3474941e+04   2.351620e+07   0.000000e+00   1821s
  285817    1.3474940e+04   8.940731e+07   0.000000e+00   1825s
  286127    1.3474940e+04   1.092979e+07   0.000000e+00   1830s
  286587    1.3474940e+04   1.189830e+07   0.000000e+00   1838s
  286747    1.3474939e+04   2.810401e+07   0.000000e+00   1840s
  287067    1.3474939e+04   3.442557e+07   0.000000e+00   1846s
  287347    1.3474939e+04   2.413895e+07   0.000000e+00   1850s
  287687    1.3474938e+04   2.226146e+06   0.000000e+00   1856s
  288007    1.3474938e+04   1.076041e+07   0.000000e+00   1861s
  288367    1.3474938e+04   1.165350e+07   0.000000e+00   1867s
  288607    1.3474938e+04   1.862625e+06   0.000000e+00   1871s
  288867    1.3474937e+04   3.689855e+06   0.000000e+00   1876s
  289227    1.3474937e+04   4.318295e+06   0.000000e+00   1882s
  289497    1.3474937e+04   8.896728e+07   0.000000e+00   1886s
  289767    1.3474937e+04   4.886809e+06   0.000000e+00   1891s
  290067    1.3466945e+04   3.893187e+07   0.000000e+00   1896s
  290347    1.3466944e+04   6.486783e+06   0.000000e+00   1900s
  290657    1.3466944e+04   1.490198e+06   0.000000e+00   1905s
  291037    1.3466944e+04   4.121167e+06   0.000000e+00   1912s
  291257    1.3466943e+04   3.977490e+06   0.000000e+00   1915s
  291547    1.3466943e+04   4.173944e+06   0.000000e+00   1921s
  291847    1.3466943e+04   1.941142e+07   0.000000e+00   1925s
  292237    1.3466942e+04   1.768011e+06   0.000000e+00   1931s
  292597    1.3466942e+04   5.998411e+06   0.000000e+00   1936s
  292887    1.3466942e+04   3.412101e+06   0.000000e+00   1941s
  293267    1.3466942e+04   4.333690e+07   0.000000e+00   1946s
  293717    1.3466941e+04   4.565822e+06   0.000000e+00   1952s
  293977    1.3466941e+04   9.711688e+06   0.000000e+00   1956s
  294437    1.3466940e+04   5.567564e+06   0.000000e+00   1962s
  294757    1.3466940e+04   2.271459e+07   0.000000e+00   1967s
  295007    1.3466940e+04   1.448346e+07   0.000000e+00   1970s
  295417    1.3452940e+04   2.133307e+06   0.000000e+00   1976s
  295717    1.3452940e+04   8.914204e+06   0.000000e+00   1980s
  296077    1.3452939e+04   3.182950e+06   0.000000e+00   1985s
  296557    1.3452939e+04   2.258550e+06   0.000000e+00   1992s
  296847    1.3452939e+04   1.422298e+06   0.000000e+00   1996s
  297177    1.3452938e+04   1.500656e+07   0.000000e+00   2000s
  297567    1.3452937e+04   2.875749e+07   0.000000e+00   2006s
  297927    1.3452937e+04   9.425162e+05   0.000000e+00   2011s
  298337    1.3452937e+04   2.246027e+06   0.000000e+00   2016s
  298597    1.3452936e+04   1.442755e+07   0.000000e+00   2020s
  299037    1.3452936e+04   2.232801e+06   0.000000e+00   2026s
  299337    1.3452935e+04   4.181661e+06   0.000000e+00   2030s
  299767    1.3452935e+04   2.292059e+06   0.000000e+00   2036s
  300197    1.3452934e+04   1.655078e+07   0.000000e+00   2042s
  300507    1.3452934e+04   1.889549e+06   0.000000e+00   2046s
  300827    1.3424942e+04   6.347035e+06   0.000000e+00   2050s
  301277    1.3419942e+04   8.511651e+05   0.000000e+00   2057s
  301587    1.3419939e+04   5.104330e+06   0.000000e+00   2061s
  301927    1.3419939e+04   1.176528e+06   0.000000e+00   2066s
  302327    1.3419938e+04   3.237650e+06   0.000000e+00   2071s
  302737    1.3419938e+04   6.172472e+06   0.000000e+00   2077s
  303017    1.3419937e+04   2.103056e+06   0.000000e+00   2081s
  303487    1.3419937e+04   5.150750e+05   0.000000e+00   2087s
  303797    1.3419937e+04   1.662964e+06   0.000000e+00   2091s
  304127    1.3419936e+04   1.506763e+06   0.000000e+00   2096s
  304427    1.3419936e+04   1.309380e+07   0.000000e+00   2100s
  304797    1.3419936e+04   1.413789e+07   0.000000e+00   2106s
  305177    1.3419935e+04   1.952427e+08   0.000000e+00   2111s
  305537    1.3419935e+04   4.955449e+06   0.000000e+00   2116s
  305817    1.3419934e+04   1.242914e+06   0.000000e+00   2120s
  306227    1.3419934e+04   4.436121e+06   0.000000e+00   2126s
  306627    1.3419934e+04   2.310400e+06   0.000000e+00   2132s
  307007    1.3419933e+04   6.701038e+06   0.000000e+00   2137s
  307327    1.3419933e+04   1.626884e+06   0.000000e+00   2141s
  307677    1.3419932e+04   9.467393e+07   0.000000e+00   2146s
  307977    1.3419932e+04   7.327704e+06   0.000000e+00   2151s
  308367    1.3419932e+04   4.343870e+06   0.000000e+00   2156s
  308717    1.3419931e+04   1.337640e+06   0.000000e+00   2161s
  309067    1.3419931e+04   3.738265e+06   0.000000e+00   2166s
  309457    1.3419930e+04   1.101450e+07   0.000000e+00   2171s
  309767    1.3419930e+04   3.993128e+05   0.000000e+00   2176s
  310117    1.3419930e+04   3.781177e+06   0.000000e+00   2180s
  310557    1.3419929e+04   4.990067e+07   0.000000e+00   2186s
  310997    1.3419927e+04   1.343166e+06   0.000000e+00   2192s
  311247    1.3419926e+04   1.638563e+06   0.000000e+00   2195s
  311727    1.3336925e+04   8.997798e+06   0.000000e+00   2202s
  312047    1.3305927e+04   1.444549e+06   0.000000e+00   2206s
  312437    1.3305927e+04   1.155590e+07   0.000000e+00   2212s
  312757    1.3305927e+04   2.083699e+06   0.000000e+00   2216s
  313077    1.3249931e+04   6.814576e+06   0.000000e+00   2221s
  313397    1.3249931e+04   3.492285e+06   0.000000e+00   2225s
  313787    1.3249931e+04   1.288678e+07   0.000000e+00   2231s
  314097    1.3249930e+04   1.937576e+06   0.000000e+00   2235s
  314497    1.3241934e+04   1.703340e+06   0.000000e+00   2241s
  314817    1.3241934e+04   5.602106e+05   0.000000e+00   2245s
  315207    1.3241934e+04   1.743106e+06   0.000000e+00   2251s
  315507    1.3241933e+04   6.883779e+06   0.000000e+00   2255s
  315907    1.3241933e+04   4.641869e+06   0.000000e+00   2261s
  316207    1.3241933e+04   2.576997e+06   0.000000e+00   2265s
  316587    1.3241932e+04   1.166481e+07   0.000000e+00   2271s
  317007    1.3231936e+04   9.777811e+05   0.000000e+00   2276s
  317387    1.3231936e+04   2.428980e+06   0.000000e+00   2282s
  317627    1.3231935e+04   5.043138e+06   0.000000e+00   2285s
  318107    1.3231935e+04   2.638610e+06   0.000000e+00   2292s
  318387    1.3231935e+04   7.953653e+06   0.000000e+00   2296s
  318717    1.3231935e+04   1.561235e+06   0.000000e+00   2300s
  319117    1.3231934e+04   1.696266e+06   0.000000e+00   2306s
  319437    1.3231934e+04   7.680571e+06   0.000000e+00   2311s
  319747    1.3231934e+04   7.207349e+05   0.000000e+00   2315s
  320187    1.3231933e+04   4.561812e+06   0.000000e+00   2321s
  320477    1.3231933e+04   1.017837e+06   0.000000e+00   2325s
  320937    1.3231932e+04   1.844333e+07   0.000000e+00   2332s
  321247    1.3231932e+04   4.003590e+06   0.000000e+00   2337s
  321517    1.3231932e+04   7.510066e+06   0.000000e+00   2341s
  321837    1.3231932e+04   8.857544e+05   0.000000e+00   2345s
  322317    1.3231931e+04   6.025074e+06   0.000000e+00   2352s
  322587    1.3231931e+04   2.306883e+06   0.000000e+00   2356s
  322887    1.3231931e+04   2.586202e+06   0.000000e+00   2360s
  323237    1.3231930e+04   1.115936e+07   0.000000e+00   2366s
  323577    1.3231930e+04   1.231199e+06   0.000000e+00   2371s
  323907    1.3231930e+04   4.711180e+07   0.000000e+00   2376s
  324197    1.3231930e+04   8.392548e+05   0.000000e+00   2380s
  324647    1.3231929e+04   1.591181e+06   0.000000e+00   2387s
  324877    1.3231929e+04   1.260193e+06   0.000000e+00   2390s
  325237    1.3231929e+04   3.061035e+06   0.000000e+00   2395s
  325657    1.3231928e+04   2.612342e+07   0.000000e+00   2402s
  325967    1.3231928e+04   3.622800e+06   0.000000e+00   2406s
  326257    1.3231928e+04   4.996437e+06   0.000000e+00   2410s
  326647    1.3231927e+04   5.675182e+06   0.000000e+00   2416s
  326997    1.3231927e+04   1.265805e+07   0.000000e+00   2421s
  327397    1.3231927e+04   6.656067e+06   0.000000e+00   2427s
  327657    1.3219933e+04   4.619510e+06   0.000000e+00   2431s
  327947    1.3089941e+04   4.773902e+06   0.000000e+00   2435s
  328367    1.2925930e+04   2.529823e+06   0.000000e+00   2441s
  328687    1.2825930e+04   1.669039e+06   0.000000e+00   2446s
  329007    1.2570942e+04   3.210269e+08   0.000000e+00   2450s
  329477    1.2570942e+04   7.639377e+06   0.000000e+00   2457s
  329757    1.2570941e+04   6.605983e+07   0.000000e+00   2461s
  330137    1.2570941e+04   1.024356e+07   0.000000e+00   2466s
  330427    1.2570941e+04   6.609761e+06   0.000000e+00   2471s
  330787    1.2570941e+04   5.835054e+06   0.000000e+00   2476s
  331097    1.2570940e+04   9.958030e+05   0.000000e+00   2481s
  331397    1.2509945e+04   3.432733e+06   0.000000e+00   2485s
  331777    1.2509945e+04   2.727312e+06   0.000000e+00   2491s
  332237    1.2509944e+04   2.657042e+06   0.000000e+00   2497s
  332487    1.2509944e+04   2.258008e+06   0.000000e+00   2501s
  332777    1.2509944e+04   2.178692e+06   0.000000e+00   2505s
  333177    1.2509943e+04   1.214443e+06   0.000000e+00   2511s
  333527    1.2509943e+04   1.217629e+06   0.000000e+00   2516s
  333837    1.2509943e+04   4.524754e+05   0.000000e+00   2520s
  334257    1.2509943e+04   1.249643e+06   0.000000e+00   2526s
  334527    1.2509942e+04   6.889099e+06   0.000000e+00   2530s
  334967    1.2509942e+04   2.069017e+06   0.000000e+00   2537s
  335287    1.2509942e+04   4.688371e+06   0.000000e+00   2542s
  335607    1.2509942e+04   9.120417e+05   0.000000e+00   2546s
  335927    1.2509942e+04   6.000301e+05   0.000000e+00   2551s
  336217    1.2509941e+04   4.306595e+07   0.000000e+00   2555s
  336687    1.2509941e+04   1.714077e+06   0.000000e+00   2562s
  336987    1.2509939e+04   1.265019e+06   0.000000e+00   2566s
  337267    1.2509939e+04   6.979181e+05   0.000000e+00   2571s
  337707    1.2509939e+04   3.777908e+05   0.000000e+00   2577s
  338027    1.2509938e+04   1.169992e+06   0.000000e+00   2581s
  338297    1.2509938e+04   1.054265e+06   0.000000e+00   2585s
  338677    1.2509938e+04   1.970104e+06   0.000000e+00   2591s
  338977    1.2509938e+04   1.621203e+06   0.000000e+00   2595s
  339397    1.2509938e+04   1.267518e+06   0.000000e+00   2602s
  339657    1.2509937e+04   1.031186e+06   0.000000e+00   2605s
  340057    1.2509937e+04   6.506278e+05   0.000000e+00   2611s
  340367    1.2509937e+04   1.241927e+06   0.000000e+00   2616s
  340767    1.2509937e+04   8.883798e+05   0.000000e+00   2622s
  341057    1.2509937e+04   1.528743e+06   0.000000e+00   2626s
  341407    1.2509937e+04   2.254381e+06   0.000000e+00   2631s
  341727    1.2509936e+04   8.879600e+05   0.000000e+00   2636s
  342047    1.2509936e+04   2.148454e+06   0.000000e+00   2641s
  342357    1.2509936e+04   2.039132e+06   0.000000e+00   2645s
  342837    1.2508933e+04   1.595819e+07   0.000000e+00   2652s
  343157    1.2508932e+04   1.582580e+06   0.000000e+00   2657s
  343467    1.2508932e+04   1.498688e+06   0.000000e+00   2661s
  343787    1.2508932e+04   1.226853e+06   0.000000e+00   2666s
  344107    1.2508932e+04   7.649301e+06   0.000000e+00   2670s
  344577    1.2508931e+04   2.268958e+05   0.000000e+00   2677s
  344827    1.2508931e+04   9.146189e+05   0.000000e+00   2681s
  345127    1.2508931e+04   7.792436e+06   0.000000e+00   2685s
  345507    1.2508931e+04   7.181345e+05   0.000000e+00   2691s
  345867    1.2508931e+04   2.252635e+06   0.000000e+00   2697s
  346177    1.2508931e+04   1.212752e+07   0.000000e+00   2701s
  346477    1.2508930e+04   6.375435e+06   0.000000e+00   2706s
  346817    1.2508930e+04   3.970094e+05   0.000000e+00   2711s
  347207    1.2508930e+04   3.826422e+06   0.000000e+00   2717s
  347497    1.2508930e+04   2.550265e+06   0.000000e+00   2721s
  347807    1.2508929e+04   4.671707e+06   0.000000e+00   2725s
  348147    1.2508929e+04   3.788211e+08   0.000000e+00   2730s
  348547    1.2508929e+04   2.784182e+06   0.000000e+00   2736s
  348837    1.2508928e+04   1.328654e+06   0.000000e+00   2741s
  349137    1.2508928e+04   1.358203e+06   0.000000e+00   2745s
  349527    1.2508928e+04   6.821603e+07   0.000000e+00   2751s
  349837    1.2508927e+04   4.438974e+06   0.000000e+00   2756s
  350257    1.2508926e+04   5.583874e+06   0.000000e+00   2762s
  350527    1.2508926e+04   2.620203e+06   0.000000e+00   2766s
  350787    1.2508926e+04   2.686327e+08   0.000000e+00   2770s
  351247    1.2508925e+04   6.771754e+05   0.000000e+00   2777s
  351477    1.2508925e+04   2.621849e+06   0.000000e+00   2780s
  351917    1.2508925e+04   5.004097e+05   0.000000e+00   2787s
  352137    1.2508924e+04   1.628529e+06   0.000000e+00   2790s
  352527    1.2508924e+04   1.308963e+06   0.000000e+00   2796s
  352817    1.2508924e+04   4.023023e+06   0.000000e+00   2801s
  353227    1.2508924e+04   2.161903e+06   0.000000e+00   2807s
  353537    1.2508924e+04   3.816219e+05   0.000000e+00   2811s
  353867    1.2508924e+04   3.101509e+06   0.000000e+00   2816s
  354167    1.2508923e+04   6.526482e+05   0.000000e+00   2821s
  354557    1.2508923e+04   5.138453e+06   0.000000e+00   2826s
  354847    1.2508923e+04   2.083862e+06   0.000000e+00   2831s
  355157    1.2508923e+04   2.598570e+06   0.000000e+00   2835s
  355557    1.2508923e+04   1.183119e+07   0.000000e+00   2841s
  355857    1.2508923e+04   1.144496e+06   0.000000e+00   2845s
  356307    1.2508922e+04   2.092473e+06   0.000000e+00   2851s
  356617    1.2508922e+04   4.387747e+06   0.000000e+00   2856s
  356937    1.2508922e+04   4.060755e+06   0.000000e+00   2860s
  357307    1.2508922e+04   4.177430e+05   0.000000e+00   2866s
  357617    1.2507925e+04   2.946688e+06   0.000000e+00   2870s
  357997    1.2506932e+04   1.031489e+06   0.000000e+00   2876s
  358387    1.2506932e+04   1.026290e+06   0.000000e+00   2881s
  358737    1.2506932e+04   3.638055e+05   0.000000e+00   2887s
  358937    1.2506932e+04   3.424499e+05   0.000000e+00   2891s
  359287    1.2506931e+04   4.126488e+06   0.000000e+00   2897s
  359517    1.2506931e+04   2.136195e+05   0.000000e+00   2901s
  359827    1.2506931e+04   1.013788e+06   0.000000e+00   2907s
  360127    1.2506931e+04   8.621426e+05   0.000000e+00   2912s
  360397    1.2506931e+04   5.314877e+06   0.000000e+00   2917s
  360647    1.2506931e+04   4.522457e+05   0.000000e+00   2921s
  360857    1.2506931e+04   5.492039e+05   0.000000e+00   2925s
  361167    1.2506931e+04   6.966477e+05   0.000000e+00   2931s
  361467    1.2506930e+04   4.407488e+06   0.000000e+00   2937s
  361647    1.2506930e+04   7.036413e+05   0.000000e+00   2940s
  361907    1.2506930e+04   3.978702e+06   0.000000e+00   2945s
  362177    1.2506930e+04   6.663871e+06   0.000000e+00   2950s
  362477    1.2506930e+04   1.705822e+06   0.000000e+00   2956s
  362787    1.2506930e+04   8.215382e+07   0.000000e+00   2962s
  363027    1.2506929e+04   1.095480e+06   0.000000e+00   2966s
  363247    1.2506929e+04   5.816696e+05   0.000000e+00   2970s
  363557    1.2506929e+04   6.353954e+05   0.000000e+00   2976s
  363857    1.2506929e+04   5.367927e+06   0.000000e+00   2981s
  364147    1.2506929e+04   1.721011e+05   0.000000e+00   2987s
  364367    1.2506929e+04   6.370201e+05   0.000000e+00   2991s
  364657    1.2506929e+04   4.093296e+06   0.000000e+00   2996s
  364947    1.2506928e+04   1.318773e+06   0.000000e+00   3001s
  365247    1.2506928e+04   1.984928e+07   0.000000e+00   3006s
  365537    1.2506928e+04   5.963618e+06   0.000000e+00   3010s
  365947    1.2506927e+04   1.597133e+07   0.000000e+00   3016s
  366227    1.2506927e+04   1.233120e+07   0.000000e+00   3020s
  366577    1.2506927e+04   1.069271e+06   0.000000e+00   3025s
  367027    1.2506927e+04   5.417112e+05   0.000000e+00   3032s
  367327    1.2506927e+04   1.195971e+06   0.000000e+00   3036s
  367687    1.2506927e+04   8.192257e+05   0.000000e+00   3041s
  368057    1.2506927e+04   2.704617e+06   0.000000e+00   3046s
  368327    1.2506926e+04   9.186803e+06   0.000000e+00   3050s
  368727    1.2496923e+04   1.353088e+07   0.000000e+00   3056s
  369117    1.2491927e+04   2.146768e+06   0.000000e+00   3061s
  369517    1.2491927e+04   3.895055e+05   0.000000e+00   3067s
  369787    1.2491927e+04   1.632633e+07   0.000000e+00   3071s
  370147    1.2491926e+04   1.778831e+06   0.000000e+00   3076s
  370477    1.2491926e+04   1.387523e+06   0.000000e+00   3081s
  370857    1.2491926e+04   2.376821e+06   0.000000e+00   3086s
  371217    1.2491926e+04   1.419785e+06   0.000000e+00   3091s
  371547    1.2491926e+04   2.382052e+06   0.000000e+00   3096s
  371927    1.2491926e+04   1.167614e+06   0.000000e+00   3102s
  372257    1.2491926e+04   9.220877e+05   0.000000e+00   3106s
  372547    1.2491925e+04   4.062999e+06   0.000000e+00   3110s
  372937    1.2491925e+04   4.595021e+05   0.000000e+00   3116s
  373357    1.2491925e+04   3.115260e+06   0.000000e+00   3122s
  373667    1.2491925e+04   3.384719e+06   0.000000e+00   3127s
  374027    1.2491925e+04   6.403566e+05   0.000000e+00   3132s
  374297    1.2491924e+04   2.236791e+06   0.000000e+00   3136s
  374647    1.2491924e+04   8.160397e+05   0.000000e+00   3140s
  375027    1.2491924e+04   5.296071e+05   0.000000e+00   3146s
  375447    1.2491924e+04   1.564099e+06   0.000000e+00   3152s
  375747    1.2491924e+04   9.960744e+05   0.000000e+00   3156s
  376027    1.2491924e+04   1.411252e+06   0.000000e+00   3160s
  376507    1.2491924e+04   5.468527e+05   0.000000e+00   3167s
  376767    1.2491924e+04   6.581690e+05   0.000000e+00   3170s
  377197    1.2491923e+04   9.329611e+05   0.000000e+00   3176s
  377487    1.2491923e+04   2.601272e+06   0.000000e+00   3180s
  377907    1.2491923e+04   2.840031e+06   0.000000e+00   3186s
  378227    1.2491923e+04   5.178202e+06   0.000000e+00   3191s
  378577    1.2491923e+04   5.134651e+06   0.000000e+00   3196s
  378877    1.2491923e+04   1.419766e+06   0.000000e+00   3200s
  379237    1.2491923e+04   1.171223e+06   0.000000e+00   3205s
  379627    1.2491923e+04   1.038660e+07   0.000000e+00   3211s
  379957    1.2491923e+04   8.323425e+05   0.000000e+00   3216s
  380377    1.2491922e+04   2.046097e+06   0.000000e+00   3222s
  380707    1.2491919e+04   2.455697e+08   0.000000e+00   3226s
  380997    1.2491918e+04   8.303168e+06   0.000000e+00   3230s
  381437    1.2444919e+04   2.589501e+07   0.000000e+00   3237s
  381757    1.2439919e+04   2.989689e+07   0.000000e+00   3241s
  382057    1.2439919e+04   9.751521e+05   0.000000e+00   3245s
  382447    1.2439919e+04   5.245347e+05   0.000000e+00   3251s
  382867    1.2439918e+04   2.788363e+06   0.000000e+00   3256s
  383267    1.2439918e+04   2.354128e+06   0.000000e+00   3262s
  383507    1.2439918e+04   1.082864e+06   0.000000e+00   3265s
  383957    1.2439918e+04   2.469369e+05   0.000000e+00   3271s
  384227    1.2439917e+04   8.912163e+05   0.000000e+00   3275s
  384557    1.2439917e+04   4.517117e+06   0.000000e+00   3280s
  385027    1.2439917e+04   2.589912e+06   0.000000e+00   3287s
  385327    1.2439917e+04   3.658248e+06   0.000000e+00   3291s
  385657    1.2439917e+04   3.420822e+06   0.000000e+00   3296s
  385957    1.2439917e+04   1.668459e+06   0.000000e+00   3300s
  386317    1.2439916e+04   2.409306e+06   0.000000e+00   3305s
  386667    1.2439916e+04   4.662294e+06   0.000000e+00   3310s
  387087    1.2439916e+04   1.100553e+06   0.000000e+00   3316s
  387387    1.2439916e+04   3.120959e+05   0.000000e+00   3320s
  387777    1.2439916e+04   3.366190e+05   0.000000e+00   3326s
  388077    1.2439915e+04   1.204659e+06   0.000000e+00   3330s
  388547    1.2439915e+04   9.603236e+05   0.000000e+00   3337s
  388917    1.2439915e+04   3.788496e+05   0.000000e+00   3342s
  389187    1.2439915e+04   1.499385e+06   0.000000e+00   3346s
  389547    1.2439915e+04   3.076227e+06   0.000000e+00   3351s
  389937    1.2439915e+04   7.015631e+05   0.000000e+00   3356s
  390307    1.2439915e+04   9.425131e+05   0.000000e+00   3361s
  390567    1.2439914e+04   6.841040e+05   0.000000e+00   3365s
  390957    1.2439914e+04   4.827662e+05   0.000000e+00   3371s
  391377    1.2439914e+04   2.055669e+05   0.000000e+00   3376s
  391677    1.2439914e+04   1.239425e+06   0.000000e+00   3380s
  392157    1.2439914e+04   8.834479e+05   0.000000e+00   3387s
  392457    1.2439914e+04   1.349736e+06   0.000000e+00   3391s
  392767    1.2439914e+04   1.822737e+06   0.000000e+00   3395s
  393097    1.2439914e+04   6.980056e+05   0.000000e+00   3400s
  393587    1.2439913e+04   8.831430e+05   0.000000e+00   3407s
  393817    1.2439913e+04   1.251913e+06   0.000000e+00   3410s
  394317    1.2439913e+04   2.352845e+06   0.000000e+00   3417s
  394547    1.2435918e+04   2.152317e+06   0.000000e+00   3420s
  394987    1.2435918e+04   2.184611e+05   0.000000e+00   3426s
  395357    1.2435918e+04   1.320455e+06   0.000000e+00   3431s
  395787    1.2435917e+04   8.501260e+05   0.000000e+00   3437s
  396067    1.2435917e+04   2.845686e+05   0.000000e+00   3440s
  396407    1.2435917e+04   9.830224e+05   0.000000e+00   3445s
  396837    1.2390424e+04   1.104196e+06   0.000000e+00   3451s
  397247    1.2390423e+04   8.004929e+06   0.000000e+00   3456s
  397557    1.2390423e+04   3.483137e+06   0.000000e+00   3460s
  398007    1.2390423e+04   3.472047e+05   0.000000e+00   3466s
  398377    1.2390423e+04   1.838839e+06   0.000000e+00   3471s
  398677    1.2390423e+04   9.413593e+05   0.000000e+00   3475s
  399107    1.2390423e+04   1.781431e+06   0.000000e+00   3481s
  399447    1.2390423e+04   1.546973e+05   0.000000e+00   3486s
  399787    1.2390422e+04   2.587679e+06   0.000000e+00   3491s
  400187    1.2390422e+04   1.360088e+06   0.000000e+00   3496s
  400497    1.2390422e+04   2.100900e+06   0.000000e+00   3500s
  400957    1.2390422e+04   4.342825e+05   0.000000e+00   3506s
  401337    1.2390422e+04   2.977800e+05   0.000000e+00   3511s
  401737    1.2390422e+04   1.011725e+06   0.000000e+00   3516s
  402097    1.2390422e+04   2.365150e+05   0.000000e+00   3521s
  402457    1.2390422e+04   1.762967e+06   0.000000e+00   3526s
  402817    1.2390422e+04   1.728337e+06   0.000000e+00   3530s
  403277    1.2390422e+04   1.259114e+05   0.000000e+00   3536s
  403597    1.2390422e+04   4.203768e+06   0.000000e+00   3541s
  403947    1.2390421e+04   3.388031e+05   0.000000e+00   3545s
  404407    1.2390421e+04   4.263018e+05   0.000000e+00   3551s
  404807    1.2390421e+04   6.907209e+05   0.000000e+00   3557s
  405087    1.2390421e+04   5.121119e+05   0.000000e+00   3560s
  405537    1.2390421e+04   7.929175e+05   0.000000e+00   3566s
  405847    1.2390421e+04   1.576955e+06   0.000000e+00   3570s
  406257    1.2390421e+04   1.038726e+06   0.000000e+00   3575s
  406707    1.2390421e+04   1.233272e+06   0.000000e+00   3581s
  406987    1.2390421e+04   5.114859e+05   0.000000e+00   3585s
  407367    1.2390421e+04   4.198648e+05   0.000000e+00   3591s
  407707    1.2390421e+04   4.945331e+05   0.000000e+00   3595s

Root relaxation: time limit, 408066 iterations, 3598.22 seconds

    Nodes    |    Current Node    |     Objective Bounds      |     Work
 Expl Unexpl |  Obj  Depth IntInf | Incumbent    BestBd   Gap | It/Node Time

     0     0          -    0      5109.00000 15886.0000   211%     - 3600s

Explored 0 nodes (408066 simplex iterations) in 3600.02 seconds
Thread count was 1 (of 40 available processors)

Solution count 1: 5109 

Time limit reached
Best objective 5.109000000000e+03, best bound 1.588600000000e+04, gap 210.9415%

----------

Best objective (UB): 15886.000
Best feasible solution (LB): 5109.000
Gap between the lower bound and upper bound: 210.941%

----------

Number of customers served: 38

Schedule for EV v0:
   [   0,  535) -> It remains parked at station s0.
   [ 535,  640) -> Service a request driving for customer c18 from s0 to s2.
   [ 640, 1005) -> It remains parked at station s2.
   [1005, 1105) -> Service a request driving for customer c99 from s2 to s0.
   [1105, 1155) -> It remains parked at station s0.
   [1155, 1211) -> Service a request driving for customer c99 from s0 to s1.
   [1211, 1480) -> It remains parked at station s1.

Schedule for EV v1:
   [   0,  495) -> It remains parked at station s0.
   [ 495,  600) -> Service a request driving for customer c82 from s0 to s2.
   [ 600,  970) -> It remains parked at station s2.
   [ 970, 1031) -> Service a request driving for customer c12 from s2 to s1.
   [1031, 1060) -> It remains parked at station s1.
   [1060, 1121) -> Service a request driving for customer c61 from s1 to s2.
   [1121, 1480) -> It remains parked at station s2.

Schedule for EV v2:
   [   0,  935) -> It remains parked at station s0.
   [ 935, 1040) -> Service a request driving for customer c84 from s0 to s2.
   [1040, 1065) -> It remains parked at station s2.
   [1065, 1170) -> Service a request driving for customer c84 from s2 to s0.
   [1170, 1480) -> It remains parked at station s0.

Schedule for EV v3:
   [   0,  440) -> It remains parked at station s0.
   [ 440,  540) -> Service a request driving for customer c103 from s0 to s2.
   [ 540,  555) -> It remains parked at station s2.
   [ 555,  616) -> Service a request driving for customer c70 from s2 to s1.
   [ 616, 1135) -> It remains parked at station s1.
   [1135, 1196) -> Service a request driving for customer c70 from s1 to s2.
   [1196, 1480) -> It remains parked at station s2.

Schedule for EV v4:
   [   0,  530) -> It remains parked at station s0.
   [ 530,  625) -> Service a request driving for customer c116 from s0 to s2.
   [ 625,  815) -> It remains parked at station s2.
   [ 815,  920) -> Service a request driving for customer c116 from s2 to s0.
   [ 920, 1030) -> It remains parked at station s0.
   [1030, 1125) -> Service a request driving for customer c58 from s0 to s2.
   [1125, 1325) -> It remains parked at station s2.
   [1325, 1396) -> Service a request driving for customer c58 from s2 to s1.
   [1396, 1480) -> It remains parked at station s1.

Schedule for EV v5:
   [   0,  535) -> It remains parked at station s0.
   [ 535,  635) -> Service a request driving for customer c55 from s0 to s2.
   [ 635, 1070) -> It remains parked at station s2.
   [1070, 1165) -> Service a request driving for customer c55 from s2 to s0.
   [1165, 1480) -> It remains parked at station s0.

Schedule for EV v6:
   [   0,  540) -> It remains parked at station s1.
   [ 540,  611) -> Service a request driving for customer c4 from s1 to s2.
   [ 611,  710) -> It remains parked at station s2.
   [ 710,  815) -> Service a request driving for customer c4 from s2 to s0.
   [ 815,  820) -> It remains parked at station s0.
   [ 820,  920) -> Service a request driving for customer c88 from s0 to s2.
   [ 920, 1040) -> It remains parked at station s2.
   [1040, 1096) -> Service a request driving for customer c88 from s2 to s1.
   [1096, 1115) -> It remains parked at station s1.
   [1115, 1191) -> Service a request driving for customer c90 from s1 to s2.
   [1191, 1480) -> It remains parked at station s2.

Schedule for EV v7:
   [   0,  865) -> It remains parked at station s1.
   [ 865,  946) -> Service a request driving for customer c41 from s1 to s2.
   [ 946, 1095) -> It remains parked at station s2.
   [1095, 1176) -> Service a request driving for customer c102 from s2 to s1.
   [1176, 1180) -> It remains parked at station s1.
   [1180, 1226) -> Service a request driving for customer c10 from s1 to s0.
   [1226, 1480) -> It remains parked at station s0.

Schedule for EV v8:
   [   0, 1140) -> It remains parked at station s1.
   [1140, 1221) -> Service a request driving for customer c44 from s1 to s2.
   [1221, 1480) -> It remains parked at station s2.

Schedule for EV v9:
   [   0,  485) -> It remains parked at station s1.
   [ 485,  561) -> Service a request driving for customer c34 from s1 to s2.
   [ 561, 1080) -> It remains parked at station s2.
   [1080, 1165) -> Service a request driving for customer c34 from s2 to s0.
   [1165, 1480) -> It remains parked at station s0.

Schedule for EV v10:
   [   0,  460) -> It remains parked at station s1.
   [ 460,  536) -> Service a request driving for customer c19 from s1 to s2.
   [ 536,  905) -> It remains parked at station s2.
   [ 905,  971) -> Service a request driving for customer c78 from s2 to s1.
   [ 971, 1335) -> It remains parked at station s1.
   [1335, 1381) -> Service a request driving for customer c78 from s1 to s0.
   [1381, 1480) -> It remains parked at station s0.

Schedule for EV v11:
   [   0, 1115) -> It remains parked at station s1.
   [1115, 1191) -> Service a request driving for customer c112 from s1 to s2.
   [1191, 1480) -> It remains parked at station s2.

Schedule for EV v12:
   [   0,  320) -> It remains parked at station s1.
   [ 320,  386) -> Service a request driving for customer c57 from s1 to s2.
   [ 386,  795) -> It remains parked at station s2.
   [ 795,  871) -> Service a request driving for customer c57 from s2 to s1.
   [ 871, 1060) -> It remains parked at station s1.
   [1060, 1141) -> Service a request driving for customer c57 from s1 to s2.
   [1141, 1150) -> It remains parked at station s2.
   [1150, 1206) -> Service a request driving for customer c104 from s2 to s1.
   [1206, 1480) -> It remains parked at station s1.

Schedule for EV v13:
   [   0,  440) -> It remains parked at station s1.
   [ 440,  521) -> Service a request driving for customer c22 from s1 to s2.
   [ 521, 1090) -> It remains parked at station s2, which was charging for charging.
   [1090, 1151) -> Service a request driving for customer c22 from s2 to s1.
   [1151, 1480) -> It remains parked at station s1.

Schedule for EV v14:
   [   0,  550) -> It remains parked at station s1.
   [ 550,  621) -> Service a request driving for customer c79 from s1 to s2.
   [ 621, 1480) -> It remains parked at station s2, which was charging for charging.

Schedule for EV v15:
   [   0,  525) -> It remains parked at station s1.
   [ 525,  596) -> Service a request driving for customer c115 from s1 to s2.
   [ 596, 1100) -> It remains parked at station s2, which was charging for charging.
   [1100, 1171) -> Service a request driving for customer c115 from s2 to s1.
   [1171, 1480) -> It remains parked at station s1.

Schedule for EV v16:
   [   0,  610) -> It remains parked at station s1.
   [ 610,  691) -> Service a request driving for customer c63 from s1 to s2.
   [ 691, 1015) -> It remains parked at station s2, which was charging for charging.
   [1015, 1071) -> Service a request driving for customer c63 from s2 to s1.
   [1071, 1135) -> It remains parked at station s1.
   [1135, 1186) -> Service a request driving for customer c38 from s1 to s0.
   [1186, 1225) -> It remains parked at station s0.
   [1225, 1281) -> Service a request driving for customer c38 from s0 to s1.
   [1281, 1480) -> It remains parked at station s1.

Schedule for EV v17:
   [   0, 1130) -> It remains parked at station s1.
   [1130, 1176) -> Service a request driving for customer c51 from s1 to s0.
   [1176, 1180) -> It remains parked at station s0, which was charging for charging.
   [1180, 1216) -> Service a request driving for customer c51 from s0 to s1.
   [1216, 1335) -> It remains parked at station s1.
   [1335, 1401) -> Service a request driving for customer c51 from s1 to s2.
   [1401, 1480) -> It remains parked at station s2.

Schedule for EV v18:
   [   0, 1480) -> It remains parked at station s1, which was charging for charging.

Schedule for EV v19:
   [   0, 1480) -> It remains parked at station s1, which was charging for charging.

Schedule for EV v20:
   [   0, 1480) -> It remains parked at station s1, which was charging for charging.

Schedule for EV v21:
   [   0,  975) -> It remains parked at station s2.
   [ 975, 1075) -> Service a request driving for customer c5 from s2 to s0.
   [1075, 1480) -> It remains parked at station s0.

Schedule for EV v22:
   [   0,  540) -> It remains parked at station s2.
   [ 540,  635) -> Service a request driving for customer c39 from s2 to s0.
   [ 635, 1375) -> It remains parked at station s0.
   [1375, 1475) -> Service a request driving for customer c39 from s0 to s2.
   [1475, 1480) -> It remains parked at station s2.

Schedule for EV v23:
   [   0,  590) -> It remains parked at station s2.
   [ 590,  690) -> Service a request driving for customer c62 from s2 to s0.
   [ 690, 1245) -> It remains parked at station s0.
   [1245, 1340) -> Service a request driving for customer c62 from s0 to s2.
   [1340, 1480) -> It remains parked at station s2.

Schedule for EV v24:
   [   0,  495) -> It remains parked at station s2.
   [ 495,  590) -> Service a request driving for customer c52 from s2 to s0.
   [ 590, 1135) -> It remains parked at station s0.
   [1135, 1225) -> Service a request driving for customer c52 from s0 to s2.
   [1225, 1480) -> It remains parked at station s2.

Schedule for EV v25:
   [   0,  550) -> It remains parked at station s2.
   [ 550,  640) -> Service a request driving for customer c67 from s2 to s0.
   [ 640,  670) -> It remains parked at station s0.
   [ 670,  765) -> Service a request driving for customer c67 from s0 to s2.
   [ 765, 1165) -> It remains parked at station s2.
   [1165, 1250) -> Service a request driving for customer c111 from s2 to s0.
   [1250, 1480) -> It remains parked at station s0.

Schedule for EV v26:
   [   0,  520) -> It remains parked at station s2.
   [ 520,  615) -> Service a request driving for customer c105 from s2 to s0.
   [ 615,  945) -> It remains parked at station s0, which was charging for charging.
   [ 945, 1030) -> Service a request driving for customer c105 from s0 to s2.
   [1030, 1065) -> It remains parked at station s2.
   [1065, 1160) -> Service a request driving for customer c105 from s2 to s0.
   [1160, 1480) -> It remains parked at station s0.

Schedule for EV v27:
   [   0,  480) -> It remains parked at station s2.
   [ 480,  560) -> Service a request driving for customer c92 from s2 to s0.
   [ 560,  675) -> It remains parked at station s0, which was charging for charging.
   [ 675,  765) -> Service a request driving for customer c92 from s0 to s2.
   [ 765, 1140) -> It remains parked at station s2.
   [1140, 1230) -> Service a request driving for customer c92 from s2 to s0.
   [1230, 1480) -> It remains parked at station s0, which was charging for charging.

Set of satisfied customers
   {c4, c5, c10, c12, c18, c19, c22, c34, c38, c39, c41, c44, c51, c52, c55, c57, c58, c61, c62, c63, c67, c70, c78, c79, c82, c84, c88, c90, c92, c99, c102, c103, c104, c105, c111, c112, c115, c116}

