Academic license - for non-commercial use only
Gurobi Optimizer version 9.0.3 build v9.0.3rc0 (linux64)
Optimize a model with 469486 rows, 314826 columns and 2737000 nonzeros
Model fingerprint: 0xc0cd0a4a
Variable types: 159286 continuous, 155540 integer (155540 binary)
Coefficient statistics:
  Matrix range     [1e+00, 4e+06]
  Objective range  [3e+01, 7e+02]
  Bounds range     [1e+00, 2e+06]
  RHS range        [1e+00, 2e+06]

Loaded user MIP start with objective 2070

Presolve removed 194068 rows and 129760 columns (presolve time = 5s) ...
Presolve removed 202307 rows and 135786 columns (presolve time = 10s) ...
Presolve removed 216101 rows and 144999 columns (presolve time = 15s) ...
Presolve removed 216053 rows and 144951 columns
Presolve time: 15.08s
Presolved: 253433 rows, 169875 columns, 1420881 nonzeros
Variable types: 0 continuous, 169875 integer (160082 binary)

Root simplex log...

Iteration    Objective       Primal Inf.    Dual Inf.      Time
       0    1.2540000e+04   1.200019e+04   0.000000e+00     17s
   11026    1.2059998e+04   1.157145e+04   0.000000e+00     20s
   15868    1.2059998e+04   1.314200e+04   0.000000e+00     25s
   17482    1.2059998e+04   4.153017e+04   0.000000e+00     30s
   18827    1.2059998e+04   2.865955e+04   0.000000e+00     36s
   19903    1.2059997e+04   5.668750e+04   0.000000e+00     40s
   20979    1.2059997e+04   8.067847e+04   0.000000e+00     45s
   22055    1.2059997e+04   5.124706e+05   0.000000e+00     51s
   23131    1.2059997e+04   6.460853e+04   0.000000e+00     56s
   23938    1.2059997e+04   1.930995e+05   0.000000e+00     61s
   25014    1.2059997e+04   2.959469e+05   0.000000e+00     66s
   26090    1.2059997e+04   9.021614e+04   0.000000e+00     71s
   26897    1.2059997e+04   7.992536e+04   0.000000e+00     76s
   27704    1.2059997e+04   3.033316e+04   0.000000e+00     81s
   28511    1.2059997e+04   3.461798e+05   0.000000e+00     86s
   29587    1.2059997e+04   1.115767e+05   0.000000e+00     91s
   30125    1.2059997e+04   8.936983e+04   0.000000e+00     95s
   30932    1.2059997e+04   1.261607e+05   0.000000e+00    100s
   31739    1.2059997e+04   4.541592e+04   0.000000e+00    105s
   32546    1.2059997e+04   1.331158e+05   0.000000e+00    111s
   33353    1.2059997e+04   4.539044e+04   0.000000e+00    117s
   33891    1.2059997e+04   2.478888e+04   0.000000e+00    120s
   34698    1.2059996e+04   5.140315e+04   0.000000e+00    126s
   35505    1.2059996e+04   7.755559e+04   0.000000e+00    131s
   36312    1.2059996e+04   4.236059e+04   0.000000e+00    137s
   36850    1.2059996e+04   6.050085e+04   0.000000e+00    141s
   37657    1.2059996e+04   3.310915e+04   0.000000e+00    147s
   38195    1.2059996e+04   1.039009e+05   0.000000e+00    151s
   38733    1.2059996e+04   1.043230e+06   0.000000e+00    155s
   39531    1.2059996e+04   3.359207e+04   0.000000e+00    162s
   40069    1.2059996e+04   1.628898e+04   0.000000e+00    165s
   40876    1.2059996e+04   6.687520e+04   0.000000e+00    172s
   41414    1.2059996e+04   4.842401e+05   0.000000e+00    178s
   41683    1.2059996e+04   1.758349e+04   0.000000e+00    181s
   42193    1.2059996e+04   1.426575e+05   0.000000e+00    187s
   42453    1.2059996e+04   4.302511e+04   0.000000e+00    190s
   42963    1.2059996e+04   1.705218e+04   0.000000e+00    196s
   43492    1.2059996e+04   1.096812e+05   0.000000e+00    201s
   44021    1.2059996e+04   5.333188e+05   0.000000e+00    206s
   44559    1.2059996e+04   3.243083e+04   0.000000e+00    211s
   45068    1.2059996e+04   1.049300e+05   0.000000e+00    215s
   45838    1.2059996e+04   3.871616e+04   0.000000e+00    222s
   46357    1.2059996e+04   3.094617e+04   0.000000e+00    227s
   46895    1.2059996e+04   3.226259e+05   0.000000e+00    230s
   47693    1.2059996e+04   2.032706e+05   0.000000e+00    237s
   48193    1.2059996e+04   7.229308e+05   0.000000e+00    242s
   48731    1.2059996e+04   7.880255e+04   0.000000e+00    246s
   49221    1.2059996e+04   1.081175e+06   0.000000e+00    251s
   49740    1.2059996e+04   4.303742e+04   0.000000e+00    255s
   50509    1.2059996e+04   3.574341e+05   0.000000e+00    262s
   51038    1.2059996e+04   8.169617e+04   0.000000e+00    267s
   51557    1.2059996e+04   3.568768e+05   0.000000e+00    272s
   52077    1.2059996e+04   4.699350e+04   0.000000e+00    277s
   52587    1.2059996e+04   3.797448e+04   0.000000e+00    281s
   53106    1.2059996e+04   9.088340e+04   0.000000e+00    286s
   53596    1.2059996e+04   5.252805e+04   0.000000e+00    291s
   54086    1.2059996e+04   9.478505e+04   0.000000e+00    296s
   54606    1.2059995e+04   3.792815e+04   0.000000e+00    301s
   55116    1.2059995e+04   5.679441e+04   0.000000e+00    306s
   55616    1.2059995e+04   2.215528e+05   0.000000e+00    311s
   56106    1.2059995e+04   2.917398e+04   0.000000e+00    315s
   56596    1.2059995e+04   6.893445e+04   0.000000e+00    320s
   57384    1.2059995e+04   2.380380e+04   0.000000e+00    327s
   57922    1.2059995e+04   9.426143e+04   0.000000e+00    332s
   58382    1.2059995e+04   2.878864e+04   0.000000e+00    337s
   58872    1.2059995e+04   2.204323e+04   0.000000e+00    342s
   59372    1.2059995e+04   9.585307e+03   0.000000e+00    346s
   59862    1.2059995e+04   2.346518e+04   0.000000e+00    351s
   60372    1.2059995e+04   1.677626e+04   0.000000e+00    356s
   60862    1.2059995e+04   2.689991e+04   0.000000e+00    361s
   61342    1.2059995e+04   5.390289e+04   0.000000e+00    366s
   61851    1.2059995e+04   3.085219e+04   0.000000e+00    371s
   62341    1.2059995e+04   3.225184e+04   0.000000e+00    376s
   62821    1.2059995e+04   1.529957e+05   0.000000e+00    381s
   63261    1.2059995e+04   5.170391e+04   0.000000e+00    386s
   63701    1.2059995e+04   2.915197e+05   0.000000e+00    390s
   64151    1.2059995e+04   1.001812e+05   0.000000e+00    395s
   64601    1.2059995e+04   2.930018e+04   0.000000e+00    400s
   65041    1.2059995e+04   3.118231e+04   0.000000e+00    405s
   65550    1.2059995e+04   3.807664e+04   0.000000e+00    410s
   66010    1.2059995e+04   1.325817e+05   0.000000e+00    415s
   66470    1.2059995e+04   8.793267e+05   0.000000e+00    420s
   66940    1.2059995e+04   2.060003e+05   0.000000e+00    425s
   67449    1.2059995e+04   9.576651e+04   0.000000e+00    430s
   67939    1.2059995e+04   2.159397e+05   0.000000e+00    435s
   68419    1.2059995e+04   1.309083e+05   0.000000e+00    440s
   69168    1.2059995e+04   3.698487e+04   0.000000e+00    447s
   69398    1.2059995e+04   3.325025e+05   0.000000e+00    450s
   69848    1.2059995e+04   2.468692e+05   0.000000e+00    455s
   70347    1.2059994e+04   1.357041e+06   0.000000e+00    460s
   71125    1.1969995e+04   7.115888e+04   0.000000e+00    467s
   71625    1.1969995e+04   6.680368e+04   0.000000e+00    472s
   71875    1.1969995e+04   2.750792e+06   0.000000e+00    475s
   72682    1.1939995e+04   4.487368e+04   0.000000e+00    482s
   73181    1.1939995e+04   1.515910e+05   0.000000e+00    487s
   73661    1.1939995e+04   2.739979e+05   0.000000e+00    492s
   74151    1.1939995e+04   8.108253e+04   0.000000e+00    497s
   74621    1.1939995e+04   5.014432e+04   0.000000e+00    503s
   74851    1.1939995e+04   5.368802e+04   0.000000e+00    505s
   75331    1.1939995e+04   4.484645e+04   0.000000e+00    510s
   75840    1.1939995e+04   8.090227e+04   0.000000e+00    515s
   76310    1.1939995e+04   4.679421e+04   0.000000e+00    521s
   76810    1.1939995e+04   1.054139e+05   0.000000e+00    526s
   77300    1.1939995e+04   1.205369e+05   0.000000e+00    531s
   77799    1.1939995e+04   5.106389e+05   0.000000e+00    536s
   78299    1.1939995e+04   2.052048e+05   0.000000e+00    542s
   78769    1.1939995e+04   8.341637e+04   0.000000e+00    547s
   79229    1.1939995e+04   5.293925e+05   0.000000e+00    552s
   79709    1.1939995e+04   7.085537e+04   0.000000e+00    557s
   80189    1.1939995e+04   8.778451e+04   0.000000e+00    562s
   80659    1.1939995e+04   4.188650e+04   0.000000e+00    567s
   80889    1.1939995e+04   3.622241e+05   0.000000e+00    570s
   81369    1.1939995e+04   6.286015e+04   0.000000e+00    575s
   81829    1.1939995e+04   1.673791e+05   0.000000e+00    581s
   82299    1.1939995e+04   1.039764e+04   0.000000e+00    586s
   82789    1.1939995e+04   2.530274e+04   0.000000e+00    591s
   83249    1.1939994e+04   1.773039e+05   0.000000e+00    596s
   83729    1.1939994e+04   5.103483e+05   0.000000e+00    602s
   84258    1.1939994e+04   5.290744e+04   0.000000e+00    606s
   84718    1.1939994e+04   2.197477e+05   0.000000e+00    611s
   85178    1.1939994e+04   2.685860e+05   0.000000e+00    617s
   85648    1.1939994e+04   4.656636e+04   0.000000e+00    622s
   86098    1.1939994e+04   1.487119e+05   0.000000e+00    627s
   86328    1.1939994e+04   4.395575e+04   0.000000e+00    630s
   86778    1.1939994e+04   3.842597e+04   0.000000e+00    636s
   87248    1.1939994e+04   2.323564e+05   0.000000e+00    641s
   87708    1.1939994e+04   3.127533e+04   0.000000e+00    646s
   88217    1.1939994e+04   2.118503e+05   0.000000e+00    652s
   88677    1.1939994e+04   7.605156e+04   0.000000e+00    657s
   89167    1.1939994e+04   5.020722e+04   0.000000e+00    662s
   89436    1.1939994e+04   3.994576e+04   0.000000e+00    666s
   89906    1.1939994e+04   4.029317e+05   0.000000e+00    671s
   90386    1.1939994e+04   4.219152e+05   0.000000e+00    676s
   90846    1.1939994e+04   1.779893e+04   0.000000e+00    681s
   91326    1.1939994e+04   3.830374e+04   0.000000e+00    687s
   91796    1.1939994e+04   3.744613e+04   0.000000e+00    692s
   92276    1.1939994e+04   1.069462e+05   0.000000e+00    697s
   92746    1.1939994e+04   2.285115e+04   0.000000e+00    703s
   92976    1.1939994e+04   1.006046e+05   0.000000e+00    705s
   93436    1.1939994e+04   2.025112e+05   0.000000e+00    711s
   93916    1.1939994e+04   2.494877e+04   0.000000e+00    716s
   94376    1.1939994e+04   1.525835e+05   0.000000e+00    721s
   94875    1.1939994e+04   3.200004e+04   0.000000e+00    726s
   95404    1.1939994e+04   9.068981e+04   0.000000e+00    732s
   95874    1.1939994e+04   7.250480e+04   0.000000e+00    737s
   96344    1.1939994e+04   5.905414e+04   0.000000e+00    742s
   96824    1.1939994e+04   1.199096e+05   0.000000e+00    748s
   97054    1.1939994e+04   1.370488e+05   0.000000e+00    750s
   97534    1.1939994e+04   6.297128e+04   0.000000e+00    756s
   97994    1.1939994e+04   3.563412e+05   0.000000e+00    761s
   98434    1.1939994e+04   1.159705e+04   0.000000e+00    767s
   98874    1.1939994e+04   2.211303e+05   0.000000e+00    772s
   99314    1.1939994e+04   2.919691e+04   0.000000e+00    777s
   99554    1.1939993e+04   1.832711e+05   0.000000e+00    780s
  100014    1.1939993e+04   4.341696e+04   0.000000e+00    786s
  100474    1.1939993e+04   5.205044e+04   0.000000e+00    791s
  100964    1.1939993e+04   4.777135e+04   0.000000e+00    797s
  101473    1.1939993e+04   5.847527e+04   0.000000e+00    802s
  101693    1.1939993e+04   9.189970e+04   0.000000e+00    805s
  102163    1.1939993e+04   2.205662e+06   0.000000e+00    811s
  102653    1.1939993e+04   3.183133e+04   0.000000e+00    816s
  103103    1.1939993e+04   1.134667e+05   0.000000e+00    822s
  103543    1.1939993e+04   1.181613e+05   0.000000e+00    827s
  103993    1.1939993e+04   9.026534e+04   0.000000e+00    833s
  104213    1.1939993e+04   4.076443e+04   0.000000e+00    835s
  104673    1.1939993e+04   3.812587e+04   0.000000e+00    841s
  105123    1.1939993e+04   1.893854e+04   0.000000e+00    847s
  105583    1.1939993e+04   1.792232e+04   0.000000e+00    852s
  106053    1.1939993e+04   4.183712e+04   0.000000e+00    857s
  106273    1.1939993e+04   5.647478e+04   0.000000e+00    860s
  106743    1.1939993e+04   1.560439e+05   0.000000e+00    866s
  107232    1.1939993e+04   2.093958e+05   0.000000e+00    871s
  107672    1.1939993e+04   5.295182e+04   0.000000e+00    876s
  108102    1.1939993e+04   3.446130e+05   0.000000e+00    882s
  108522    1.1939993e+04   8.519762e+04   0.000000e+00    887s
  108752    1.1939993e+04   6.792400e+05   0.000000e+00    890s
  109202    1.1939993e+04   4.602387e+04   0.000000e+00    896s
  109642    1.1939993e+04   1.226524e+06   0.000000e+00    902s
  110082    1.1939993e+04   8.960756e+06   0.000000e+00    907s
  110552    1.1939993e+04   2.739397e+04   0.000000e+00    913s
  110782    1.1939993e+04   6.498885e+04   0.000000e+00    916s
  111271    1.1939993e+04   1.059260e+05   0.000000e+00    921s
  111751    1.1939993e+04   1.042087e+05   0.000000e+00    927s
  112201    1.1939993e+04   7.853755e+04   0.000000e+00    932s
  112421    1.1939993e+04   3.668395e+04   0.000000e+00    935s
  112871    1.1939993e+04   3.620055e+04   0.000000e+00    941s
  113311    1.1939992e+04   1.169303e+05   0.000000e+00    946s
  113751    1.1939992e+04   1.791354e+05   0.000000e+00    952s
  114271    1.1939992e+04   5.861886e+04   0.000000e+00    958s
  114501    1.1939992e+04   1.572495e+05   0.000000e+00    961s
  114971    1.1939992e+04   7.116666e+04   0.000000e+00    966s
  115401    1.1939992e+04   3.779099e+04   0.000000e+00    972s
  115841    1.1939992e+04   1.317810e+05   0.000000e+00    978s
  116071    1.1939992e+04   3.386199e+05   0.000000e+00    980s
  116521    1.1939992e+04   5.444676e+04   0.000000e+00    986s
  116971    1.1939992e+04   2.787997e+05   0.000000e+00    992s
  117451    1.1939992e+04   3.728129e+05   0.000000e+00    997s
  117681    1.1939992e+04   1.349028e+05   0.000000e+00   1000s
  118111    1.1939992e+04   9.786071e+04   0.000000e+00   1006s
  118551    1.1939992e+04   2.975373e+05   0.000000e+00   1011s
  119001    1.1939992e+04   4.880357e+04   0.000000e+00   1017s
  119451    1.1939992e+04   2.201460e+05   0.000000e+00   1022s
  119671    1.1939992e+04   4.160576e+04   0.000000e+00   1025s
  120171    1.1939992e+04   9.059183e+04   0.000000e+00   1031s
  120641    1.1939992e+04   5.884740e+04   0.000000e+00   1036s
  121179    1.1909992e+04   4.361422e+04   0.000000e+00   1042s
  121708    1.1909992e+04   1.475215e+05   0.000000e+00   1047s
  122217    1.1902492e+04   1.803587e+05   0.000000e+00   1053s
  122467    1.1894992e+04   2.184592e+05   0.000000e+00   1056s
  122917    1.1894992e+04   2.378193e+05   0.000000e+00   1061s
  123387    1.1894992e+04   4.217849e+04   0.000000e+00   1067s
  123837    1.1894992e+04   7.570517e+04   0.000000e+00   1073s
  124057    1.1894992e+04   4.944222e+04   0.000000e+00   1076s
  124507    1.1894992e+04   9.255425e+05   0.000000e+00   1081s
  124977    1.1894992e+04   8.316571e+04   0.000000e+00   1087s
  125417    1.1894992e+04   1.851112e+05   0.000000e+00   1092s
  125647    1.1894992e+04   6.750189e+04   0.000000e+00   1095s
  126097    1.1894992e+04   2.313203e+05   0.000000e+00   1101s
  126537    1.1894992e+04   1.415733e+05   0.000000e+00   1107s
  127026    1.1894992e+04   1.733290e+05   0.000000e+00   1111s
  127486    1.1894992e+04   4.779487e+04   0.000000e+00   1117s
  127966    1.1894992e+04   1.417890e+05   0.000000e+00   1123s
  128186    1.1894992e+04   5.734904e+04   0.000000e+00   1126s
  128666    1.1894992e+04   5.380828e+04   0.000000e+00   1131s
  129106    1.1894992e+04   3.745064e+04   0.000000e+00   1137s
  129536    1.1894992e+04   8.751348e+05   0.000000e+00   1143s
  129746    1.1894992e+04   5.246059e+04   0.000000e+00   1145s
  130176    1.1894992e+04   2.240071e+05   0.000000e+00   1151s
  130606    1.1894992e+04   3.777846e+05   0.000000e+00   1157s
  131056    1.1894992e+04   5.168849e+04   0.000000e+00   1162s
  131266    1.1894992e+04   5.628300e+05   0.000000e+00   1165s
  131696    1.1894992e+04   2.680341e+04   0.000000e+00   1171s
  132126    1.1894992e+04   2.171676e+04   0.000000e+00   1176s
  132596    1.1894991e+04   8.027311e+04   0.000000e+00   1182s
  133026    1.1894991e+04   4.826353e+04   0.000000e+00   1188s
  133236    1.1894991e+04   2.970595e+04   0.000000e+00   1190s
  133666    1.1894991e+04   3.691811e+04   0.000000e+00   1196s
  134156    1.1894991e+04   6.848209e+04   0.000000e+00   1202s
  134376    1.1894991e+04   2.297044e+04   0.000000e+00   1205s
  134806    1.1894991e+04   1.391721e+05   0.000000e+00   1211s
  135216    1.1894991e+04   1.046122e+05   0.000000e+00   1217s
  135715    1.1894991e+04   4.587188e+04   0.000000e+00   1222s
  135935    1.1894991e+04   9.490644e+04   0.000000e+00   1225s
  136415    1.1894991e+04   7.453402e+04   0.000000e+00   1231s
  136845    1.1894991e+04   3.645421e+04   0.000000e+00   1236s
  137275    1.1894991e+04   2.561854e+04   0.000000e+00   1242s
  137495    1.1894991e+04   2.750476e+04   0.000000e+00   1245s
  137955    1.1894991e+04   4.913056e+04   0.000000e+00   1251s
  138395    1.1894991e+04   1.617306e+04   0.000000e+00   1257s
  138795    1.1894991e+04   6.469164e+04   0.000000e+00   1262s
  139015    1.1894991e+04   4.549955e+04   0.000000e+00   1265s
  139445    1.1894991e+04   3.472773e+04   0.000000e+00   1271s
  139954    1.1894991e+04   1.005357e+04   0.000000e+00   1276s
  140384    1.1894991e+04   5.424721e+04   0.000000e+00   1282s
  140824    1.1894991e+04   3.200266e+04   0.000000e+00   1288s
  141044    1.1894991e+04   1.254866e+04   0.000000e+00   1291s
  141494    1.1894991e+04   6.173646e+04   0.000000e+00   1296s
  141934    1.1894991e+04   3.928477e+04   0.000000e+00   1302s
  142354    1.1894991e+04   5.914944e+04   0.000000e+00   1308s
  142564    1.1894991e+04   3.234346e+04   0.000000e+00   1311s
  143004    1.1894991e+04   1.412192e+04   0.000000e+00   1316s
  143424    1.1894991e+04   1.648939e+04   0.000000e+00   1322s
  143864    1.1894991e+04   1.983688e+05   0.000000e+00   1328s
  144074    1.1894991e+04   3.985413e+04   0.000000e+00   1331s
  144504    1.1894991e+04   9.273691e+06   0.000000e+00   1337s
  145003    1.1894991e+04   2.208456e+05   0.000000e+00   1342s
  145223    1.1894991e+04   1.902824e+04   0.000000e+00   1345s
  145653    1.1894991e+04   5.486723e+04   0.000000e+00   1351s
  146123    1.1894991e+04   1.225056e+05   0.000000e+00   1357s
  146563    1.1894991e+04   1.855632e+05   0.000000e+00   1363s
  146823    1.1894991e+04   1.718544e+05   0.000000e+00   1366s
  147263    1.1894991e+04   6.484539e+03   0.000000e+00   1372s
  147713    1.1894991e+04   1.283662e+04   0.000000e+00   1378s
  147933    1.1894991e+04   6.311774e+04   0.000000e+00   1380s
  148373    1.1894991e+04   1.879602e+05   0.000000e+00   1386s
  148803    1.1894991e+04   6.055072e+05   0.000000e+00   1392s
  149013    1.1894991e+04   1.607873e+04   0.000000e+00   1395s
  149463    1.1894991e+04   2.109573e+04   0.000000e+00   1401s
  149923    1.1894991e+04   1.642967e+05   0.000000e+00   1407s
  150143    1.1894991e+04   1.344514e+04   0.000000e+00   1410s
  150652    1.1894990e+04   3.365845e+04   0.000000e+00   1416s
  151161    1.1894990e+04   2.972269e+04   0.000000e+00   1422s
  151681    1.1834991e+04   1.611916e+05   0.000000e+00   1428s
  151901    1.1834991e+04   4.594691e+04   0.000000e+00   1430s
  152361    1.1834991e+04   7.155215e+04   0.000000e+00   1436s
  152850    1.1834991e+04   3.260241e+04   0.000000e+00   1442s
  153080    1.1834991e+04   1.672821e+05   0.000000e+00   1445s
  153520    1.1834991e+04   1.174447e+05   0.000000e+00   1451s
  153990    1.1834991e+04   6.376232e+04   0.000000e+00   1457s
  154410    1.1834991e+04   8.276607e+05   0.000000e+00   1463s
  154630    1.1834991e+04   8.308020e+04   0.000000e+00   1466s
  155050    1.1834991e+04   8.151882e+04   0.000000e+00   1471s
  155480    1.1834991e+04   3.610491e+04   0.000000e+00   1477s
  155690    1.1834991e+04   5.732277e+04   0.000000e+00   1480s
  156130    1.1834991e+04   2.534421e+05   0.000000e+00   1486s
  156560    1.1834991e+04   3.150006e+04   0.000000e+00   1491s
  156970    1.1834991e+04   4.667142e+03   0.000000e+00   1497s
  157370    1.1834991e+04   2.836734e+05   0.000000e+00   1503s
  157580    1.1834991e+04   4.760209e+04   0.000000e+00   1506s
  158000    1.1834991e+04   1.173215e+04   0.000000e+00   1512s
  158410    1.1834991e+04   1.281160e+04   0.000000e+00   1518s
  158620    1.1834991e+04   4.317518e+04   0.000000e+00   1521s
  159040    1.1834991e+04   7.154881e+03   0.000000e+00   1526s
  159470    1.1834991e+04   9.205807e+03   0.000000e+00   1532s
  159680    1.1834991e+04   2.384566e+04   0.000000e+00   1535s
  160070    1.1834991e+04   5.987701e+03   0.000000e+00   1541s
  160520    1.1834991e+04   1.398532e+04   0.000000e+00   1547s
  160940    1.1834991e+04   4.108970e+05   0.000000e+00   1553s
  161150    1.1834991e+04   2.018127e+04   0.000000e+00   1555s
  161570    1.1834991e+04   1.477620e+05   0.000000e+00   1561s
  161990    1.1834991e+04   3.954264e+04   0.000000e+00   1567s
  162210    1.1834991e+04   2.669136e+04   0.000000e+00   1570s
  162640    1.1834991e+04   7.150588e+04   0.000000e+00   1576s
  163040    1.1834991e+04   2.198639e+04   0.000000e+00   1582s
  163440    1.1834991e+04   1.036006e+04   0.000000e+00   1588s
  163640    1.1834991e+04   4.826749e+04   0.000000e+00   1591s
  164080    1.1834991e+04   2.518399e+04   0.000000e+00   1596s
  164510    1.1834991e+04   3.681323e+04   0.000000e+00   1603s
  164730    1.1834991e+04   4.246807e+04   0.000000e+00   1606s
  165160    1.1834991e+04   1.436891e+06   0.000000e+00   1612s
  165630    1.1834990e+04   2.857640e+04   0.000000e+00   1618s
  165850    1.1834990e+04   6.212643e+04   0.000000e+00   1621s
  166280    1.1834990e+04   2.913925e+04   0.000000e+00   1627s
  166700    1.1834990e+04   1.953528e+05   0.000000e+00   1633s
  166910    1.1834990e+04   8.020826e+04   0.000000e+00   1636s
  167320    1.1834990e+04   6.540233e+05   0.000000e+00   1642s
  167740    1.1834990e+04   6.725278e+04   0.000000e+00   1648s
  167950    1.1834990e+04   4.043377e+04   0.000000e+00   1651s
  168450    1.1834990e+04   1.288604e+05   0.000000e+00   1657s
  168660    1.1834990e+04   2.161525e+05   0.000000e+00   1660s
  169120    1.1834990e+04   6.559049e+04   0.000000e+00   1666s
  169540    1.1834990e+04   4.558757e+04   0.000000e+00   1672s
  169760    1.1834990e+04   3.879153e+04   0.000000e+00   1675s
  170190    1.1834990e+04   1.801256e+04   0.000000e+00   1681s
  170610    1.1834990e+04   7.044480e+04   0.000000e+00   1687s
  170850    1.1834990e+04   1.434166e+04   0.000000e+00   1690s
  171250    1.1834990e+04   1.136644e+05   0.000000e+00   1696s
  171660    1.1834990e+04   1.032924e+05   0.000000e+00   1702s
  171870    1.1834990e+04   3.137353e+04   0.000000e+00   1705s
  172290    1.1834990e+04   7.418487e+04   0.000000e+00   1711s
  172700    1.1834990e+04   8.176366e+03   0.000000e+00   1717s
  172900    1.1834990e+04   1.199412e+06   0.000000e+00   1720s
  173340    1.1834990e+04   1.901521e+04   0.000000e+00   1726s
  173740    1.1834990e+04   8.062097e+03   0.000000e+00   1732s
  173950    1.1834990e+04   7.833815e+04   0.000000e+00   1736s
  174430    1.1834990e+04   1.622475e+05   0.000000e+00   1742s
  174900    1.1834990e+04   7.494367e+04   0.000000e+00   1748s
  175120    1.1834990e+04   9.235048e+04   0.000000e+00   1751s
  175530    1.1834990e+04   3.932356e+04   0.000000e+00   1757s
  175940    1.1834990e+04   3.015562e+04   0.000000e+00   1763s
  176140    1.1834990e+04   9.398781e+04   0.000000e+00   1766s
  176540    1.1834990e+04   4.076503e+03   0.000000e+00   1772s
  176960    1.1834990e+04   2.032646e+04   0.000000e+00   1778s
  177170    1.1834990e+04   7.264139e+04   0.000000e+00   1781s
  177580    1.1834990e+04   2.183801e+04   0.000000e+00   1787s
  177790    1.1834990e+04   5.741203e+04   0.000000e+00   1790s
  178200    1.1834990e+04   2.389004e+04   0.000000e+00   1796s
  178620    1.1834990e+04   1.769016e+04   0.000000e+00   1802s
  178840    1.1834990e+04   8.453548e+03   0.000000e+00   1805s
  179270    1.1834990e+04   3.243901e+04   0.000000e+00   1812s
  179690    1.1834990e+04   3.725706e+04   0.000000e+00   1818s
  179900    1.1834990e+04   7.487107e+04   0.000000e+00   1821s
  180310    1.1834990e+04   5.720512e+04   0.000000e+00   1827s
  180520    1.1834990e+04   2.806438e+04   0.000000e+00   1830s
  180940    1.1834990e+04   1.329712e+04   0.000000e+00   1836s
  181350    1.1834990e+04   6.030012e+04   0.000000e+00   1842s
  181560    1.1834990e+04   1.695455e+04   0.000000e+00   1846s
  181980    1.1834990e+04   2.084524e+04   0.000000e+00   1852s
  182390    1.1834990e+04   2.948472e+04   0.000000e+00   1858s
  182590    1.1834990e+04   1.205046e+05   0.000000e+00   1861s
  183010    1.1834990e+04   1.794450e+04   0.000000e+00   1867s
  183220    1.1834990e+04   1.958026e+05   0.000000e+00   1870s
  183620    1.1834990e+04   2.232753e+04   0.000000e+00   1876s
  184040    1.1834990e+04   4.264730e+03   0.000000e+00   1883s
  184240    1.1834990e+04   8.773094e+03   0.000000e+00   1886s
  184650    1.1834990e+04   1.237136e+04   0.000000e+00   1892s
  184850    1.1834990e+04   1.643626e+04   0.000000e+00   1895s
  185270    1.1834990e+04   1.225231e+04   0.000000e+00   1902s
  185670    1.1834990e+04   1.284210e+04   0.000000e+00   1908s
  185880    1.1834990e+04   1.747488e+04   0.000000e+00   1911s
  186310    1.1834990e+04   5.363439e+04   0.000000e+00   1917s
  186520    1.1834990e+04   4.813415e+03   0.000000e+00   1920s
  186920    1.1834990e+04   3.423021e+04   0.000000e+00   1926s
  187320    1.1834990e+04   6.298677e+03   0.000000e+00   1933s
  187520    1.1834990e+04   4.295159e+03   0.000000e+00   1936s
  187930    1.1834990e+04   2.669661e+04   0.000000e+00   1942s
  188140    1.1834990e+04   2.311710e+04   0.000000e+00   1945s
  188560    1.1834990e+04   1.489597e+04   0.000000e+00   1952s
  188970    1.1834990e+04   9.089582e+03   0.000000e+00   1958s
  189170    1.1834990e+04   2.831536e+04   0.000000e+00   1961s
  189580    1.1834990e+04   4.794613e+03   0.000000e+00   1967s
  189790    1.1834990e+04   5.591460e+04   0.000000e+00   1970s
  190190    1.1834990e+04   1.935653e+03   0.000000e+00   1977s
  190600    1.1834990e+04   7.080104e+04   0.000000e+00   1983s
  190800    1.1834990e+04   8.023102e+03   0.000000e+00   1986s
  191210    1.1834990e+04   2.698012e+04   0.000000e+00   1992s
  191420    1.1834990e+04   9.774127e+04   0.000000e+00   1995s
  191840    1.1834990e+04   1.580431e+05   0.000000e+00   2001s
  192250    1.1834990e+04   1.792075e+04   0.000000e+00   2008s
  192470    1.1834990e+04   2.163579e+04   0.000000e+00   2011s
  192880    1.1834990e+04   3.659271e+04   0.000000e+00   2017s
  193100    1.1834990e+04   1.854892e+05   0.000000e+00   2020s
  193520    1.1834990e+04   2.379898e+04   0.000000e+00   2026s
  193930    1.1834990e+04   3.745187e+04   0.000000e+00   2032s
  194130    1.1834990e+04   8.523058e+03   0.000000e+00   2036s
  194530    1.1834990e+04   4.722202e+04   0.000000e+00   2042s
  194940    1.1834990e+04   1.250616e+04   0.000000e+00   2048s
  195150    1.1834990e+04   1.594673e+04   0.000000e+00   2051s
  195550    1.1834990e+04   1.117998e+04   0.000000e+00   2057s
  195760    1.1834990e+04   5.951562e+03   0.000000e+00   2060s
  196160    1.1834990e+04   2.222160e+04   0.000000e+00   2066s
  196590    1.1834990e+04   1.935961e+04   0.000000e+00   2073s
  196800    1.1834990e+04   7.201908e+03   0.000000e+00   2076s
  197220    1.1834990e+04   7.234980e+04   0.000000e+00   2082s
  197430    1.1834990e+04   1.736831e+04   0.000000e+00   2086s
  197830    1.1834990e+04   9.549012e+04   0.000000e+00   2092s
  198030    1.1834990e+04   3.290754e+04   0.000000e+00   2095s
  198460    1.1834990e+04   5.295217e+04   0.000000e+00   2101s
  198880    1.1834989e+04   4.157207e+04   0.000000e+00   2107s
  199080    1.1834989e+04   2.304687e+04   0.000000e+00   2111s
  199490    1.1834989e+04   3.050130e+05   0.000000e+00   2117s
  199890    1.1834989e+04   9.290773e+04   0.000000e+00   2123s
  200090    1.1834989e+04   1.712372e+04   0.000000e+00   2126s
  200510    1.1834989e+04   1.333186e+04   0.000000e+00   2132s
  200720    1.1834989e+04   1.315763e+04   0.000000e+00   2136s
  201130    1.1834989e+04   9.807446e+03   0.000000e+00   2142s
  201530    1.1834989e+04   1.497716e+04   0.000000e+00   2148s
  201730    1.1834989e+04   8.359346e+03   0.000000e+00   2151s
  202140    1.1834989e+04   9.863884e+03   0.000000e+00   2157s
  202350    1.1834989e+04   2.768108e+04   0.000000e+00   2161s
  202760    1.1834989e+04   3.716017e+03   0.000000e+00   2167s
  202970    1.1834989e+04   5.619193e+03   0.000000e+00   2170s
  203390    1.1834989e+04   4.804133e+03   0.000000e+00   2177s
  203790    1.1834989e+04   3.766476e+03   0.000000e+00   2183s
  203990    1.1834989e+04   2.194419e+04   0.000000e+00   2186s
  204400    1.1834989e+04   9.924514e+03   0.000000e+00   2193s
  204600    1.1834989e+04   7.797745e+03   0.000000e+00   2196s
  205030    1.1834989e+04   8.495303e+04   0.000000e+00   2202s
  205230    1.1834989e+04   3.972413e+04   0.000000e+00   2205s
  205630    1.1834989e+04   2.318271e+04   0.000000e+00   2212s
  205830    1.1834989e+04   1.345392e+05   0.000000e+00   2215s
  206240    1.1834989e+04   6.774337e+03   0.000000e+00   2221s
  206660    1.1834989e+04   5.468175e+04   0.000000e+00   2228s
  206870    1.1834989e+04   6.095323e+03   0.000000e+00   2231s
  207280    1.1834989e+04   1.651650e+04   0.000000e+00   2237s
  207490    1.1834989e+04   5.548156e+03   0.000000e+00   2240s
  207900    1.1834989e+04   1.122048e+04   0.000000e+00   2247s
  208300    1.1834989e+04   1.021604e+04   0.000000e+00   2253s
  208500    1.1834989e+04   2.632283e+03   0.000000e+00   2256s
  208930    1.1834989e+04   1.349474e+04   0.000000e+00   2262s
  209130    1.1834989e+04   1.301278e+04   0.000000e+00   2266s
  209550    1.1834989e+04   4.146992e+04   0.000000e+00   2272s
  209750    1.1834989e+04   3.135046e+03   0.000000e+00   2275s
  210150    1.1834989e+04   3.047825e+04   0.000000e+00   2281s
  210550    1.1834989e+04   4.793748e+03   0.000000e+00   2288s
  210750    1.1834989e+04   4.267897e+03   0.000000e+00   2291s
  211140    1.1834989e+04   2.120589e+04   0.000000e+00   2297s
  211340    1.1834989e+04   1.754134e+03   0.000000e+00   2300s
  211730    1.1834989e+04   2.451827e+03   0.000000e+00   2307s
  212130    1.1834989e+04   5.691155e+03   0.000000e+00   2313s
  212330    1.1834989e+04   2.645881e+04   0.000000e+00   2316s
  212730    1.1834989e+04   2.553031e+04   0.000000e+00   2323s
  212940    1.1834989e+04   6.300506e+03   0.000000e+00   2326s
  213340    1.1834989e+04   5.727267e+03   0.000000e+00   2332s
  213720    1.1834989e+04   1.102619e+04   0.000000e+00   2338s
  213920    1.1834989e+04   6.102332e+04   0.000000e+00   2341s
  214320    1.1834989e+04   4.221366e+03   0.000000e+00   2348s
  214520    1.1834989e+04   2.757374e+05   0.000000e+00   2351s
  214930    1.1834989e+04   5.590731e+03   0.000000e+00   2357s
  215120    1.1834989e+04   3.206211e+04   0.000000e+00   2360s
  215510    1.1834989e+04   9.449688e+03   0.000000e+00   2367s
  215900    1.1834989e+04   1.668589e+04   0.000000e+00   2373s
  216100    1.1834989e+04   1.309394e+04   0.000000e+00   2376s
  216500    1.1834989e+04   1.712386e+05   0.000000e+00   2382s
  216700    1.1834989e+04   7.772330e+04   0.000000e+00   2385s
  217100    1.1834989e+04   1.559311e+04   0.000000e+00   2391s
  217490    1.1834989e+04   4.123064e+03   0.000000e+00   2398s
  217700    1.1834989e+04   1.339918e+05   0.000000e+00   2401s
  218100    1.1834989e+04   1.178390e+04   0.000000e+00   2407s
  218500    1.1834989e+04   3.001754e+04   0.000000e+00   2413s
  218720    1.1834989e+04   1.605221e+05   0.000000e+00   2416s
  219120    1.1834989e+04   1.436456e+04   0.000000e+00   2423s
  219330    1.1834989e+04   9.239611e+03   0.000000e+00   2426s
  219730    1.1834989e+04   8.092432e+04   0.000000e+00   2432s
  219930    1.1834989e+04   1.291571e+04   0.000000e+00   2435s
  220330    1.1834989e+04   1.428057e+04   0.000000e+00   2442s
  220710    1.1834989e+04   5.307773e+03   0.000000e+00   2448s
  220910    1.1834989e+04   2.943351e+03   0.000000e+00   2451s
  221310    1.1834989e+04   4.773490e+04   0.000000e+00   2458s
  221510    1.1834989e+04   5.228174e+03   0.000000e+00   2461s
  221900    1.1834989e+04   5.423515e+03   0.000000e+00   2467s
  222100    1.1834989e+04   1.019687e+05   0.000000e+00   2470s
  222490    1.1834989e+04   1.020590e+04   0.000000e+00   2477s
  222890    1.1834989e+04   2.445740e+04   0.000000e+00   2483s
  223090    1.1834989e+04   4.734858e+03   0.000000e+00   2486s
  223490    1.1834989e+04   5.385360e+03   0.000000e+00   2493s
  223690    1.1834989e+04   9.254996e+03   0.000000e+00   2496s
  224090    1.1834989e+04   4.782214e+03   0.000000e+00   2502s
  224290    1.1834989e+04   2.597088e+03   0.000000e+00   2506s
  224690    1.1834989e+04   1.564000e+03   0.000000e+00   2512s
  224890    1.1834989e+04   3.768216e+03   0.000000e+00   2515s
  225270    1.1834989e+04   1.895445e+03   0.000000e+00   2522s
  225670    1.1834989e+04   8.178445e+03   0.000000e+00   2528s
  225870    1.1834989e+04   4.956008e+03   0.000000e+00   2532s
  226070    1.1834989e+04   1.069307e+04   0.000000e+00   2535s
  226470    1.1834989e+04   3.345698e+03   0.000000e+00   2542s
  226660    1.1834989e+04   4.494734e+03   0.000000e+00   2545s
  227050    1.1834989e+04   5.724010e+03   0.000000e+00   2552s
  227240    1.1834989e+04   4.420996e+03   0.000000e+00   2555s
  227630    1.1834989e+04   2.486368e+04   0.000000e+00   2562s
  228020    1.1834989e+04   1.080379e+04   0.000000e+00   2568s
  228220    1.1834989e+04   6.527908e+03   0.000000e+00   2572s
  228420    1.1834989e+04   2.524076e+03   0.000000e+00   2575s
  228820    1.1834989e+04   6.329060e+03   0.000000e+00   2582s
  229220    1.1834989e+04   7.924016e+03   0.000000e+00   2588s
  229420    1.1834989e+04   3.341095e+03   0.000000e+00   2591s
  229900    1.1834989e+04   4.327710e+04   0.000000e+00   2598s
  230100    1.1834989e+04   3.411414e+03   0.000000e+00   2602s
  230500    1.1834989e+04   1.674961e+05   0.000000e+00   2608s
  230720    1.1834989e+04   5.528170e+03   0.000000e+00   2611s
  231160    1.1834989e+04   2.386062e+05   0.000000e+00   2618s
  231420    1.1834989e+04   6.112209e+05   0.000000e+00   2621s
  231830    1.1834989e+04   6.600300e+03   0.000000e+00   2628s
  232060    1.1834989e+04   5.446438e+03   0.000000e+00   2631s
  232460    1.1834989e+04   5.416810e+05   0.000000e+00   2637s
  232660    1.1834989e+04   2.041087e+03   0.000000e+00   2641s
  233070    1.1834989e+04   5.187243e+03   0.000000e+00   2647s
  233270    1.1834989e+04   7.072897e+03   0.000000e+00   2650s
  233670    1.1834989e+04   1.013936e+04   0.000000e+00   2657s
  233890    1.1834989e+04   3.653217e+03   0.000000e+00   2660s
  234290    1.1834989e+04   7.850681e+03   0.000000e+00   2667s
  234690    1.1834989e+04   4.368885e+03   0.000000e+00   2673s
  234890    1.1834989e+04   5.391547e+03   0.000000e+00   2676s
  235290    1.1834989e+04   1.748874e+03   0.000000e+00   2683s
  235490    1.1834989e+04   2.038835e+04   0.000000e+00   2686s
  235880    1.1834989e+04   4.145899e+03   0.000000e+00   2692s
  236070    1.1834989e+04   7.957249e+04   0.000000e+00   2695s
  236450    1.1834989e+04   3.290164e+03   0.000000e+00   2701s
  236840    1.1834989e+04   5.263891e+03   0.000000e+00   2708s
  237040    1.1834989e+04   3.121923e+03   0.000000e+00   2711s
  237430    1.1834989e+04   4.014147e+03   0.000000e+00   2717s
  237620    1.1834989e+04   1.005400e+04   0.000000e+00   2720s
  238030    1.1834989e+04   7.179042e+04   0.000000e+00   2727s
  238220    1.1834989e+04   3.424647e+04   0.000000e+00   2730s
  238630    1.1834989e+04   4.997988e+03   0.000000e+00   2737s
  239050    1.1834989e+04   2.783122e+03   0.000000e+00   2743s
  239240    1.1834989e+04   6.630616e+03   0.000000e+00   2746s
  239650    1.1834989e+04   2.226480e+04   0.000000e+00   2753s
  239860    1.1834989e+04   1.316332e+04   0.000000e+00   2756s
  240240    1.1834989e+04   1.636025e+04   0.000000e+00   2762s
  240430    1.1834989e+04   2.644619e+03   0.000000e+00   2765s
  240840    1.1834989e+04   1.613764e+04   0.000000e+00   2772s
  241220    1.1834989e+04   1.503265e+04   0.000000e+00   2778s
  241420    1.1834989e+04   2.124178e+03   0.000000e+00   2781s
  241830    1.1834989e+04   2.232100e+04   0.000000e+00   2788s
  242030    1.1834989e+04   1.367126e+04   0.000000e+00   2791s
  242420    1.1834989e+04   5.453783e+03   0.000000e+00   2797s
  242610    1.1834989e+04   3.101018e+03   0.000000e+00   2800s
  243010    1.1834989e+04   3.503045e+03   0.000000e+00   2807s
  243210    1.1834989e+04   4.669088e+03   0.000000e+00   2810s
  243630    1.1834989e+04   5.114232e+03   0.000000e+00   2817s
  244030    1.1834989e+04   6.216576e+03   0.000000e+00   2823s
  244230    1.1834989e+04   1.573550e+04   0.000000e+00   2826s
  244630    1.1834989e+04   4.890369e+03   0.000000e+00   2833s
  244830    1.1834989e+04   2.619502e+04   0.000000e+00   2836s
  245220    1.1834989e+04   1.695407e+04   0.000000e+00   2843s
  245420    1.1834989e+04   6.826779e+03   0.000000e+00   2846s
  245830    1.1834989e+04   3.484095e+04   0.000000e+00   2853s
  246030    1.1834989e+04   6.731456e+02   0.000000e+00   2856s
  246430    1.1834989e+04   2.460295e+04   0.000000e+00   2862s
  246630    1.1834989e+04   1.090907e+04   0.000000e+00   2866s
  247030    1.1834989e+04   5.723187e+03   0.000000e+00   2872s
  247220    1.1834989e+04   2.447160e+04   0.000000e+00   2876s
  247610    1.1834989e+04   1.190448e+04   0.000000e+00   2882s
  247810    1.1834989e+04   2.808629e+04   0.000000e+00   2885s
  248200    1.1834989e+04   4.340951e+03   0.000000e+00   2892s
  248400    1.1834989e+04   6.444690e+03   0.000000e+00   2895s
  248790    1.1834989e+04   7.570455e+03   0.000000e+00   2902s
  248990    1.1834989e+04   2.600544e+03   0.000000e+00   2905s
  249380    1.1834989e+04   5.371151e+04   0.000000e+00   2912s
  249570    1.1834989e+04   1.877089e+03   0.000000e+00   2915s
  249970    1.1834989e+04   5.545004e+03   0.000000e+00   2922s
  250370    1.1834989e+04   1.888693e+04   0.000000e+00   2928s
  250570    1.1834989e+04   6.647620e+03   0.000000e+00   2931s
  250960    1.1834989e+04   6.799940e+03   0.000000e+00   2938s
  251150    1.1834989e+04   1.381623e+03   0.000000e+00   2941s
  251530    1.1834989e+04   4.673482e+03   0.000000e+00   2947s
  251730    1.1834989e+04   9.428147e+03   0.000000e+00   2950s
  252120    1.1834989e+04   1.111041e+04   0.000000e+00   2957s
  252310    1.1834989e+04   2.553580e+03   0.000000e+00   2960s
  252690    1.1834989e+04   3.931175e+03   0.000000e+00   2966s
  253080    1.1834989e+04   1.947940e+03   0.000000e+00   2973s
  253270    1.1834989e+04   3.623715e+04   0.000000e+00   2976s
  253670    1.1834989e+04   1.946001e+04   0.000000e+00   2983s
  253870    1.1834989e+04   3.649010e+03   0.000000e+00   2986s
  254310    1.1834989e+04   9.167535e+03   0.000000e+00   2993s
  254500    1.1834989e+04   1.730390e+04   0.000000e+00   2996s
  254890    1.1834989e+04   4.364369e+03   0.000000e+00   3002s
  255090    1.1834989e+04   1.393378e+04   0.000000e+00   3006s
  255490    1.1834989e+04   6.177085e+03   0.000000e+00   3012s
  255690    1.1834989e+04   5.199045e+03   0.000000e+00   3016s
  256110    1.1834989e+04   3.069287e+03   0.000000e+00   3022s
  256310    1.1834989e+04   7.041270e+03   0.000000e+00   3025s
  256710    1.1834989e+04   1.769989e+04   0.000000e+00   3032s
  257120    1.1834989e+04   2.353000e+03   0.000000e+00   3038s
  257320    1.1834989e+04   6.691838e+02   0.000000e+00   3042s
  257720    1.1834989e+04   8.083085e+04   0.000000e+00   3048s
  257920    1.1834989e+04   2.391718e+03   0.000000e+00   3051s
  258330    1.1834989e+04   3.387084e+03   0.000000e+00   3058s
  258530    1.1834989e+04   1.890590e+03   0.000000e+00   3061s
  258940    1.1834989e+04   9.852429e+03   0.000000e+00   3068s
  259140    1.1834989e+04   1.855223e+03   0.000000e+00   3071s
  259540    1.1834989e+04   3.178433e+03   0.000000e+00   3078s
  259740    1.1834989e+04   2.212921e+04   0.000000e+00   3081s
  260180    1.1834989e+04   2.092214e+04   0.000000e+00   3088s
  260380    1.1834989e+04   6.334172e+03   0.000000e+00   3091s
  260780    1.1834989e+04   1.614374e+03   0.000000e+00   3098s
  260980    1.1834989e+04   3.890923e+03   0.000000e+00   3101s
  261380    1.1834989e+04   1.835358e+03   0.000000e+00   3108s
  261580    1.1834989e+04   1.934796e+03   0.000000e+00   3111s
  261970    1.1834989e+04   1.494519e+04   0.000000e+00   3117s
  262170    1.1834989e+04   1.127020e+03   0.000000e+00   3121s
  262580    1.1834989e+04   2.211392e+03   0.000000e+00   3128s
  262780    1.1834989e+04   1.086549e+04   0.000000e+00   3131s
  263190    1.1834989e+04   5.479329e+03   0.000000e+00   3137s
  263390    1.1834989e+04   8.754142e+04   0.000000e+00   3141s
  263830    1.1834989e+04   2.191087e+05   0.000000e+00   3147s
  264020    1.1834989e+04   5.201891e+04   0.000000e+00   3151s
  264440    1.1834989e+04   2.367662e+04   0.000000e+00   3157s
  264640    1.1834989e+04   3.875092e+03   0.000000e+00   3161s
  265020    1.1834989e+04   1.302774e+04   0.000000e+00   3167s
  265220    1.1834989e+04   5.497289e+03   0.000000e+00   3170s
  265630    1.1834989e+04   2.532246e+04   0.000000e+00   3177s
  265830    1.1834989e+04   6.671040e+03   0.000000e+00   3180s
  266230    1.1834989e+04   1.739468e+03   0.000000e+00   3187s
  266430    1.1834989e+04   7.730702e+03   0.000000e+00   3190s
  266830    1.1834989e+04   3.702658e+03   0.000000e+00   3197s
  267030    1.1834989e+04   5.030512e+03   0.000000e+00   3200s
  267440    1.1834989e+04   6.986451e+03   0.000000e+00   3207s
  267640    1.1834989e+04   9.564366e+03   0.000000e+00   3211s
  268040    1.1834989e+04   2.300602e+03   0.000000e+00   3217s
  268240    1.1834989e+04   4.516631e+03   0.000000e+00   3221s
  268640    1.1834989e+04   5.651676e+03   0.000000e+00   3227s
  268840    1.1834989e+04   2.327986e+03   0.000000e+00   3231s
  269250    1.1834988e+04   7.324560e+03   0.000000e+00   3237s
  269450    1.1834988e+04   4.214634e+03   0.000000e+00   3240s
  269850    1.1834988e+04   1.270477e+04   0.000000e+00   3247s
  270050    1.1834988e+04   2.072773e+04   0.000000e+00   3250s
  270430    1.1834988e+04   2.674348e+03   0.000000e+00   3257s
  270810    1.1834988e+04   2.001341e+04   0.000000e+00   3263s
  271010    1.1834988e+04   1.798562e+04   0.000000e+00   3266s
  271400    1.1834988e+04   2.448232e+03   0.000000e+00   3273s
  271600    1.1834988e+04   3.098107e+03   0.000000e+00   3276s
  271990    1.1834988e+04   8.615287e+03   0.000000e+00   3283s
  272180    1.1834988e+04   6.270734e+03   0.000000e+00   3286s
  272570    1.1834988e+04   2.460435e+03   0.000000e+00   3293s
  272760    1.1834988e+04   1.628725e+03   0.000000e+00   3296s
  273140    1.1834988e+04   6.635948e+03   0.000000e+00   3303s
  273330    1.1834988e+04   1.950710e+04   0.000000e+00   3306s
  273720    1.1834988e+04   3.076319e+04   0.000000e+00   3312s
  273920    1.1834988e+04   4.183990e+04   0.000000e+00   3316s
  274310    1.1834988e+04   2.264533e+04   0.000000e+00   3323s
  274510    1.1834988e+04   6.313862e+03   0.000000e+00   3326s
  274900    1.1834988e+04   7.973655e+03   0.000000e+00   3333s
  275100    1.1834988e+04   3.011793e+03   0.000000e+00   3336s
  275500    1.1834988e+04   2.076371e+04   0.000000e+00   3343s
  275690    1.1834988e+04   1.959405e+03   0.000000e+00   3347s
  276080    1.1834988e+04   1.255145e+03   0.000000e+00   3353s
  276270    1.1834988e+04   1.109630e+03   0.000000e+00   3357s
  276650    1.1834988e+04   1.398099e+04   0.000000e+00   3363s
  276850    1.1834988e+04   1.902742e+03   0.000000e+00   3367s
  277050    1.1834988e+04   9.428680e+03   0.000000e+00   3370s
  277450    1.1834988e+04   3.694555e+03   0.000000e+00   3377s
  277650    1.1834988e+04   3.427330e+03   0.000000e+00   3380s
  278040    1.1834988e+04   4.027895e+03   0.000000e+00   3387s
  278240    1.1834988e+04   1.707203e+04   0.000000e+00   3390s
  278630    1.1834988e+04   6.157724e+03   0.000000e+00   3397s
  278830    1.1834988e+04   5.323719e+03   0.000000e+00   3401s
  279230    1.1834988e+04   1.233495e+05   0.000000e+00   3407s
  279430    1.1834988e+04   3.450192e+03   0.000000e+00   3411s
  279840    1.1834988e+04   4.572889e+02   0.000000e+00   3418s
  280040    1.1834988e+04   4.845151e+03   0.000000e+00   3421s
  280420    1.1834988e+04   4.240277e+03   0.000000e+00   3428s
  280610    1.1834988e+04   1.335116e+04   0.000000e+00   3431s
  280990    1.1834988e+04   4.238683e+03   0.000000e+00   3438s
  281180    1.1834988e+04   7.966931e+02   0.000000e+00   3441s
  281580    1.1834988e+04   5.167507e+03   0.000000e+00   3448s
  281780    1.1834988e+04   3.299374e+03   0.000000e+00   3452s
  281980    1.1834988e+04   1.081277e+03   0.000000e+00   3455s
  282370    1.1834988e+04   5.062620e+04   0.000000e+00   3462s
  282560    1.1834988e+04   8.374706e+03   0.000000e+00   3465s
  282950    1.1834988e+04   4.022968e+04   0.000000e+00   3472s
  283150    1.1834988e+04   1.224309e+04   0.000000e+00   3475s
  283550    1.1834988e+04   2.786038e+03   0.000000e+00   3482s
  283740    1.1834988e+04   1.705589e+04   0.000000e+00   3486s
  284120    1.1834988e+04   3.370931e+03   0.000000e+00   3492s
  284310    1.1834988e+04   1.457441e+04   0.000000e+00   3496s
  284690    1.1834988e+04   2.023005e+03   0.000000e+00   3502s
  284880    1.1834988e+04   7.774375e+02   0.000000e+00   3506s
  285260    1.1834988e+04   1.725252e+03   0.000000e+00   3512s
  285460    1.1834988e+04   1.645641e+03   0.000000e+00   3516s
  285860    1.1834988e+04   3.974683e+03   0.000000e+00   3523s
  286060    1.1834988e+04   4.836624e+03   0.000000e+00   3526s
  286450    1.1834988e+04   7.447749e+02   0.000000e+00   3532s
  286650    1.1834988e+04   4.362648e+03   0.000000e+00   3535s
  287050    1.1834988e+04   2.494847e+03   0.000000e+00   3542s
  287240    1.1834988e+04   2.960085e+03   0.000000e+00   3545s
  287640    1.1834988e+04   5.669990e+03   0.000000e+00   3552s
  288040    1.1834988e+04   9.138628e+03   0.000000e+00   3558s
  288230    1.1834988e+04   8.961203e+03   0.000000e+00   3561s
  288610    1.1834988e+04   1.620338e+03   0.000000e+00   3567s
  288800    1.1834988e+04   4.875108e+03   0.000000e+00   3570s
  289200    1.1834988e+04   2.029213e+04   0.000000e+00   3577s
  289580    1.1834988e+04   1.074897e+04   0.000000e+00   3583s
  289780    1.1834988e+04   1.994351e+03   0.000000e+00   3586s
  290170    1.1834988e+04   9.574865e+03   0.000000e+00   3593s
  290370    1.1834988e+04   2.138817e+03   0.000000e+00   3596s

Root relaxation: time limit, 290608 iterations, 3584.27 seconds

    Nodes    |    Current Node    |     Objective Bounds      |     Work
 Expl Unexpl |  Obj  Depth IntInf | Incumbent    BestBd   Gap | It/Node Time

     0     0          -    0      2070.00000 12540.0000   506%     - 3600s

Explored 0 nodes (290608 simplex iterations) in 3600.13 seconds
Thread count was 1 (of 40 available processors)

Solution count 1: 2070 

Time limit reached
Best objective 2.070000000000e+03, best bound 1.254000000000e+04, gap 505.7971%

----------

Best objective (UB): 12540.000
Best feasible solution (LB): 2070.000
Gap between the lower bound and upper bound: 505.797%

----------

Number of customers served: 15

Schedule for EV v0:
   [   0, 1449) -> It remains parked at station s0.
   [1449, 1509) -> Service a request driving for customer c34 from s0 to s2.
   [1509, 1572) -> It remains parked at station s2.

Schedule for EV v1:
   [   0, 1572) -> It remains parked at station s0.

Schedule for EV v2:
   [   0, 1572) -> It remains parked at station s0.

Schedule for EV v3:
   [   0, 1572) -> It remains parked at station s0.

Schedule for EV v4:
   [   0, 1572) -> It remains parked at station s0.

Schedule for EV v5:
   [   0, 1572) -> It remains parked at station s0.

Schedule for EV v6:
   [   0, 1572) -> It remains parked at station s0, which was charging for charging.

Schedule for EV v7:
   [   0,  615) -> It remains parked at station s1.
   [ 615,  915) -> Service a request driving for customer c5 from s1 to s4.
   [ 915, 1212) -> It remains parked at station s4.
   [1212, 1572) -> Service a request driving for customer c5 from s4 to s11.

Schedule for EV v8:
   [   0, 1388) -> It remains parked at station s1.
   [1388, 1568) -> Service a request driving for customer c43 from s1 to s5.
   [1568, 1572) -> It remains parked at station s5.

Schedule for EV v9:
   [   0, 1089) -> It remains parked at station s1.
   [1089, 1149) -> Service a request driving for customer c11 from s1 to s3.
   [1149, 1572) -> It remains parked at station s3.

Schedule for EV v10:
   [   0,  847) -> It remains parked at station s1.
   [ 847,  877) -> Service a request driving for customer c15 from s1 to s10.
   [ 877, 1572) -> It remains parked at station s10, which was charging for charging.

Schedule for EV v11:
   [   0,  846) -> It remains parked at station s2.
   [ 846,  906) -> Service a request driving for customer c33 from s2 to s2.
   [ 906, 1572) -> It remains parked at station s2.

Schedule for EV v12:
   [   0, 1572) -> It remains parked at station s2.

Schedule for EV v13:
   [   0, 1572) -> It remains parked at station s2.

Schedule for EV v14:
   [   0, 1572) -> It remains parked at station s2.

Schedule for EV v15:
   [   0, 1095) -> It remains parked at station s3.
   [1095, 1305) -> Service a request driving for customer c6 from s3 to s2.
   [1305, 1572) -> It remains parked at station s2.

Schedule for EV v16:
   [   0, 1268) -> It remains parked at station s3.
   [1268, 1358) -> Service a request driving for customer c49 from s3 to s11.
   [1358, 1572) -> It remains parked at station s11.

Schedule for EV v17:
   [   0, 1155) -> It remains parked at station s3.
   [1155, 1215) -> Service a request driving for customer c24 from s3 to s1.
   [1215, 1572) -> It remains parked at station s1.

Schedule for EV v18:
   [   0, 1572) -> It remains parked at station s3.

Schedule for EV v19:
   [   0, 1572) -> It remains parked at station s3.

Schedule for EV v20:
   [   0, 1572) -> It remains parked at station s3.

Schedule for EV v21:
   [   0, 1572) -> It remains parked at station s3.

Schedule for EV v22:
   [   0, 1572) -> It remains parked at station s3.

Schedule for EV v23:
   [   0, 1572) -> It remains parked at station s3.

Schedule for EV v24:
   [   0, 1572) -> It remains parked at station s3.

Schedule for EV v25:
   [   0, 1572) -> It remains parked at station s3.

Schedule for EV v26:
   [   0, 1572) -> It remains parked at station s3.

Schedule for EV v27:
   [   0, 1572) -> It remains parked at station s4.

Schedule for EV v28:
   [   0, 1572) -> It remains parked at station s4.

Schedule for EV v29:
   [   0, 1572) -> It remains parked at station s4.

Schedule for EV v30:
   [   0, 1572) -> It remains parked at station s4.

Schedule for EV v31:
   [   0, 1572) -> It remains parked at station s4.

Schedule for EV v32:
   [   0, 1572) -> It remains parked at station s4.

Schedule for EV v33:
   [   0, 1272) -> It remains parked at station s5.
   [1272, 1392) -> Service a request driving for customer c22 from s5 to s3.
   [1392, 1572) -> It remains parked at station s3.

Schedule for EV v34:
   [   0,  965) -> It remains parked at station s5.
   [ 965, 1025) -> Service a request driving for customer c17 from s5 to s4.
   [1025, 1572) -> It remains parked at station s4.

Schedule for EV v35:
   [   0, 1572) -> It remains parked at station s5.

Schedule for EV v36:
   [   0, 1572) -> It remains parked at station s5.

Schedule for EV v37:
   [   0, 1572) -> It remains parked at station s5.

Schedule for EV v38:
   [   0, 1147) -> It remains parked at station s6.
   [1147, 1207) -> Service a request driving for customer c46 from s6 to s1.
   [1207, 1572) -> It remains parked at station s1.

Schedule for EV v39:
   [   0, 1572) -> It remains parked at station s6.

Schedule for EV v40:
   [   0, 1572) -> It remains parked at station s6.

Schedule for EV v41:
   [   0, 1029) -> It remains parked at station s7.
   [1029, 1089) -> Service a request driving for customer c7 from s7 to s0.
   [1089, 1210) -> It remains parked at station s0, which was charging for charging.
   [1210, 1270) -> Service a request driving for customer c7 from s0 to s0.
   [1270, 1572) -> It remains parked at station s0, which was charging for charging.

Schedule for EV v42:
   [   0, 1572) -> It remains parked at station s7.

Schedule for EV v43:
   [   0, 1572) -> It remains parked at station s7.

Schedule for EV v44:
   [   0, 1572) -> It remains parked at station s7.

Schedule for EV v45:
   [   0, 1572) -> It remains parked at station s7.

Schedule for EV v46:
   [   0, 1572) -> It remains parked at station s7.

Schedule for EV v47:
   [   0, 1572) -> It remains parked at station s7.

Schedule for EV v48:
   [   0, 1572) -> It remains parked at station s8.

Schedule for EV v49:
   [   0, 1572) -> It remains parked at station s8.

Schedule for EV v50:
   [   0, 1572) -> It remains parked at station s8.

Schedule for EV v51:
   [   0, 1572) -> It remains parked at station s8.

Schedule for EV v52:
   [   0, 1572) -> It remains parked at station s8.

Schedule for EV v53:
   [   0, 1572) -> It remains parked at station s8.

Schedule for EV v54:
   [   0, 1572) -> It remains parked at station s8.

Schedule for EV v55:
   [   0, 1572) -> It remains parked at station s8.

Schedule for EV v56:
   [   0, 1572) -> It remains parked at station s8.

Schedule for EV v57:
   [   0, 1572) -> It remains parked at station s9.

Schedule for EV v58:
   [   0, 1572) -> It remains parked at station s9.

Schedule for EV v59:
   [   0, 1572) -> It remains parked at station s9.

Schedule for EV v60:
   [   0, 1572) -> It remains parked at station s9.

Schedule for EV v61:
   [   0, 1572) -> It remains parked at station s9.

Schedule for EV v62:
   [   0, 1572) -> It remains parked at station s9.

Schedule for EV v63:
   [   0, 1572) -> It remains parked at station s10.

Schedule for EV v64:
   [   0, 1572) -> It remains parked at station s10.

Schedule for EV v65:
   [   0, 1572) -> It remains parked at station s10.

Schedule for EV v66:
   [   0, 1572) -> It remains parked at station s10.

Schedule for EV v67:
   [   0, 1572) -> It remains parked at station s10.

Schedule for EV v68:
   [   0, 1572) -> It remains parked at station s10, which was charging for charging.

Schedule for EV v69:
   [   0, 1572) -> It remains parked at station s10, which was charging for charging.

Schedule for EV v70:
   [   0, 1094) -> It remains parked at station s11.
   [1094, 1304) -> Service a request driving for customer c18 from s11 to s11.
   [1304, 1572) -> It remains parked at station s11.

Schedule for EV v71:
   [   0, 1096) -> It remains parked at station s11.
   [1096, 1186) -> Service a request driving for customer c37 from s11 to s0.
   [1186, 1572) -> It remains parked at station s0, which was charging for charging.

Schedule for EV v72:
   [   0, 1572) -> It remains parked at station s11.

Schedule for EV v73:
   [   0, 1572) -> It remains parked at station s11.

Schedule for EV v74:
   [   0, 1572) -> It remains parked at station s11.

Schedule for EV v75:
   [   0, 1572) -> It remains parked at station s11.

Schedule for EV v76:
   [   0, 1572) -> It remains parked at station s11.

Set of satisfied customers
   {c5, c6, c7, c11, c15, c17, c18, c22, c24, c33, c34, c37, c43, c46, c49}

