Academic license - for non-commercial use only
Gurobi Optimizer version 9.0.3 build v9.0.3rc0 (linux64)
Optimize a model with 631226 rows, 423096 columns and 3762849 nonzeros
Model fingerprint: 0x8a4e78d5
Variable types: 213564 continuous, 209532 integer (209532 binary)
Coefficient statistics:
  Matrix range     [1e+00, 4e+06]
  Objective range  [3e+01, 5e+02]
  Bounds range     [1e+00, 2e+06]
  RHS range        [1e+00, 2e+06]

Loaded user MIP start with objective 4050

Presolve removed 208902 rows and 140661 columns (presolve time = 5s) ...
Presolve removed 209553 rows and 142996 columns (presolve time = 12s) ...
Presolve removed 215379 rows and 144908 columns (presolve time = 16s) ...
Presolve removed 215337 rows and 144866 columns
Presolve time: 16.08s
Presolved: 415889 rows, 278230 columns, 2520166 nonzeros
Variable types: 0 continuous, 278230 integer (263772 binary)

Root simplex log...

Iteration    Objective       Primal Inf.    Dual Inf.      Time
       0    1.7880000e+04   9.129375e+02   0.000000e+00     19s
    7881    1.7879999e+04   3.042587e+04   0.000000e+00     20s
   18477    1.7189997e+04   4.487226e+04   0.000000e+00     25s
   25019    1.7099996e+04   4.541138e+04   0.000000e+00     30s
   28737    1.7099996e+04   9.637708e+04   0.000000e+00     35s
   32455    1.6979996e+04   6.707285e+04   0.000000e+00     40s
   35497    1.6979996e+04   4.049272e+04   0.000000e+00     45s
   37863    1.6979995e+04   3.705733e+04   0.000000e+00     51s
   39891    1.6979995e+04   2.063053e+04   0.000000e+00     55s
   42595    1.6979995e+04   3.425014e+04   0.000000e+00     60s
   44623    1.6979995e+04   3.405606e+04   0.000000e+00     65s
   46989    1.6979994e+04   3.717518e+04   0.000000e+00     70s
   49017    1.6979994e+04   3.712709e+04   0.000000e+00     75s
   51045    1.6979994e+04   2.206983e+04   0.000000e+00     80s
   53073    1.6979994e+04   2.343827e+04   0.000000e+00     86s
   54425    1.6979994e+04   1.221018e+05   0.000000e+00     91s
   55439    1.6979994e+04   3.367219e+04   0.000000e+00     95s
   56453    1.6979994e+04   3.838078e+05   0.000000e+00    102s
   57129    1.6979994e+04   6.026587e+06   0.000000e+00    106s
   57805    1.6979994e+04   4.805983e+05   0.000000e+00    113s
   58143    1.6979994e+04   6.729919e+05   0.000000e+00    117s
   58481    1.6979994e+04   1.041197e+05   0.000000e+00    120s
   59157    1.6979994e+04   6.692824e+05   0.000000e+00    126s
   59825    1.6979994e+04   8.772727e+05   0.000000e+00    133s
   60163    1.6979994e+04   9.275540e+05   0.000000e+00    137s
   60801    1.6979993e+04   4.618906e+05   0.000000e+00    144s
   61139    1.6979993e+04   5.561622e+05   0.000000e+00    148s
   61459    1.6979993e+04   4.180252e+06   0.000000e+00    152s
   61797    1.6979993e+04   3.080071e+05   0.000000e+00    155s
   62473    1.6979993e+04   1.083633e+06   0.000000e+00    162s
   63149    1.6979993e+04   4.157495e+06   0.000000e+00    168s
   63487    1.6979993e+04   1.265251e+06   0.000000e+00    172s
   63825    1.6979993e+04   3.030710e+06   0.000000e+00    176s
   64453    1.6979993e+04   4.919404e+05   0.000000e+00    184s
   64773    1.6979993e+04   2.250864e+06   0.000000e+00    189s
   65111    1.6979993e+04   2.880449e+05   0.000000e+00    195s
   65371    1.6979993e+04   1.070944e+06   0.000000e+00    199s
   65709    1.6979993e+04   4.664485e+06   0.000000e+00    203s
   66019    1.6979993e+04   1.267310e+05   0.000000e+00    207s
   66349    1.6979993e+04   2.751001e+06   0.000000e+00    211s
   66639    1.6979993e+04   1.059982e+06   0.000000e+00    215s
   67229    1.6979993e+04   2.725647e+05   0.000000e+00    223s
   67529    1.6979993e+04   2.713170e+05   0.000000e+00    227s
   67839    1.6979993e+04   2.540187e+05   0.000000e+00    231s
   68129    1.6979993e+04   9.831851e+04   0.000000e+00    235s
   68749    1.6979993e+04   6.796483e+05   0.000000e+00    243s
   69029    1.6979993e+04   6.184787e+05   0.000000e+00    247s
   69309    1.6979993e+04   7.512084e+05   0.000000e+00    251s
   69985    1.6979993e+04   1.126770e+06   0.000000e+00    258s
   70323    1.6979993e+04   5.344778e+06   0.000000e+00    262s
   70593    1.6979993e+04   1.511522e+06   0.000000e+00    266s
   70883    1.6979993e+04   5.189648e+06   0.000000e+00    270s
   71559    1.6979993e+04   5.524791e+05   0.000000e+00    277s
   71839    1.6979993e+04   9.283872e+05   0.000000e+00    281s
   72119    1.6979993e+04   8.904970e+05   0.000000e+00    285s
   72757    1.6979993e+04   2.048434e+06   0.000000e+00    293s
   73067    1.6979993e+04   5.802088e+05   0.000000e+00    297s
   73367    1.6979993e+04   5.467061e+05   0.000000e+00    301s
   73705    1.6979992e+04   7.939304e+05   0.000000e+00    305s
   74285    1.6979992e+04   1.160061e+05   0.000000e+00    314s
   74623    1.6979992e+04   5.606618e+04   0.000000e+00    318s
   74943    1.6979992e+04   1.284188e+06   0.000000e+00    322s
   75223    1.6979992e+04   4.211647e+05   0.000000e+00    326s
   75561    1.6979992e+04   6.140525e+05   0.000000e+00    330s
   76189    1.6979992e+04   1.395609e+05   0.000000e+00    337s
   76489    1.6979992e+04   8.372311e+06   0.000000e+00    341s
   76769    1.6979992e+04   7.040235e+05   0.000000e+00    346s
   77299    1.6979992e+04   1.277217e+05   0.000000e+00    354s
   77579    1.6979992e+04   8.002151e+05   0.000000e+00    358s
   77849    1.6979992e+04   1.568704e+05   0.000000e+00    363s
   78139    1.6979992e+04   3.438870e+05   0.000000e+00    367s
   78439    1.6979992e+04   1.363759e+05   0.000000e+00    371s
   78729    1.6979992e+04   2.260632e+05   0.000000e+00    376s
   79347    1.6979992e+04   2.429252e+05   0.000000e+00    384s
   79637    1.6979992e+04   7.923213e+05   0.000000e+00    388s
   79907    1.6979992e+04   2.610988e+05   0.000000e+00    393s
   80187    1.6979992e+04   2.864186e+06   0.000000e+00    397s
   80525    1.6979992e+04   2.929128e+05   0.000000e+00    401s
   80825    1.6979992e+04   6.525469e+06   0.000000e+00    405s
   81415    1.6979992e+04   7.363916e+05   0.000000e+00    414s
   81725    1.6979992e+04   3.660877e+05   0.000000e+00    418s
   82005    1.6979992e+04   8.407361e+05   0.000000e+00    422s
   82295    1.6979992e+04   9.234019e+04   0.000000e+00    427s
   82565    1.6979992e+04   6.480696e+05   0.000000e+00    431s
   82845    1.6979992e+04   5.265561e+05   0.000000e+00    436s
   83115    1.6979992e+04   7.704434e+04   0.000000e+00    440s
   83655    1.6979992e+04   1.966213e+05   0.000000e+00    449s
   83915    1.6979992e+04   9.977394e+04   0.000000e+00    453s
   84185    1.6979992e+04   3.179428e+05   0.000000e+00    457s
   84465    1.6979992e+04   5.939326e+05   0.000000e+00    462s
   84803    1.6979992e+04   1.103131e+05   0.000000e+00    466s
   85093    1.6979992e+04   7.270223e+05   0.000000e+00    470s
   85663    1.6979992e+04   5.815071e+04   0.000000e+00    479s
   86001    1.6979992e+04   3.137829e+05   0.000000e+00    482s
   86339    1.6979992e+04   9.365075e+05   0.000000e+00    486s
   86619    1.6979992e+04   1.562460e+05   0.000000e+00    491s
   86909    1.6979992e+04   8.837482e+04   0.000000e+00    495s
   87517    1.6979992e+04   7.767542e+05   0.000000e+00    504s
   87807    1.6979992e+04   1.458147e+06   0.000000e+00    508s
   88067    1.6979992e+04   1.501988e+05   0.000000e+00    512s
   88357    1.6979992e+04   7.321889e+04   0.000000e+00    517s
   88637    1.6979992e+04   1.617452e+05   0.000000e+00    521s
   88907    1.6979992e+04   1.762418e+05   0.000000e+00    525s
   89517    1.6979992e+04   2.763263e+05   0.000000e+00    534s
   89855    1.6979992e+04   1.474380e+05   0.000000e+00    537s
   90135    1.6979992e+04   1.279702e+06   0.000000e+00    542s
   90415    1.6979992e+04   1.456679e+05   0.000000e+00    546s
   90695    1.6979992e+04   2.489847e+05   0.000000e+00    550s
   91323    1.6979991e+04   7.288504e+05   0.000000e+00    559s
   91633    1.6979991e+04   3.689171e+05   0.000000e+00    563s
   91913    1.6979991e+04   1.220257e+05   0.000000e+00    567s
   92203    1.6979991e+04   5.885131e+05   0.000000e+00    572s
   92473    1.6979991e+04   1.812077e+06   0.000000e+00    576s
   92773    1.6979991e+04   1.227421e+06   0.000000e+00    580s
   93273    1.6979991e+04   6.016290e+05   0.000000e+00    589s
   93553    1.6979991e+04   2.171347e+05   0.000000e+00    593s
   93813    1.6979991e+04   8.419790e+05   0.000000e+00    598s
   94083    1.6979991e+04   4.906892e+05   0.000000e+00    602s
   94343    1.6979991e+04   3.728104e+06   0.000000e+00    607s
   94603    1.6979991e+04   8.113035e+05   0.000000e+00    611s
   94863    1.6979991e+04   2.028833e+05   0.000000e+00    616s
   95113    1.6979991e+04   1.920836e+05   0.000000e+00    622s
   95373    1.6979991e+04   5.869066e+05   0.000000e+00    628s
   95623    1.6979991e+04   1.051720e+05   0.000000e+00    633s
   95863    1.6979991e+04   1.017524e+05   0.000000e+00    637s
   96123    1.6979991e+04   2.882049e+05   0.000000e+00    641s
   96373    1.6979991e+04   5.980998e+05   0.000000e+00    646s
   96643    1.6979991e+04   3.259458e+05   0.000000e+00    650s
   97163    1.6979991e+04   1.472752e+05   0.000000e+00    659s
   97433    1.6979991e+04   2.816058e+05   0.000000e+00    663s
   97703    1.6979991e+04   5.033101e+05   0.000000e+00    668s
   97963    1.6979991e+04   4.780778e+04   0.000000e+00    672s
   98293    1.6979991e+04   1.600843e+05   0.000000e+00    677s
   98603    1.6979991e+04   1.774623e+05   0.000000e+00    681s
   98873    1.6979991e+04   2.518948e+05   0.000000e+00    685s
   99433    1.6979991e+04   3.009553e+06   0.000000e+00    694s
   99771    1.6979991e+04   7.517716e+04   0.000000e+00    698s
  100091    1.6979991e+04   6.399724e+05   0.000000e+00    702s
  100371    1.6979991e+04   1.397040e+06   0.000000e+00    706s
  100651    1.6979991e+04   1.902447e+05   0.000000e+00    711s
  100941    1.6979991e+04   3.595212e+05   0.000000e+00    715s
  101211    1.6979991e+04   1.724660e+05   0.000000e+00    720s
  101809    1.6979991e+04   1.136565e+05   0.000000e+00    729s
  102147    1.6979991e+04   1.007705e+05   0.000000e+00    733s
  102427    1.6979991e+04   7.112868e+05   0.000000e+00    738s
  102707    1.6979991e+04   9.293292e+05   0.000000e+00    743s
  102977    1.6979991e+04   1.699892e+06   0.000000e+00    747s
  103217    1.6979991e+04   3.409173e+05   0.000000e+00    752s
  103467    1.6979991e+04   1.708878e+05   0.000000e+00    756s
  103707    1.6979991e+04   4.621133e+05   0.000000e+00    761s
  103957    1.6979991e+04   3.770279e+05   0.000000e+00    766s
  104247    1.6979991e+04   1.020759e+06   0.000000e+00    770s
  104757    1.6979991e+04   7.315189e+04   0.000000e+00    780s
  105007    1.6979991e+04   2.438972e+05   0.000000e+00    784s
  105345    1.6979991e+04   3.166696e+05   0.000000e+00    788s
  105635    1.6979991e+04   2.786360e+05   0.000000e+00    792s
  105885    1.6979991e+04   4.621601e+04   0.000000e+00    797s
  106135    1.6979991e+04   1.794196e+05   0.000000e+00    801s
  106385    1.6979991e+04   1.496911e+05   0.000000e+00    806s
  106645    1.6979991e+04   6.320776e+05   0.000000e+00    811s
  106905    1.6979991e+04   7.641719e+05   0.000000e+00    815s
  107425    1.6979991e+04   2.828846e+05   0.000000e+00    824s
  107665    1.6979991e+04   1.287732e+05   0.000000e+00    829s
  107945    1.6979991e+04   1.483278e+06   0.000000e+00    833s
  108215    1.6979991e+04   5.406690e+05   0.000000e+00    838s
  108475    1.6979991e+04   1.904339e+06   0.000000e+00    842s
  108745    1.6979991e+04   7.015350e+04   0.000000e+00    847s
  108995    1.6979990e+04   2.110962e+05   0.000000e+00    851s
  109265    1.6979990e+04   8.901452e+04   0.000000e+00    856s
  109505    1.6979990e+04   1.276236e+06   0.000000e+00    860s
  110015    1.6979990e+04   9.170977e+04   0.000000e+00    869s
  110265    1.6979990e+04   6.882498e+05   0.000000e+00    874s
  110545    1.6979990e+04   1.674197e+05   0.000000e+00    879s
  110815    1.6979990e+04   4.450512e+05   0.000000e+00    883s
  111085    1.6979990e+04   6.425662e+05   0.000000e+00    888s
  111345    1.6979990e+04   6.771625e+05   0.000000e+00    893s
  111605    1.6979990e+04   2.376522e+05   0.000000e+00    897s
  111875    1.6979990e+04   1.872949e+06   0.000000e+00    902s
  112135    1.6979990e+04   2.429323e+05   0.000000e+00    907s
  112375    1.6979990e+04   1.414393e+05   0.000000e+00    911s
  112625    1.6979990e+04   3.772800e+05   0.000000e+00    916s
  112905    1.6979990e+04   9.679556e+05   0.000000e+00    920s
  113165    1.6979990e+04   3.384718e+05   0.000000e+00    925s
  113685    1.6979990e+04   1.184955e+06   0.000000e+00    935s
  113935    1.6979990e+04   2.021049e+05   0.000000e+00    939s
  114195    1.6979990e+04   1.655166e+05   0.000000e+00    944s
  114455    1.6979990e+04   1.051696e+05   0.000000e+00    949s
  114715    1.6979990e+04   1.953355e+05   0.000000e+00    953s
  115015    1.6979990e+04   3.360683e+05   0.000000e+00    958s
  115285    1.6979990e+04   3.155403e+05   0.000000e+00    963s
  115555    1.6979990e+04   9.164853e+05   0.000000e+00    967s
  115835    1.6979990e+04   3.253790e+05   0.000000e+00    972s
  116095    1.6979990e+04   2.768289e+05   0.000000e+00    977s
  116345    1.6979990e+04   1.379476e+05   0.000000e+00    982s
  116595    1.6979990e+04   1.431827e+06   0.000000e+00    986s
  116855    1.6979990e+04   3.678572e+05   0.000000e+00    991s
  117135    1.6979990e+04   5.571027e+06   0.000000e+00    996s
  117385    1.6979990e+04   1.116496e+05   0.000000e+00   1001s
  117655    1.6979990e+04   7.007262e+05   0.000000e+00   1005s
  118155    1.6979990e+04   3.166209e+05   0.000000e+00   1015s
  118415    1.6979990e+04   6.138708e+05   0.000000e+00   1021s
  118725    1.6979990e+04   2.207023e+05   0.000000e+00   1028s
  118975    1.6979990e+04   6.655900e+04   0.000000e+00   1034s
  119225    1.6979990e+04   2.666892e+05   0.000000e+00   1041s
  119465    1.6979990e+04   2.398973e+05   0.000000e+00   1047s
  119745    1.6979990e+04   2.360848e+05   0.000000e+00   1053s
  120005    1.6979990e+04   4.815153e+04   0.000000e+00   1058s
  120265    1.6979990e+04   1.953226e+05   0.000000e+00   1062s
  120595    1.6979990e+04   4.577531e+05   0.000000e+00   1067s
  120933    1.6979990e+04   2.497015e+05   0.000000e+00   1072s
  121253    1.6979990e+04   5.745905e+05   0.000000e+00   1077s
  121513    1.6979990e+04   5.187900e+04   0.000000e+00   1082s
  121783    1.6979990e+04   1.319076e+05   0.000000e+00   1087s
  122053    1.6979990e+04   3.153370e+05   0.000000e+00   1091s
  122313    1.6979990e+04   1.951140e+05   0.000000e+00   1096s
  122573    1.6979990e+04   7.258151e+04   0.000000e+00   1101s
  122843    1.6979990e+04   2.516829e+05   0.000000e+00   1106s
  123103    1.6979990e+04   1.654234e+05   0.000000e+00   1111s
  123363    1.6979990e+04   4.260254e+05   0.000000e+00   1116s
  123633    1.6979990e+04   2.255720e+05   0.000000e+00   1121s
  123893    1.6979990e+04   4.884272e+04   0.000000e+00   1126s
  124153    1.6979990e+04   1.128628e+05   0.000000e+00   1131s
  124491    1.6979990e+04   3.294486e+05   0.000000e+00   1135s
  125109    1.6979990e+04   5.195847e+05   0.000000e+00   1144s
  125369    1.6979989e+04   1.908262e+05   0.000000e+00   1149s
  125619    1.6979989e+04   7.739485e+05   0.000000e+00   1154s
  125909    1.6979989e+04   4.396571e+05   0.000000e+00   1158s
  126159    1.6979989e+04   6.561661e+05   0.000000e+00   1163s
  126439    1.6979989e+04   1.973022e+05   0.000000e+00   1168s
  126777    1.6979989e+04   5.026688e+05   0.000000e+00   1172s
  127067    1.6979989e+04   5.026914e+05   0.000000e+00   1177s
  127327    1.6979989e+04   2.222830e+05   0.000000e+00   1182s
  127607    1.6979989e+04   3.237365e+05   0.000000e+00   1186s
  127847    1.6979989e+04   7.210969e+05   0.000000e+00   1191s
  128087    1.6979989e+04   1.131537e+06   0.000000e+00   1196s
  128317    1.6979989e+04   8.559534e+04   0.000000e+00   1201s
  128557    1.6979989e+04   1.554464e+05   0.000000e+00   1206s
  128895    1.6979989e+04   1.907121e+05   0.000000e+00   1210s
  129165    1.6979989e+04   3.346771e+05   0.000000e+00   1215s
  129695    1.6979989e+04   8.780523e+05   0.000000e+00   1225s
  129955    1.6979989e+04   5.471507e+05   0.000000e+00   1229s
  130205    1.6979989e+04   9.983532e+04   0.000000e+00   1234s
  130485    1.6979989e+04   1.155190e+06   0.000000e+00   1239s
  130745    1.6979989e+04   2.678950e+05   0.000000e+00   1244s
  130995    1.6979989e+04   1.208715e+06   0.000000e+00   1249s
  131235    1.6979989e+04   4.342828e+05   0.000000e+00   1254s
  131475    1.6979989e+04   9.266427e+05   0.000000e+00   1258s
  131725    1.6979989e+04   2.151854e+05   0.000000e+00   1263s
  131965    1.6979989e+04   2.177858e+06   0.000000e+00   1268s
  132205    1.6979989e+04   6.186320e+04   0.000000e+00   1273s
  132445    1.6979989e+04   2.286559e+05   0.000000e+00   1278s
  132695    1.6979989e+04   1.633484e+05   0.000000e+00   1283s
  132945    1.6979989e+04   2.109183e+06   0.000000e+00   1288s
  133225    1.6979989e+04   6.081262e+04   0.000000e+00   1292s
  133465    1.6979989e+04   1.273927e+05   0.000000e+00   1297s
  133715    1.6979989e+04   3.268683e+05   0.000000e+00   1302s
  133955    1.6979989e+04   9.289471e+05   0.000000e+00   1307s
  134195    1.6979989e+04   5.964348e+05   0.000000e+00   1312s
  134435    1.6979989e+04   8.734259e+05   0.000000e+00   1317s
  134685    1.6979989e+04   1.185814e+05   0.000000e+00   1322s
  134935    1.6979989e+04   5.936397e+05   0.000000e+00   1327s
  135195    1.6979989e+04   6.337745e+05   0.000000e+00   1331s
  135435    1.6979989e+04   2.748005e+05   0.000000e+00   1336s
  135705    1.6979989e+04   4.897726e+05   0.000000e+00   1341s
  135965    1.6979989e+04   3.479918e+05   0.000000e+00   1346s
  136225    1.6979989e+04   3.586045e+05   0.000000e+00   1351s
  136475    1.6979989e+04   6.245543e+05   0.000000e+00   1356s
  136715    1.6979989e+04   4.084758e+05   0.000000e+00   1360s
  136965    1.6979989e+04   4.253885e+05   0.000000e+00   1365s
  137205    1.6979989e+04   3.399431e+05   0.000000e+00   1370s
  137715    1.6979989e+04   8.201636e+04   0.000000e+00   1380s
  137985    1.6979989e+04   9.075708e+04   0.000000e+00   1384s
  138255    1.6979989e+04   1.333545e+05   0.000000e+00   1389s
  138505    1.6979989e+04   1.472692e+06   0.000000e+00   1394s
  138785    1.6979989e+04   1.280749e+05   0.000000e+00   1399s
  139025    1.6979989e+04   9.277361e+04   0.000000e+00   1404s
  139255    1.6979989e+04   1.982028e+05   0.000000e+00   1408s
  139515    1.6979989e+04   1.813710e+05   0.000000e+00   1413s
  139755    1.6979989e+04   7.299601e+04   0.000000e+00   1418s
  139995    1.6979989e+04   8.633148e+04   0.000000e+00   1423s
  140255    1.6979989e+04   8.362138e+05   0.000000e+00   1428s
  140505    1.6979989e+04   2.692882e+05   0.000000e+00   1433s
  140775    1.6979989e+04   1.838768e+05   0.000000e+00   1438s
  141025    1.6979989e+04   2.037080e+05   0.000000e+00   1442s
  141275    1.6979989e+04   6.093326e+05   0.000000e+00   1447s
  141555    1.6979989e+04   1.279669e+06   0.000000e+00   1452s
  141805    1.6979989e+04   1.146533e+05   0.000000e+00   1457s
  142045    1.6979989e+04   1.218521e+05   0.000000e+00   1462s
  142305    1.6979989e+04   4.223722e+05   0.000000e+00   1467s
  142575    1.6979989e+04   1.065656e+06   0.000000e+00   1472s
  142815    1.6979989e+04   7.008804e+04   0.000000e+00   1476s
  143045    1.6979989e+04   3.443276e+05   0.000000e+00   1481s
  143285    1.6979988e+04   6.529676e+04   0.000000e+00   1486s
  143535    1.6979988e+04   1.553681e+05   0.000000e+00   1491s
  143785    1.6979988e+04   1.631695e+05   0.000000e+00   1496s
  144015    1.6979988e+04   2.182854e+05   0.000000e+00   1501s
  144265    1.6979988e+04   2.949183e+05   0.000000e+00   1506s
  144495    1.6979988e+04   2.043120e+05   0.000000e+00   1510s
  144725    1.6979988e+04   1.912492e+05   0.000000e+00   1515s
  145185    1.6979988e+04   6.569994e+05   0.000000e+00   1525s
  145425    1.6979988e+04   9.625156e+04   0.000000e+00   1530s
  145685    1.6979988e+04   3.889103e+05   0.000000e+00   1534s
  145955    1.6979988e+04   1.915892e+05   0.000000e+00   1539s
  146195    1.6979988e+04   9.378053e+04   0.000000e+00   1544s
  146435    1.6979988e+04   7.675647e+05   0.000000e+00   1549s
  146685    1.6979988e+04   4.595418e+06   0.000000e+00   1554s
  146935    1.6979988e+04   1.687448e+05   0.000000e+00   1559s
  147185    1.6979988e+04   3.349694e+05   0.000000e+00   1564s
  147445    1.6979988e+04   2.155242e+07   0.000000e+00   1569s
  147685    1.6979988e+04   3.459765e+05   0.000000e+00   1574s
  147915    1.6979988e+04   1.299361e+05   0.000000e+00   1579s
  148155    1.6979988e+04   3.608553e+05   0.000000e+00   1584s
  148395    1.6979988e+04   1.727067e+05   0.000000e+00   1589s
  148625    1.6979988e+04   1.357131e+05   0.000000e+00   1594s
  148855    1.6979988e+04   9.963177e+04   0.000000e+00   1599s
  149095    1.6979988e+04   3.801024e+05   0.000000e+00   1604s
  149325    1.6979988e+04   1.968135e+06   0.000000e+00   1609s
  149585    1.6979988e+04   6.610551e+05   0.000000e+00   1614s
  149915    1.6979988e+04   4.102049e+05   0.000000e+00   1620s
  150155    1.6979988e+04   1.168851e+05   0.000000e+00   1626s
  150385    1.6979988e+04   1.579861e+05   0.000000e+00   1631s
  150615    1.6979988e+04   1.946096e+05   0.000000e+00   1636s
  150865    1.6979988e+04   2.829434e+04   0.000000e+00   1641s
  151105    1.6979988e+04   9.476696e+04   0.000000e+00   1646s
  151345    1.6979988e+04   1.758404e+05   0.000000e+00   1651s
  151575    1.6979988e+04   2.655749e+05   0.000000e+00   1657s
  151815    1.6979988e+04   1.425859e+05   0.000000e+00   1664s
  152075    1.6979988e+04   4.432712e+05   0.000000e+00   1671s
  152365    1.6979988e+04   5.921252e+05   0.000000e+00   1677s
  152605    1.6979988e+04   2.061330e+05   0.000000e+00   1684s
  152835    1.6979988e+04   8.295815e+05   0.000000e+00   1691s
  153055    1.6979988e+04   1.529871e+05   0.000000e+00   1697s
  153285    1.6979988e+04   5.769963e+04   0.000000e+00   1703s
  153525    1.6979988e+04   5.040419e+05   0.000000e+00   1709s
  153775    1.6979988e+04   1.486800e+05   0.000000e+00   1715s
  154015    1.6979988e+04   5.933355e+04   0.000000e+00   1721s
  154255    1.6979988e+04   3.383401e+05   0.000000e+00   1726s
  154485    1.6979988e+04   3.562924e+05   0.000000e+00   1732s
  154725    1.6979988e+04   4.509011e+05   0.000000e+00   1737s
  154965    1.6979988e+04   5.208556e+04   0.000000e+00   1743s
  155195    1.6979988e+04   2.325393e+05   0.000000e+00   1749s
  155455    1.6979988e+04   2.629697e+05   0.000000e+00   1754s
  155695    1.6979988e+04   7.357786e+05   0.000000e+00   1760s
  155925    1.6979988e+04   2.172739e+05   0.000000e+00   1765s
  156155    1.6979988e+04   1.146510e+06   0.000000e+00   1771s
  156395    1.6979988e+04   1.391172e+05   0.000000e+00   1776s
  156635    1.6979988e+04   5.035142e+05   0.000000e+00   1781s
  156865    1.6979988e+04   8.480774e+04   0.000000e+00   1786s
  157095    1.6979988e+04   1.062318e+05   0.000000e+00   1790s
  157335    1.6979988e+04   3.012717e+05   0.000000e+00   1795s
  157575    1.6979988e+04   2.628671e+05   0.000000e+00   1800s
  157795    1.6979988e+04   4.633320e+05   0.000000e+00   1805s
  158045    1.6979988e+04   1.758497e+05   0.000000e+00   1810s
  158265    1.6979988e+04   4.557738e+05   0.000000e+00   1815s
  158485    1.6979988e+04   1.648574e+05   0.000000e+00   1820s
  158725    1.6979988e+04   9.419913e+05   0.000000e+00   1825s
  158965    1.6979988e+04   3.372086e+05   0.000000e+00   1831s
  159195    1.6979988e+04   1.055906e+05   0.000000e+00   1836s
  159425    1.6979988e+04   6.488770e+04   0.000000e+00   1841s
  159655    1.6979988e+04   1.635973e+05   0.000000e+00   1846s
  159885    1.6979988e+04   9.717696e+06   0.000000e+00   1851s
  160115    1.6979988e+04   1.460152e+05   0.000000e+00   1856s
  160355    1.6979988e+04   1.297038e+05   0.000000e+00   1861s
  160595    1.6979988e+04   3.994999e+05   0.000000e+00   1866s
  160815    1.6979988e+04   3.222273e+05   0.000000e+00   1871s
  161055    1.6979988e+04   9.029099e+04   0.000000e+00   1876s
  161285    1.6979988e+04   4.840476e+05   0.000000e+00   1881s
  161505    1.6979988e+04   3.457456e+05   0.000000e+00   1886s
  161735    1.6979987e+04   7.604623e+05   0.000000e+00   1891s
  161955    1.6979987e+04   6.806798e+05   0.000000e+00   1896s
  162175    1.6979987e+04   2.478796e+05   0.000000e+00   1902s
  162405    1.6979987e+04   6.188459e+05   0.000000e+00   1907s
  162645    1.6979987e+04   1.076461e+06   0.000000e+00   1912s
  162875    1.6979987e+04   1.706458e+05   0.000000e+00   1917s
  163105    1.6979987e+04   1.593602e+05   0.000000e+00   1922s
  163335    1.6979987e+04   8.343709e+05   0.000000e+00   1927s
  163575    1.6979987e+04   3.416715e+05   0.000000e+00   1932s
  163805    1.6979987e+04   1.314264e+05   0.000000e+00   1937s
  164045    1.6979987e+04   2.701375e+06   0.000000e+00   1942s
  164285    1.6979987e+04   2.859952e+05   0.000000e+00   1947s
  164585    1.6979987e+04   2.115364e+05   0.000000e+00   1952s
  164815    1.6979987e+04   1.111391e+05   0.000000e+00   1957s
  165045    1.6979987e+04   6.439830e+05   0.000000e+00   1962s
  165275    1.6979987e+04   4.260247e+05   0.000000e+00   1967s
  165495    1.6979987e+04   5.269620e+05   0.000000e+00   1972s
  165715    1.6979987e+04   4.695905e+04   0.000000e+00   1977s
  165955    1.6979987e+04   1.892258e+05   0.000000e+00   1982s
  166185    1.6979987e+04   6.343898e+04   0.000000e+00   1987s
  166415    1.6979987e+04   6.557449e+06   0.000000e+00   1992s
  166655    1.6979987e+04   1.881067e+05   0.000000e+00   1997s
  166885    1.6979987e+04   9.015537e+05   0.000000e+00   2002s
  167115    1.6979987e+04   1.549416e+07   0.000000e+00   2007s
  167345    1.6979987e+04   2.519527e+05   0.000000e+00   2012s
  167565    1.6979987e+04   9.293488e+04   0.000000e+00   2018s
  167805    1.6979987e+04   7.314783e+05   0.000000e+00   2023s
  168035    1.6979987e+04   9.337023e+05   0.000000e+00   2028s
  168275    1.6979987e+04   1.679761e+05   0.000000e+00   2033s
  168505    1.6979987e+04   3.929785e+05   0.000000e+00   2038s
  168735    1.6979987e+04   5.407021e+05   0.000000e+00   2043s
  168965    1.6979987e+04   3.011916e+06   0.000000e+00   2048s
  169205    1.6979987e+04   8.770213e+04   0.000000e+00   2053s
  169455    1.6979987e+04   1.203993e+05   0.000000e+00   2058s
  169695    1.6979987e+04   1.883230e+05   0.000000e+00   2063s
  169925    1.6979987e+04   9.089130e+04   0.000000e+00   2068s
  170155    1.6979987e+04   5.263604e+05   0.000000e+00   2073s
  170395    1.6979987e+04   4.350893e+05   0.000000e+00   2078s
  170625    1.6979987e+04   2.620177e+05   0.000000e+00   2083s
  170855    1.6979987e+04   9.103497e+04   0.000000e+00   2088s
  171085    1.6979987e+04   1.226552e+05   0.000000e+00   2093s
  171315    1.6979987e+04   3.441663e+05   0.000000e+00   2098s
  171545    1.6979987e+04   2.172639e+05   0.000000e+00   2103s
  171775    1.6979987e+04   1.870160e+05   0.000000e+00   2109s
  171995    1.6979987e+04   3.280405e+05   0.000000e+00   2114s
  172225    1.6979987e+04   2.938317e+05   0.000000e+00   2119s
  172445    1.6979987e+04   2.227694e+05   0.000000e+00   2124s
  172675    1.6979987e+04   2.905316e+05   0.000000e+00   2129s
  172915    1.6979987e+04   4.376756e+05   0.000000e+00   2134s
  173145    1.6979987e+04   1.470846e+05   0.000000e+00   2139s
  173365    1.6979987e+04   2.351959e+05   0.000000e+00   2145s
  173585    1.6979987e+04   5.161938e+05   0.000000e+00   2150s
  173805    1.6979987e+04   2.802090e+06   0.000000e+00   2155s
  174025    1.6979987e+04   6.221492e+04   0.000000e+00   2160s
  174245    1.6979987e+04   1.866152e+05   0.000000e+00   2166s
  174465    1.6979987e+04   3.117990e+05   0.000000e+00   2171s
  174705    1.6979987e+04   1.894180e+05   0.000000e+00   2176s
  174935    1.6979987e+04   4.085498e+05   0.000000e+00   2181s
  175165    1.6979987e+04   2.895140e+05   0.000000e+00   2186s
  175395    1.6979987e+04   3.501988e+05   0.000000e+00   2191s
  175615    1.6979987e+04   1.540766e+05   0.000000e+00   2197s
  175865    1.6979987e+04   9.331275e+05   0.000000e+00   2202s
  176085    1.6979987e+04   1.723725e+06   0.000000e+00   2207s
  176295    1.6979987e+04   3.748368e+04   0.000000e+00   2213s
  176525    1.6979987e+04   7.483053e+04   0.000000e+00   2218s
  176755    1.6979987e+04   1.238363e+05   0.000000e+00   2223s
  176985    1.6979987e+04   1.090282e+05   0.000000e+00   2229s
  177215    1.6979987e+04   2.777055e+05   0.000000e+00   2234s
  177435    1.6979987e+04   2.400627e+05   0.000000e+00   2239s
  177655    1.6979987e+04   1.090031e+05   0.000000e+00   2245s
  177875    1.6979987e+04   9.201778e+05   0.000000e+00   2250s
  178115    1.6979987e+04   1.362666e+06   0.000000e+00   2255s
  178345    1.6979987e+04   1.603521e+05   0.000000e+00   2260s
  178575    1.6979987e+04   2.008254e+05   0.000000e+00   2265s
  178805    1.6979987e+04   8.634399e+04   0.000000e+00   2270s
  179055    1.6979987e+04   1.427405e+05   0.000000e+00   2275s
  179275    1.6979987e+04   5.026243e+04   0.000000e+00   2281s
  179495    1.6979987e+04   8.831863e+05   0.000000e+00   2286s
  179715    1.6979986e+04   8.271160e+05   0.000000e+00   2291s
  179945    1.6979986e+04   4.033516e+05   0.000000e+00   2296s
  180175    1.6979986e+04   2.878241e+05   0.000000e+00   2301s
  180485    1.6979986e+04   1.631745e+05   0.000000e+00   2306s
  180745    1.6979986e+04   1.482222e+06   0.000000e+00   2312s
  180975    1.6979986e+04   2.264353e+05   0.000000e+00   2317s
  181205    1.6979986e+04   1.176090e+05   0.000000e+00   2322s
  181425    1.6979986e+04   2.126471e+05   0.000000e+00   2327s
  181655    1.6979986e+04   5.202680e+05   0.000000e+00   2332s
  181875    1.6979986e+04   8.716538e+04   0.000000e+00   2338s
  182213    1.6979986e+04   2.155353e+05   0.000000e+00   2343s
  182473    1.6979986e+04   1.813127e+05   0.000000e+00   2348s
  182713    1.6979986e+04   7.490704e+05   0.000000e+00   2353s
  182933    1.6979986e+04   1.103585e+05   0.000000e+00   2358s
  183163    1.6979986e+04   5.207206e+05   0.000000e+00   2363s
  183403    1.6979986e+04   1.003937e+06   0.000000e+00   2368s
  183653    1.6979986e+04   1.697011e+05   0.000000e+00   2373s
  183883    1.6979986e+04   1.586771e+05   0.000000e+00   2378s
  184103    1.6979986e+04   2.545935e+06   0.000000e+00   2383s
  184323    1.6979986e+04   4.461962e+05   0.000000e+00   2388s
  184543    1.6979986e+04   8.812538e+04   0.000000e+00   2393s
  184763    1.6979986e+04   1.568371e+05   0.000000e+00   2398s
  184983    1.6979986e+04   2.736997e+05   0.000000e+00   2403s
  185213    1.6979986e+04   3.455396e+05   0.000000e+00   2409s
  185433    1.6979986e+04   3.400973e+05   0.000000e+00   2414s
  185663    1.6979986e+04   1.883029e+05   0.000000e+00   2419s
  185883    1.6979986e+04   1.859486e+06   0.000000e+00   2424s
  186113    1.6979986e+04   1.042883e+05   0.000000e+00   2429s
  186333    1.6979986e+04   3.718147e+05   0.000000e+00   2435s
  186563    1.6979986e+04   6.499566e+05   0.000000e+00   2440s
  186793    1.6979986e+04   4.283025e+04   0.000000e+00   2445s
  187013    1.6979986e+04   3.133171e+05   0.000000e+00   2450s
  187243    1.6979986e+04   2.070961e+05   0.000000e+00   2456s
  187483    1.6979986e+04   2.229775e+05   0.000000e+00   2461s
  187713    1.6979986e+04   3.556416e+05   0.000000e+00   2466s
  187963    1.6979986e+04   1.264620e+06   0.000000e+00   2471s
  188193    1.6979986e+04   6.757270e+04   0.000000e+00   2476s
  188403    1.6979986e+04   2.210797e+05   0.000000e+00   2481s
  188643    1.6979986e+04   1.285964e+05   0.000000e+00   2487s
  188873    1.6979986e+04   1.866295e+05   0.000000e+00   2492s
  189103    1.6979986e+04   2.656333e+05   0.000000e+00   2497s
  189333    1.6979986e+04   1.253827e+05   0.000000e+00   2502s
  189563    1.6979986e+04   1.207805e+05   0.000000e+00   2507s
  189783    1.6979986e+04   9.347005e+05   0.000000e+00   2512s
  190013    1.6979986e+04   3.021481e+05   0.000000e+00   2517s
  190243    1.6979986e+04   1.872531e+05   0.000000e+00   2523s
  190473    1.6979986e+04   1.351016e+06   0.000000e+00   2528s
  190693    1.6979986e+04   2.883563e+05   0.000000e+00   2533s
  190923    1.6979986e+04   2.139228e+05   0.000000e+00   2538s
  191143    1.6979986e+04   1.991492e+05   0.000000e+00   2543s
  191363    1.6979986e+04   1.511179e+06   0.000000e+00   2548s
  191593    1.6979986e+04   1.427377e+05   0.000000e+00   2553s
  191843    1.6979986e+04   1.739411e+06   0.000000e+00   2558s
  192083    1.6979986e+04   4.667350e+05   0.000000e+00   2563s
  192313    1.6979986e+04   5.423734e+04   0.000000e+00   2568s
  192533    1.6979986e+04   4.254865e+05   0.000000e+00   2574s
  192763    1.6979986e+04   1.047955e+05   0.000000e+00   2579s
  192993    1.6979986e+04   5.824076e+05   0.000000e+00   2584s
  193213    1.6979986e+04   1.173239e+05   0.000000e+00   2589s
  193433    1.6979986e+04   1.074103e+06   0.000000e+00   2594s
  193653    1.6979986e+04   2.050318e+05   0.000000e+00   2599s
  193883    1.6979986e+04   6.901751e+04   0.000000e+00   2605s
  194103    1.6979986e+04   9.716528e+04   0.000000e+00   2610s
  194323    1.6979986e+04   2.988955e+05   0.000000e+00   2615s
  194533    1.6979986e+04   1.534420e+07   0.000000e+00   2620s
  194763    1.6979986e+04   2.849920e+05   0.000000e+00   2625s
  194983    1.6979986e+04   1.364525e+05   0.000000e+00   2630s
  195223    1.6979986e+04   9.659390e+04   0.000000e+00   2636s
  195453    1.6979986e+04   1.830306e+06   0.000000e+00   2641s
  195683    1.6979986e+04   3.482627e+04   0.000000e+00   2646s
  195913    1.6979986e+04   1.157174e+05   0.000000e+00   2651s
  196133    1.6979986e+04   3.961992e+05   0.000000e+00   2656s
  196353    1.6979986e+04   2.391285e+05   0.000000e+00   2661s
  196583    1.6979986e+04   1.057989e+06   0.000000e+00   2666s
  196813    1.6979986e+04   4.541819e+05   0.000000e+00   2671s
  197043    1.6979986e+04   2.250488e+05   0.000000e+00   2677s
  197283    1.6979986e+04   1.301552e+05   0.000000e+00   2682s
  197523    1.6979986e+04   2.756032e+06   0.000000e+00   2687s
  197743    1.6979985e+04   9.445265e+05   0.000000e+00   2692s
  197973    1.6979985e+04   5.079579e+05   0.000000e+00   2697s
  198193    1.6979985e+04   1.190512e+05   0.000000e+00   2702s
  198413    1.6979985e+04   3.501541e+05   0.000000e+00   2707s
  198653    1.6979985e+04   1.031438e+06   0.000000e+00   2712s
  198873    1.6979985e+04   7.635676e+05   0.000000e+00   2717s
  199083    1.6979985e+04   8.300900e+04   0.000000e+00   2722s
  199313    1.6979985e+04   4.435128e+06   0.000000e+00   2728s
  199633    1.6979985e+04   2.597457e+05   0.000000e+00   2733s
  199903    1.6979985e+04   1.705864e+06   0.000000e+00   2738s
  200143    1.6979985e+04   3.450446e+05   0.000000e+00   2743s
  200353    1.6979985e+04   1.562065e+05   0.000000e+00   2748s
  200563    1.6979985e+04   8.125239e+05   0.000000e+00   2754s
  200783    1.6979985e+04   1.945929e+05   0.000000e+00   2759s
  201003    1.6979985e+04   1.622709e+05   0.000000e+00   2764s
  201213    1.6979985e+04   1.000958e+07   0.000000e+00   2769s
  201453    1.6979985e+04   3.159286e+05   0.000000e+00   2774s
  201673    1.6979985e+04   1.270835e+06   0.000000e+00   2779s
  201913    1.6979985e+04   2.511604e+05   0.000000e+00   2785s
  202133    1.6979985e+04   2.959036e+05   0.000000e+00   2790s
  202353    1.6979985e+04   1.462755e+05   0.000000e+00   2795s
  202583    1.6979985e+04   3.352795e+05   0.000000e+00   2801s
  202823    1.6979985e+04   9.007401e+04   0.000000e+00   2806s
  203063    1.6979985e+04   9.106989e+04   0.000000e+00   2811s
  203283    1.6979985e+04   6.916086e+05   0.000000e+00   2817s
  203513    1.6979985e+04   1.490159e+05   0.000000e+00   2822s
  203753    1.6979985e+04   4.060297e+05   0.000000e+00   2827s
  203973    1.6979985e+04   5.692436e+04   0.000000e+00   2832s
  204203    1.6979985e+04   4.558958e+05   0.000000e+00   2837s
  204423    1.6979985e+04   7.797453e+05   0.000000e+00   2842s
  204643    1.6979985e+04   1.352929e+05   0.000000e+00   2847s
  204863    1.6979985e+04   1.886830e+05   0.000000e+00   2853s
  205083    1.6979985e+04   4.590615e+05   0.000000e+00   2858s
  205303    1.6979985e+04   1.228516e+05   0.000000e+00   2863s
  205513    1.6979985e+04   1.369792e+05   0.000000e+00   2868s
  205753    1.6979985e+04   2.125518e+05   0.000000e+00   2874s
  205973    1.6979985e+04   1.355158e+05   0.000000e+00   2879s
  206193    1.6979985e+04   1.620105e+06   0.000000e+00   2884s
  206443    1.6979985e+04   4.050924e+04   0.000000e+00   2890s
  206663    1.6979985e+04   1.330884e+05   0.000000e+00   2895s
  206883    1.6979985e+04   1.551975e+05   0.000000e+00   2900s
  207093    1.6979985e+04   1.098551e+05   0.000000e+00   2906s
  207303    1.6979985e+04   1.409004e+05   0.000000e+00   2911s
  207543    1.6979985e+04   1.170529e+06   0.000000e+00   2916s
  207773    1.6979985e+04   2.358409e+05   0.000000e+00   2922s
  207993    1.6979985e+04   7.043446e+05   0.000000e+00   2927s
  208213    1.6979985e+04   3.307980e+05   0.000000e+00   2932s
  208423    1.6979985e+04   1.491827e+05   0.000000e+00   2938s
  208643    1.6979985e+04   3.717468e+05   0.000000e+00   2943s
  208873    1.6979985e+04   1.456665e+06   0.000000e+00   2948s
  209103    1.6979985e+04   2.087684e+05   0.000000e+00   2954s
  209323    1.6979985e+04   1.339267e+05   0.000000e+00   2959s
  209543    1.6979985e+04   2.906242e+05   0.000000e+00   2964s
  209773    1.6979985e+04   1.163714e+05   0.000000e+00   2969s
  210003    1.6979985e+04   4.364336e+05   0.000000e+00   2975s
  210273    1.6979985e+04   6.591265e+05   0.000000e+00   2980s
  210493    1.6979985e+04   6.536130e+04   0.000000e+00   2985s
  210703    1.6979985e+04   5.254139e+05   0.000000e+00   2990s
  210923    1.6979985e+04   2.735083e+05   0.000000e+00   2996s
  211163    1.6979985e+04   1.750491e+05   0.000000e+00   3001s
  211393    1.6979985e+04   2.651625e+05   0.000000e+00   3006s
  211633    1.6979985e+04   9.807466e+04   0.000000e+00   3011s
  211853    1.6979985e+04   1.639386e+05   0.000000e+00   3017s
  212063    1.6979985e+04   3.342563e+05   0.000000e+00   3022s
  212293    1.6979985e+04   2.430162e+04   0.000000e+00   3027s
  212503    1.6979985e+04   9.436006e+04   0.000000e+00   3032s
  212713    1.6979985e+04   1.892438e+05   0.000000e+00   3038s
  212923    1.6979985e+04   6.729217e+05   0.000000e+00   3043s
  213143    1.6979985e+04   1.121743e+05   0.000000e+00   3048s
  213363    1.6979985e+04   2.192767e+05   0.000000e+00   3054s
  213593    1.6979985e+04   2.019650e+06   0.000000e+00   3059s
  213803    1.6979985e+04   1.751100e+05   0.000000e+00   3064s
  214013    1.6979985e+04   1.013304e+05   0.000000e+00   3070s
  214223    1.6979985e+04   1.800506e+05   0.000000e+00   3075s
  214433    1.6979985e+04   1.056772e+05   0.000000e+00   3081s
  214653    1.6979985e+04   1.316448e+05   0.000000e+00   3086s
  214873    1.6979985e+04   1.718005e+05   0.000000e+00   3091s
  215103    1.6979985e+04   5.966402e+04   0.000000e+00   3097s
  215333    1.6979985e+04   5.466986e+05   0.000000e+00   3102s
  215553    1.6979985e+04   8.462785e+05   0.000000e+00   3108s
  215773    1.6979985e+04   1.710563e+05   0.000000e+00   3113s
  215993    1.6979985e+04   2.394934e+05   0.000000e+00   3118s
  216213    1.6979985e+04   2.385042e+05   0.000000e+00   3124s
  216433    1.6979985e+04   2.031163e+05   0.000000e+00   3129s
  216653    1.6979985e+04   1.006673e+05   0.000000e+00   3135s
  216883    1.6979985e+04   1.212903e+05   0.000000e+00   3140s
  217083    1.6979985e+04   3.752043e+05   0.000000e+00   3146s
  217293    1.6979985e+04   5.106588e+04   0.000000e+00   3151s
  217513    1.6979985e+04   1.251666e+06   0.000000e+00   3157s
  217733    1.6979985e+04   1.743326e+05   0.000000e+00   3163s
  217943    1.6979985e+04   1.042643e+05   0.000000e+00   3168s
  218173    1.6979985e+04   4.096896e+05   0.000000e+00   3174s
  218403    1.6979985e+04   9.180319e+04   0.000000e+00   3179s
  218633    1.6979985e+04   3.003262e+05   0.000000e+00   3185s
  218863    1.6979985e+04   2.645998e+05   0.000000e+00   3190s
  219093    1.6979984e+04   1.552792e+05   0.000000e+00   3196s
  219313    1.6979984e+04   1.913502e+05   0.000000e+00   3201s
  219543    1.6979984e+04   1.461387e+05   0.000000e+00   3207s
  219763    1.6979984e+04   1.233768e+06   0.000000e+00   3212s
  219973    1.6979984e+04   6.905145e+05   0.000000e+00   3218s
  220203    1.6979984e+04   3.948502e+05   0.000000e+00   3224s
  220423    1.6979984e+04   8.715862e+04   0.000000e+00   3229s
  220633    1.6979984e+04   2.563711e+05   0.000000e+00   3235s
  220843    1.6979984e+04   2.988231e+05   0.000000e+00   3240s
  221063    1.6979984e+04   3.732069e+05   0.000000e+00   3246s
  221283    1.6979984e+04   4.513097e+05   0.000000e+00   3252s
  221493    1.6979984e+04   2.438027e+05   0.000000e+00   3257s
  221713    1.6979984e+04   6.336295e+04   0.000000e+00   3263s
  221933    1.6979984e+04   6.968340e+04   0.000000e+00   3268s
  222153    1.6979984e+04   5.623432e+05   0.000000e+00   3274s
  222363    1.6979984e+04   1.066087e+06   0.000000e+00   3279s
  222583    1.6979984e+04   2.151877e+06   0.000000e+00   3285s
  222803    1.6979984e+04   1.103220e+05   0.000000e+00   3290s
  223013    1.6979984e+04   9.424774e+04   0.000000e+00   3296s
  223223    1.6979984e+04   6.574304e+05   0.000000e+00   3301s
  223443    1.6979984e+04   1.323363e+05   0.000000e+00   3307s
  223653    1.6979984e+04   8.415684e+05   0.000000e+00   3312s
  223883    1.6979984e+04   1.542406e+06   0.000000e+00   3318s
  224113    1.6979984e+04   2.380084e+05   0.000000e+00   3323s
  224323    1.6979984e+04   5.195475e+05   0.000000e+00   3329s
  224543    1.6979984e+04   9.014901e+05   0.000000e+00   3334s
  224793    1.6979984e+04   1.844317e+05   0.000000e+00   3340s
  225033    1.6979984e+04   4.832571e+04   0.000000e+00   3345s
  225253    1.6979984e+04   1.017401e+05   0.000000e+00   3351s
  225473    1.6979984e+04   2.633284e+05   0.000000e+00   3357s
  225683    1.6979984e+04   1.606386e+05   0.000000e+00   3362s
  225903    1.6979984e+04   1.534792e+05   0.000000e+00   3368s
  226133    1.6979984e+04   3.764916e+05   0.000000e+00   3373s
  226343    1.6979984e+04   3.987788e+05   0.000000e+00   3379s
  226563    1.6979984e+04   4.767804e+04   0.000000e+00   3384s
  226783    1.6979984e+04   1.965339e+05   0.000000e+00   3390s
  227003    1.6979984e+04   1.617265e+05   0.000000e+00   3395s
  227223    1.6979984e+04   5.233517e+04   0.000000e+00   3400s
  227443    1.6979984e+04   1.092314e+05   0.000000e+00   3406s
  227703    1.6979984e+04   5.085936e+05   0.000000e+00   3411s
  227943    1.6979984e+04   2.035346e+05   0.000000e+00   3417s
  228173    1.6979984e+04   7.443713e+05   0.000000e+00   3422s
  228413    1.6979984e+04   3.705772e+05   0.000000e+00   3428s
  228643    1.6979984e+04   8.524495e+04   0.000000e+00   3433s
  228873    1.6979984e+04   2.533929e+05   0.000000e+00   3438s
  229103    1.6979984e+04   3.384997e+05   0.000000e+00   3444s
  229323    1.6979984e+04   6.963611e+04   0.000000e+00   3449s
  229533    1.6979983e+04   5.000755e+05   0.000000e+00   3455s
  229763    1.6979983e+04   3.078526e+05   0.000000e+00   3460s
  229993    1.6979983e+04   1.497825e+06   0.000000e+00   3466s
  230213    1.6979983e+04   6.763384e+04   0.000000e+00   3471s
  230463    1.6979983e+04   5.172678e+05   0.000000e+00   3477s
  230693    1.6979983e+04   5.052697e+04   0.000000e+00   3482s
  230923    1.6979983e+04   2.461731e+06   0.000000e+00   3487s
  231153    1.6979983e+04   8.917171e+04   0.000000e+00   3493s
  231373    1.6979983e+04   8.137258e+05   0.000000e+00   3499s
  231593    1.6979983e+04   5.574726e+04   0.000000e+00   3504s
  231823    1.6979983e+04   1.288240e+05   0.000000e+00   3509s
  232063    1.6979983e+04   9.630877e+04   0.000000e+00   3515s
  232283    1.6979983e+04   1.225847e+06   0.000000e+00   3520s
  232513    1.6979983e+04   2.709252e+05   0.000000e+00   3525s
  232753    1.6979983e+04   2.271319e+05   0.000000e+00   3531s
  232983    1.6979983e+04   2.967241e+05   0.000000e+00   3536s
  233193    1.6979983e+04   1.155438e+05   0.000000e+00   3542s
  233413    1.6979983e+04   5.795222e+05   0.000000e+00   3547s
  233653    1.6979983e+04   7.578381e+05   0.000000e+00   3553s
  233893    1.6979983e+04   1.811244e+06   0.000000e+00   3558s
  234123    1.6979983e+04   2.094273e+05   0.000000e+00   3563s
  234333    1.6979983e+04   8.451785e+05   0.000000e+00   3569s
  234563    1.6979983e+04   8.507731e+06   0.000000e+00   3574s
  234783    1.6979983e+04   9.684518e+04   0.000000e+00   3579s
  234983    1.6979983e+04   1.798754e+05   0.000000e+00   3585s
  235193    1.6979982e+04   1.587324e+05   0.000000e+00   3590s
  235423    1.6979982e+04   5.260698e+04   0.000000e+00   3595s

Root relaxation: time limit, 235616 iterations, 3582.64 seconds

    Nodes    |    Current Node    |     Objective Bounds      |     Work
 Expl Unexpl |  Obj  Depth IntInf | Incumbent    BestBd   Gap | It/Node Time

     0     0          -    0      4050.00000 18060.0000   346%     - 3600s

Explored 0 nodes (235616 simplex iterations) in 3600.14 seconds
Thread count was 1 (of 40 available processors)

Solution count 1: 4050 

Time limit reached
Best objective 4.050000000000e+03, best bound 1.806000000000e+04, gap 345.9259%

----------

Best objective (UB): 18060.000
Best feasible solution (LB): 4050.000
Gap between the lower bound and upper bound: 345.926%

----------

Number of customers served: 27

Schedule for EV v0:
   [   0, 1208) -> It remains parked at station s0.
   [1208, 1418) -> Service a request driving for customer c33 from s0 to s4.
   [1418, 1664) -> It remains parked at station s4.

Schedule for EV v1:
   [   0, 1211) -> It remains parked at station s0.
   [1211, 1271) -> Service a request driving for customer c16 from s0 to s3.
   [1271, 1327) -> It remains parked at station s3.
   [1327, 1387) -> Service a request driving for customer c68 from s3 to s10.
   [1387, 1664) -> It remains parked at station s10, which was charging for charging.

Schedule for EV v2:
   [   0, 1212) -> It remains parked at station s0.
   [1212, 1272) -> Service a request driving for customer c57 from s0 to s4.
   [1272, 1327) -> It remains parked at station s4.
   [1327, 1387) -> Service a request driving for customer c58 from s4 to s5.
   [1387, 1664) -> It remains parked at station s5.

Schedule for EV v3:
   [   0, 1270) -> It remains parked at station s1.
   [1270, 1360) -> Service a request driving for customer c45 from s1 to s1.
   [1360, 1664) -> It remains parked at station s1.

Schedule for EV v4:
   [   0, 1091) -> It remains parked at station s1.
   [1091, 1151) -> Service a request driving for customer c26 from s1 to s11.
   [1151, 1664) -> It remains parked at station s11.

Schedule for EV v5:
   [   0,  850) -> It remains parked at station s1.
   [ 850,  910) -> Service a request driving for customer c39 from s1 to s8.
   [ 910, 1664) -> It remains parked at station s8.

Schedule for EV v6:
   [   0, 1664) -> It remains parked at station s1.

Schedule for EV v7:
   [   0, 1664) -> It remains parked at station s1.

Schedule for EV v8:
   [   0, 1664) -> It remains parked at station s1.

Schedule for EV v9:
   [   0, 1664) -> It remains parked at station s2.

Schedule for EV v10:
   [   0, 1664) -> It remains parked at station s2.

Schedule for EV v11:
   [   0, 1664) -> It remains parked at station s2.

Schedule for EV v12:
   [   0,  729) -> It remains parked at station s3.
   [ 729,  999) -> Service a request driving for customer c12 from s3 to s3.
   [ 999, 1213) -> It remains parked at station s3.
   [1213, 1483) -> Service a request driving for customer c27 from s3 to s4.
   [1483, 1664) -> It remains parked at station s4.

Schedule for EV v13:
   [   0, 1391) -> It remains parked at station s3.
   [1391, 1601) -> Service a request driving for customer c37 from s3 to s1.
   [1601, 1664) -> It remains parked at station s1.

Schedule for EV v14:
   [   0,  731) -> It remains parked at station s3.
   [ 731,  911) -> Service a request driving for customer c18 from s3 to s1.
   [ 911, 1086) -> It remains parked at station s1, which was charging for charging.
   [1086, 1176) -> Service a request driving for customer c18 from s1 to s6.
   [1176, 1664) -> It remains parked at station s6.

Schedule for EV v15:
   [   0,  847) -> It remains parked at station s3.
   [ 847,  967) -> Service a request driving for customer c28 from s3 to s4.
   [ 967, 1664) -> It remains parked at station s4.

Schedule for EV v16:
   [   0, 1096) -> It remains parked at station s4.
   [1096, 1276) -> Service a request driving for customer c77 from s4 to s9.
   [1276, 1334) -> It remains parked at station s9.
   [1334, 1394) -> Service a request driving for customer c77 from s9 to s7.
   [1394, 1664) -> It remains parked at station s7.

Schedule for EV v17:
   [   0,  725) -> It remains parked at station s4.
   [ 725,  815) -> Service a request driving for customer c49 from s4 to s1.
   [ 815, 1027) -> It remains parked at station s1, which was charging for charging.
   [1027, 1087) -> Service a request driving for customer c49 from s1 to s5.
   [1087, 1664) -> It remains parked at station s5.

Schedule for EV v18:
   [   0, 1036) -> It remains parked at station s4.
   [1036, 1096) -> Service a request driving for customer c19 from s4 to s11.
   [1096, 1664) -> It remains parked at station s11.

Schedule for EV v19:
   [   0,  786) -> It remains parked at station s4.
   [ 786,  846) -> Service a request driving for customer c64 from s4 to s9.
   [ 846, 1664) -> It remains parked at station s9, which was charging for charging.

Schedule for EV v20:
   [   0, 1328) -> It remains parked at station s4.
   [1328, 1388) -> Service a request driving for customer c74 from s4 to s8.
   [1388, 1664) -> It remains parked at station s8.

Schedule for EV v21:
   [   0, 1664) -> It remains parked at station s4.

Schedule for EV v22:
   [   0, 1664) -> It remains parked at station s4.

Schedule for EV v23:
   [   0, 1664) -> It remains parked at station s4.

Schedule for EV v24:
   [   0, 1664) -> It remains parked at station s4.

Schedule for EV v25:
   [   0,  729) -> It remains parked at station s5.
   [ 729,  789) -> Service a request driving for customer c51 from s5 to s4.
   [ 789, 1216) -> It remains parked at station s4.
   [1216, 1276) -> Service a request driving for customer c51 from s4 to s3.
   [1276, 1664) -> It remains parked at station s3.

Schedule for EV v26:
   [   0, 1664) -> It remains parked at station s5.

Schedule for EV v27:
   [   0, 1664) -> It remains parked at station s5.

Schedule for EV v28:
   [   0, 1664) -> It remains parked at station s5.

Schedule for EV v29:
   [   0, 1664) -> It remains parked at station s5.

Schedule for EV v30:
   [   0, 1664) -> It remains parked at station s5.

Schedule for EV v31:
   [   0,  916) -> It remains parked at station s6.
   [ 916, 1066) -> Service a request driving for customer c73 from s6 to s11.
   [1066, 1145) -> It remains parked at station s11.
   [1145, 1445) -> Service a request driving for customer c73 from s11 to s1.
   [1445, 1664) -> It remains parked at station s1.

Schedule for EV v32:
   [   0,  667) -> It remains parked at station s6.
   [ 667,  907) -> Service a request driving for customer c14 from s6 to s11.
   [ 907, 1148) -> It remains parked at station s11.
   [1148, 1208) -> Service a request driving for customer c14 from s11 to s6.
   [1208, 1664) -> It remains parked at station s6.

Schedule for EV v33:
   [   0, 1154) -> It remains parked at station s6.
   [1154, 1274) -> Service a request driving for customer c70 from s6 to s6.
   [1274, 1664) -> It remains parked at station s6.

Schedule for EV v34:
   [   0, 1664) -> It remains parked at station s6.

Schedule for EV v35:
   [   0, 1664) -> It remains parked at station s6.

Schedule for EV v36:
   [   0, 1664) -> It remains parked at station s6.

Schedule for EV v37:
   [   0, 1664) -> It remains parked at station s6.

Schedule for EV v38:
   [   0, 1028) -> It remains parked at station s7.
   [1028, 1088) -> Service a request driving for customer c41 from s7 to s6.
   [1088, 1664) -> It remains parked at station s6, which was charging for charging.

Schedule for EV v39:
   [   0, 1664) -> It remains parked at station s7.

Schedule for EV v40:
   [   0, 1664) -> It remains parked at station s7.

Schedule for EV v41:
   [   0, 1664) -> It remains parked at station s7.

Schedule for EV v42:
   [   0, 1664) -> It remains parked at station s7.

Schedule for EV v43:
   [   0, 1664) -> It remains parked at station s7.

Schedule for EV v44:
   [   0, 1664) -> It remains parked at station s7.

Schedule for EV v45:
   [   0,  969) -> It remains parked at station s8.
   [ 969, 1059) -> Service a request driving for customer c24 from s8 to s5.
   [1059, 1085) -> It remains parked at station s5.
   [1085, 1115) -> Service a request driving for customer c24 from s5 to s10.
   [1115, 1664) -> It remains parked at station s10.

Schedule for EV v46:
   [   0, 1664) -> It remains parked at station s8.

Schedule for EV v47:
   [   0, 1664) -> It remains parked at station s8.

Schedule for EV v48:
   [   0, 1664) -> It remains parked at station s8.

Schedule for EV v49:
   [   0, 1664) -> It remains parked at station s8.

Schedule for EV v50:
   [   0, 1664) -> It remains parked at station s8.

Schedule for EV v51:
   [   0, 1664) -> It remains parked at station s8.

Schedule for EV v52:
   [   0, 1664) -> It remains parked at station s8.

Schedule for EV v53:
   [   0, 1664) -> It remains parked at station s8.

Schedule for EV v54:
   [   0, 1664) -> It remains parked at station s8.

Schedule for EV v55:
   [   0, 1267) -> It remains parked at station s9.
   [1267, 1297) -> Service a request driving for customer c71 from s9 to s7.
   [1297, 1664) -> It remains parked at station s7.

Schedule for EV v56:
   [   0, 1664) -> It remains parked at station s9.

Schedule for EV v57:
   [   0, 1664) -> It remains parked at station s9.

Schedule for EV v58:
   [   0, 1664) -> It remains parked at station s9.

Schedule for EV v59:
   [   0, 1664) -> It remains parked at station s9.

Schedule for EV v60:
   [   0, 1664) -> It remains parked at station s9.

Schedule for EV v61:
   [   0, 1664) -> It remains parked at station s9.

Schedule for EV v62:
   [   0,  496) -> It remains parked at station s10.
   [ 496,  556) -> Service a request driving for customer c69 from s10 to s0.
   [ 556,  788) -> It remains parked at station s0.
   [ 788,  968) -> Service a request driving for customer c69 from s0 to s1.
   [ 968, 1664) -> It remains parked at station s1, which was charging for charging.

Schedule for EV v63:
   [   0, 1664) -> It remains parked at station s10.

Schedule for EV v64:
   [   0, 1664) -> It remains parked at station s10.

Schedule for EV v65:
   [   0, 1664) -> It remains parked at station s10.

Schedule for EV v66:
   [   0, 1664) -> It remains parked at station s10.

Schedule for EV v67:
   [   0, 1664) -> It remains parked at station s10.

Schedule for EV v68:
   [   0, 1664) -> It remains parked at station s10.

Schedule for EV v69:
   [   0, 1664) -> It remains parked at station s10, which was charging for charging.

Schedule for EV v70:
   [   0, 1025) -> It remains parked at station s11.
   [1025, 1265) -> Service a request driving for customer c72 from s11 to s6.
   [1265, 1664) -> It remains parked at station s6.

Schedule for EV v71:
   [   0, 1664) -> It remains parked at station s11.

Schedule for EV v72:
   [   0, 1664) -> It remains parked at station s11.

Schedule for EV v73:
   [   0, 1664) -> It remains parked at station s11.

Schedule for EV v74:
   [   0, 1664) -> It remains parked at station s11.

Schedule for EV v75:
   [   0, 1664) -> It remains parked at station s11.

Set of satisfied customers
   {c12, c14, c16, c18, c19, c24, c26, c27, c28, c33, c37, c39, c41, c45, c49, c51, c57, c58, c64, c68, c69, c70, c71, c72, c73, c74, c77}

