Academic license - for non-commercial use only
Gurobi Optimizer version 9.0.3 build v9.0.3rc0 (linux64)
Optimize a model with 921381 rows, 616935 columns and 6575262 nonzeros
Model fingerprint: 0xc7388909
Variable types: 310180 continuous, 306755 integer (306755 binary)
Coefficient statistics:
  Matrix range     [1e+00, 4e+06]
  Objective range  [3e+01, 6e+02]
  Bounds range     [1e+00, 2e+06]
  RHS range        [1e+00, 2e+06]

Loaded user MIP start with objective 3300

Presolve removed 187705 rows and 128941 columns (presolve time = 5s) ...
Presolve removed 215959 rows and 145497 columns (presolve time = 10s) ...
Presolve removed 216300 rows and 146674 columns (presolve time = 16s) ...
Presolve removed 219292 rows and 147840 columns (presolve time = 21s) ...
Presolve removed 219213 rows and 147761 columns
Presolve time: 20.99s
Presolved: 702168 rows, 469174 columns, 4938307 nonzeros
Variable types: 0 continuous, 469174 integer (447431 binary)

Root simplex log...

Iteration    Objective       Primal Inf.    Dual Inf.      Time
       0    2.1120000e+04   1.935750e+03   0.000000e+00     26s
   17602    2.1119998e+04   3.420522e+04   0.000000e+00     30s
   25567    2.1119997e+04   6.036550e+04   0.000000e+00     35s
   31434    2.1119996e+04   3.606592e+04   0.000000e+00     40s
   36998    2.1119995e+04   3.152372e+04   0.000000e+00     45s
   42562    2.1119994e+04   4.047849e+04   0.000000e+00     50s
   46842    2.1119994e+04   3.096720e+04   0.000000e+00     55s
   49838    2.1119994e+04   7.395723e+04   0.000000e+00     60s
   52834    2.1119993e+04   4.052469e+04   0.000000e+00     66s
   55402    2.1119993e+04   4.183417e+04   0.000000e+00     70s
   57542    2.1119993e+04   5.201247e+04   0.000000e+00     76s
   59682    2.1119993e+04   4.395816e+04   0.000000e+00     81s
   61394    2.1119993e+04   1.575736e+05   0.000000e+00     86s
   63106    2.1119993e+04   3.473944e+04   0.000000e+00     91s
   64818    2.1119993e+04   3.018941e+04   0.000000e+00     95s
   66530    2.1119993e+04   9.286911e+04   0.000000e+00    100s
   68242    2.1119993e+04   3.175851e+04   0.000000e+00    106s
   69526    2.1119992e+04   5.222093e+05   0.000000e+00    111s
   70810    2.1119992e+04   2.134435e+04   0.000000e+00    115s
   72522    2.1119992e+04   1.022801e+05   0.000000e+00    121s
   74234    2.1119992e+04   4.045056e+05   0.000000e+00    127s
   75090    2.1119992e+04   3.282725e+04   0.000000e+00    131s
   75946    2.1119992e+04   3.467627e+04   0.000000e+00    135s
   76802    2.1119992e+04   6.552266e+04   0.000000e+00    141s
   77658    2.1119992e+04   8.707377e+04   0.000000e+00    145s
   78942    2.1119992e+04   2.096320e+05   0.000000e+00    152s
   79798    2.1119992e+04   8.626374e+04   0.000000e+00    155s
   80654    2.1119992e+04   4.164312e+04   0.000000e+00    160s
   81938    2.1119992e+04   1.618584e+05   0.000000e+00    168s
   82794    2.1119992e+04   5.113941e+04   0.000000e+00    172s
   83650    2.1119992e+04   3.045493e+04   0.000000e+00    176s
   84506    2.1119992e+04   7.848244e+04   0.000000e+00    180s
   85362    2.1119992e+04   7.570883e+04   0.000000e+00    186s
   86218    2.1119992e+04   9.711700e+05   0.000000e+00    191s
   87074    2.1119992e+04   3.110032e+05   0.000000e+00    198s
   87502    2.1119992e+04   4.576817e+04   0.000000e+00    201s
   88786    2.1119992e+04   1.375358e+05   0.000000e+00    207s
   89642    2.1119992e+04   7.174333e+04   0.000000e+00    212s
   90070    2.1119992e+04   1.497109e+05   0.000000e+00    216s
   90926    2.1119992e+04   1.265995e+05   0.000000e+00    221s
   91354    2.1119992e+04   1.891335e+05   0.000000e+00    225s
   92210    2.1119992e+04   1.344837e+05   0.000000e+00    232s
   93066    2.1119992e+04   1.039985e+05   0.000000e+00    239s
   93494    2.1119992e+04   7.523164e+04   0.000000e+00    243s
   93922    2.1119992e+04   1.287512e+05   0.000000e+00    246s
   94778    2.1119991e+04   1.233977e+05   0.000000e+00    250s
   95634    2.1119991e+04   4.066077e+04   0.000000e+00    256s
   96490    2.1119991e+04   1.091568e+05   0.000000e+00    261s
   97346    2.1119991e+04   2.587863e+05   0.000000e+00    267s
   98202    2.1119991e+04   3.854789e+04   0.000000e+00    273s
   98630    2.1119991e+04   8.789977e+04   0.000000e+00    276s
   99486    2.1119991e+04   4.882511e+04   0.000000e+00    284s
   99914    2.1119991e+04   4.912673e+04   0.000000e+00    288s
  100342    2.1119991e+04   1.375538e+05   0.000000e+00    291s
  101198    2.1119991e+04   1.390670e+05   0.000000e+00    297s
  101626    2.1119991e+04   7.242859e+04   0.000000e+00    300s
  102482    2.1119991e+04   5.702082e+04   0.000000e+00    306s
  103338    2.1119991e+04   7.692273e+04   0.000000e+00    312s
  103766    2.1119991e+04   5.561932e+04   0.000000e+00    317s
  104194    2.1119991e+04   8.328365e+04   0.000000e+00    320s
  105050    2.1119991e+04   7.503498e+04   0.000000e+00    328s
  105478    2.1119991e+04   1.914678e+05   0.000000e+00    332s
  106334    2.1119991e+04   1.499040e+05   0.000000e+00    338s
  106762    2.1119991e+04   3.183763e+05   0.000000e+00    344s
  107190    2.1119991e+04   3.044102e+04   0.000000e+00    348s
  107618    2.1119991e+04   3.794557e+05   0.000000e+00    351s
  108046    2.1119991e+04   1.475186e+05   0.000000e+00    355s
  108474    2.1119991e+04   5.178559e+04   0.000000e+00    360s
  109330    2.1119991e+04   9.230682e+04   0.000000e+00    368s
  109758    2.1119991e+04   9.159302e+04   0.000000e+00    373s
  110186    2.1119991e+04   6.484664e+04   0.000000e+00    376s
  111042    2.1119991e+04   5.245227e+04   0.000000e+00    384s
  111470    2.1119991e+04   1.966314e+05   0.000000e+00    389s
  111898    2.1119991e+04   3.028831e+04   0.000000e+00    394s
  112326    2.1119991e+04   4.261493e+04   0.000000e+00    398s
  112754    2.1119991e+04   4.506692e+05   0.000000e+00    403s
  113182    2.1119991e+04   2.984100e+04   0.000000e+00    407s
  113610    2.1119991e+04   5.368557e+04   0.000000e+00    411s
  114466    2.1119991e+04   3.520621e+05   0.000000e+00    418s
  114894    2.1119991e+04   5.709897e+04   0.000000e+00    422s
  115322    2.1119991e+04   1.635129e+05   0.000000e+00    426s
  115750    2.1119991e+04   4.841288e+05   0.000000e+00    433s
  116160    2.1119991e+04   4.973535e+05   0.000000e+00    439s
  116570    2.1119991e+04   3.708092e+06   0.000000e+00    446s
  116960    2.1119991e+04   6.383685e+05   0.000000e+00    453s
  117310    2.1119991e+04   8.373090e+05   0.000000e+00    460s
  117690    2.1119991e+04   6.170241e+05   0.000000e+00    467s
  118080    2.1119991e+04   4.736718e+05   0.000000e+00    474s
  118410    2.1119991e+04   1.186964e+06   0.000000e+00    481s
  118750    2.1119991e+04   6.347956e+06   0.000000e+00    488s
  119090    2.1119991e+04   2.146321e+05   0.000000e+00    495s
  119420    2.1119991e+04   3.704017e+05   0.000000e+00    503s
  119780    2.1119991e+04   2.273768e+05   0.000000e+00    510s
  120150    2.1119991e+04   7.790831e+05   0.000000e+00    517s
  120540    2.1119991e+04   3.281380e+05   0.000000e+00    524s
  120880    2.1119991e+04   4.696981e+05   0.000000e+00    531s
  121280    2.1119990e+04   1.921711e+05   0.000000e+00    539s
  121610    2.1119990e+04   1.717302e+06   0.000000e+00    546s
  122000    2.1119990e+04   1.430837e+05   0.000000e+00    553s
  122350    2.1119990e+04   2.762049e+05   0.000000e+00    560s
  122680    2.1119990e+04   6.209690e+06   0.000000e+00    568s
  123010    2.1119990e+04   1.324586e+06   0.000000e+00    575s
  123340    2.1119990e+04   2.392423e+06   0.000000e+00    582s
  123650    2.1119990e+04   2.152129e+06   0.000000e+00    590s
  123970    2.1119990e+04   1.002687e+06   0.000000e+00    598s
  124340    2.1119990e+04   1.087581e+05   0.000000e+00    605s
  124680    2.1119990e+04   1.910446e+06   0.000000e+00    612s
  125010    2.1119990e+04   6.235133e+05   0.000000e+00    620s
  125340    2.1119990e+04   2.512946e+06   0.000000e+00    627s
  125680    2.1119990e+04   7.449595e+06   0.000000e+00    634s
  125990    2.1119990e+04   4.159651e+05   0.000000e+00    642s
  126370    2.1119990e+04   2.415706e+06   0.000000e+00    649s
  126680    2.1119990e+04   5.712635e+05   0.000000e+00    656s
  127020    2.1119990e+04   1.433600e+06   0.000000e+00    664s
  127370    2.1119990e+04   3.645341e+05   0.000000e+00    671s
  127720    2.1119990e+04   1.054255e+06   0.000000e+00    679s
  128110    2.1119990e+04   1.166529e+06   0.000000e+00    686s
  128440    2.1119990e+04   1.010741e+06   0.000000e+00    693s
  128850    2.1119990e+04   1.814797e+05   0.000000e+00    700s
  129180    2.1119990e+04   1.239411e+06   0.000000e+00    708s
  129500    2.1119990e+04   3.219395e+06   0.000000e+00    715s
  129810    2.1119990e+04   1.682715e+06   0.000000e+00    723s
  130130    2.1119990e+04   2.858976e+05   0.000000e+00    731s
  130450    2.1119990e+04   3.403571e+06   0.000000e+00    738s
  130800    2.1119990e+04   1.852212e+05   0.000000e+00    746s
  131160    2.1119990e+04   4.687965e+05   0.000000e+00    753s
  131500    2.1119990e+04   3.089535e+06   0.000000e+00    761s
  131890    2.1119990e+04   1.711144e+06   0.000000e+00    768s
  132260    2.1119990e+04   3.504887e+05   0.000000e+00    776s
  132670    2.1119990e+04   9.059678e+05   0.000000e+00    783s
  133040    2.1119990e+04   6.067637e+05   0.000000e+00    791s
  133390    2.1119990e+04   2.311555e+06   0.000000e+00    799s
  133730    2.1119990e+04   6.437751e+06   0.000000e+00    807s
  134050    2.1119990e+04   5.141837e+05   0.000000e+00    814s
  134478    2.1119990e+04   1.306384e+06   0.000000e+00    821s
  134838    2.1119990e+04   3.568909e+06   0.000000e+00    828s
  135148    2.1119990e+04   2.271344e+05   0.000000e+00    836s
  135498    2.1119990e+04   1.617427e+06   0.000000e+00    843s
  135828    2.1119990e+04   1.955982e+06   0.000000e+00    851s
  136256    2.1119990e+04   5.592628e+05   0.000000e+00    857s
  136586    2.1119990e+04   4.862447e+06   0.000000e+00    864s
  136926    2.1119990e+04   6.185455e+05   0.000000e+00    872s
  137354    2.1119990e+04   5.637368e+05   0.000000e+00    879s
  137782    2.1119990e+04   2.205918e+05   0.000000e+00    884s
  138210    2.1119989e+04   2.231249e+06   0.000000e+00    891s
  138638    2.1119988e+04   1.919612e+06   0.000000e+00    897s
  139066    2.1119988e+04   2.883256e+06   0.000000e+00    903s
  139466    2.1119988e+04   6.521470e+04   0.000000e+00    910s
  139826    2.1119987e+04   4.609061e+05   0.000000e+00    918s
  140254    2.1119987e+04   5.694219e+07   0.000000e+00    925s
  140654    2.1119987e+04   6.276101e+05   0.000000e+00    932s
  141064    2.1119987e+04   3.763103e+07   0.000000e+00    939s
  141474    2.1119987e+04   2.300624e+05   0.000000e+00    947s
  141902    2.1119987e+04   2.049798e+05   0.000000e+00    953s
  142302    2.1119986e+04   9.608012e+05   0.000000e+00    960s
  142682    2.1119986e+04   1.457232e+07   0.000000e+00    968s
  143110    2.1119986e+04   2.588055e+05   0.000000e+00    974s
  143520    2.1119986e+04   4.462718e+07   0.000000e+00    981s
  143948    2.1119986e+04   2.811950e+05   0.000000e+00    988s
  144358    2.1119986e+04   2.053751e+06   0.000000e+00    995s
  144748    2.1119986e+04   6.200997e+06   0.000000e+00   1003s
  145078    2.1119986e+04   2.507616e+05   0.000000e+00   1010s
  145488    2.1119985e+04   4.296301e+06   0.000000e+00   1017s
  145838    2.1119985e+04   3.109414e+06   0.000000e+00   1025s
  146168    2.1119985e+04   1.660485e+06   0.000000e+00   1033s
  146528    2.1119985e+04   1.480825e+06   0.000000e+00   1040s
  146888    2.1119985e+04   4.733660e+06   0.000000e+00   1048s
  147248    2.1119985e+04   2.609478e+05   0.000000e+00   1056s
  147628    2.1119985e+04   3.874131e+05   0.000000e+00   1063s
  147988    2.1119985e+04   2.518959e+05   0.000000e+00   1070s
  148328    2.1119985e+04   1.321803e+06   0.000000e+00   1078s
  148688    2.1119985e+04   5.525653e+05   0.000000e+00   1086s
  149058    2.1119985e+04   1.539521e+06   0.000000e+00   1093s
  149438    2.1119984e+04   3.531843e+06   0.000000e+00   1101s
  149818    2.1119984e+04   2.998466e+05   0.000000e+00   1108s
  150168    2.1119984e+04   4.052618e+06   0.000000e+00   1115s
  150548    2.1119984e+04   4.893541e+06   0.000000e+00   1123s
  150908    2.1119984e+04   3.022594e+05   0.000000e+00   1130s
  151268    2.1119984e+04   1.021477e+07   0.000000e+00   1138s
  151628    2.1119984e+04   5.901263e+05   0.000000e+00   1146s
  151988    2.1119984e+04   4.019288e+05   0.000000e+00   1153s
  152338    2.1119984e+04   2.399291e+06   0.000000e+00   1161s
  152688    2.1119984e+04   6.406925e+06   0.000000e+00   1168s
  153048    2.1119984e+04   2.541606e+06   0.000000e+00   1177s
  153378    2.1119984e+04   5.267503e+05   0.000000e+00   1184s
  153728    2.1119984e+04   2.655886e+06   0.000000e+00   1192s
  154088    2.1119983e+04   2.078638e+05   0.000000e+00   1199s
  154468    2.1119983e+04   4.276845e+05   0.000000e+00   1207s
  154798    2.1119983e+04   2.223694e+06   0.000000e+00   1215s
  155128    2.1119983e+04   3.273674e+05   0.000000e+00   1222s
  155478    2.1119983e+04   2.491410e+06   0.000000e+00   1230s
  155848    2.1119983e+04   9.808131e+05   0.000000e+00   1237s
  156208    2.1119983e+04   4.151972e+05   0.000000e+00   1245s
  156548    2.1119983e+04   4.160795e+05   0.000000e+00   1252s
  156908    2.1119983e+04   7.485663e+05   0.000000e+00   1260s
  157268    2.1119983e+04   6.241718e+05   0.000000e+00   1267s
  157648    2.1119983e+04   8.577435e+05   0.000000e+00   1275s
  157988    2.1119983e+04   3.447776e+05   0.000000e+00   1282s
  158308    2.1119983e+04   2.098265e+06   0.000000e+00   1290s
  158668    2.1119983e+04   1.400932e+06   0.000000e+00   1298s
  159028    2.1119983e+04   7.094499e+06   0.000000e+00   1306s
  159398    2.1119982e+04   2.180053e+06   0.000000e+00   1313s
  159728    2.1119982e+04   1.883953e+06   0.000000e+00   1321s
  160038    2.1119982e+04   5.348670e+05   0.000000e+00   1329s
  160368    2.1119982e+04   2.051915e+06   0.000000e+00   1337s
  160698    2.1119982e+04   3.579480e+05   0.000000e+00   1345s
  161048    2.1119982e+04   3.114989e+05   0.000000e+00   1352s
  161388    2.1119982e+04   2.109843e+05   0.000000e+00   1360s
  161718    2.1119982e+04   5.127344e+05   0.000000e+00   1368s
  162088    2.1119982e+04   7.091011e+05   0.000000e+00   1376s
  162398    2.1119982e+04   7.001860e+05   0.000000e+00   1384s
  162788    2.1119982e+04   1.782157e+06   0.000000e+00   1391s
  163108    2.1119982e+04   5.170111e+05   0.000000e+00   1399s
  163408    2.1119982e+04   9.510846e+05   0.000000e+00   1407s
  163748    2.1119982e+04   3.018832e+05   0.000000e+00   1416s
  164058    2.1119982e+04   2.228801e+05   0.000000e+00   1424s
  164378    2.1119982e+04   1.070327e+06   0.000000e+00   1432s
  164708    2.1119982e+04   1.879395e+06   0.000000e+00   1440s
  165048    2.1119981e+04   3.113441e+05   0.000000e+00   1448s
  165368    2.1119981e+04   1.311620e+07   0.000000e+00   1455s
  165698    2.1119981e+04   3.778906e+05   0.000000e+00   1463s
  166008    2.1119981e+04   6.999629e+05   0.000000e+00   1471s
  166318    2.1119981e+04   2.158080e+06   0.000000e+00   1479s
  166628    2.1119981e+04   1.395323e+06   0.000000e+00   1487s
  166948    2.1119981e+04   8.344855e+05   0.000000e+00   1495s
  167268    2.1119981e+04   1.542305e+06   0.000000e+00   1503s
  167648    2.1119981e+04   1.408895e+07   0.000000e+00   1511s
  167948    2.1119981e+04   2.176047e+06   0.000000e+00   1519s
  168258    2.1119981e+04   3.401295e+05   0.000000e+00   1527s
  168598    2.1119981e+04   5.987708e+05   0.000000e+00   1535s
  168938    2.1119981e+04   6.749260e+05   0.000000e+00   1543s
  169248    2.1119981e+04   3.448382e+05   0.000000e+00   1551s
  169538    2.1119981e+04   1.157728e+07   0.000000e+00   1559s
  169858    2.1119981e+04   7.830558e+05   0.000000e+00   1567s
  170178    2.1119981e+04   2.996016e+06   0.000000e+00   1575s
  170488    2.1119981e+04   2.740254e+05   0.000000e+00   1583s
  170838    2.1119981e+04   2.005787e+06   0.000000e+00   1591s
  171148    2.1119981e+04   9.972417e+05   0.000000e+00   1599s
  171478    2.1119980e+04   2.010128e+05   0.000000e+00   1607s
  171828    2.1119980e+04   1.531411e+06   0.000000e+00   1615s
  172138    2.1119980e+04   5.104785e+05   0.000000e+00   1623s
  172468    2.1119980e+04   3.702328e+07   0.000000e+00   1631s
  172788    2.1119980e+04   4.965837e+05   0.000000e+00   1639s
  173108    2.1119980e+04   1.745159e+05   0.000000e+00   1647s
  173438    2.1119980e+04   6.276971e+05   0.000000e+00   1655s
  173738    2.1119980e+04   4.044969e+05   0.000000e+00   1663s
  174058    2.1119980e+04   2.701499e+05   0.000000e+00   1671s
  174388    2.1119980e+04   1.900423e+05   0.000000e+00   1679s
  174698    2.1119980e+04   1.340704e+06   0.000000e+00   1687s
  175038    2.1119980e+04   1.638038e+06   0.000000e+00   1695s
  175368    2.1119980e+04   1.757505e+06   0.000000e+00   1703s
  175658    2.1119980e+04   9.008621e+04   0.000000e+00   1711s
  175998    2.1119980e+04   1.459414e+06   0.000000e+00   1719s
  176318    2.1119980e+04   1.763034e+05   0.000000e+00   1727s
  176648    2.1119980e+04   4.738368e+05   0.000000e+00   1735s
  176968    2.1119980e+04   4.076777e+05   0.000000e+00   1743s
  177298    2.1119980e+04   1.729107e+05   0.000000e+00   1751s
  177618    2.1119980e+04   9.734065e+05   0.000000e+00   1760s
  177908    2.1119980e+04   4.037314e+06   0.000000e+00   1768s
  178218    2.1119980e+04   6.164223e+05   0.000000e+00   1776s
  178528    2.1119980e+04   2.399901e+05   0.000000e+00   1784s
  178838    2.1119980e+04   1.139304e+06   0.000000e+00   1792s
  179148    2.1119980e+04   1.078242e+06   0.000000e+00   1800s
  179448    2.1119979e+04   2.099476e+06   0.000000e+00   1809s
  179748    2.1119979e+04   2.336649e+06   0.000000e+00   1817s
  180048    2.1119979e+04   4.970963e+05   0.000000e+00   1825s
  180418    2.1119979e+04   8.576312e+05   0.000000e+00   1833s
  180758    2.1119979e+04   6.724138e+05   0.000000e+00   1841s
  181068    2.1119979e+04   3.801829e+06   0.000000e+00   1849s
  181348    2.1119979e+04   8.523475e+05   0.000000e+00   1858s
  181628    2.1119979e+04   6.866629e+05   0.000000e+00   1866s
  181968    2.1119979e+04   8.029508e+05   0.000000e+00   1874s
  182278    2.1119979e+04   4.089985e+05   0.000000e+00   1883s
  182608    2.1119979e+04   9.295744e+05   0.000000e+00   1891s
  182898    2.1119979e+04   8.693130e+05   0.000000e+00   1899s
  183228    2.1119979e+04   1.737852e+05   0.000000e+00   1907s
Warning: Markowitz tolerance tightened to 0.03125
  183548    2.1119979e+04   6.701978e+05   0.000000e+00   1916s
  183878    2.1119979e+04   4.207745e+06   0.000000e+00   1924s
  184188    2.1119979e+04   9.282587e+05   0.000000e+00   1932s
  184508    2.1119979e+04   2.120101e+06   0.000000e+00   1941s
  184818    2.1119979e+04   1.292339e+05   0.000000e+00   1949s
  185128    2.1119979e+04   8.143877e+05   0.000000e+00   1957s
  185428    2.1119979e+04   1.066932e+06   0.000000e+00   1966s
  185728    2.1119979e+04   1.440339e+06   0.000000e+00   1974s
  186018    2.1119979e+04   4.487863e+06   0.000000e+00   1982s
  186318    2.1119979e+04   4.412372e+05   0.000000e+00   1991s
  186618    2.1119979e+04   6.372955e+06   0.000000e+00   1999s
  186948    2.1119979e+04   4.390699e+05   0.000000e+00   2008s
  187288    2.1119978e+04   7.175257e+05   0.000000e+00   2018s
  187608    2.1119978e+04   2.387418e+05   0.000000e+00   2026s
  187908    2.1119978e+04   3.857985e+05   0.000000e+00   2033s
  188188    2.1119978e+04   9.219486e+05   0.000000e+00   2041s
  188508    2.1119978e+04   2.196702e+06   0.000000e+00   2049s
  188828    2.1119978e+04   2.288297e+06   0.000000e+00   2057s
  189108    2.1119978e+04   1.476059e+07   0.000000e+00   2065s
  189458    2.1119978e+04   4.400971e+05   0.000000e+00   2072s
  189748    2.1119978e+04   1.063435e+06   0.000000e+00   2080s
  190018    2.1119978e+04   3.209129e+06   0.000000e+00   2088s
  190318    2.1119978e+04   1.816775e+06   0.000000e+00   2096s
  190618    2.1119978e+04   1.170237e+05   0.000000e+00   2104s
  190938    2.1119978e+04   2.866574e+05   0.000000e+00   2112s
  191228    2.1119978e+04   5.893357e+05   0.000000e+00   2120s
  191558    2.1119978e+04   1.003911e+06   0.000000e+00   2127s
  191828    2.1119978e+04   2.663769e+05   0.000000e+00   2135s
  192138    2.1119978e+04   2.373402e+06   0.000000e+00   2143s
  192428    2.1119978e+04   8.409016e+05   0.000000e+00   2151s
  192738    2.1119978e+04   1.601829e+05   0.000000e+00   2159s
  193048    2.1119978e+04   5.253688e+05   0.000000e+00   2167s
  193398    2.1119978e+04   2.506532e+05   0.000000e+00   2174s
  193688    2.1119978e+04   5.165985e+05   0.000000e+00   2182s
  194018    2.1119978e+04   2.958796e+05   0.000000e+00   2190s
  194308    2.1119978e+04   2.632198e+05   0.000000e+00   2197s
  194588    2.1119978e+04   3.739696e+05   0.000000e+00   2205s
  194888    2.1119978e+04   2.058374e+05   0.000000e+00   2213s
  195158    2.1119978e+04   6.483248e+05   0.000000e+00   2221s
  195488    2.1119978e+04   7.207100e+05   0.000000e+00   2229s
  195778    2.1119977e+04   4.061413e+06   0.000000e+00   2237s
  196108    2.1119977e+04   2.030912e+05   0.000000e+00   2245s
  196418    2.1119977e+04   4.219043e+05   0.000000e+00   2253s
  196708    2.1119977e+04   1.230174e+06   0.000000e+00   2260s
  196998    2.1119977e+04   3.726109e+05   0.000000e+00   2268s
  197328    2.1119977e+04   1.082079e+06   0.000000e+00   2276s
  197618    2.1119977e+04   4.047368e+05   0.000000e+00   2284s
  197938    2.1119977e+04   3.435765e+05   0.000000e+00   2292s
  198268    2.1119977e+04   3.340762e+05   0.000000e+00   2300s
  198568    2.1119977e+04   9.199782e+05   0.000000e+00   2308s
  198868    2.1119977e+04   7.019273e+05   0.000000e+00   2316s
  199168    2.1119977e+04   1.819008e+06   0.000000e+00   2323s
  199448    2.1119977e+04   5.805905e+05   0.000000e+00   2332s
  199718    2.1119977e+04   6.638969e+05   0.000000e+00   2340s
  200018    2.1119977e+04   2.236102e+06   0.000000e+00   2348s
  200328    2.1119977e+04   1.093332e+06   0.000000e+00   2356s
  200618    2.1119977e+04   2.271499e+07   0.000000e+00   2364s
  200898    2.1119977e+04   6.606478e+06   0.000000e+00   2372s
  201178    2.1119977e+04   1.417221e+06   0.000000e+00   2380s
  201438    2.1119977e+04   5.007167e+06   0.000000e+00   2388s
  201738    2.1119977e+04   8.679531e+05   0.000000e+00   2396s
  202018    2.1119977e+04   2.166580e+05   0.000000e+00   2404s
  202328    2.1119977e+04   1.298439e+06   0.000000e+00   2412s
  202628    2.1119977e+04   4.444177e+05   0.000000e+00   2420s
  202898    2.1119977e+04   5.455199e+06   0.000000e+00   2428s
  203168    2.1119977e+04   8.892814e+05   0.000000e+00   2437s
  203448    2.1119977e+04   2.180130e+06   0.000000e+00   2445s
  203728    2.1119977e+04   3.063430e+05   0.000000e+00   2453s
  203998    2.1119977e+04   3.726538e+05   0.000000e+00   2462s
  204278    2.1119977e+04   8.028777e+06   0.000000e+00   2470s
  204578    2.1119977e+04   1.247188e+06   0.000000e+00   2478s
  204878    2.1119977e+04   3.274552e+05   0.000000e+00   2486s
  205158    2.1119976e+04   3.393705e+05   0.000000e+00   2494s
  205488    2.1119976e+04   3.374848e+06   0.000000e+00   2502s
  205788    2.1119976e+04   5.179970e+05   0.000000e+00   2510s
  206058    2.1119976e+04   8.711816e+05   0.000000e+00   2519s
  206328    2.1119976e+04   2.898719e+05   0.000000e+00   2527s
  206618    2.1119976e+04   5.687759e+07   0.000000e+00   2535s
  206898    2.1119976e+04   5.098425e+05   0.000000e+00   2543s
  207158    2.1119976e+04   2.126610e+05   0.000000e+00   2552s
  207428    2.1119976e+04   1.512834e+06   0.000000e+00   2560s
  207748    2.1119976e+04   1.452037e+05   0.000000e+00   2568s
  208018    2.1119976e+04   6.543884e+06   0.000000e+00   2576s
  208288    2.1119976e+04   3.852740e+05   0.000000e+00   2585s
  208578    2.1119976e+04   9.608999e+05   0.000000e+00   2593s
  208908    2.1119976e+04   5.854816e+05   0.000000e+00   2601s
  209208    2.1119976e+04   1.210459e+06   0.000000e+00   2609s
  209488    2.1119976e+04   2.266569e+06   0.000000e+00   2617s
  209808    2.1119976e+04   3.381372e+05   0.000000e+00   2625s
  210138    2.1119976e+04   1.074783e+06   0.000000e+00   2633s
  210408    2.1119976e+04   3.901689e+05   0.000000e+00   2641s
  210678    2.1119976e+04   1.133818e+06   0.000000e+00   2650s
  210948    2.1119976e+04   2.468794e+06   0.000000e+00   2658s
  211238    2.1119976e+04   2.658591e+05   0.000000e+00   2667s
  211538    2.1119976e+04   7.448360e+05   0.000000e+00   2675s
  211798    2.1119976e+04   5.444389e+05   0.000000e+00   2683s
  212068    2.1119976e+04   4.003918e+05   0.000000e+00   2692s
  212328    2.1119976e+04   3.063579e+06   0.000000e+00   2700s
  212628    2.1119976e+04   4.312074e+05   0.000000e+00   2708s
  212928    2.1119976e+04   2.504221e+06   0.000000e+00   2717s
  213198    2.1119976e+04   4.081863e+05   0.000000e+00   2725s
  213498    2.1119976e+04   6.280969e+06   0.000000e+00   2733s
  213768    2.1119976e+04   2.143721e+05   0.000000e+00   2742s
  214038    2.1119976e+04   1.121510e+06   0.000000e+00   2750s
  214298    2.1119976e+04   2.753383e+05   0.000000e+00   2758s
  214558    2.1119976e+04   1.752258e+05   0.000000e+00   2766s
  214848    2.1119975e+04   7.364228e+05   0.000000e+00   2774s
  215118    2.1119975e+04   1.896006e+05   0.000000e+00   2783s
  215378    2.1119975e+04   7.219170e+05   0.000000e+00   2791s
  215638    2.1119975e+04   2.671695e+06   0.000000e+00   2799s
  215908    2.1119975e+04   1.516861e+05   0.000000e+00   2808s
  216188    2.1119975e+04   8.432692e+05   0.000000e+00   2816s
  216488    2.1119975e+04   1.065059e+05   0.000000e+00   2825s
  216758    2.1119975e+04   6.864411e+05   0.000000e+00   2833s
  217038    2.1119975e+04   7.724781e+05   0.000000e+00   2842s
  217298    2.1119975e+04   3.690125e+05   0.000000e+00   2850s
  217558    2.1119975e+04   4.519646e+05   0.000000e+00   2858s
  217858    2.1119975e+04   3.019693e+05   0.000000e+00   2867s
  218138    2.1119975e+04   1.010344e+06   0.000000e+00   2875s
  218398    2.1119975e+04   4.631107e+05   0.000000e+00   2884s
  218658    2.1119975e+04   5.004380e+05   0.000000e+00   2892s
  218978    2.1119975e+04   6.085181e+05   0.000000e+00   2900s
  219258    2.1119975e+04   2.536447e+05   0.000000e+00   2908s
  219548    2.1119975e+04   8.950492e+05   0.000000e+00   2917s
  219848    2.1119975e+04   1.309420e+06   0.000000e+00   2925s
  220138    2.1119975e+04   4.434389e+05   0.000000e+00   2933s
  220408    2.1119975e+04   1.088712e+07   0.000000e+00   2942s
  220668    2.1119975e+04   5.864072e+05   0.000000e+00   2950s
  220958    2.1119975e+04   6.246158e+05   0.000000e+00   2958s
  221238    2.1119975e+04   2.065556e+06   0.000000e+00   2967s
  221498    2.1119975e+04   5.935582e+05   0.000000e+00   2975s
  221768    2.1119975e+04   6.446680e+05   0.000000e+00   2983s
  222068    2.1119975e+04   6.450876e+05   0.000000e+00   2992s
  222358    2.1119975e+04   4.173462e+05   0.000000e+00   3000s
  222618    2.1119975e+04   7.690133e+05   0.000000e+00   3008s
  222878    2.1119975e+04   1.027405e+06   0.000000e+00   3017s
  223198    2.1119975e+04   1.231836e+07   0.000000e+00   3025s
  223448    2.1119975e+04   1.085210e+05   0.000000e+00   3034s
  223718    2.1119975e+04   2.327935e+05   0.000000e+00   3042s
  223978    2.1119975e+04   1.795733e+05   0.000000e+00   3051s
  224288    2.1119975e+04   1.754817e+06   0.000000e+00   3059s
  224548    2.1119975e+04   2.015323e+05   0.000000e+00   3068s
  224808    2.1119974e+04   4.837127e+05   0.000000e+00   3077s
  225108    2.1119974e+04   3.364430e+05   0.000000e+00   3085s
  225408    2.1119974e+04   8.489902e+05   0.000000e+00   3093s
  225668    2.1119974e+04   1.970847e+05   0.000000e+00   3101s
  225938    2.1119974e+04   8.154767e+05   0.000000e+00   3110s
  226208    2.1119974e+04   3.223725e+06   0.000000e+00   3119s
  226468    2.1119974e+04   4.889337e+06   0.000000e+00   3127s
  226738    2.1119974e+04   3.972787e+05   0.000000e+00   3136s
  227048    2.1119974e+04   1.343427e+06   0.000000e+00   3144s
  227318    2.1119974e+04   2.031555e+06   0.000000e+00   3153s
  227568    2.1119974e+04   2.134091e+05   0.000000e+00   3161s
  227858    2.1119974e+04   3.478827e+05   0.000000e+00   3170s
  228128    2.1119974e+04   6.462135e+05   0.000000e+00   3178s
  228418    2.1119974e+04   7.102170e+05   0.000000e+00   3187s
  228698    2.1119974e+04   5.162417e+05   0.000000e+00   3196s
  228988    2.1119974e+04   7.269032e+05   0.000000e+00   3204s
  229258    2.1119974e+04   9.636270e+05   0.000000e+00   3213s
  229538    2.1119974e+04   2.059773e+05   0.000000e+00   3221s
  229818    2.1119974e+04   1.420649e+06   0.000000e+00   3230s
  230078    2.1119974e+04   9.101607e+04   0.000000e+00   3239s
  230348    2.1119974e+04   2.672611e+05   0.000000e+00   3247s
  230628    2.1119974e+04   2.416694e+05   0.000000e+00   3256s
  230888    2.1119974e+04   5.607558e+06   0.000000e+00   3265s
  231148    2.1119974e+04   4.557898e+05   0.000000e+00   3273s
  231418    2.1119974e+04   1.639172e+06   0.000000e+00   3282s
  231678    2.1119974e+04   1.091410e+06   0.000000e+00   3291s
  231988    2.1119974e+04   1.856806e+06   0.000000e+00   3300s
  232248    2.1119974e+04   2.939461e+06   0.000000e+00   3308s
  232498    2.1119974e+04   2.382930e+05   0.000000e+00   3317s
  232768    2.1119974e+04   7.455317e+06   0.000000e+00   3326s
  233058    2.1119974e+04   1.809349e+05   0.000000e+00   3334s
  233328    2.1119974e+04   2.938035e+06   0.000000e+00   3343s
  233588    2.1119974e+04   1.492495e+05   0.000000e+00   3352s
  233848    2.1119974e+04   1.677835e+06   0.000000e+00   3361s
  234118    2.1119974e+04   4.266945e+05   0.000000e+00   3370s
  234408    2.1119974e+04   1.105001e+06   0.000000e+00   3378s
  234668    2.1119974e+04   1.385802e+05   0.000000e+00   3387s
  234958    2.1119974e+04   4.901803e+05   0.000000e+00   3396s
  235208    2.1119974e+04   2.174247e+05   0.000000e+00   3404s
  235458    2.1119973e+04   2.944957e+05   0.000000e+00   3413s
  235718    2.1119973e+04   1.331505e+06   0.000000e+00   3422s
  236018    2.1119973e+04   2.401017e+05   0.000000e+00   3430s
  236298    2.1119973e+04   2.396712e+06   0.000000e+00   3439s
  236568    2.1119973e+04   1.605225e+06   0.000000e+00   3447s
  236848    2.1119973e+04   2.289603e+06   0.000000e+00   3456s
  237108    2.1119973e+04   2.938827e+05   0.000000e+00   3465s
  237358    2.1119973e+04   3.125230e+05   0.000000e+00   3474s
  237648    2.1119973e+04   9.485197e+06   0.000000e+00   3483s
  237938    2.1119973e+04   1.561949e+06   0.000000e+00   3491s
  238198    2.1119973e+04   1.013110e+05   0.000000e+00   3501s
  238508    2.1119973e+04   1.323914e+06   0.000000e+00   3509s
  238768    2.1119973e+04   5.436883e+05   0.000000e+00   3518s
  239028    2.1119973e+04   4.886630e+06   0.000000e+00   3527s
  239328    2.1119973e+04   3.315523e+05   0.000000e+00   3536s
  239608    2.1119973e+04   2.773537e+05   0.000000e+00   3545s
  239878    2.1119973e+04   2.905952e+05   0.000000e+00   3553s
  240138    2.1119973e+04   7.532456e+05   0.000000e+00   3562s
  240388    2.1119973e+04   1.028648e+06   0.000000e+00   3571s
  240658    2.1119973e+04   1.936018e+05   0.000000e+00   3580s
  240908    2.1119973e+04   1.749901e+05   0.000000e+00   3589s
  241168    2.1119973e+04   1.986027e+06   0.000000e+00   3598s

Root relaxation: time limit, 241243 iterations, 3577.00 seconds

    Nodes    |    Current Node    |     Objective Bounds      |     Work
 Expl Unexpl |  Obj  Depth IntInf | Incumbent    BestBd   Gap | It/Node Time

     0     0          -    0      3300.00000 21120.0000   540%     - 3600s

Explored 0 nodes (241243 simplex iterations) in 3600.26 seconds
Thread count was 1 (of 40 available processors)

Solution count 1: 3300 

Time limit reached
Best objective 3.300000000000e+03, best bound 2.112000000000e+04, gap 540.0000%

----------

Best objective (UB): 21120.000
Best feasible solution (LB): 3300.000
Gap between the lower bound and upper bound: 540.000%

----------

Number of customers served: 27

Schedule for EV v0:
   [   0, 1665) -> It remains parked at station s0.

Schedule for EV v1:
   [   0, 1665) -> It remains parked at station s0.

Schedule for EV v2:
   [   0, 1665) -> It remains parked at station s0.

Schedule for EV v3:
   [   0, 1665) -> It remains parked at station s0.

Schedule for EV v4:
   [   0, 1665) -> It remains parked at station s0.

Schedule for EV v5:
   [   0, 1665) -> It remains parked at station s0.

Schedule for EV v6:
   [   0, 1665) -> It remains parked at station s0.

Schedule for EV v7:
   [   0, 1665) -> It remains parked at station s0.

Schedule for EV v8:
   [   0,  785) -> It remains parked at station s1.
   [ 785,  845) -> Service a request driving for customer c89 from s1 to s10.
   [ 845, 1665) -> It remains parked at station s10.

Schedule for EV v9:
   [   0, 1665) -> It remains parked at station s1.

Schedule for EV v10:
   [   0, 1665) -> It remains parked at station s1.

Schedule for EV v11:
   [   0, 1665) -> It remains parked at station s1.

Schedule for EV v12:
   [   0, 1027) -> It remains parked at station s2.
   [1027, 1177) -> Service a request driving for customer c87 from s2 to s10.
   [1177, 1665) -> It remains parked at station s10.

Schedule for EV v13:
   [   0,  671) -> It remains parked at station s2.
   [ 671,  851) -> Service a request driving for customer c24 from s2 to s11.
   [ 851,  966) -> It remains parked at station s11.
   [ 966,  996) -> Service a request driving for customer c24 from s11 to s3.
   [ 996, 1665) -> It remains parked at station s3, which was charging for charging.

Schedule for EV v14:
   [   0,  793) -> It remains parked at station s2.
   [ 793,  853) -> Service a request driving for customer c11 from s2 to s1.
   [ 853, 1665) -> It remains parked at station s1.

Schedule for EV v15:
   [   0, 1665) -> It remains parked at station s2.

Schedule for EV v16:
   [   0, 1665) -> It remains parked at station s2.

Schedule for EV v17:
   [   0, 1665) -> It remains parked at station s2.

Schedule for EV v18:
   [   0, 1665) -> It remains parked at station s2.

Schedule for EV v19:
   [   0, 1665) -> It remains parked at station s2.

Schedule for EV v20:
   [   0, 1665) -> It remains parked at station s2.

Schedule for EV v21:
   [   0, 1665) -> It remains parked at station s2.

Schedule for EV v22:
   [   0, 1146) -> It remains parked at station s3.
   [1146, 1176) -> Service a request driving for customer c22 from s3 to s3.
   [1176, 1385) -> It remains parked at station s3.
   [1385, 1415) -> Service a request driving for customer c22 from s3 to s3.
   [1415, 1665) -> It remains parked at station s3.

Schedule for EV v23:
   [   0,  845) -> It remains parked at station s3.
   [ 845,  875) -> Service a request driving for customer c95 from s3 to s2.
   [ 875, 1665) -> It remains parked at station s2.

Schedule for EV v24:
   [   0, 1665) -> It remains parked at station s3.

Schedule for EV v25:
   [   0, 1665) -> It remains parked at station s3.

Schedule for EV v26:
   [   0, 1665) -> It remains parked at station s3.

Schedule for EV v27:
   [   0, 1665) -> It remains parked at station s3.

Schedule for EV v28:
   [   0, 1665) -> It remains parked at station s3.

Schedule for EV v29:
   [   0, 1665) -> It remains parked at station s3.

Schedule for EV v30:
   [   0, 1665) -> It remains parked at station s3.

Schedule for EV v31:
   [   0, 1665) -> It remains parked at station s3.

Schedule for EV v32:
   [   0,  554) -> It remains parked at station s4.
   [ 554,  614) -> Service a request driving for customer c37 from s4 to s0.
   [ 614,  906) -> It remains parked at station s0.
   [ 906, 1206) -> Service a request driving for customer c37 from s0 to s6.
   [1206, 1665) -> It remains parked at station s6.

Schedule for EV v33:
   [   0,  665) -> It remains parked at station s4.
   [ 665,  755) -> Service a request driving for customer c82 from s4 to s6.
   [ 755, 1665) -> It remains parked at station s6.

Schedule for EV v34:
   [   0,  975) -> It remains parked at station s4.
   [ 975, 1005) -> Service a request driving for customer c88 from s4 to s2.
   [1005, 1276) -> It remains parked at station s2.
   [1276, 1396) -> Service a request driving for customer c88 from s2 to s8.
   [1396, 1665) -> It remains parked at station s8.

Schedule for EV v35:
   [   0, 1086) -> It remains parked at station s4.
   [1086, 1116) -> Service a request driving for customer c25 from s4 to s5.
   [1116, 1665) -> It remains parked at station s5.

Schedule for EV v36:
   [   0, 1665) -> It remains parked at station s4.

Schedule for EV v37:
   [   0, 1665) -> It remains parked at station s4.

Schedule for EV v38:
   [   0, 1665) -> It remains parked at station s4.

Schedule for EV v39:
   [   0, 1665) -> It remains parked at station s4.

Schedule for EV v40:
   [   0, 1665) -> It remains parked at station s4.

Schedule for EV v41:
   [   0, 1665) -> It remains parked at station s4.

Schedule for EV v42:
   [   0, 1665) -> It remains parked at station s4, which was charging for charging.

Schedule for EV v43:
   [   0, 1665) -> It remains parked at station s4, which was charging for charging.

Schedule for EV v44:
   [   0, 1145) -> It remains parked at station s5.
   [1145, 1415) -> Service a request driving for customer c93 from s5 to s0.
   [1415, 1665) -> It remains parked at station s0.

Schedule for EV v45:
   [   0, 1031) -> It remains parked at station s5.
   [1031, 1061) -> Service a request driving for customer c13 from s5 to s7.
   [1061, 1665) -> It remains parked at station s7.

Schedule for EV v46:
   [   0, 1665) -> It remains parked at station s5.

Schedule for EV v47:
   [   0, 1665) -> It remains parked at station s5.

Schedule for EV v48:
   [   0, 1665) -> It remains parked at station s5.

Schedule for EV v49:
   [   0, 1665) -> It remains parked at station s5.

Schedule for EV v50:
   [   0, 1665) -> It remains parked at station s5.

Schedule for EV v51:
   [   0, 1665) -> It remains parked at station s5.

Schedule for EV v52:
   [   0, 1665) -> It remains parked at station s5.

Schedule for EV v53:
   [   0,  976) -> It remains parked at station s6.
   [ 976, 1036) -> Service a request driving for customer c67 from s6 to s10.
   [1036, 1665) -> It remains parked at station s10.

Schedule for EV v54:
   [   0,  908) -> It remains parked at station s6.
   [ 908,  938) -> Service a request driving for customer c75 from s6 to s4.
   [ 938, 1665) -> It remains parked at station s4.

Schedule for EV v55:
   [   0, 1665) -> It remains parked at station s6.

Schedule for EV v56:
   [   0, 1665) -> It remains parked at station s6.

Schedule for EV v57:
   [   0, 1665) -> It remains parked at station s6.

Schedule for EV v58:
   [   0, 1665) -> It remains parked at station s6.

Schedule for EV v59:
   [   0, 1206) -> It remains parked at station s7.
   [1206, 1416) -> Service a request driving for customer c97 from s7 to s3.
   [1416, 1665) -> It remains parked at station s3.

Schedule for EV v60:
   [   0, 1330) -> It remains parked at station s7.
   [1330, 1420) -> Service a request driving for customer c65 from s7 to s9.
   [1420, 1665) -> It remains parked at station s9.

Schedule for EV v61:
   [   0, 1665) -> It remains parked at station s7.

Schedule for EV v62:
   [   0, 1665) -> It remains parked at station s7.

Schedule for EV v63:
   [   0, 1207) -> It remains parked at station s8.
   [1207, 1387) -> Service a request driving for customer c83 from s8 to s4.
   [1387, 1665) -> It remains parked at station s4.

Schedule for EV v64:
   [   0,  731) -> It remains parked at station s8.
   [ 731,  881) -> Service a request driving for customer c60 from s8 to s0.
   [ 881, 1665) -> It remains parked at station s0, which was charging for charging.

Schedule for EV v65:
   [   0,  490) -> It remains parked at station s8.
   [ 490,  550) -> Service a request driving for customer c4 from s8 to s0.
   [ 550,  850) -> It remains parked at station s0, which was charging for charging.
   [ 850,  910) -> Service a request driving for customer c4 from s0 to s8.
   [ 910,  975) -> It remains parked at station s8.
   [ 975, 1005) -> Service a request driving for customer c78 from s8 to s4.
   [1005, 1665) -> It remains parked at station s4.

Schedule for EV v66:
   [   0, 1665) -> It remains parked at station s8.

Schedule for EV v67:
   [   0, 1665) -> It remains parked at station s8.

Schedule for EV v68:
   [   0, 1665) -> It remains parked at station s8.

Schedule for EV v69:
   [   0, 1665) -> It remains parked at station s8.

Schedule for EV v70:
   [   0, 1665) -> It remains parked at station s8.

Schedule for EV v71:
   [   0, 1665) -> It remains parked at station s8.

Schedule for EV v72:
   [   0, 1665) -> It remains parked at station s8.

Schedule for EV v73:
   [   0,  851) -> It remains parked at station s9.
   [ 851, 1061) -> Service a request driving for customer c7 from s9 to s0.
   [1061, 1665) -> It remains parked at station s0.

Schedule for EV v74:
   [   0, 1665) -> It remains parked at station s9.

Schedule for EV v75:
   [   0, 1665) -> It remains parked at station s9.

Schedule for EV v76:
   [   0, 1665) -> It remains parked at station s9.

Schedule for EV v77:
   [   0, 1665) -> It remains parked at station s9.

Schedule for EV v78:
   [   0, 1156) -> It remains parked at station s10.
   [1156, 1216) -> Service a request driving for customer c94 from s10 to s6.
   [1216, 1265) -> It remains parked at station s6.
   [1265, 1295) -> Service a request driving for customer c94 from s6 to s3.
   [1295, 1665) -> It remains parked at station s3, which was charging for charging.

Schedule for EV v79:
   [   0,  851) -> It remains parked at station s10.
   [ 851,  881) -> Service a request driving for customer c8 from s10 to s1.
   [ 881, 1665) -> It remains parked at station s1.

Schedule for EV v80:
   [   0, 1665) -> It remains parked at station s10.

Schedule for EV v81:
   [   0, 1665) -> It remains parked at station s10.

Schedule for EV v82:
   [   0, 1665) -> It remains parked at station s10.

Schedule for EV v83:
   [   0, 1665) -> It remains parked at station s10.

Schedule for EV v84:
   [   0, 1665) -> It remains parked at station s10.

Schedule for EV v85:
   [   0, 1215) -> It remains parked at station s11.
   [1215, 1455) -> Service a request driving for customer c57 from s11 to s1.
   [1455, 1665) -> It remains parked at station s1.

Schedule for EV v86:
   [   0, 1325) -> It remains parked at station s11.
   [1325, 1505) -> Service a request driving for customer c48 from s11 to s3.
   [1505, 1665) -> It remains parked at station s3.

Schedule for EV v87:
   [   0,  916) -> It remains parked at station s11.
   [ 916, 1006) -> Service a request driving for customer c34 from s11 to s6.
   [1006, 1665) -> It remains parked at station s6.

Schedule for EV v88:
   [   0,  550) -> It remains parked at station s11.
   [ 550,  640) -> Service a request driving for customer c51 from s11 to s8.
   [ 640, 1665) -> It remains parked at station s8, which was charging for charging.

Schedule for EV v89:
   [   0, 1665) -> It remains parked at station s11.

Schedule for EV v90:
   [   0, 1665) -> It remains parked at station s11.

Schedule for EV v91:
   [   0, 1665) -> It remains parked at station s11.

Schedule for EV v92:
   [   0, 1665) -> It remains parked at station s11.

Schedule for EV v93:
   [   0, 1665) -> It remains parked at station s11.

Schedule for EV v94:
   [   0, 1665) -> It remains parked at station s11.

Set of satisfied customers
   {c4, c7, c8, c11, c13, c22, c24, c25, c34, c37, c48, c51, c57, c60, c65, c67, c75, c78, c82, c83, c87, c88, c89, c93, c94, c95, c97}

