Academic license - for non-commercial use only
Gurobi Optimizer version 9.0.3 build v9.0.3rc0 (linux64)
Optimize a model with 20941 rows, 40095 columns and 152436 nonzeros
Model fingerprint: 0xf88d5f3d
Variable types: 20725 continuous, 19370 integer (19370 binary)
Coefficient statistics:
  Matrix range     [1e+00, 4e+06]
  Objective range  [3e+01, 4e+02]
  Bounds range     [1e+00, 2e+06]
  RHS range        [1e+00, 2e+06]

Loaded user MIP start with objective 3090

Presolve removed 3460 rows and 5269 columns
Presolve time: 0.37s
Presolved: 17481 rows, 34826 columns, 134491 nonzeros
Variable types: 4281 continuous, 30545 integer (28174 binary)

Root simplex log...

Iteration    Objective       Primal Inf.    Dual Inf.      Time
    9965    1.1339985e+04   3.647412e+06   0.000000e+00      5s
   13469    1.1339977e+04   3.021979e+07   0.000000e+00     10s
   16743    1.1159976e+04   3.734420e+05   0.000000e+00     15s
   19763    1.1069975e+04   1.165519e+06   0.000000e+00     20s
   22773    1.1009976e+04   3.768453e+04   0.000000e+00     25s
   25308    1.1010000e+04   0.000000e+00   0.000000e+00     29s
   25308    1.1010000e+04   0.000000e+00   0.000000e+00     29s

Root relaxation: objective 1.101000e+04, 25308 iterations, 28.83 seconds
Total elapsed time = 38.44s
Total elapsed time = 51.64s
Total elapsed time = 58.23s
Total elapsed time = 64.28s

    Nodes    |    Current Node    |     Objective Bounds      |     Work
 Expl Unexpl |  Obj  Depth IntInf | Incumbent    BestBd   Gap | It/Node Time

     0     0 11010.0000    0  631 3090.00000 11010.0000   256%     -   68s
H    0     0                    11010.000000 11010.0000  0.00%     -   68s
     0     0 11010.0000    0  631 11010.0000 11010.0000  0.00%     -   68s

Explored 1 nodes (134737 simplex iterations) in 68.85 seconds
Thread count was 1 (of 40 available processors)

Solution count 2: 11010 3090 

Optimal solution found (tolerance 1.00e-04)
Best objective 1.101000000000e+04, best bound 1.101000000000e+04, gap 0.0000%

----------

Best objective (UB): 11010.000
Best feasible solution (LB): 11010.000
Gap between the lower bound and upper bound: 0.000%

----------

Number of customers served: 56

Schedule for EV v0:
   [   0,  616) -> It remains parked at station s0.
   [ 616,  646) -> Service a request driving for customer c6 from s0 to s1.
   [ 646, 1206) -> It remains parked at station s1, which was charging for charging.
   [1206, 1326) -> Service a request driving for customer c44 from s1 to s1.
   [1326, tmax) -> It remains parked at station s1.

Schedule for EV v1:
   [   0,  607) -> It remains parked at station s0.
   [ 607,  637) -> Service a request driving for customer c25 from s0 to s8.
   [ 637, tmax) -> It remains parked at station s8, which was charging for charging.

Schedule for EV v2:
   [   0,  552) -> It remains parked at station s0.
   [ 552,  612) -> Service a request driving for customer c30 from s0 to s4.
   [ 612,  913) -> It remains parked at station s4, which was charging for charging.
   [ 913,  973) -> Service a request driving for customer c39 from s4 to s1.
   [ 973, tmax) -> It remains parked at station s1, which was charging for charging.

Schedule for EV v3:
   [   0,  786) -> It remains parked at station s0.
   [ 786,  846) -> Service a request driving for customer c19 from s0 to s0.
   [ 846,  848) -> It remains parked at station s0, which was charging for charging.
   [ 848,  908) -> Service a request driving for customer c15 from s0 to s4.
   [ 908,  914) -> It remains parked at station s4, which was charging for charging.
   [ 914, 1034) -> Service a request driving for customer c22 from s4 to s8.
   [1034, tmax) -> It remains parked at station s8, which was charging for charging.

Schedule for EV v4:
   [   0, 1026) -> It remains parked at station s0.
   [1026, 1116) -> Service a request driving for customer c15 from s0 to s0.
   [1116, tmax) -> It remains parked at station s0, which was charging for charging.

Schedule for EV v5:
   [   0, 1214) -> It remains parked at station s0.
   [1214, 1304) -> Service a request driving for customer c17 from s0 to s5.
   [1304, tmax) -> It remains parked at station s5.

Schedule for EV v6:
   [   0, tmax) -> It remains parked at station s0.

Schedule for EV v7:
   [   0, tmax) -> It remains parked at station s1.

Schedule for EV v8:
   [   0, tmax) -> It remains parked at station s1.

Schedule for EV v9:
   [   0, tmax) -> It remains parked at station s1.

Schedule for EV v10:
   [   0,  968) -> It remains parked at station s1.
   [ 968, 1028) -> Service a request driving for customer c0 from s1 to s0.
   [1028, 1147) -> It remains parked at station s0.
   [1147, 1387) -> Service a request driving for customer c35 from s0 to s7.
   [1387, tmax) -> It remains parked at station s7.

Schedule for EV v11:
   [   0, 1154) -> It remains parked at station s1.
   [1154, 1214) -> Service a request driving for customer c11 from s1 to s9.
   [1214, tmax) -> It remains parked at station s9, which was charging for charging.

Schedule for EV v12:
   [   0, tmax) -> It remains parked at station s1.

Schedule for EV v13:
   [   0, tmax) -> It remains parked at station s1.

Schedule for EV v14:
   [   0,  735) -> It remains parked at station s1.
   [ 735,  765) -> Service a request driving for customer c55 from s1 to s7.
   [ 765, tmax) -> It remains parked at station s7, which was charging for charging.

Schedule for EV v15:
   [   0, tmax) -> It remains parked at station s1.

Schedule for EV v16:
   [   0,  494) -> It remains parked at station s1.
   [ 494,  584) -> Service a request driving for customer c10 from s1 to s9.
   [ 584, tmax) -> It remains parked at station s9, which was charging for charging.

Schedule for EV v17:
   [   0,  725) -> It remains parked at station s1.
   [ 725,  845) -> Service a request driving for customer c47 from s1 to s11.
   [ 845, 1150) -> It remains parked at station s11, which was charging for charging.
   [1150, 1180) -> Service a request driving for customer c26 from s11 to s11.
   [1180, 1214) -> It remains parked at station s11.
   [1214, 1274) -> Service a request driving for customer c22 from s11 to s9.
   [1274, tmax) -> It remains parked at station s9, which was charging for charging.

Schedule for EV v18:
   [   0, 1151) -> It remains parked at station s2.
   [1151, 1241) -> Service a request driving for customer c25 from s2 to s11.
   [1241, tmax) -> It remains parked at station s11, which was charging for charging.

Schedule for EV v19:
   [   0,  788) -> It remains parked at station s2.
   [ 788,  998) -> Service a request driving for customer c37 from s2 to s5.
   [ 998, tmax) -> It remains parked at station s5.

Schedule for EV v20:
   [   0,  553) -> It remains parked at station s2.
   [ 553,  643) -> Service a request driving for customer c37 from s2 to s2.
   [ 643,  786) -> It remains parked at station s2, which was charging for charging.
   [ 786,  816) -> Service a request driving for customer c6 from s2 to s11.
   [ 816,  847) -> It remains parked at station s11.
   [ 847,  937) -> Service a request driving for customer c20 from s11 to s4.
   [ 937, 1032) -> It remains parked at station s4, which was charging for charging.
   [1032, 1092) -> Service a request driving for customer c50 from s4 to s10.
   [1092, tmax) -> It remains parked at station s10.

Schedule for EV v21:
   [   0,  849) -> It remains parked at station s3.
   [ 849,  879) -> Service a request driving for customer c48 from s3 to s1.
   [ 879, tmax) -> It remains parked at station s1, which was charging for charging.

Schedule for EV v22:
   [   0,  666) -> It remains parked at station s3.
   [ 666,  726) -> Service a request driving for customer c59 from s3 to s5.
   [ 726, 1090) -> It remains parked at station s5, which was charging for charging.
   [1090, 1300) -> Service a request driving for customer c52 from s5 to s10.
   [1300, tmax) -> It remains parked at station s10.

Schedule for EV v23:
   [   0,  433) -> It remains parked at station s3.
   [ 433,  493) -> Service a request driving for customer c15 from s3 to s8.
   [ 493, tmax) -> It remains parked at station s8, which was charging for charging.

Schedule for EV v24:
   [   0, 1032) -> It remains parked at station s3.
   [1032, 1122) -> Service a request driving for customer c39 from s3 to s4.
   [1122, 1146) -> It remains parked at station s4.
   [1146, 1206) -> Service a request driving for customer c13 from s4 to s5.
   [1206, tmax) -> It remains parked at station s5.

Schedule for EV v25:
   [   0,  850) -> It remains parked at station s3.
   [ 850,  940) -> Service a request driving for customer c50 from s3 to s1.
   [ 940, tmax) -> It remains parked at station s1, which was charging for charging.

Schedule for EV v26:
   [   0,  966) -> It remains parked at station s3.
   [ 966, 1056) -> Service a request driving for customer c41 from s3 to s3.
   [1056, 1205) -> It remains parked at station s3, which was charging for charging.
   [1205, 1295) -> Service a request driving for customer c54 from s3 to s1.
   [1295, tmax) -> It remains parked at station s1, which was charging for charging.

Schedule for EV v27:
   [   0,  550) -> It remains parked at station s3.
   [ 550,  700) -> Service a request driving for customer c18 from s3 to s0.
   [ 700,  788) -> It remains parked at station s0.
   [ 788,  908) -> Service a request driving for customer c42 from s0 to s3.
   [ 908, 1213) -> It remains parked at station s3, which was charging for charging.
   [1213, 1303) -> Service a request driving for customer c24 from s3 to s11.
   [1303, tmax) -> It remains parked at station s11, which was charging for charging.

Schedule for EV v28:
   [   0,  788) -> It remains parked at station s4.
   [ 788,  878) -> Service a request driving for customer c36 from s4 to s5.
   [ 878, tmax) -> It remains parked at station s5.

Schedule for EV v29:
   [   0,  487) -> It remains parked at station s4.
   [ 487,  637) -> Service a request driving for customer c56 from s4 to s0.
   [ 637,  788) -> It remains parked at station s0, which was charging for charging.
   [ 788,  938) -> Service a request driving for customer c21 from s0 to s3.
   [ 938, 1392) -> It remains parked at station s3.
   [1392, 1512) -> Service a request driving for customer c26 from s3 to s7.
   [1512, tmax) -> It remains parked at station s7.

Schedule for EV v30:
   [   0,  732) -> It remains parked at station s4.
   [ 732,  762) -> Service a request driving for customer c6 from s4 to s7.
   [ 762, tmax) -> It remains parked at station s7.

Schedule for EV v31:
   [   0,  853) -> It remains parked at station s4.
   [ 853,  943) -> Service a request driving for customer c51 from s4 to s1.
   [ 943, 1091) -> It remains parked at station s1, which was charging for charging.
   [1091, 1151) -> Service a request driving for customer c9 from s1 to s10.
   [1151, tmax) -> It remains parked at station s10.

Schedule for EV v32:
   [   0,  786) -> It remains parked at station s4.
   [ 786,  876) -> Service a request driving for customer c54 from s4 to s5.
   [ 876, tmax) -> It remains parked at station s5.

Schedule for EV v33:
   [   0,  607) -> It remains parked at station s4.
   [ 607,  817) -> Service a request driving for customer c43 from s4 to s2.
   [ 817, tmax) -> It remains parked at station s2.

Schedule for EV v34:
   [   0,  552) -> It remains parked at station s4.
   [ 552,  612) -> Service a request driving for customer c47 from s4 to s10.
   [ 612, 1147) -> It remains parked at station s10, which was charging for charging.
   [1147, 1207) -> Service a request driving for customer c41 from s10 to s1.
   [1207, tmax) -> It remains parked at station s1.

Schedule for EV v35:
   [   0,  435) -> It remains parked at station s5.
   [ 435,  495) -> Service a request driving for customer c44 from s5 to s0.
   [ 495, tmax) -> It remains parked at station s0, which was charging for charging.

Schedule for EV v36:
   [   0,  671) -> It remains parked at station s5.
   [ 671,  731) -> Service a request driving for customer c25 from s5 to s8.
   [ 731,  972) -> It remains parked at station s8, which was charging for charging.
   [ 972, 1062) -> Service a request driving for customer c8 from s8 to s5.
   [1062, tmax) -> It remains parked at station s5.

Schedule for EV v37:
   [   0, tmax) -> It remains parked at station s5.

Schedule for EV v38:
   [   0, tmax) -> It remains parked at station s5.

Schedule for EV v39:
   [   0, tmax) -> It remains parked at station s5.

Schedule for EV v40:
   [   0, tmax) -> It remains parked at station s5.

Schedule for EV v41:
   [   0, tmax) -> It remains parked at station s5.

Schedule for EV v42:
   [   0,  973) -> It remains parked at station s6.
   [ 973, 1063) -> Service a request driving for customer c34 from s6 to s4.
   [1063, 1089) -> It remains parked at station s4, which was charging for charging.
   [1089, 1149) -> Service a request driving for customer c23 from s4 to s4.
   [1149, 1214) -> It remains parked at station s4, which was charging for charging.
   [1214, 1334) -> Service a request driving for customer c42 from s4 to s6.
   [1334, tmax) -> It remains parked at station s6.

Schedule for EV v43:
   [   0,  914) -> It remains parked at station s6.
   [ 914,  974) -> Service a request driving for customer c47 from s6 to s9.
   [ 974, 1095) -> It remains parked at station s9, which was charging for charging.
   [1095, 1185) -> Service a request driving for customer c49 from s9 to s1.
   [1185, 1214) -> It remains parked at station s1.
   [1214, 1244) -> Service a request driving for customer c16 from s1 to s0.
   [1244, tmax) -> It remains parked at station s0, which was charging for charging.

Schedule for EV v44:
   [   0,  974) -> It remains parked at station s6.
   [ 974, 1004) -> Service a request driving for customer c32 from s6 to s1.
   [1004, 1090) -> It remains parked at station s1.
   [1090, 1120) -> Service a request driving for customer c34 from s1 to s6.
   [1120, tmax) -> It remains parked at station s6, which was charging for charging.

Schedule for EV v45:
   [   0, tmax) -> It remains parked at station s6.

Schedule for EV v46:
   [   0, 1156) -> It remains parked at station s6.
   [1156, 1216) -> Service a request driving for customer c5 from s6 to s2.
   [1216, tmax) -> It remains parked at station s2.

Schedule for EV v47:
   [   0, tmax) -> It remains parked at station s6.

Schedule for EV v48:
   [   0, tmax) -> It remains parked at station s6.

Schedule for EV v49:
   [   0,  968) -> It remains parked at station s6.
   [ 968, 1028) -> Service a request driving for customer c16 from s6 to s0.
   [1028, 1265) -> It remains parked at station s0, which was charging for charging.
   [1265, 1325) -> Service a request driving for customer c33 from s0 to s0.
   [1325, tmax) -> It remains parked at station s0.

Schedule for EV v50:
   [   0,  614) -> It remains parked at station s7.
   [ 614,  794) -> Service a request driving for customer c58 from s7 to s4.
   [ 794, 1027) -> It remains parked at station s4, which was charging for charging.
   [1027, 1267) -> Service a request driving for customer c3 from s4 to s0.
   [1267, tmax) -> It remains parked at station s0.

Schedule for EV v51:
   [   0, tmax) -> It remains parked at station s7.

Schedule for EV v52:
   [   0, tmax) -> It remains parked at station s7.

Schedule for EV v53:
   [   0, tmax) -> It remains parked at station s7.

Schedule for EV v54:
   [   0,  671) -> It remains parked at station s7.
   [ 671,  731) -> Service a request driving for customer c27 from s7 to s2.
   [ 731,  976) -> It remains parked at station s2, which was charging for charging.
   [ 976, 1156) -> Service a request driving for customer c18 from s2 to s7.
   [1156, tmax) -> It remains parked at station s7.

Schedule for EV v55:
   [   0,  556) -> It remains parked at station s7.
   [ 556,  706) -> Service a request driving for customer c44 from s7 to s3.
   [ 706,  966) -> It remains parked at station s3, which was charging for charging.
   [ 966,  996) -> Service a request driving for customer c3 from s3 to s3.
   [ 996, 1026) -> It remains parked at station s3.
   [1026, 1086) -> Service a request driving for customer c59 from s3 to s9.
   [1086, tmax) -> It remains parked at station s9, which was charging for charging.

Schedule for EV v56:
   [   0, tmax) -> It remains parked at station s7.

Schedule for EV v57:
   [   0, tmax) -> It remains parked at station s8.

Schedule for EV v58:
   [   0, tmax) -> It remains parked at station s8.

Schedule for EV v59:
   [   0, tmax) -> It remains parked at station s8.

Schedule for EV v60:
   [   0, tmax) -> It remains parked at station s8.

Schedule for EV v61:
   [   0, tmax) -> It remains parked at station s8.

Schedule for EV v62:
   [   0,  785) -> It remains parked at station s8.
   [ 785,  845) -> Service a request driving for customer c53 from s8 to s10.
   [ 845,  968) -> It remains parked at station s10, which was charging for charging.
   [ 968, 1028) -> Service a request driving for customer c51 from s10 to s0.
   [1028, 1095) -> It remains parked at station s0.
   [1095, 1395) -> Service a request driving for customer c21 from s0 to s0.
   [1395, tmax) -> It remains parked at station s0, which was charging for charging.

Schedule for EV v63:
   [   0,  785) -> It remains parked at station s8.
   [ 785,  905) -> Service a request driving for customer c57 from s8 to s7.
   [ 905, tmax) -> It remains parked at station s7, which was charging for charging.

Schedule for EV v64:
   [   0, tmax) -> It remains parked at station s8.

Schedule for EV v65:
   [   0,  434) -> It remains parked at station s8.
   [ 434,  494) -> Service a request driving for customer c42 from s8 to s6.
   [ 494, tmax) -> It remains parked at station s6.

Schedule for EV v66:
   [   0, tmax) -> It remains parked at station s8.

Schedule for EV v67:
   [   0, 1213) -> It remains parked at station s8.
   [1213, 1363) -> Service a request driving for customer c8 from s8 to s10.
   [1363, tmax) -> It remains parked at station s10, which was charging for charging.

Schedule for EV v68:
   [   0, tmax) -> It remains parked at station s8.

Schedule for EV v69:
   [   0, 1273) -> It remains parked at station s8.
   [1273, 1333) -> Service a request driving for customer c57 from s8 to s5.
   [1333, tmax) -> It remains parked at station s5, which was charging for charging.

Schedule for EV v70:
   [   0, 1095) -> It remains parked at station s8.
   [1095, 1155) -> Service a request driving for customer c16 from s8 to s4.
   [1155, 1266) -> It remains parked at station s4.
   [1266, 1506) -> Service a request driving for customer c41 from s4 to s11.
   [1506, tmax) -> It remains parked at station s11.

Schedule for EV v71:
   [   0, 1207) -> It remains parked at station s9.
   [1207, 1447) -> Service a request driving for customer c1 from s9 to s1.
   [1447, tmax) -> It remains parked at station s1.

Schedule for EV v72:
   [   0, tmax) -> It remains parked at station s9.

Schedule for EV v73:
   [   0, tmax) -> It remains parked at station s9.

Schedule for EV v74:
   [   0, 1266) -> It remains parked at station s9.
   [1266, 1416) -> Service a request driving for customer c27 from s9 to s4.
   [1416, tmax) -> It remains parked at station s4.

Schedule for EV v75:
   [   0, tmax) -> It remains parked at station s9.

Schedule for EV v76:
   [   0, tmax) -> It remains parked at station s9.

Schedule for EV v77:
   [   0, tmax) -> It remains parked at station s9.

Schedule for EV v78:
   [   0,  851) -> It remains parked at station s9.
   [ 851, 1121) -> Service a request driving for customer c5 from s9 to s7.
   [1121, tmax) -> It remains parked at station s7, which was charging for charging.

Schedule for EV v79:
   [   0, tmax) -> It remains parked at station s9.

Schedule for EV v80:
   [   0, tmax) -> It remains parked at station s9.

Schedule for EV v81:
   [   0, tmax) -> It remains parked at station s10.

Schedule for EV v82:
   [   0,  611) -> It remains parked at station s10.
   [ 611,  851) -> Service a request driving for customer c45 from s10 to s9.
   [ 851, 1061) -> Service a request driving for customer c1 from s9 to s7.
   [1061, 1149) -> It remains parked at station s7, which was charging for charging.
   [1149, 1179) -> Service a request driving for customer c14 from s7 to s10.
   [1179, 1388) -> It remains parked at station s10, which was charging for charging.
   [1388, 1448) -> Service a request driving for customer c22 from s10 to s3.
   [1448, 1628) -> Service a request driving for customer c29 from s3 to s3.
   [1628, tmax) -> It remains parked at station s3.

Schedule for EV v83:
   [   0,  671) -> It remains parked at station s10.
   [ 671,  941) -> Service a request driving for customer c17 from s10 to s9.
   [ 941, tmax) -> It remains parked at station s9.

Schedule for EV v84:
   [   0, tmax) -> It remains parked at station s10.

Schedule for EV v85:
   [   0, tmax) -> It remains parked at station s10.

Schedule for EV v86:
   [   0, tmax) -> It remains parked at station s10.

Schedule for EV v87:
   [   0, tmax) -> It remains parked at station s10.

Schedule for EV v88:
   [   0,  973) -> It remains parked at station s11.
   [ 973, 1063) -> Service a request driving for customer c23 from s11 to s5.
   [1063, tmax) -> It remains parked at station s5, which was charging for charging.

Schedule for EV v89:
   [   0,  906) -> It remains parked at station s11.
   [ 906, 1026) -> Service a request driving for customer c6 from s11 to s9.
   [1026, tmax) -> It remains parked at station s9, which was charging for charging.

Schedule for EV v90:
   [   0,  725) -> It remains parked at station s11.
   [ 725,  785) -> Service a request driving for customer c31 from s11 to s4.
   [ 785,  907) -> It remains parked at station s4, which was charging for charging.
   [ 907, 1027) -> Service a request driving for customer c30 from s4 to s6.
   [1027, 1327) -> It remains parked at station s6.
   [1327, 1387) -> Service a request driving for customer c7 from s6 to s1.
   [1387, tmax) -> It remains parked at station s1.

Schedule for EV v91:
   [   0,  785) -> It remains parked at station s11.
   [ 785,  845) -> Service a request driving for customer c25 from s11 to s0.
   [ 845,  855) -> It remains parked at station s0, which was charging for charging.
   [ 855,  945) -> Service a request driving for customer c10 from s0 to s9.
   [ 945, tmax) -> It remains parked at station s9, which was charging for charging.

Schedule for EV v92:
   [   0,  965) -> It remains parked at station s11.
   [ 965, 1085) -> Service a request driving for customer c20 from s11 to s0.
   [1085, 1096) -> It remains parked at station s0, which was charging for charging.
   [1096, 1366) -> Service a request driving for customer c4 from s0 to s4.
   [1366, tmax) -> It remains parked at station s4, which was charging for charging.

Schedule for EV v93:
   [   0,  906) -> It remains parked at station s11.
   [ 906, 1026) -> Service a request driving for customer c36 from s11 to s0.
   [1026, tmax) -> It remains parked at station s0, which was charging for charging.

Schedule for EV v94:
   [   0,  427) -> It remains parked at station s11.
   [ 427,  757) -> Service a request driving for customer c14 from s11 to s0.
   [ 757, tmax) -> It remains parked at station s0, which was charging for charging.

Schedule for EV v95:
   [   0,  794) -> It remains parked at station s11.
   [ 794,  884) -> Service a request driving for customer c2 from s11 to s6.
   [ 884, tmax) -> It remains parked at station s6, which was charging for charging.

Schedule for EV v96:
   [   0, 1086) -> It remains parked at station s11.
   [1086, 1146) -> Service a request driving for customer c8 from s11 to s11.
   [1146, 1152) -> It remains parked at station s11.
   [1152, 1272) -> Service a request driving for customer c51 from s11 to s4.
   [1272, 1512) -> Service a request driving for customer c38 from s4 to s1.
   [1512, tmax) -> It remains parked at station s1.

Schedule for EV v97:
   [   0,  670) -> It remains parked at station s11.
   [ 670,  790) -> Service a request driving for customer c52 from s11 to s7.
   [ 790, tmax) -> It remains parked at station s7.

Schedule for EV v98:
   [   0,  966) -> It remains parked at station s11.
   [ 966, 1056) -> Service a request driving for customer c2 from s11 to s1.
   [1056, 1096) -> It remains parked at station s1.
   [1096, 1156) -> Service a request driving for customer c36 from s1 to s9.
   [1156, tmax) -> It remains parked at station s9, which was charging for charging.

Set of satisfied customers
   {c0, c1, c2, c3, c4, c5, c6, c7, c8, c9, c10, c11, c13, c14, c15, c16, c17, c18, c19, c20, c21, c22, c23, c24, c25, c26, c27, c29, c30, c31, c32, c33, c34, c35, c36, c37, c38, c39, c41, c42, c43, c44, c45, c47, c48, c49, c50, c51, c52, c53, c54, c55, c56, c57, c58, c59}

