Academic license - for non-commercial use only
Gurobi Optimizer version 9.0.3 build v9.0.3rc0 (linux64)
Optimize a model with 35962 rows, 72518 columns and 284836 nonzeros
Model fingerprint: 0xe42cdbab
Variable types: 35630 continuous, 36888 integer (36888 binary)
Coefficient statistics:
  Matrix range     [1e+00, 3e+06]
  Objective range  [3e+01, 8e+02]
  Bounds range     [1e+00, 2e+06]
  RHS range        [1e+00, 2e+06]

Loaded user MIP start with objective 4140

Presolve removed 4656 rows and 6586 columns
Presolve time: 0.97s
Presolved: 31306 rows, 65932 columns, 256284 nonzeros
Variable types: 4123 continuous, 61809 integer (54191 binary)

Root simplex log...

Iteration    Objective       Primal Inf.    Dual Inf.      Time
    9930    1.8119981e+04   2.265042e+06   0.000000e+00      5s
   12140    1.8119976e+04   3.568913e+06   0.000000e+00     10s
   14100    1.8119972e+04   3.547790e+06   0.000000e+00     15s
   15690    1.8119968e+04   1.079320e+07   0.000000e+00     20s
   17300    1.8119964e+04   2.549231e+06   0.000000e+00     25s
   18700    1.8119960e+04   1.681752e+06   0.000000e+00     30s
   20020    1.8119957e+04   5.525809e+06   0.000000e+00     35s
   21190    1.8119954e+04   4.719883e+06   0.000000e+00     40s
   22380    1.8089952e+04   4.032767e+06   0.000000e+00     45s
   23520    1.7609961e+04   1.376088e+06   0.000000e+00     50s
   24700    1.7609959e+04   8.378523e+06   0.000000e+00     55s
   25790    1.7609958e+04   2.150349e+06   0.000000e+00     60s
   26940    1.7609957e+04   9.104406e+05   0.000000e+00     65s
   28050    1.7609956e+04   7.157638e+05   0.000000e+00     71s
   29120    1.7609955e+04   6.105178e+05   0.000000e+00     76s
   30120    1.7609954e+04   2.162210e+06   0.000000e+00     80s
   31090    1.7609953e+04   1.499630e+06   0.000000e+00     85s
   32200    1.7609952e+04   1.169431e+06   0.000000e+00     91s
   33190    1.7609952e+04   6.648549e+05   0.000000e+00     96s
   34170    1.7609951e+04   5.704744e+05   0.000000e+00    100s
   35130    1.7549952e+04   1.954930e+06   0.000000e+00    105s
   36120    1.7549952e+04   7.150273e+05   0.000000e+00    110s
   37130    1.7549951e+04   1.290763e+06   0.000000e+00    115s
   38050    1.7549951e+04   4.913097e+05   0.000000e+00    120s
   39100    1.7549951e+04   1.862783e+05   0.000000e+00    126s
   40090    1.7549950e+04   9.463067e+05   0.000000e+00    131s
   40960    1.7549950e+04   1.392024e+05   0.000000e+00    135s
   41970    1.7549950e+04   2.157558e+05   0.000000e+00    141s
   42930    1.7549949e+04   2.485530e+05   0.000000e+00    146s
   43880    1.7549949e+04   2.803440e+05   0.000000e+00    150s
   44920    1.7549949e+04   1.219327e+05   0.000000e+00    156s
   45780    1.7549949e+04   6.359497e+04   0.000000e+00    160s
   46840    1.7549949e+04   7.061040e+04   0.000000e+00    166s
   47700    1.7549949e+04   6.132833e+04   0.000000e+00    170s
   48840    1.7549949e+04   7.776403e+03   0.000000e+00    176s
   49576    1.7550000e+04   0.000000e+00   0.000000e+00    179s
   49576    1.7550000e+04   0.000000e+00   0.000000e+00    179s

Root relaxation: objective 1.755000e+04, 49576 iterations, 178.43 seconds
Total elapsed time = 346.13s
Total elapsed time = 717.64s
Total elapsed time = 868.69s
Total elapsed time = 960.38s

    Nodes    |    Current Node    |     Objective Bounds      |     Work
 Expl Unexpl |  Obj  Depth IntInf | Incumbent    BestBd   Gap | It/Node Time

     0     0 17550.0000    0 3632 4140.00000 17550.0000   324%     - 1044s
     0     0 17550.0000    0 6144 4140.00000 17550.0000   324%     - 1153s
     0     0 17550.0000    0 6003 4140.00000 17550.0000   324%     - 1224s
     0     0 17550.0000    0 3351 4140.00000 17550.0000   324%     - 2186s
     0     0 17550.0000    0 3605 4140.00000 17550.0000   324%     - 2226s
     0     0 17550.0000    0 3469 4140.00000 17550.0000   324%     - 3254s
     0     0 17550.0000    0 3467 4140.00000 17550.0000   324%     - 3513s

Cutting planes:
  Implied bound: 1106
  MIR: 11
  RLT: 464
  Relax-and-lift: 338

Explored 1 nodes (1512846 simplex iterations) in 3600.01 seconds
Thread count was 1 (of 40 available processors)

Solution count 1: 4140 

Time limit reached
Best objective 4.140000000000e+03, best bound 1.755000000000e+04, gap 323.9130%

----------

Best objective (UB): 17550.000
Best feasible solution (LB): 4140.000
Gap between the lower bound and upper bound: 323.913%

----------

Number of customers served: 35

Schedule for EV v0:
   [   0,  976) -> It remains parked at station s0.
   [ 976, 1156) -> Service a request driving for customer c53 from s0 to s3.
   [1156, tmax) -> It remains parked at station s3.

Schedule for EV v1:
   [   0,  730) -> It remains parked at station s0.
   [ 730,  820) -> Service a request driving for customer c33 from s0 to s3.
   [ 820, tmax) -> It remains parked at station s3.

Schedule for EV v2:
   [   0,  909) -> It remains parked at station s0.
   [ 909,  969) -> Service a request driving for customer c24 from s0 to s11.
   [ 969, tmax) -> It remains parked at station s11.

Schedule for EV v3:
   [   0, 1333) -> It remains parked at station s0.
   [1333, 1363) -> Service a request driving for customer c69 from s0 to s0.
   [1363, tmax) -> It remains parked at station s0.

Schedule for EV v4:
   [   0,  909) -> It remains parked at station s0.
   [ 909,  939) -> Service a request driving for customer c71 from s0 to s9.
   [ 939, tmax) -> It remains parked at station s9.

Schedule for EV v5:
   [   0,  971) -> It remains parked at station s0.
   [ 971, 1001) -> Service a request driving for customer c89 from s0 to s1.
   [1001, tmax) -> It remains parked at station s1.

Schedule for EV v6:
   [   0, tmax) -> It remains parked at station s0.

Schedule for EV v7:
   [   0, tmax) -> It remains parked at station s0.

Schedule for EV v8:
   [   0, tmax) -> It remains parked at station s0.

Schedule for EV v9:
   [   0,  786) -> It remains parked at station s1.
   [ 786, 1026) -> Service a request driving for customer c27 from s1 to s1.
   [1026, 1031) -> It remains parked at station s1.
   [1031, 1091) -> Service a request driving for customer c73 from s1 to s11.
   [1091, tmax) -> It remains parked at station s11.

Schedule for EV v10:
   [   0, 1025) -> It remains parked at station s1.
   [1025, 1145) -> Service a request driving for customer c31 from s1 to s0.
   [1145, tmax) -> It remains parked at station s0.

Schedule for EV v11:
   [   0,  851) -> It remains parked at station s1.
   [ 851,  941) -> Service a request driving for customer c35 from s1 to s10.
   [ 941, tmax) -> It remains parked at station s10.

Schedule for EV v12:
   [   0,  851) -> It remains parked at station s1.
   [ 851,  941) -> Service a request driving for customer c76 from s1 to s4.
   [ 941, tmax) -> It remains parked at station s4.

Schedule for EV v13:
   [   0,  735) -> It remains parked at station s1.
   [ 735,  765) -> Service a request driving for customer c4 from s1 to s6.
   [ 765,  973) -> It remains parked at station s6.
   [ 973, 1033) -> Service a request driving for customer c4 from s6 to s7.
   [1033, tmax) -> It remains parked at station s7.

Schedule for EV v14:
   [   0, tmax) -> It remains parked at station s1.

Schedule for EV v15:
   [   0, tmax) -> It remains parked at station s1.

Schedule for EV v16:
   [   0,  736) -> It remains parked at station s2.
   [ 736,  796) -> Service a request driving for customer c7 from s2 to s2.
   [ 796, tmax) -> It remains parked at station s2.

Schedule for EV v17:
   [   0,  666) -> It remains parked at station s2.
   [ 666,  696) -> Service a request driving for customer c38 from s2 to s11.
   [ 696, tmax) -> It remains parked at station s11.

Schedule for EV v18:
   [   0, tmax) -> It remains parked at station s2.

Schedule for EV v19:
   [   0, tmax) -> It remains parked at station s2.

Schedule for EV v20:
   [   0, tmax) -> It remains parked at station s2.

Schedule for EV v21:
   [   0, tmax) -> It remains parked at station s2.

Schedule for EV v22:
   [   0, tmax) -> It remains parked at station s2.

Schedule for EV v23:
   [   0, tmax) -> It remains parked at station s2.

Schedule for EV v24:
   [   0, tmax) -> It remains parked at station s2.

Schedule for EV v25:
   [   0, tmax) -> It remains parked at station s2.

Schedule for EV v26:
   [   0, 1152) -> It remains parked at station s3.
   [1152, 1422) -> Service a request driving for customer c17 from s3 to s5.
   [1422, tmax) -> It remains parked at station s5.

Schedule for EV v27:
   [   0,  669) -> It remains parked at station s3.
   [ 669,  909) -> Service a request driving for customer c51 from s3 to s1.
   [ 909, tmax) -> It remains parked at station s1.

Schedule for EV v28:
   [   0, 1091) -> It remains parked at station s3.
   [1091, 1271) -> Service a request driving for customer c42 from s3 to s8.
   [1271, tmax) -> It remains parked at station s8.

Schedule for EV v29:
   [   0,  965) -> It remains parked at station s3.
   [ 965, 1055) -> Service a request driving for customer c6 from s3 to s0.
   [1055, 1095) -> It remains parked at station s0.
   [1095, 1125) -> Service a request driving for customer c6 from s0 to s2.
   [1125, tmax) -> It remains parked at station s2.

Schedule for EV v30:
   [   0, tmax) -> It remains parked at station s3.

Schedule for EV v31:
   [   0, 1087) -> It remains parked at station s4.
   [1087, 1267) -> Service a request driving for customer c58 from s4 to s6.
   [1267, tmax) -> It remains parked at station s6.

Schedule for EV v32:
   [   0,  670) -> It remains parked at station s4.
   [ 670,  820) -> Service a request driving for customer c1 from s4 to s0.
   [ 820, tmax) -> It remains parked at station s0.

Schedule for EV v33:
   [   0,  613) -> It remains parked at station s4.
   [ 613,  673) -> Service a request driving for customer c11 from s4 to s4.
   [ 673, tmax) -> It remains parked at station s4.

Schedule for EV v34:
   [   0,  612) -> It remains parked at station s4.
   [ 612,  642) -> Service a request driving for customer c19 from s4 to s8.
   [ 642, tmax) -> It remains parked at station s8.

Schedule for EV v35:
   [   0, tmax) -> It remains parked at station s4.

Schedule for EV v36:
   [   0, tmax) -> It remains parked at station s4.

Schedule for EV v37:
   [   0, tmax) -> It remains parked at station s4.

Schedule for EV v38:
   [   0, tmax) -> It remains parked at station s4.

Schedule for EV v39:
   [   0, tmax) -> It remains parked at station s4.

Schedule for EV v40:
   [   0, 1089) -> It remains parked at station s5.
   [1089, 1299) -> Service a request driving for customer c23 from s5 to s3.
   [1299, tmax) -> It remains parked at station s3.

Schedule for EV v41:
   [   0, 1276) -> It remains parked at station s5.
   [1276, 1486) -> Service a request driving for customer c85 from s5 to s5.
   [1486, tmax) -> It remains parked at station s5.

Schedule for EV v42:
   [   0,  607) -> It remains parked at station s5.
   [ 607,  787) -> Service a request driving for customer c59 from s5 to s3.
   [ 787, tmax) -> It remains parked at station s3.

Schedule for EV v43:
   [   0,  790) -> It remains parked at station s5.
   [ 790,  970) -> Service a request driving for customer c62 from s5 to s4.
   [ 970, tmax) -> It remains parked at station s4.

Schedule for EV v44:
   [   0,  907) -> It remains parked at station s5.
   [ 907,  967) -> Service a request driving for customer c82 from s5 to s1.
   [ 967, tmax) -> It remains parked at station s1.

Schedule for EV v45:
   [   0, tmax) -> It remains parked at station s5.

Schedule for EV v46:
   [   0, tmax) -> It remains parked at station s5.

Schedule for EV v47:
   [   0, tmax) -> It remains parked at station s5.

Schedule for EV v48:
   [   0, tmax) -> It remains parked at station s5.

Schedule for EV v49:
   [   0,  965) -> It remains parked at station s6.
   [ 965, 1025) -> Service a request driving for customer c28 from s6 to s8.
   [1025, tmax) -> It remains parked at station s8.

Schedule for EV v50:
   [   0, tmax) -> It remains parked at station s6.

Schedule for EV v51:
   [   0, tmax) -> It remains parked at station s6.

Schedule for EV v52:
   [   0, tmax) -> It remains parked at station s6.

Schedule for EV v53:
   [   0, tmax) -> It remains parked at station s6.

Schedule for EV v54:
   [   0, tmax) -> It remains parked at station s6.

Schedule for EV v55:
   [   0, 1447) -> It remains parked at station s7.
   [1447, 1477) -> Service a request driving for customer c22 from s7 to s0.
   [1477, tmax) -> It remains parked at station s0.

Schedule for EV v56:
   [   0, tmax) -> It remains parked at station s7.

Schedule for EV v57:
   [   0, tmax) -> It remains parked at station s7.

Schedule for EV v58:
   [   0, tmax) -> It remains parked at station s7.

Schedule for EV v59:
   [   0, 1333) -> It remains parked at station s8.
   [1333, 1483) -> Service a request driving for customer c75 from s8 to s3.
   [1483, tmax) -> It remains parked at station s3.

Schedule for EV v60:
   [   0, tmax) -> It remains parked at station s8.

Schedule for EV v61:
   [   0, tmax) -> It remains parked at station s8.

Schedule for EV v62:
   [   0, tmax) -> It remains parked at station s8.

Schedule for EV v63:
   [   0, tmax) -> It remains parked at station s8.

Schedule for EV v64:
   [   0, tmax) -> It remains parked at station s8.

Schedule for EV v65:
   [   0, tmax) -> It remains parked at station s8.

Schedule for EV v66:
   [   0, tmax) -> It remains parked at station s8.

Schedule for EV v67:
   [   0, 1085) -> It remains parked at station s9.
   [1085, 1205) -> Service a request driving for customer c10 from s9 to s3.
   [1205, tmax) -> It remains parked at station s3.

Schedule for EV v68:
   [   0, tmax) -> It remains parked at station s9.

Schedule for EV v69:
   [   0, tmax) -> It remains parked at station s9.

Schedule for EV v70:
   [   0, tmax) -> It remains parked at station s9.

Schedule for EV v71:
   [   0, tmax) -> It remains parked at station s9.

Schedule for EV v72:
   [   0, tmax) -> It remains parked at station s9.

Schedule for EV v73:
   [   0, tmax) -> It remains parked at station s10.

Schedule for EV v74:
   [   0, tmax) -> It remains parked at station s10.

Schedule for EV v75:
   [   0, tmax) -> It remains parked at station s10.

Schedule for EV v76:
   [   0, tmax) -> It remains parked at station s10.

Schedule for EV v77:
   [   0, tmax) -> It remains parked at station s10.

Schedule for EV v78:
   [   0, tmax) -> It remains parked at station s10.

Schedule for EV v79:
   [   0, tmax) -> It remains parked at station s10.

Schedule for EV v80:
   [   0, tmax) -> It remains parked at station s10.

Schedule for EV v81:
   [   0, tmax) -> It remains parked at station s10.

Schedule for EV v82:
   [   0,  549) -> It remains parked at station s11.
   [ 549,  699) -> Service a request driving for customer c56 from s11 to s4.
   [ 699, 1028) -> It remains parked at station s4.
   [1028, 1238) -> Service a request driving for customer c56 from s4 to s0.
   [1238, 1331) -> It remains parked at station s0.
   [1331, 1391) -> Service a request driving for customer c87 from s0 to s7.
   [1391, tmax) -> It remains parked at station s7.

Schedule for EV v83:
   [   0,  426) -> It remains parked at station s11.
   [ 426,  486) -> Service a request driving for customer c63 from s11 to s1.
   [ 486, tmax) -> It remains parked at station s1.

Schedule for EV v84:
   [   0,  729) -> It remains parked at station s11.
   [ 729,  759) -> Service a request driving for customer c55 from s11 to s9.
   [ 759, tmax) -> It remains parked at station s9.

Schedule for EV v85:
   [   0, tmax) -> It remains parked at station s11.

Schedule for EV v86:
   [   0, tmax) -> It remains parked at station s11.

Schedule for EV v87:
   [   0, tmax) -> It remains parked at station s11.

Set of satisfied customers
   {c1, c4, c6, c7, c10, c11, c17, c19, c22, c23, c24, c27, c28, c31, c33, c35, c38, c42, c51, c53, c55, c56, c58, c59, c62, c63, c69, c71, c73, c75, c76, c82, c85, c87, c89}

