Academic license - for non-commercial use only
Gurobi Optimizer version 9.0.3 build v9.0.3rc0 (linux64)
Optimize a model with 58137 rows, 62360 columns and 194585 nonzeros
Model fingerprint: 0x22c5aa00
Variable types: 58010 continuous, 4350 integer (4350 binary)
Coefficient statistics:
  Matrix range     [1e+00, 4e+06]
  Objective range  [3e+01, 4e+02]
  Bounds range     [1e+00, 2e+06]
  RHS range        [1e+00, 2e+06]

Loaded user MIP start with objective 5760

Presolve removed 48801 rows and 50309 columns
Presolve time: 0.38s
Presolved: 9336 rows, 12051 columns, 75717 nonzeros
Found heuristic solution: objective 5790.0000000
Variable types: 0 continuous, 12051 integer (8130 binary)

Root simplex log...

Iteration    Objective       Primal Inf.    Dual Inf.      Time
   12749    2.0189983e+04   1.208354e+05   0.000000e+00      5s
   20473    1.5359980e+04   1.139318e+06   0.000000e+00     10s
   27497    1.2059974e+04   1.096839e+05   0.000000e+00     15s
   34413    1.2029912e+04   4.217131e+04   0.000000e+00     20s
   38109    1.2030000e+04   0.000000e+00   0.000000e+00     23s

Root relaxation: objective 1.203000e+04, 38109 iterations, 22.57 seconds
Total elapsed time = 28.58s

    Nodes    |    Current Node    |     Objective Bounds      |     Work
 Expl Unexpl |  Obj  Depth IntInf | Incumbent    BestBd   Gap | It/Node Time

     0     0 12030.0000    0 3812 5790.00000 12030.0000   108%     -   29s
H    0     0                    9240.0000000 12030.0000  30.2%     -   29s
     0     0 12030.0000    0 3932 9240.00000 12030.0000  30.2%     -   31s
     0     0 12030.0000    0 3762 9240.00000 12030.0000  30.2%     -   32s
     0     0 12030.0000    0 3678 9240.00000 12030.0000  30.2%     -   41s
     0     0 12030.0000    0 3608 9240.00000 12030.0000  30.2%     -   41s
     0     0 12030.0000    0 3631 9240.00000 12030.0000  30.2%     -   46s
H    0     0                    10290.000000 12030.0000  16.9%     -   46s
     0     0 12030.0000    0 3598 10290.0000 12030.0000  16.9%     -   46s
     0     0 12030.0000    0 3530 10290.0000 12030.0000  16.9%     -   48s
     0     0 12030.0000    0 3526 10290.0000 12030.0000  16.9%     -   53s
H    0     0                    11190.000000 12030.0000  7.51%     -   57s
H    0     0                    12030.000000 12030.0000  0.00%     -   58s
     0     0 12030.0000    0 3526 12030.0000 12030.0000  0.00%     -   58s

Cutting planes:
  Gomory: 1
  Implied bound: 174
  MIR: 13
  RLT: 66
  Relax-and-lift: 2

Explored 1 nodes (79776 simplex iterations) in 58.04 seconds
Thread count was 1 (of 40 available processors)

Solution count 6: 12030 11190 10290 ... 5760

Optimal solution found (tolerance 1.00e-04)
Best objective 1.203000000000e+04, best bound 1.203000000000e+04, gap 0.0000%

----------

Best objective (UB): 12030.000
Best feasible solution (LB): 12030.000
Gap between the lower bound and upper bound: 0.000%

----------

Number of customers served: 94

Schedule for EV v0:
   [   0,  373) -> It remains parked at station s0, which was charging for charging.
   [ 373,  403) -> Service a request driving for customer c269 from s0 to s0.
   [ 403,  495) -> It remains parked at station s0, which was charging for charging.
   [ 495,  645) -> Service a request driving for customer c284 from s0 to s0.
   [ 645,  728) -> It remains parked at station s0, which was charging for charging.
   [ 728,  998) -> Service a request driving for customer c186 from s0 to s2.
   [ 998, 1033) -> It remains parked at station s2, which was charging for charging.
   [1033, 1153) -> Service a request driving for customer c68 from s2 to s3.
   [1153, 1423) -> Service a request driving for customer c38 from s3 to s2.
   [1423, tmax) -> It remains parked at station s2, which was charging for charging.

Schedule for EV v1:
   [   0,  434) -> It remains parked at station s1, which was charging for charging.
   [ 434,  494) -> Service a request driving for customer c75 from s1 to s1.
   [ 494,  496) -> It remains parked at station s1, which was charging for charging.
   [ 496,  616) -> Service a request driving for customer c25 from s1 to s4.
   [ 616,  673) -> It remains parked at station s4, which was charging for charging.
   [ 673,  793) -> Service a request driving for customer c115 from s4 to s11.
   [ 793,  853) -> Service a request driving for customer c58 from s11 to s6.
   [ 853,  915) -> It remains parked at station s6, which was charging for charging.
   [ 915, 1065) -> Service a request driving for customer c71 from s6 to s2.
   [1065, 1095) -> It remains parked at station s2, which was charging for charging.
   [1095, 1335) -> Service a request driving for customer c3 from s2 to s11.
   [1335, 1393) -> It remains parked at station s11, which was charging for charging.
   [1393, 1513) -> Service a request driving for customer c256 from s11 to s3.
   [1513, tmax) -> It remains parked at station s3, which was charging for charging.

Schedule for EV v2:
   [   0,  432) -> It remains parked at station s1, which was charging for charging.
   [ 432,  612) -> Service a request driving for customer c260 from s1 to s2.
   [ 612,  666) -> It remains parked at station s2, which was charging for charging.
   [ 666,  756) -> Service a request driving for customer c127 from s2 to s0.
   [ 756,  792) -> It remains parked at station s0, which was charging for charging.
   [ 792,  822) -> Service a request driving for customer c29 from s0 to s1.
   [ 822,  905) -> It remains parked at station s1, which was charging for charging.
   [ 905, 1025) -> Service a request driving for customer c18 from s1 to s2.
   [1025, 1026) -> It remains parked at station s2, which was charging for charging.
   [1026, 1086) -> Service a request driving for customer c95 from s2 to s4.
   [1086, 1088) -> It remains parked at station s4, which was charging for charging.
   [1088, 1208) -> Service a request driving for customer c204 from s4 to s11.
   [1208, 1268) -> Service a request driving for customer c220 from s11 to s0.
   [1268, 1269) -> It remains parked at station s0, which was charging for charging.
   [1269, 1299) -> Service a request driving for customer c241 from s0 to s11.
   [1299, 1327) -> It remains parked at station s11, which was charging for charging.
   [1327, 1357) -> Service a request driving for customer c252 from s11 to s9.
   [1357, 1389) -> It remains parked at station s9, which was charging for charging.
   [1389, 1539) -> Service a request driving for customer c216 from s9 to s0.
   [1539, tmax) -> It remains parked at station s0, which was charging for charging.

Schedule for EV v3:
   [   0,  429) -> It remains parked at station s5, which was charging for charging.
   [ 429,  519) -> Service a request driving for customer c281 from s5 to s0.
   [ 519,  550) -> It remains parked at station s0, which was charging for charging.
   [ 550,  610) -> Service a request driving for customer c246 from s0 to s3.
   [ 610,  673) -> It remains parked at station s3, which was charging for charging.
   [ 673,  823) -> Service a request driving for customer c163 from s3 to s8.
   [ 823,  855) -> It remains parked at station s8, which was charging for charging.
   [ 855, 1005) -> Service a request driving for customer c39 from s8 to s11.
   [1005, 1032) -> It remains parked at station s11, which was charging for charging.
   [1032, 1062) -> Service a request driving for customer c230 from s11 to s3.
   [1062, 1085) -> It remains parked at station s3, which was charging for charging.
   [1085, 1205) -> Service a request driving for customer c134 from s3 to s9.
   [1205, 1355) -> Service a request driving for customer c165 from s9 to s4.
   [1355, 1385) -> It remains parked at station s4, which was charging for charging.
   [1385, 1445) -> Service a request driving for customer c142 from s4 to s1.
   [1445, 1450) -> It remains parked at station s1, which was charging for charging.
   [1450, 1480) -> Service a request driving for customer c231 from s1 to s6.
   [1480, tmax) -> It remains parked at station s6, which was charging for charging.

Schedule for EV v4:
   [   0,  374) -> It remains parked at station s5, which was charging for charging.
   [ 374,  464) -> Service a request driving for customer c73 from s5 to s2.
   [ 464,  556) -> It remains parked at station s2, which was charging for charging.
   [ 556,  766) -> Service a request driving for customer c80 from s2 to s10.
   [ 766,  851) -> It remains parked at station s10, which was charging for charging.
   [ 851, 1211) -> Service a request driving for customer c287 from s10 to s1.
   [1211, 1269) -> It remains parked at station s1, which was charging for charging.
   [1269, 1539) -> Service a request driving for customer c205 from s1 to s8.
   [1539, tmax) -> It remains parked at station s8, which was charging for charging.

Schedule for EV v5:
   [   0,  607) -> It remains parked at station s7, which was charging for charging.
   [ 607,  817) -> Service a request driving for customer c177 from s7 to s8.
   [ 817,  914) -> It remains parked at station s8, which was charging for charging.
   [ 914,  974) -> Service a request driving for customer c125 from s8 to s4.
   [ 974,  975) -> It remains parked at station s4, which was charging for charging.
   [ 975, 1125) -> Service a request driving for customer c169 from s4 to s9.
   [1125, 1147) -> It remains parked at station s9, which was charging for charging.
   [1147, 1237) -> Service a request driving for customer c250 from s9 to s7.
   [1237, 1328) -> It remains parked at station s7, which was charging for charging.
   [1328, 1388) -> Service a request driving for customer c24 from s7 to s3.
   [1388, 1394) -> It remains parked at station s3, which was charging for charging.
   [1394, 1634) -> Service a request driving for customer c224 from s3 to s10.
   [1634, tmax) -> It remains parked at station s10, which was charging for charging.

Schedule for EV v6:
   [   0,  665) -> It remains parked at station s7, which was charging for charging.
   [ 665,  905) -> Service a request driving for customer c174 from s7 to s5.
   [ 905,  914) -> It remains parked at station s5, which was charging for charging.
   [ 914, 1034) -> Service a request driving for customer c152 from s5 to s3.
   [1034, 1035) -> It remains parked at station s3, which was charging for charging.
   [1035, 1185) -> Service a request driving for customer c76 from s3 to s3.
   [1185, 1208) -> It remains parked at station s3, which was charging for charging.
   [1208, 1238) -> Service a request driving for customer c91 from s3 to s9.
   [1238, 1335) -> It remains parked at station s9, which was charging for charging.
   [1335, 1695) -> Service a request driving for customer c83 from s9 to s5.
   [1695, tmax) -> It remains parked at station s5, which was charging for charging.

Schedule for EV v7:
   [   0,  553) -> It remains parked at station s9, which was charging for charging.
   [ 553,  643) -> Service a request driving for customer c21 from s9 to s8.
   [ 643,  672) -> It remains parked at station s8, which was charging for charging.
   [ 672,  732) -> Service a request driving for customer c185 from s8 to s9.
   [ 732,  912) -> Service a request driving for customer c112 from s9 to s1.
   [ 912,  976) -> It remains parked at station s1, which was charging for charging.
   [ 976, 1066) -> Service a request driving for customer c1 from s1 to s11.
   [1066, 1090) -> It remains parked at station s11, which was charging for charging.
   [1090, 1330) -> Service a request driving for customer c66 from s11 to s7.
   [1330, 1333) -> It remains parked at station s7, which was charging for charging.
   [1333, 1393) -> Service a request driving for customer c277 from s7 to s6.
   [1393, tmax) -> It remains parked at station s6, which was charging for charging.

Schedule for EV v8:
   [   0,  488) -> It remains parked at station s10, which was charging for charging.
   [ 488,  578) -> Service a request driving for customer c187 from s10 to s11.
   [ 578,  611) -> It remains parked at station s11, which was charging for charging.
   [ 611,  701) -> Service a request driving for customer c198 from s11 to s1.
   [ 701,  736) -> It remains parked at station s1, which was charging for charging.
   [ 736, 1066) -> Service a request driving for customer c12 from s1 to s3.
   [1066, 1085) -> It remains parked at station s3, which was charging for charging.
   [1085, 1235) -> Service a request driving for customer c218 from s3 to s6.
   [1235, 1265) -> It remains parked at station s6, which was charging for charging.
   [1265, 1325) -> Service a request driving for customer c274 from s6 to s4.
   [1325, 1385) -> Service a request driving for customer c238 from s4 to s7.
   [1385, 1456) -> It remains parked at station s7, which was charging for charging.
   [1456, 1516) -> Service a request driving for customer c178 from s7 to s8.
   [1516, tmax) -> It remains parked at station s8, which was charging for charging.

Schedule for EV v9:
   [   0,  732) -> It remains parked at station s10, which was charging for charging.
   [ 732,  882) -> Service a request driving for customer c201 from s10 to s11.
   [ 882,  905) -> It remains parked at station s11, which was charging for charging.
   [ 905, 1025) -> Service a request driving for customer c11 from s11 to s8.
   [1025, 1085) -> It remains parked at station s8, which was charging for charging.
   [1085, 1145) -> Service a request driving for customer c113 from s8 to s11.
   [1145, 1146) -> It remains parked at station s11, which was charging for charging.
   [1146, 1206) -> Service a request driving for customer c62 from s11 to s0.
   [1206, 1267) -> It remains parked at station s0, which was charging for charging.
   [1267, 1297) -> Service a request driving for customer c108 from s0 to s3.
   [1297, 1329) -> It remains parked at station s3, which was charging for charging.
   [1329, 1539) -> Service a request driving for customer c257 from s3 to s9.
   [1539, tmax) -> It remains parked at station s9, which was charging for charging.

Schedule for EV v10:
   [   0,  607) -> It remains parked at station s10, which was charging for charging.
   [ 607,  667) -> Service a request driving for customer c164 from s10 to s6.
   [ 667,  734) -> It remains parked at station s6, which was charging for charging.
   [ 734,  824) -> Service a request driving for customer c26 from s6 to s1.
   [ 824,  846) -> It remains parked at station s1, which was charging for charging.
   [ 846,  996) -> Service a request driving for customer c17 from s1 to s0.
   [ 996, 1035) -> It remains parked at station s0, which was charging for charging.
   [1035, 1125) -> Service a request driving for customer c57 from s0 to s6.
   [1125, 1145) -> It remains parked at station s6, which was charging for charging.
   [1145, 1325) -> Service a request driving for customer c196 from s6 to s8.
   [1325, 1326) -> It remains parked at station s8, which was charging for charging.
   [1326, 1386) -> Service a request driving for customer c175 from s8 to s3.
   [1386, 1396) -> It remains parked at station s3, which was charging for charging.
   [1396, 1696) -> Service a request driving for customer c149 from s3 to s7.
   [1696, tmax) -> It remains parked at station s7, which was charging for charging.

Schedule for EV v11:
   [   0,  786) -> It remains parked at station s11, which was charging for charging.
   [ 786,  846) -> Service a request driving for customer c263 from s11 to s0.
   [ 846,  852) -> It remains parked at station s0, which was charging for charging.
   [ 852, 1002) -> Service a request driving for customer c5 from s0 to s8.
   [1002, 1032) -> It remains parked at station s8, which was charging for charging.
   [1032, 1092) -> Service a request driving for customer c52 from s8 to s1.
   [1092, 1122) -> Service a request driving for customer c16 from s1 to s4.
   [1122, 1150) -> It remains parked at station s4, which was charging for charging.
   [1150, 1270) -> Service a request driving for customer c272 from s4 to s0.
   [1270, 1336) -> It remains parked at station s0, which was charging for charging.
   [1336, 1606) -> Service a request driving for customer c283 from s0 to s3.
   [1606, tmax) -> It remains parked at station s3, which was charging for charging.

Schedule for EV v12:
   [   0,  669) -> It remains parked at station s11, which was charging for charging.
   [ 669,  849) -> Service a request driving for customer c279 from s11 to s11.
   [ 849,  908) -> It remains parked at station s11, which was charging for charging.
   [ 908,  938) -> Service a request driving for customer c121 from s11 to s2.
   [ 938,  965) -> It remains parked at station s2, which was charging for charging.
   [ 965, 1055) -> Service a request driving for customer c104 from s2 to s1.
   [1055, 1088) -> It remains parked at station s1, which was charging for charging.
   [1088, 1118) -> Service a request driving for customer c181 from s1 to s4.
   [1118, 1149) -> It remains parked at station s4, which was charging for charging.
   [1149, 1329) -> Service a request driving for customer c232 from s4 to s0.
   [1329, 1335) -> It remains parked at station s0, which was charging for charging.
   [1335, 1515) -> Service a request driving for customer c271 from s0 to s3.
   [1515, tmax) -> It remains parked at station s3, which was charging for charging.

Schedule for EV v13:
   [   0,  727) -> It remains parked at station s11, which was charging for charging.
   [ 727,  787) -> Service a request driving for customer c253 from s11 to s11.
   [ 787,  846) -> It remains parked at station s11, which was charging for charging.
   [ 846,  966) -> Service a request driving for customer c235 from s11 to s11.
   [ 966,  970) -> It remains parked at station s11, which was charging for charging.
   [ 970, 1120) -> Service a request driving for customer c61 from s11 to s3.
   [1120, 1148) -> It remains parked at station s3, which was charging for charging.
   [1148, 1478) -> Service a request driving for customer c93 from s3 to s8.
   [1478, tmax) -> It remains parked at station s8, which was charging for charging.

Schedule for EV v14:
   [   0,  429) -> It remains parked at station s11, which was charging for charging.
   [ 429,  489) -> Service a request driving for customer c7 from s11 to s3.
   [ 489,  549) -> It remains parked at station s3, which was charging for charging.
   [ 549,  669) -> Service a request driving for customer c40 from s3 to s0.
   [ 669,  729) -> Service a request driving for customer c82 from s0 to s5.
   [ 729, 1029) -> Service a request driving for customer c101 from s5 to s5.
   [1029, 1145) -> It remains parked at station s5, which was charging for charging.
   [1145, 1355) -> Service a request driving for customer c150 from s5 to s5.
   [1355, 1456) -> It remains parked at station s5, which was charging for charging.
   [1456, 1516) -> Service a request driving for customer c183 from s5 to s3.
   [1516, tmax) -> It remains parked at station s3, which was charging for charging.

Set of satisfied customers
   {c1, c3, c5, c7, c11, c12, c16, c17, c18, c21, c24, c25, c26, c29, c38, c39, c40, c52, c57, c58, c61, c62, c66, c68, c71, c73, c75, c76, c80, c82, c83, c91, c93, c95, c101, c104, c108, c112, c113, c115, c121, c125, c127, c134, c142, c149, c150, c152, c163, c164, c165, c169, c174, c175, c177, c178, c181, c183, c185, c186, c187, c196, c198, c201, c204, c205, c216, c218, c220, c224, c230, c231, c232, c235, c238, c241, c246, c250, c252, c253, c256, c257, c260, c263, c269, c271, c272, c274, c277, c279, c281, c283, c284, c287}

