Academic license - for non-commercial use only
Gurobi Optimizer version 9.0.3 build v9.0.3rc0 (linux64)
Optimize a model with 56598 rows, 60960 columns and 190950 nonzeros
Model fingerprint: 0x3cf21e09
Variable types: 56460 continuous, 4500 integer (4500 binary)
Coefficient statistics:
  Matrix range     [1e+00, 4e+06]
  Objective range  [3e+01, 4e+02]
  Bounds range     [1e+00, 2e+06]
  RHS range        [1e+00, 2e+06]

Loaded user MIP start with objective 5310

Presolve removed 46922 rows and 48081 columns
Presolve time: 0.31s
Presolved: 9676 rows, 12879 columns, 80421 nonzeros
Variable types: 0 continuous, 12879 integer (9066 binary)

Root simplex log...

Iteration    Objective       Primal Inf.    Dual Inf.      Time
   12379    2.4629985e+04   2.393510e+06   0.000000e+00      5s
   19939    1.9919984e+04   2.858062e+05   0.000000e+00     10s
   27184    1.6259977e+04   5.975377e+06   0.000000e+00     15s
   33825    1.2749980e+04   2.214104e+05   0.000000e+00     20s
   39657    1.2689960e+04   4.483178e+05   0.000000e+00     25s
   45577    1.2689917e+04   1.388381e+05   0.000000e+00     30s
   50993    1.2690000e+04   0.000000e+00   0.000000e+00     35s

Root relaxation: objective 1.269000e+04, 50993 iterations, 34.37 seconds
Total elapsed time = 40.43s

    Nodes    |    Current Node    |     Objective Bounds      |     Work
 Expl Unexpl |  Obj  Depth IntInf | Incumbent    BestBd   Gap | It/Node Time

     0     0 12690.0000    0 3583 5310.00000 12690.0000   139%     -   41s
H    0     0                    11370.000000 12690.0000  11.6%     -   41s
     0     0 12690.0000    0 3504 11370.0000 12690.0000  11.6%     -   44s
     0     0 12690.0000    0 3455 11370.0000 12690.0000  11.6%     -   45s
     0     0 12690.0000    0 3446 11370.0000 12690.0000  11.6%     -   53s
H    0     0                    11400.000000 12690.0000  11.3%     -   53s
     0     0 12690.0000    0 3422 11400.0000 12690.0000  11.3%     -   54s
     0     0 12690.0000    0 3404 11400.0000 12690.0000  11.3%     -   60s
     0     0 12690.0000    0 3400 11400.0000 12690.0000  11.3%     -   61s
     0     0 12690.0000    0 3384 11400.0000 12690.0000  11.3%     -   70s
     0     0 12690.0000    0 3384 11400.0000 12690.0000  11.3%     -   79s
H    0     0                    12000.000000 12690.0000  5.75%     -   82s
     0     2 12690.0000    0 3384 12000.0000 12690.0000  5.75%     -  101s
H    3     3                    12690.000000 12690.0000  0.00%  5329  104s

Cutting planes:
  Gomory: 2
  Implied bound: 93
  MIR: 5
  StrongCG: 1
  RLT: 44
  Relax-and-lift: 2

Explored 4 nodes (128075 simplex iterations) in 104.89 seconds
Thread count was 1 (of 40 available processors)

Solution count 5: 12690 12000 11400 ... 5310

Optimal solution found (tolerance 1.00e-04)
Best objective 1.269000000000e+04, best bound 1.269000000000e+04, gap 0.0000%

----------

Best objective (UB): 12690.000
Best feasible solution (LB): 12690.000
Gap between the lower bound and upper bound: 0.000%

----------

Number of customers served: 97

Schedule for EV v0:
   [   0,  605) -> It remains parked at station s0, which was charging for charging.
   [ 605,  875) -> Service a request driving for customer c215 from s0 to s6.
   [ 875,  911) -> It remains parked at station s6, which was charging for charging.
   [ 911, 1001) -> Service a request driving for customer c193 from s6 to s1.
   [1001, 1030) -> It remains parked at station s1, which was charging for charging.
   [1030, 1180) -> Service a request driving for customer c44 from s1 to s0.
   [1180, 1206) -> It remains parked at station s0, which was charging for charging.
   [1206, 1266) -> Service a request driving for customer c200 from s0 to s1.
   [1266, 1267) -> It remains parked at station s1, which was charging for charging.
   [1267, 1537) -> Service a request driving for customer c224 from s1 to s4.
   [1537, tmax) -> It remains parked at station s4, which was charging for charging.

Schedule for EV v1:
   [   0,  429) -> It remains parked at station s0, which was charging for charging.
   [ 429,  489) -> Service a request driving for customer c146 from s0 to s1.
   [ 489,  545) -> It remains parked at station s1, which was charging for charging.
   [ 545,  695) -> Service a request driving for customer c9 from s1 to s5.
   [ 695,  787) -> It remains parked at station s5, which was charging for charging.
   [ 787,  847) -> Service a request driving for customer c83 from s5 to s3.
   [ 847,  851) -> It remains parked at station s3, which was charging for charging.
   [ 851,  971) -> Service a request driving for customer c109 from s3 to s7.
   [ 971,  972) -> It remains parked at station s7, which was charging for charging.
   [ 972, 1092) -> Service a request driving for customer c111 from s7 to s5.
   [1092, 1095) -> It remains parked at station s5, which was charging for charging.
   [1095, 1155) -> Service a request driving for customer c172 from s5 to s4.
   [1155, 1208) -> It remains parked at station s4, which was charging for charging.
   [1208, 1478) -> Service a request driving for customer c282 from s4 to s5.
   [1478, tmax) -> It remains parked at station s5, which was charging for charging.

Schedule for EV v2:
   [   0,  493) -> It remains parked at station s0, which was charging for charging.
   [ 493,  613) -> Service a request driving for customer c130 from s0 to s9.
   [ 613,  615) -> It remains parked at station s9, which was charging for charging.
   [ 615,  675) -> Service a request driving for customer c90 from s9 to s1.
   [ 675,  730) -> It remains parked at station s1, which was charging for charging.
   [ 730,  790) -> Service a request driving for customer c216 from s1 to s11.
   [ 790,  850) -> Service a request driving for customer c183 from s11 to s0.
   [ 850,  851) -> It remains parked at station s0, which was charging for charging.
   [ 851,  911) -> Service a request driving for customer c269 from s0 to s11.
   [ 911,  914) -> It remains parked at station s11, which was charging for charging.
   [ 914, 1064) -> Service a request driving for customer c32 from s11 to s11.
   [1064, 1088) -> It remains parked at station s11, which was charging for charging.
   [1088, 1268) -> Service a request driving for customer c272 from s11 to s8.
   [1268, 1326) -> It remains parked at station s8, which was charging for charging.
   [1326, 1536) -> Service a request driving for customer c151 from s8 to s2.
   [1536, tmax) -> It remains parked at station s2, which was charging for charging.

Schedule for EV v3:
   [   0,  430) -> It remains parked at station s1, which was charging for charging.
   [ 430,  460) -> Service a request driving for customer c155 from s1 to s3.
   [ 460,  489) -> It remains parked at station s3, which was charging for charging.
   [ 489,  549) -> Service a request driving for customer c290 from s3 to s1.
   [ 549,  674) -> It remains parked at station s1, which was charging for charging.
   [ 674,  884) -> Service a request driving for customer c285 from s1 to s11.
   [ 884,  910) -> It remains parked at station s11, which was charging for charging.
   [ 910,  970) -> Service a request driving for customer c68 from s11 to s11.
   [ 970,  973) -> It remains parked at station s11, which was charging for charging.
   [ 973, 1033) -> Service a request driving for customer c95 from s11 to s0.
   [1033, 1034) -> It remains parked at station s0, which was charging for charging.
   [1034, 1094) -> Service a request driving for customer c66 from s0 to s0.
   [1094, 1214) -> Service a request driving for customer c30 from s0 to s2.
   [1214, 1325) -> It remains parked at station s2, which was charging for charging.
   [1325, 1445) -> Service a request driving for customer c181 from s2 to s7.
   [1445, tmax) -> It remains parked at station s7, which was charging for charging.

Schedule for EV v4:
   [   0,  436) -> It remains parked at station s3, which was charging for charging.
   [ 436,  526) -> Service a request driving for customer c19 from s3 to s4.
   [ 526,  545) -> It remains parked at station s4, which was charging for charging.
   [ 545,  635) -> Service a request driving for customer c179 from s4 to s1.
   [ 635,  669) -> It remains parked at station s1, which was charging for charging.
   [ 669,  879) -> Service a request driving for customer c189 from s1 to s11.
   [ 879,  907) -> It remains parked at station s11, which was charging for charging.
   [ 907,  967) -> Service a request driving for customer c241 from s11 to s6.
   [ 967, 1085) -> It remains parked at station s6, which was charging for charging.
   [1085, 1265) -> Service a request driving for customer c13 from s6 to s6.
   [1265, 1328) -> It remains parked at station s6, which was charging for charging.
   [1328, 1658) -> Service a request driving for customer c87 from s6 to s11.
   [1658, tmax) -> It remains parked at station s11, which was charging for charging.

Schedule for EV v5:
   [   0,  372) -> It remains parked at station s3, which was charging for charging.
   [ 372,  612) -> Service a request driving for customer c78 from s3 to s5.
   [ 612,  673) -> It remains parked at station s5, which was charging for charging.
   [ 673,  703) -> Service a request driving for customer c230 from s5 to s4.
   [ 703,  735) -> It remains parked at station s4, which was charging for charging.
   [ 735,  945) -> Service a request driving for customer c167 from s4 to s0.
   [ 945,  966) -> It remains parked at station s0, which was charging for charging.
   [ 966, 1296) -> Service a request driving for customer c42 from s0 to s9.
   [1296, 1329) -> It remains parked at station s9, which was charging for charging.
   [1329, 1479) -> Service a request driving for customer c258 from s9 to s1.
   [1479, tmax) -> It remains parked at station s1, which was charging for charging.

Schedule for EV v6:
   [   0,  425) -> It remains parked at station s5, which was charging for charging.
   [ 425,  455) -> Service a request driving for customer c291 from s5 to s4.
   [ 455,  492) -> It remains parked at station s4, which was charging for charging.
   [ 492,  552) -> Service a request driving for customer c226 from s4 to s5.
   [ 552,  555) -> It remains parked at station s5, which was charging for charging.
   [ 555,  615) -> Service a request driving for customer c101 from s5 to s0.
   [ 615,  675) -> It remains parked at station s0, which was charging for charging.
   [ 675,  765) -> Service a request driving for customer c191 from s0 to s5.
   [ 765,  855) -> It remains parked at station s5, which was charging for charging.
   [ 855,  975) -> Service a request driving for customer c40 from s5 to s11.
   [ 975,  976) -> It remains parked at station s11, which was charging for charging.
   [ 976, 1336) -> Service a request driving for customer c11 from s11 to s1.
   [1336, 1386) -> It remains parked at station s1, which was charging for charging.
   [1386, 1476) -> Service a request driving for customer c6 from s1 to s5.
   [1476, tmax) -> It remains parked at station s5, which was charging for charging.

Schedule for EV v7:
   [   0,  668) -> It remains parked at station s6, which was charging for charging.
   [ 668,  728) -> Service a request driving for customer c62 from s6 to s9.
   [ 728,  729) -> It remains parked at station s9, which was charging for charging.
   [ 729,  789) -> Service a request driving for customer c26 from s9 to s3.
   [ 789,  795) -> It remains parked at station s3, which was charging for charging.
   [ 795,  855) -> Service a request driving for customer c198 from s3 to s1.
   [ 855, 1155) -> Service a request driving for customer c133 from s1 to s5.
   [1155, 1208) -> It remains parked at station s5, which was charging for charging.
   [1208, 1238) -> Service a request driving for customer c245 from s5 to s5.
   [1238, 1265) -> It remains parked at station s5, which was charging for charging.
   [1265, 1325) -> Service a request driving for customer c91 from s5 to s2.
   [1325, 1327) -> It remains parked at station s2, which was charging for charging.
   [1327, 1357) -> Service a request driving for customer c159 from s2 to s3.
   [1357, 1387) -> It remains parked at station s3, which was charging for charging.
   [1387, 1687) -> Service a request driving for customer c88 from s3 to s1.
   [1687, tmax) -> It remains parked at station s1, which was charging for charging.

Schedule for EV v8:
   [   0,  434) -> It remains parked at station s7, which was charging for charging.
   [ 434,  494) -> Service a request driving for customer c268 from s7 to s1.
   [ 494,  606) -> It remains parked at station s1, which was charging for charging.
   [ 606,  636) -> Service a request driving for customer c175 from s1 to s4.
   [ 636,  670) -> It remains parked at station s4, which was charging for charging.
   [ 670,  910) -> Service a request driving for customer c253 from s4 to s1.
   [ 910,  915) -> It remains parked at station s1, which was charging for charging.
   [ 915, 1035) -> Service a request driving for customer c25 from s1 to s0.
   [1035, 1065) -> Service a request driving for customer c122 from s0 to s4.
   [1065, 1149) -> It remains parked at station s4, which was charging for charging.
   [1149, 1479) -> Service a request driving for customer c171 from s4 to s3.
   [1479, tmax) -> It remains parked at station s3, which was charging for charging.

Schedule for EV v9:
   [   0,  429) -> It remains parked at station s8, which was charging for charging.
   [ 429,  489) -> Service a request driving for customer c261 from s8 to s2.
   [ 489,  610) -> It remains parked at station s2, which was charging for charging.
   [ 610,  670) -> Service a request driving for customer c240 from s2 to s11.
   [ 670,  673) -> It remains parked at station s11, which was charging for charging.
   [ 673,  823) -> Service a request driving for customer c125 from s11 to s6.
   [ 823,  845) -> It remains parked at station s6, which was charging for charging.
   [ 845,  935) -> Service a request driving for customer c31 from s6 to s5.
   [ 935,  968) -> It remains parked at station s5, which was charging for charging.
   [ 968, 1118) -> Service a request driving for customer c12 from s5 to s9.
   [1118, 1147) -> It remains parked at station s9, which was charging for charging.
   [1147, 1237) -> Service a request driving for customer c247 from s9 to s4.
   [1237, 1328) -> It remains parked at station s4, which was charging for charging.
   [1328, 1388) -> Service a request driving for customer c110 from s4 to s3.
   [1388, 1628) -> Service a request driving for customer c174 from s3 to s11.
   [1628, tmax) -> It remains parked at station s11, which was charging for charging.

Schedule for EV v10:
   [   0,  487) -> It remains parked at station s10, which was charging for charging.
   [ 487,  517) -> Service a request driving for customer c178 from s10 to s5.
   [ 517,  551) -> It remains parked at station s5, which was charging for charging.
   [ 551,  791) -> Service a request driving for customer c176 from s5 to s0.
   [ 791,  848) -> It remains parked at station s0, which was charging for charging.
   [ 848,  908) -> Service a request driving for customer c119 from s0 to s4.
   [ 908,  912) -> It remains parked at station s4, which was charging for charging.
   [ 912, 1002) -> Service a request driving for customer c50 from s4 to s11.
   [1002, 1032) -> It remains parked at station s11, which was charging for charging.
   [1032, 1152) -> Service a request driving for customer c257 from s11 to s0.
   [1152, 1155) -> It remains parked at station s0, which was charging for charging.
   [1155, 1305) -> Service a request driving for customer c197 from s0 to s4.
   [1305, 1328) -> It remains parked at station s4, which was charging for charging.
   [1328, 1388) -> Service a request driving for customer c208 from s4 to s7.
   [1388, 1598) -> Service a request driving for customer c47 from s7 to s1.
   [1598, tmax) -> It remains parked at station s1, which was charging for charging.

Schedule for EV v11:
   [   0,  911) -> It remains parked at station s10, which was charging for charging.
   [ 911, 1001) -> Service a request driving for customer c124 from s10 to s0.
   [1001, 1089) -> It remains parked at station s0, which was charging for charging.
   [1089, 1149) -> Service a request driving for customer c49 from s0 to s2.
   [1149, 1154) -> It remains parked at station s2, which was charging for charging.
   [1154, 1214) -> Service a request driving for customer c205 from s2 to s4.
   [1214, 1216) -> It remains parked at station s4, which was charging for charging.
   [1216, 1366) -> Service a request driving for customer c2 from s4 to s1.
   [1366, 1445) -> It remains parked at station s1, which was charging for charging.
   [1445, 1655) -> Service a request driving for customer c160 from s1 to s11.
   [1655, tmax) -> It remains parked at station s11, which was charging for charging.

Schedule for EV v12:
   [   0,  556) -> It remains parked at station s11, which was charging for charging.
   [ 556,  676) -> Service a request driving for customer c0 from s11 to s3.
   [ 676,  733) -> It remains parked at station s3, which was charging for charging.
   [ 733,  763) -> Service a request driving for customer c37 from s3 to s1.
   [ 763,  793) -> It remains parked at station s1, which was charging for charging.
   [ 793, 1003) -> Service a request driving for customer c113 from s1 to s11.
   [1003, 1030) -> It remains parked at station s11, which was charging for charging.
   [1030, 1090) -> Service a request driving for customer c143 from s11 to s4.
   [1090, 1093) -> It remains parked at station s4, which was charging for charging.
   [1093, 1273) -> Service a request driving for customer c262 from s4 to s4.
   [1273, 1513) -> Service a request driving for customer c273 from s4 to s3.
   [1513, tmax) -> It remains parked at station s3, which was charging for charging.

Schedule for EV v13:
   [   0,  605) -> It remains parked at station s11, which was charging for charging.
   [ 605,  635) -> Service a request driving for customer c139 from s11 to s4.
   [ 635,  667) -> It remains parked at station s4, which was charging for charging.
   [ 667,  817) -> Service a request driving for customer c137 from s4 to s4.
   [ 817,  906) -> It remains parked at station s4, which was charging for charging.
   [ 906, 1266) -> Service a request driving for customer c94 from s4 to s3.
   [1266, 1326) -> Service a request driving for customer c129 from s3 to s2.
   [1326, 1396) -> It remains parked at station s2, which was charging for charging.
   [1396, 1546) -> Service a request driving for customer c53 from s2 to s10.
   [1546, tmax) -> It remains parked at station s10, which was charging for charging.

Schedule for EV v14:
   [   0,  430) -> It remains parked at station s11, which was charging for charging.
   [ 430,  580) -> Service a request driving for customer c148 from s11 to s7.
   [ 580,  616) -> It remains parked at station s7, which was charging for charging.
   [ 616,  766) -> Service a request driving for customer c8 from s7 to s2.
   [ 766,  788) -> It remains parked at station s2, which was charging for charging.
   [ 788,  818) -> Service a request driving for customer c98 from s2 to s9.
   [ 818,  910) -> It remains parked at station s9, which was charging for charging.
   [ 910, 1180) -> Service a request driving for customer c292 from s9 to s4.
   [1180, 1207) -> It remains parked at station s4, which was charging for charging.
   [1207, 1537) -> Service a request driving for customer c61 from s4 to s11.
   [1537, tmax) -> It remains parked at station s11, which was charging for charging.

Set of satisfied customers
   {c0, c2, c6, c8, c9, c11, c12, c13, c19, c25, c26, c30, c31, c32, c37, c40, c42, c44, c47, c49, c50, c53, c61, c62, c66, c68, c78, c83, c87, c88, c90, c91, c94, c95, c98, c101, c109, c110, c111, c113, c119, c122, c124, c125, c129, c130, c133, c137, c139, c143, c146, c148, c151, c155, c159, c160, c167, c171, c172, c174, c175, c176, c178, c179, c181, c183, c189, c191, c193, c197, c198, c200, c205, c208, c215, c216, c224, c226, c230, c240, c241, c245, c247, c253, c257, c258, c261, c262, c268, c269, c272, c273, c282, c285, c290, c291, c292}

