Academic license - for non-commercial use only
Gurobi Optimizer version 9.0.3 build v9.0.3rc0 (linux64)
Optimize a model with 428503 rows, 480043 columns and 1337381 nonzeros
Model fingerprint: 0x8f4422c5
Variable types: 430195 continuous, 49848 integer (49848 binary)
Coefficient statistics:
  Matrix range     [1e+00, 4e+06]
  Objective range  [3e+01, 7e+02]
  Bounds range     [1e+00, 2e+06]
  RHS range        [1e+00, 2e+06]

Loaded user MIP start with objective 2760

Presolve removed 393481 rows and 417955 columns
Presolve time: 3.42s
Presolved: 35022 rows, 62088 columns, 321102 nonzeros
Variable types: 0 continuous, 62088 integer (47914 binary)

Root simplex log...

Iteration    Objective       Primal Inf.    Dual Inf.      Time
    6348    1.2599999e+04   1.708787e+04   0.000000e+00      5s
   12345    1.2599998e+04   7.367353e+03   0.000000e+00     10s
   14507    1.2599998e+04   1.552064e+05   0.000000e+00     15s
   16237    1.2599997e+04   2.981320e+05   0.000000e+00     20s
   18137    1.2599996e+04   4.091631e+05   0.000000e+00     25s
   19887    1.2599995e+04   1.716684e+05   0.000000e+00     30s
   21517    1.2599994e+04   1.623741e+05   0.000000e+00     35s
   22967    1.2599994e+04   1.010129e+06   0.000000e+00     40s
   24507    1.2599993e+04   8.811933e+04   0.000000e+00     46s
   25587    1.2599993e+04   1.097452e+06   0.000000e+00     50s
   26627    1.2599992e+04   1.002304e+06   0.000000e+00     55s
   27737    1.2599992e+04   6.478417e+05   0.000000e+00     60s
   28787    1.2599992e+04   4.585472e+05   0.000000e+00     65s
   29867    1.2599991e+04   1.158590e+05   0.000000e+00     70s
   30877    1.2599991e+04   3.564428e+05   0.000000e+00     75s
   31867    1.2599991e+04   1.069672e+05   0.000000e+00     80s
   32877    1.2599991e+04   6.666718e+04   0.000000e+00     86s
   33787    1.2599990e+04   8.631574e+04   0.000000e+00     90s
   34687    1.2599990e+04   5.651537e+04   0.000000e+00     95s
   35737    1.2599990e+04   9.961620e+04   0.000000e+00    101s
   36567    1.2599990e+04   1.745399e+05   0.000000e+00    105s
   37607    1.2599989e+04   3.567144e+05   0.000000e+00    111s
   38527    1.2599989e+04   9.503058e+05   0.000000e+00    115s
   39537    1.2554989e+04   5.892995e+05   0.000000e+00    120s
   40537    1.2554989e+04   8.167372e+04   0.000000e+00    126s
   41437    1.2554989e+04   5.281761e+04   0.000000e+00    130s
   42447    1.2554989e+04   3.487900e+05   0.000000e+00    136s
   43357    1.2554989e+04   4.394082e+04   0.000000e+00    141s
   44247    1.2554989e+04   4.409013e+04   0.000000e+00    145s
   45187    1.2554989e+04   1.402682e+04   0.000000e+00    150s
   46197    1.2554989e+04   2.806584e+04   0.000000e+00    156s
   47077    1.2554989e+04   1.849250e+04   0.000000e+00    160s
   48047    1.2554989e+04   1.736897e+04   0.000000e+00    165s
   49117    1.2554989e+04   2.789380e+03   0.000000e+00    171s
   50057    1.2554989e+04   1.721741e+03   0.000000e+00    175s
   50380    1.2555000e+04   0.000000e+00   0.000000e+00    177s
   50380    1.2555000e+04   0.000000e+00   0.000000e+00    177s

Root relaxation: objective 1.255500e+04, 50380 iterations, 173.58 seconds
Total elapsed time = 450.57s
Total elapsed time = 804.25s

    Nodes    |    Current Node    |     Objective Bounds      |     Work
 Expl Unexpl |  Obj  Depth IntInf | Incumbent    BestBd   Gap | It/Node Time

     0     0 12555.0000    0 5512 2760.00000 12555.0000   355%     -  952s
H    0     0                    2940.0000000 12555.0000   327%     -  952s
     0     0 12540.0000    0 7773 2940.00000 12540.0000   327%     - 1046s
     0     0 12540.0000    0 7791 2940.00000 12540.0000   327%     - 1071s
     0     0 12540.0000    0 7622 2940.00000 12540.0000   327%     - 1154s
     0     0 12540.0000    0 7929 2940.00000 12540.0000   327%     - 1203s
     0     0 12540.0000    0 5979 2940.00000 12540.0000   327%     - 1528s
     0     0 12540.0000    0 6598 2940.00000 12540.0000   327%     - 1608s
     0     0 12540.0000    0 5283 2940.00000 12540.0000   327%     - 2453s
     0     0 12540.0000    0 6072 2940.00000 12540.0000   327%     - 2551s
     0     0 12540.0000    0 5868 2940.00000 12540.0000   327%     - 3396s
     0     0 12540.0000    0 5291 2940.00000 12540.0000   327%     - 3600s

Cutting planes:
  Gomory: 1
  Implied bound: 9116
  MIR: 16
  StrongCG: 6
  RLT: 335
  Relax-and-lift: 1171

Explored 1 nodes (1376000 simplex iterations) in 3600.10 seconds
Thread count was 1 (of 40 available processors)

Solution count 2: 2940 2760 

Time limit reached
Best objective 2.940000000000e+03, best bound 1.254000000000e+04, gap 326.5306%

----------

Best objective (UB): 12540.000
Best feasible solution (LB): 2940.000
Gap between the lower bound and upper bound: 326.531%

----------

Number of customers served: 28

Schedule for EV v0:
   [   0,  725) -> It remains parked at station s0.
   [ 725,  755) -> Service a request driving for customer c25 from s0 to s1.
   [ 755, tmax) -> It remains parked at station s1.

Schedule for EV v1:
   [   0, 1033) -> It remains parked at station s0.
   [1033, 1063) -> Service a request driving for customer c52 from s0 to s7.
   [1063, tmax) -> It remains parked at station s7.

Schedule for EV v2:
   [   0, tmax) -> It remains parked at station s0.

Schedule for EV v3:
   [   0, tmax) -> It remains parked at station s0.

Schedule for EV v4:
   [   0,  668) -> It remains parked at station s1.
   [ 668,  818) -> Service a request driving for customer c7 from s1 to s6.
   [ 818, tmax) -> It remains parked at station s6.

Schedule for EV v5:
   [   0,  556) -> It remains parked at station s1.
   [ 556,  706) -> Service a request driving for customer c45 from s1 to s3.
   [ 706, tmax) -> It remains parked at station s3.

Schedule for EV v6:
   [   0,  607) -> It remains parked at station s1.
   [ 607,  697) -> Service a request driving for customer c46 from s1 to s7.
   [ 697, tmax) -> It remains parked at station s7.

Schedule for EV v7:
   [   0, tmax) -> It remains parked at station s1.

Schedule for EV v8:
   [   0, tmax) -> It remains parked at station s1.

Schedule for EV v9:
   [   0,  905) -> It remains parked at station s2.
   [ 905,  965) -> Service a request driving for customer c65 from s2 to s3.
   [ 965, tmax) -> It remains parked at station s3.

Schedule for EV v10:
   [   0,  911) -> It remains parked at station s2.
   [ 911,  941) -> Service a request driving for customer c3 from s2 to s11.
   [ 941, 1153) -> It remains parked at station s11.
   [1153, 1213) -> Service a request driving for customer c3 from s11 to s4.
   [1213, tmax) -> It remains parked at station s4.

Schedule for EV v11:
   [   0, tmax) -> It remains parked at station s2.

Schedule for EV v12:
   [   0, 1031) -> It remains parked at station s3.
   [1031, 1121) -> Service a request driving for customer c4 from s3 to s4.
   [1121, tmax) -> It remains parked at station s4.

Schedule for EV v13:
   [   0, tmax) -> It remains parked at station s3.

Schedule for EV v14:
   [   0, tmax) -> It remains parked at station s3.

Schedule for EV v15:
   [   0, tmax) -> It remains parked at station s3.

Schedule for EV v16:
   [   0, tmax) -> It remains parked at station s3.

Schedule for EV v17:
   [   0, tmax) -> It remains parked at station s3.

Schedule for EV v18:
   [   0, tmax) -> It remains parked at station s3.

Schedule for EV v19:
   [   0, 1455) -> It remains parked at station s4.
   [1455, 1515) -> Service a request driving for customer c34 from s4 to s2.
   [1515, tmax) -> It remains parked at station s2.

Schedule for EV v20:
   [   0, tmax) -> It remains parked at station s4.

Schedule for EV v21:
   [   0, tmax) -> It remains parked at station s4.

Schedule for EV v22:
   [   0, tmax) -> It remains parked at station s4.

Schedule for EV v23:
   [   0, 1156) -> It remains parked at station s5.
   [1156, 1366) -> Service a request driving for customer c55 from s5 to s11.
   [1366, tmax) -> It remains parked at station s11.

Schedule for EV v24:
   [   0, tmax) -> It remains parked at station s5.

Schedule for EV v25:
   [   0, tmax) -> It remains parked at station s5.

Schedule for EV v26:
   [   0, tmax) -> It remains parked at station s5.

Schedule for EV v27:
   [   0,  914) -> It remains parked at station s5.
   [ 914,  944) -> Service a request driving for customer c50 from s5 to s0.
   [ 944, tmax) -> It remains parked at station s0.

Schedule for EV v28:
   [   0, 1093) -> It remains parked at station s5.
   [1093, 1153) -> Service a request driving for customer c48 from s5 to s9.
   [1153, tmax) -> It remains parked at station s9.

Schedule for EV v29:
   [   0,  966) -> It remains parked at station s6.
   [ 966, 1116) -> Service a request driving for customer c49 from s6 to s1.
   [1116, tmax) -> It remains parked at station s1.

Schedule for EV v30:
   [   0, 1212) -> It remains parked at station s6.
   [1212, 1332) -> Service a request driving for customer c28 from s6 to s11.
   [1332, tmax) -> It remains parked at station s11.

Schedule for EV v31:
   [   0,  436) -> It remains parked at station s6.
   [ 436,  526) -> Service a request driving for customer c56 from s6 to s2.
   [ 526, tmax) -> It remains parked at station s2.

Schedule for EV v32:
   [   0,  730) -> It remains parked at station s6.
   [ 730,  790) -> Service a request driving for customer c66 from s6 to s0.
   [ 790, tmax) -> It remains parked at station s0.

Schedule for EV v33:
   [   0, 1270) -> It remains parked at station s6.
   [1270, 1300) -> Service a request driving for customer c36 from s6 to s11.
   [1300, tmax) -> It remains parked at station s11.

Schedule for EV v34:
   [   0, tmax) -> It remains parked at station s6.

Schedule for EV v35:
   [   0, tmax) -> It remains parked at station s6.

Schedule for EV v36:
   [   0, tmax) -> It remains parked at station s6.

Schedule for EV v37:
   [   0, tmax) -> It remains parked at station s6.

Schedule for EV v38:
   [   0, tmax) -> It remains parked at station s6.

Schedule for EV v39:
   [   0, tmax) -> It remains parked at station s6.

Schedule for EV v40:
   [   0,  675) -> It remains parked at station s6.
   [ 675,  705) -> Service a request driving for customer c50 from s6 to s1.
   [ 705, tmax) -> It remains parked at station s1.

Schedule for EV v41:
   [   0,  552) -> It remains parked at station s7.
   [ 552,  822) -> Service a request driving for customer c15 from s7 to s6.
   [ 822, 1146) -> It remains parked at station s6.
   [1146, 1206) -> Service a request driving for customer c15 from s6 to s1.
   [1206, tmax) -> It remains parked at station s1.

Schedule for EV v42:
   [   0,  972) -> It remains parked at station s7.
   [ 972, 1092) -> Service a request driving for customer c64 from s7 to s11.
   [1092, tmax) -> It remains parked at station s11.

Schedule for EV v43:
   [   0,  913) -> It remains parked at station s7.
   [ 913, 1003) -> Service a request driving for customer c18 from s7 to s4.
   [1003, tmax) -> It remains parked at station s4.

Schedule for EV v44:
   [   0, tmax) -> It remains parked at station s7.

Schedule for EV v45:
   [   0, tmax) -> It remains parked at station s7.

Schedule for EV v46:
   [   0, tmax) -> It remains parked at station s7.

Schedule for EV v47:
   [   0, tmax) -> It remains parked at station s7.

Schedule for EV v48:
   [   0, tmax) -> It remains parked at station s7.

Schedule for EV v49:
   [   0, tmax) -> It remains parked at station s7.

Schedule for EV v50:
   [   0, 1332) -> It remains parked at station s8.
   [1332, 1422) -> Service a request driving for customer c22 from s8 to s1.
   [1422, tmax) -> It remains parked at station s1.

Schedule for EV v51:
   [   0,  668) -> It remains parked at station s8.
   [ 668,  758) -> Service a request driving for customer c44 from s8 to s3.
   [ 758, tmax) -> It remains parked at station s3.

Schedule for EV v52:
   [   0,  607) -> It remains parked at station s8.
   [ 607,  667) -> Service a request driving for customer c27 from s8 to s1.
   [ 667, tmax) -> It remains parked at station s1.

Schedule for EV v53:
   [   0,  968) -> It remains parked at station s8.
   [ 968, 1028) -> Service a request driving for customer c48 from s8 to s11.
   [1028, tmax) -> It remains parked at station s11.

Schedule for EV v54:
   [   0, tmax) -> It remains parked at station s8.

Schedule for EV v55:
   [   0, tmax) -> It remains parked at station s8.

Schedule for EV v56:
   [   0, tmax) -> It remains parked at station s8.

Schedule for EV v57:
   [   0, tmax) -> It remains parked at station s8.

Schedule for EV v58:
   [   0, tmax) -> It remains parked at station s8.

Schedule for EV v59:
   [   0, tmax) -> It remains parked at station s8.

Schedule for EV v60:
   [   0, tmax) -> It remains parked at station s8.

Schedule for EV v61:
   [   0, tmax) -> It remains parked at station s8.

Schedule for EV v62:
   [   0, tmax) -> It remains parked at station s8.

Schedule for EV v63:
   [   0, tmax) -> It remains parked at station s8.

Schedule for EV v64:
   [   0, tmax) -> It remains parked at station s9.

Schedule for EV v65:
   [   0, tmax) -> It remains parked at station s9.

Schedule for EV v66:
   [   0, tmax) -> It remains parked at station s9.

Schedule for EV v67:
   [   0, tmax) -> It remains parked at station s9.

Schedule for EV v68:
   [   0, tmax) -> It remains parked at station s9.

Schedule for EV v69:
   [   0, tmax) -> It remains parked at station s9.

Schedule for EV v70:
   [   0, tmax) -> It remains parked at station s9.

Schedule for EV v71:
   [   0, tmax) -> It remains parked at station s9.

Schedule for EV v72:
   [   0, tmax) -> It remains parked at station s9.

Schedule for EV v73:
   [   0,  611) -> It remains parked at station s10.
   [ 611,  701) -> Service a request driving for customer c10 from s10 to s1.
   [ 701, tmax) -> It remains parked at station s1.

Schedule for EV v74:
   [   0, tmax) -> It remains parked at station s10.

Schedule for EV v75:
   [   0, tmax) -> It remains parked at station s10.

Schedule for EV v76:
   [   0, tmax) -> It remains parked at station s10.

Schedule for EV v77:
   [   0, tmax) -> It remains parked at station s10.

Schedule for EV v78:
   [   0, tmax) -> It remains parked at station s10.

Schedule for EV v79:
   [   0, tmax) -> It remains parked at station s10.

Schedule for EV v80:
   [   0, tmax) -> It remains parked at station s10.

Schedule for EV v81:
   [   0, tmax) -> It remains parked at station s10.

Schedule for EV v82:
   [   0, tmax) -> It remains parked at station s10.

Schedule for EV v83:
   [   0, tmax) -> It remains parked at station s10.

Schedule for EV v84:
   [   0, 1336) -> It remains parked at station s11.
   [1336, 1576) -> Service a request driving for customer c12 from s11 to s6.
   [1576, tmax) -> It remains parked at station s6.

Schedule for EV v85:
   [   0, 1214) -> It remains parked at station s11.
   [1214, 1334) -> Service a request driving for customer c17 from s11 to s5.
   [1334, tmax) -> It remains parked at station s5.

Schedule for EV v86:
   [   0,  729) -> It remains parked at station s11.
   [ 729,  789) -> Service a request driving for customer c26 from s11 to s7.
   [ 789, tmax) -> It remains parked at station s7.

Schedule for EV v87:
   [   0,  614) -> It remains parked at station s11.
   [ 614,  674) -> Service a request driving for customer c30 from s11 to s1.
   [ 674, tmax) -> It remains parked at station s1.

Schedule for EV v88:
   [   0, tmax) -> It remains parked at station s11.

Schedule for EV v89:
   [   0, tmax) -> It remains parked at station s11.

Schedule for EV v90:
   [   0, tmax) -> It remains parked at station s11.

Schedule for EV v91:
   [   0, tmax) -> It remains parked at station s11.

Schedule for EV v92:
   [   0, tmax) -> It remains parked at station s11.

Set of satisfied customers
   {c3, c4, c7, c10, c12, c15, c17, c18, c22, c25, c26, c27, c28, c30, c34, c36, c44, c45, c46, c48, c49, c50, c52, c55, c56, c64, c65, c66}

