Academic license - for non-commercial use only
Gurobi Optimizer version 9.0.3 build v9.0.3rc0 (linux64)
Optimize a model with 697118 rows, 793243 columns and 2245782 nonzeros
Model fingerprint: 0x686e8da4
Variable types: 699175 continuous, 94068 integer (94068 binary)
Coefficient statistics:
  Matrix range     [1e+00, 4e+06]
  Objective range  [3e+01, 6e+02]
  Bounds range     [1e+00, 2e+06]
  RHS range        [1e+00, 2e+06]

Loaded user MIP start with objective 5550

Presolve removed 628178 rows and 660836 columns (presolve time = 5s) ...
Presolve removed 628178 rows and 660836 columns
Presolve time: 6.03s
Presolved: 68940 rows, 132407 columns, 671922 nonzeros
Variable types: 0 continuous, 132407 integer (108069 binary)

Root simplex log...

Iteration    Objective       Primal Inf.    Dual Inf.      Time
       0    2.1090000e+04   9.219375e+02   0.000000e+00      7s
   11022    2.0609998e+04   1.107169e+04   0.000000e+00     10s
   16289    2.0609998e+04   5.061762e+04   0.000000e+00     15s
   19822    2.0609997e+04   5.509762e+04   0.000000e+00     20s
   21590    2.0609997e+04   1.106093e+04   0.000000e+00     25s
   23692    2.0609997e+04   8.901652e+04   0.000000e+00     30s
   25419    2.0609997e+04   1.141957e+06   0.000000e+00     35s
   26279    2.0609997e+04   6.079899e+05   0.000000e+00     40s
   27370    2.0609996e+04   6.623618e+05   0.000000e+00     45s
   28543    2.0609995e+04   2.437572e+05   0.000000e+00     50s
   29674    2.0609995e+04   5.090422e+05   0.000000e+00     55s
   30845    2.0609994e+04   6.810154e+05   0.000000e+00     61s
   31666    2.0609994e+04   4.969948e+05   0.000000e+00     65s
   32747    2.0609993e+04   5.932581e+05   0.000000e+00     70s
   33487    2.0609993e+04   9.704830e+05   0.000000e+00     75s
   34287    2.0609992e+04   3.727546e+06   0.000000e+00     80s
   34917    2.0609992e+04   1.661100e+06   0.000000e+00     85s
   35748    2.0609992e+04   8.493765e+05   0.000000e+00     91s
   36489    2.0609991e+04   1.769466e+05   0.000000e+00     96s
   37129    2.0609991e+04   1.107825e+06   0.000000e+00    101s
   37899    2.0609991e+04   3.387901e+06   0.000000e+00    106s
   38649    2.0609991e+04   1.067625e+06   0.000000e+00    111s
   39249    2.0609990e+04   1.490521e+06   0.000000e+00    116s
   39739    2.0609990e+04   7.488433e+06   0.000000e+00    121s
   40379    2.0609990e+04   2.244837e+06   0.000000e+00    126s
   40919    2.0609989e+04   1.446888e+06   0.000000e+00    131s
   41409    2.0609989e+04   1.563337e+06   0.000000e+00    135s
   41939    2.0609989e+04   6.471288e+05   0.000000e+00    140s
   42479    2.0609989e+04   1.983918e+06   0.000000e+00    146s
   43019    2.0609988e+04   1.021162e+06   0.000000e+00    150s
   43589    2.0609988e+04   5.620484e+05   0.000000e+00    156s
   44019    2.0609988e+04   6.338146e+05   0.000000e+00    161s
   44499    2.0609988e+04   1.734902e+06   0.000000e+00    165s
   44939    2.0609988e+04   1.430240e+06   0.000000e+00    170s
   45379    2.0609988e+04   1.053424e+06   0.000000e+00    175s
   45970    2.0609987e+04   8.310268e+05   0.000000e+00    181s
   46450    2.0609987e+04   5.217815e+06   0.000000e+00    186s
   46890    2.0609987e+04   1.338595e+06   0.000000e+00    190s
   47531    2.0609987e+04   6.361398e+05   0.000000e+00    196s
   47941    2.0609986e+04   2.273403e+06   0.000000e+00    200s
   48461    2.0609986e+04   8.718761e+05   0.000000e+00    206s
   48861    2.0609986e+04   4.962416e+05   0.000000e+00    211s
   49301    2.0609986e+04   1.031764e+06   0.000000e+00    216s
   49771    2.0609986e+04   5.010169e+05   0.000000e+00    221s
   50241    2.0609986e+04   8.125573e+05   0.000000e+00    226s
   50681    2.0609985e+04   6.838461e+05   0.000000e+00    231s
   51141    2.0609985e+04   3.278353e+06   0.000000e+00    236s
   51591    2.0609985e+04   2.910706e+06   0.000000e+00    241s
   51991    2.0609985e+04   6.659996e+05   0.000000e+00    245s
   52462    2.0609985e+04   4.900129e+05   0.000000e+00    250s
   52902    2.0609985e+04   4.018582e+05   0.000000e+00    255s
   53342    2.0609984e+04   1.003211e+06   0.000000e+00    260s
   53812    2.0609984e+04   5.643415e+05   0.000000e+00    266s
   54292    2.0609984e+04   6.901596e+05   0.000000e+00    271s
   54854    2.0609984e+04   6.679287e+05   0.000000e+00    276s
   55294    2.0609984e+04   5.214293e+05   0.000000e+00    281s
   55634    2.0609984e+04   1.847406e+06   0.000000e+00    285s
   56176    2.0609984e+04   8.589939e+05   0.000000e+00    291s
   56636    2.0609983e+04   1.760151e+06   0.000000e+00    296s
   56976    2.0609983e+04   6.938972e+05   0.000000e+00    300s
   57487    2.0609983e+04   3.463687e+05   0.000000e+00    306s
   58079    2.0609983e+04   6.614804e+05   0.000000e+00    311s
   58459    2.0609983e+04   3.438218e+05   0.000000e+00    315s
   58849    2.0609983e+04   3.777849e+05   0.000000e+00    320s
   59370    2.0609983e+04   1.007725e+06   0.000000e+00    327s
   59730    2.0609983e+04   1.556233e+06   0.000000e+00    331s
   60100    2.0609982e+04   2.197135e+06   0.000000e+00    335s
   60590    2.0609982e+04   1.535104e+06   0.000000e+00    341s
   60960    2.0609982e+04   4.366383e+05   0.000000e+00    346s
   61381    2.0609982e+04   5.346173e+05   0.000000e+00    350s
   61911    2.0609982e+04   2.358935e+06   0.000000e+00    357s
   62321    2.0609982e+04   4.723455e+05   0.000000e+00    361s
   62751    2.0609982e+04   1.043011e+06   0.000000e+00    367s
   63031    2.0609982e+04   8.702485e+05   0.000000e+00    370s
   63451    2.0609982e+04   1.555392e+06   0.000000e+00    376s
   63861    2.0609981e+04   9.409904e+05   0.000000e+00    381s
   64261    2.0609981e+04   1.405841e+06   0.000000e+00    386s
   64661    2.0609981e+04   8.032564e+05   0.000000e+00    391s
   65051    2.0609981e+04   9.985383e+05   0.000000e+00    395s
   65431    2.0609981e+04   3.073390e+06   0.000000e+00    400s
   65841    2.0609981e+04   1.265444e+06   0.000000e+00    405s
   66282    2.0609981e+04   1.606908e+06   0.000000e+00    410s
   66734    2.0609981e+04   8.097841e+05   0.000000e+00    416s
   67185    2.0609981e+04   3.634699e+06   0.000000e+00    421s
   67627    2.0609981e+04   1.182755e+06   0.000000e+00    426s
   68037    2.0609981e+04   8.417492e+05   0.000000e+00    432s
   68468    2.0609980e+04   4.147453e+05   0.000000e+00    436s
   68838    2.0609980e+04   1.190535e+06   0.000000e+00    441s
   69218    2.0609980e+04   3.952941e+05   0.000000e+00    446s
   69628    2.0609980e+04   8.133275e+05   0.000000e+00    451s
   70068    2.0609980e+04   2.832491e+05   0.000000e+00    456s
   70369    2.0609980e+04   4.463035e+05   0.000000e+00    460s
   70819    2.0609980e+04   7.092386e+05   0.000000e+00    466s
   71269    2.0609980e+04   6.714597e+05   0.000000e+00    471s
   71559    2.0609980e+04   9.193221e+05   0.000000e+00    475s
   72000    2.0609980e+04   1.812303e+06   0.000000e+00    480s
   72451    2.0609980e+04   5.133981e+05   0.000000e+00    486s
   72881    2.0609980e+04   7.454044e+05   0.000000e+00    491s
   73161    2.0609980e+04   1.384612e+06   0.000000e+00    495s
   73601    2.0609979e+04   1.359013e+06   0.000000e+00    501s
   74041    2.0609979e+04   2.411277e+05   0.000000e+00    507s
   74321    2.0609979e+04   7.847127e+05   0.000000e+00    510s
   74771    2.0609979e+04   1.315712e+06   0.000000e+00    516s
   75072    2.0609979e+04   1.871826e+06   0.000000e+00    520s
   75525    2.0609979e+04   8.406375e+05   0.000000e+00    526s
   75827    2.0609979e+04   8.856769e+05   0.000000e+00    530s
   76280    2.0609979e+04   9.309397e+05   0.000000e+00    536s
   76582    2.0609979e+04   2.698055e+06   0.000000e+00    540s
   77035    2.0609979e+04   2.046381e+06   0.000000e+00    546s
   77337    2.0609979e+04   1.261003e+06   0.000000e+00    550s
   77790    2.0609979e+04   5.945660e+05   0.000000e+00    556s
   78240    2.0609978e+04   1.239642e+06   0.000000e+00    562s
   78542    2.0609978e+04   1.275872e+06   0.000000e+00    566s
   78995    2.0609978e+04   1.041700e+06   0.000000e+00    572s
   79296    2.0609978e+04   7.771269e+05   0.000000e+00    576s
   79748    2.0609978e+04   1.235448e+06   0.000000e+00    582s
   80050    2.0609978e+04   2.360666e+06   0.000000e+00    586s
   80352    2.0609978e+04   3.035799e+06   0.000000e+00    590s
   80805    2.0609978e+04   6.918674e+05   0.000000e+00    596s
   81107    2.0609978e+04   1.544684e+06   0.000000e+00    600s
   81560    2.0609978e+04   6.537391e+06   0.000000e+00    606s
   81862    2.0609978e+04   1.573834e+06   0.000000e+00    610s
   82315    2.0609978e+04   2.084032e+06   0.000000e+00    616s
   82595    2.0609977e+04   8.490144e+05   0.000000e+00    620s
   83047    2.0609977e+04   2.234606e+06   0.000000e+00    626s
   83348    2.0609977e+04   1.356058e+06   0.000000e+00    630s
   83799    2.0609977e+04   2.648132e+06   0.000000e+00    636s
   84100    2.0609977e+04   4.995664e+05   0.000000e+00    640s
   84552    2.0609977e+04   1.103377e+06   0.000000e+00    646s
   84854    2.0609977e+04   1.319389e+06   0.000000e+00    651s
   85307    2.0609977e+04   1.741237e+06   0.000000e+00    657s
   85609    2.0609977e+04   3.395526e+06   0.000000e+00    661s
   86062    2.0609977e+04   6.799183e+05   0.000000e+00    667s
   86364    2.0609977e+04   3.288025e+06   0.000000e+00    671s
   86816    2.0609976e+04   4.228570e+05   0.000000e+00    677s
   87118    2.0609976e+04   2.914436e+06   0.000000e+00    681s
   87420    2.0609976e+04   2.012614e+06   0.000000e+00    685s
   87841    2.0609976e+04   1.789363e+06   0.000000e+00    691s
   88141    2.0609976e+04   4.029775e+06   0.000000e+00    695s
   88594    2.0609976e+04   9.600836e+05   0.000000e+00    701s
   88896    2.0609976e+04   1.790187e+06   0.000000e+00    706s
   89338    2.0609976e+04   2.106728e+06   0.000000e+00    711s
   89791    2.0609976e+04   2.788248e+06   0.000000e+00    716s
   90093    2.0609976e+04   3.110007e+06   0.000000e+00    720s
   90546    2.0479979e+04   4.127738e+05   0.000000e+00    726s
   90999    2.0479978e+04   4.959757e+07   0.000000e+00    731s
   91452    2.0444978e+04   5.026112e+05   0.000000e+00    736s
   91743    2.0444978e+04   2.578258e+05   0.000000e+00    740s
   92183    2.0444978e+04   6.012433e+05   0.000000e+00    746s
   92636    2.0444978e+04   1.168695e+05   0.000000e+00    751s
   92926    2.0444978e+04   5.098599e+05   0.000000e+00    755s
   93367    2.0444978e+04   4.271222e+05   0.000000e+00    761s
   93808    2.0444977e+04   1.594632e+05   0.000000e+00    767s
   94098    2.0444977e+04   2.328747e+05   0.000000e+00    770s
   94539    2.0444977e+04   1.278100e+06   0.000000e+00    776s
   94841    2.0444977e+04   4.700649e+05   0.000000e+00    780s
   95294    2.0444977e+04   5.774156e+05   0.000000e+00    786s
   95596    2.0444977e+04   1.822978e+05   0.000000e+00    791s
   96049    2.0444977e+04   5.036176e+05   0.000000e+00    797s
   96351    2.0444977e+04   8.172591e+05   0.000000e+00    801s
   96802    2.0444977e+04   8.085869e+05   0.000000e+00    807s
   97104    2.0444977e+04   2.559647e+05   0.000000e+00    811s
   97406    2.0444977e+04   4.623625e+06   0.000000e+00    815s
   97859    2.0444977e+04   4.032473e+05   0.000000e+00    822s
   98161    2.0444977e+04   5.490865e+05   0.000000e+00    826s
   98612    2.0444977e+04   7.380181e+05   0.000000e+00    831s
   98992    2.0444977e+04   1.714795e+05   0.000000e+00    837s
   99322    2.0444977e+04   1.635015e+06   0.000000e+00    841s
   99612    2.0444977e+04   2.659723e+05   0.000000e+00    845s
  100065    2.0444977e+04   4.520679e+05   0.000000e+00    852s
  100367    2.0444977e+04   8.898594e+05   0.000000e+00    856s
  100820    2.0444977e+04   8.296872e+05   0.000000e+00    862s
  101122    2.0444977e+04   2.003352e+05   0.000000e+00    866s
  101575    2.0444976e+04   2.800628e+06   0.000000e+00    872s
  101877    2.0444976e+04   2.125386e+05   0.000000e+00    876s
  102328    2.0444976e+04   2.961210e+05   0.000000e+00    882s
  102630    2.0444976e+04   9.917357e+05   0.000000e+00    886s
  102932    2.0444976e+04   1.735347e+05   0.000000e+00    890s
  103385    2.0444976e+04   1.474363e+05   0.000000e+00    897s
  103687    2.0444976e+04   7.145630e+05   0.000000e+00    901s
  104138    2.0444976e+04   7.158798e+05   0.000000e+00    907s
  104440    2.0444976e+04   8.570476e+05   0.000000e+00    911s
  104742    2.0444976e+04   2.008245e+05   0.000000e+00    915s
  105195    2.0444976e+04   1.268423e+05   0.000000e+00    922s
  105497    2.0444976e+04   3.897515e+06   0.000000e+00    926s
  105950    2.0444976e+04   7.765003e+05   0.000000e+00    932s
  106252    2.0444976e+04   1.839543e+05   0.000000e+00    936s
  106554    2.0444976e+04   1.672253e+05   0.000000e+00    940s
  107007    2.0444976e+04   2.196719e+05   0.000000e+00    947s
  107309    2.0444976e+04   2.072986e+05   0.000000e+00    951s
  107611    2.0444976e+04   3.358262e+05   0.000000e+00    955s
  108064    2.0444976e+04   6.963340e+05   0.000000e+00    962s
  108365    2.0444976e+04   1.621515e+05   0.000000e+00    966s
  108667    2.0444976e+04   1.384957e+06   0.000000e+00    970s
  109120    2.0444976e+04   8.427623e+05   0.000000e+00    976s
  109422    2.0444976e+04   1.389896e+05   0.000000e+00    981s
  109724    2.0444976e+04   2.215337e+05   0.000000e+00    985s
  110177    2.0444976e+04   9.073085e+04   0.000000e+00    991s
  110479    2.0444976e+04   1.617954e+05   0.000000e+00    995s
  110932    2.0444976e+04   3.973524e+05   0.000000e+00   1002s
  111234    2.0444976e+04   3.659779e+05   0.000000e+00   1006s
  111687    2.0444976e+04   2.891260e+05   0.000000e+00   1012s
  111989    2.0444976e+04   1.183488e+05   0.000000e+00   1016s
  112291    2.0444976e+04   1.369735e+05   0.000000e+00   1020s
  112744    2.0444975e+04   9.648345e+04   0.000000e+00   1026s
  113046    2.0444975e+04   2.858301e+05   0.000000e+00   1031s
  113499    2.0444975e+04   2.791846e+05   0.000000e+00   1037s
  113799    2.0444975e+04   3.152266e+05   0.000000e+00   1041s
  114100    2.0444975e+04   1.572792e+05   0.000000e+00   1045s
  114532    2.0444975e+04   1.668285e+05   0.000000e+00   1051s
  114834    2.0444975e+04   1.511673e+05   0.000000e+00   1055s
  115287    2.0444975e+04   1.855895e+05   0.000000e+00   1062s
  115589    2.0444975e+04   5.704531e+05   0.000000e+00   1066s
  115891    2.0444975e+04   9.971499e+05   0.000000e+00   1070s
  116344    2.0444975e+04   7.733387e+04   0.000000e+00   1077s
  116646    2.0444975e+04   7.789199e+04   0.000000e+00   1081s
  116948    2.0444975e+04   6.001404e+04   0.000000e+00   1085s
  117401    2.0444975e+04   1.203678e+06   0.000000e+00   1091s
  117703    2.0444975e+04   8.680271e+05   0.000000e+00   1095s
  118156    2.0444975e+04   6.682818e+04   0.000000e+00   1102s
  118458    2.0444975e+04   5.651986e+05   0.000000e+00   1106s
  118760    2.0444975e+04   2.920863e+05   0.000000e+00   1110s
  119213    2.0444975e+04   4.354817e+05   0.000000e+00   1117s
  119515    2.0444975e+04   1.419830e+05   0.000000e+00   1121s
  119817    2.0444975e+04   8.089673e+04   0.000000e+00   1125s
  120270    2.0444975e+04   1.144331e+05   0.000000e+00   1132s
  120572    2.0444975e+04   2.171688e+05   0.000000e+00   1136s
  120874    2.0444975e+04   1.467848e+05   0.000000e+00   1140s
  121327    2.0444975e+04   1.607511e+05   0.000000e+00   1147s
  121629    2.0444975e+04   5.246653e+05   0.000000e+00   1151s
  121931    2.0444975e+04   1.905835e+05   0.000000e+00   1155s
  122384    2.0444975e+04   8.702311e+05   0.000000e+00   1161s
  122686    2.0444975e+04   8.105217e+04   0.000000e+00   1165s
  123139    2.0444975e+04   1.494233e+05   0.000000e+00   1172s
  123441    2.0444975e+04   5.332613e+04   0.000000e+00   1176s
  123892    2.0444975e+04   6.371301e+04   0.000000e+00   1182s
  124173    2.0444975e+04   7.500596e+04   0.000000e+00   1186s
  124625    2.0444975e+04   2.346176e+05   0.000000e+00   1192s
  124927    2.0444975e+04   2.712347e+05   0.000000e+00   1196s
  125380    2.0444975e+04   6.937620e+04   0.000000e+00   1202s
  125670    2.0444975e+04   8.810229e+04   0.000000e+00   1206s
  125972    2.0444975e+04   1.035798e+05   0.000000e+00   1210s
  126425    2.0444975e+04   5.366928e+04   0.000000e+00   1216s
  126727    2.0444975e+04   3.809339e+05   0.000000e+00   1220s
  127180    2.0444975e+04   1.997777e+04   0.000000e+00   1226s
  127482    2.0444975e+04   2.897357e+04   0.000000e+00   1231s
  127924    2.0444975e+04   1.581893e+05   0.000000e+00   1237s
  128226    2.0444975e+04   5.384857e+04   0.000000e+00   1241s
  128679    2.0444975e+04   1.283612e+05   0.000000e+00   1247s
  128981    2.0444975e+04   9.266109e+04   0.000000e+00   1251s
  129283    2.0444975e+04   1.377256e+05   0.000000e+00   1255s
  129736    2.0444975e+04   5.693608e+04   0.000000e+00   1261s
  130189    2.0444975e+04   1.361556e+05   0.000000e+00   1267s
  130491    2.0444975e+04   3.349387e+04   0.000000e+00   1271s
  130793    2.0444975e+04   7.990857e+04   0.000000e+00   1275s
  131246    2.0444975e+04   3.139919e+04   0.000000e+00   1281s
  131548    2.0444975e+04   7.176309e+06   0.000000e+00   1285s
  132001    2.0444975e+04   4.625146e+04   0.000000e+00   1291s
  132454    2.0444975e+04   5.842773e+04   0.000000e+00   1297s
  132756    2.0444975e+04   6.528262e+04   0.000000e+00   1301s
  133209    2.0444975e+04   2.168961e+04   0.000000e+00   1307s
  133511    2.0444975e+04   2.128779e+04   0.000000e+00   1311s
  133964    2.0444975e+04   1.955356e+04   0.000000e+00   1316s
  134266    2.0444975e+04   2.436202e+04   0.000000e+00   1320s
  134719    2.0444975e+04   1.962650e+04   0.000000e+00   1326s
  135021    2.0444975e+04   2.470111e+04   0.000000e+00   1331s
  135474    2.0444975e+04   2.790631e+04   0.000000e+00   1337s
  135776    2.0444974e+04   7.720293e+04   0.000000e+00   1341s
  136229    2.0444974e+04   1.189484e+04   0.000000e+00   1346s
  136531    2.0444974e+04   6.363166e+04   0.000000e+00   1350s
  136984    2.0444974e+04   4.601743e+04   0.000000e+00   1356s
  137286    2.0444974e+04   2.094498e+04   0.000000e+00   1360s
  137739    2.0444974e+04   3.404382e+04   0.000000e+00   1367s
  138041    2.0444974e+04   1.160153e+04   0.000000e+00   1371s
  138494    2.0444974e+04   1.136781e+04   0.000000e+00   1377s
  138796    2.0444974e+04   2.269654e+04   0.000000e+00   1381s
  139238    2.0444974e+04   1.338121e+05   0.000000e+00   1387s
  139539    2.0444974e+04   9.174748e+03   0.000000e+00   1391s
  139841    2.0444974e+04   1.834116e+04   0.000000e+00   1395s
  140294    2.0444974e+04   1.792209e+04   0.000000e+00   1401s
  140747    2.0444974e+04   2.796304e+03   0.000000e+00   1407s
  141049    2.0444974e+04   1.230634e+04   0.000000e+00   1411s
  141502    2.0444974e+04   3.517301e+03   0.000000e+00   1417s
  141804    2.0444974e+04   2.076751e+03   0.000000e+00   1421s
  142257    2.0444974e+04   1.267733e+04   0.000000e+00   1427s
  142559    2.0444974e+04   1.822232e+03   0.000000e+00   1431s
  143012    2.0444974e+04   6.851644e+05   0.000000e+00   1437s
  143314    2.0444974e+04   3.163944e+04   0.000000e+00   1441s
  143767    2.0444974e+04   2.106708e+05   0.000000e+00   1447s
  144069    2.0444974e+04   7.151858e+02   0.000000e+00   1451s
  144522    2.0444974e+04   5.071380e+03   0.000000e+00   1457s
  144824    2.0444974e+04   6.992066e+02   0.000000e+00   1460s
  145276    2.0444974e+04   1.144626e+03   0.000000e+00   1466s
  145729    2.0444974e+04   1.581511e+02   0.000000e+00   1472s
  146031    2.0444974e+04   1.915612e+03   0.000000e+00   1476s
  146484    2.0444974e+04   5.267139e+01   0.000000e+00   1482s
  146786    2.0444974e+04   3.499442e+00   0.000000e+00   1485s
  147239    2.0444974e+04   1.081676e+02   0.000000e+00   1491s
  147268    2.0445000e+04   0.000000e+00   0.000000e+00   1492s
  147268    2.0445000e+04   0.000000e+00   0.000000e+00   1492s

Root relaxation: objective 2.044500e+04, 147268 iterations, 1485.94 seconds
Total elapsed time = 2192.53s
Total elapsed time = 2469.38s
Total elapsed time = 2708.77s
Total elapsed time = 2999.37s

    Nodes    |    Current Node    |     Objective Bounds      |     Work
 Expl Unexpl |  Obj  Depth IntInf | Incumbent    BestBd   Gap | It/Node Time

     0     0 20445.0000    0 16916 5550.00000 20445.0000   268%     - 3028s
     0     0          -    0      5550.00000 20445.0000   268%     - 3600s

Cutting planes:
  Implied bound: 1664
  MIR: 22
  StrongCG: 18
  RLT: 1728
  Relax-and-lift: 31

Explored 1 nodes (504455 simplex iterations) in 3600.11 seconds
Thread count was 1 (of 40 available processors)

Solution count 1: 5550 

Time limit reached
Best objective 5.550000000000e+03, best bound 2.043000000000e+04, gap 268.1081%

----------

Best objective (UB): 20430.000
Best feasible solution (LB): 5550.000
Gap between the lower bound and upper bound: 268.108%

----------

Number of customers served: 41

Schedule for EV v0:
   [   0,  854) -> It remains parked at station s0.
   [ 854, 1004) -> Service a request driving for customer c15 from s0 to s2.
   [1004, tmax) -> It remains parked at station s2.

Schedule for EV v1:
   [   0, 1332) -> It remains parked at station s0.
   [1332, 1482) -> Service a request driving for customer c61 from s0 to s5.
   [1482, tmax) -> It remains parked at station s5.

Schedule for EV v2:
   [   0, 1152) -> It remains parked at station s0.
   [1152, 1272) -> Service a request driving for customer c50 from s0 to s1.
   [1272, tmax) -> It remains parked at station s1.

Schedule for EV v3:
   [   0, 1155) -> It remains parked at station s0.
   [1155, 1215) -> Service a request driving for customer c84 from s0 to s11.
   [1215, tmax) -> It remains parked at station s11.

Schedule for EV v4:
   [   0, tmax) -> It remains parked at station s0.

Schedule for EV v5:
   [   0, tmax) -> It remains parked at station s0.

Schedule for EV v6:
   [   0, 1032) -> It remains parked at station s1.
   [1032, 1212) -> Service a request driving for customer c93 from s1 to s4.
   [1212, tmax) -> It remains parked at station s4.

Schedule for EV v7:
   [   0,  856) -> It remains parked at station s1.
   [ 856, 1036) -> Service a request driving for customer c46 from s1 to s0.
   [1036, 1090) -> It remains parked at station s0.
   [1090, 1120) -> Service a request driving for customer c46 from s0 to s0.
   [1120, tmax) -> It remains parked at station s0.

Schedule for EV v8:
   [   0, 1272) -> It remains parked at station s1.
   [1272, 1332) -> Service a request driving for customer c21 from s1 to s0.
   [1332, tmax) -> It remains parked at station s0.

Schedule for EV v9:
   [   0, 1206) -> It remains parked at station s1.
   [1206, 1266) -> Service a request driving for customer c30 from s1 to s2.
   [1266, tmax) -> It remains parked at station s2.

Schedule for EV v10:
   [   0, 1148) -> It remains parked at station s1.
   [1148, 1178) -> Service a request driving for customer c85 from s1 to s4.
   [1178, tmax) -> It remains parked at station s4.

Schedule for EV v11:
   [   0, tmax) -> It remains parked at station s1.

Schedule for EV v12:
   [   0, tmax) -> It remains parked at station s1.

Schedule for EV v13:
   [   0, tmax) -> It remains parked at station s1.

Schedule for EV v14:
   [   0, tmax) -> It remains parked at station s1.

Schedule for EV v15:
   [   0,  427) -> It remains parked at station s2.
   [ 427,  487) -> Service a request driving for customer c25 from s2 to s9.
   [ 487,  735) -> It remains parked at station s9.
   [ 735,  975) -> Service a request driving for customer c25 from s9 to s0.
   [ 975, 1151) -> It remains parked at station s0.
   [1151, 1391) -> Service a request driving for customer c25 from s0 to s1.
   [1391, tmax) -> It remains parked at station s1.

Schedule for EV v16:
   [   0,  492) -> It remains parked at station s2.
   [ 492,  612) -> Service a request driving for customer c41 from s2 to s2.
   [ 612,  666) -> It remains parked at station s2.
   [ 666,  726) -> Service a request driving for customer c41 from s2 to s1.
   [ 726, tmax) -> It remains parked at station s1.

Schedule for EV v17:
   [   0,  736) -> It remains parked at station s2.
   [ 736,  796) -> Service a request driving for customer c49 from s2 to s3.
   [ 796, tmax) -> It remains parked at station s3.

Schedule for EV v18:
   [   0,  485) -> It remains parked at station s2.
   [ 485,  515) -> Service a request driving for customer c79 from s2 to s3.
   [ 515, 1329) -> It remains parked at station s3.
   [1329, 1359) -> Service a request driving for customer c79 from s3 to s7.
   [1359, tmax) -> It remains parked at station s7.

Schedule for EV v19:
   [   0, tmax) -> It remains parked at station s2.

Schedule for EV v20:
   [   0, tmax) -> It remains parked at station s2.

Schedule for EV v21:
   [   0, tmax) -> It remains parked at station s2.

Schedule for EV v22:
   [   0, tmax) -> It remains parked at station s2.

Schedule for EV v23:
   [   0, tmax) -> It remains parked at station s2.

Schedule for EV v24:
   [   0, tmax) -> It remains parked at station s2.

Schedule for EV v25:
   [   0,  605) -> It remains parked at station s3.
   [ 605,  785) -> Service a request driving for customer c31 from s3 to s0.
   [ 785, tmax) -> It remains parked at station s0.

Schedule for EV v26:
   [   0,  973) -> It remains parked at station s3.
   [ 973, 1093) -> Service a request driving for customer c82 from s3 to s1.
   [1093, tmax) -> It remains parked at station s1.

Schedule for EV v27:
   [   0,  554) -> It remains parked at station s3.
   [ 554,  614) -> Service a request driving for customer c22 from s3 to s0.
   [ 614,  726) -> It remains parked at station s0.
   [ 726,  876) -> Service a request driving for customer c22 from s0 to s0.
   [ 876, 1266) -> It remains parked at station s0.
   [1266, 1356) -> Service a request driving for customer c70 from s0 to s0.
   [1356, 1389) -> It remains parked at station s0.
   [1389, 1419) -> Service a request driving for customer c24 from s0 to s8.
   [1419, tmax) -> It remains parked at station s8.

Schedule for EV v28:
   [   0, tmax) -> It remains parked at station s3.

Schedule for EV v29:
   [   0, tmax) -> It remains parked at station s3.

Schedule for EV v30:
   [   0, tmax) -> It remains parked at station s3.

Schedule for EV v31:
   [   0, 1150) -> It remains parked at station s4.
   [1150, 1270) -> Service a request driving for customer c74 from s4 to s3.
   [1270, tmax) -> It remains parked at station s3.

Schedule for EV v32:
   [   0,  854) -> It remains parked at station s4.
   [ 854,  974) -> Service a request driving for customer c98 from s4 to s3.
   [ 974, 1153) -> It remains parked at station s3.
   [1153, 1213) -> Service a request driving for customer c98 from s3 to s11.
   [1213, tmax) -> It remains parked at station s11.

Schedule for EV v33:
   [   0,  796) -> It remains parked at station s4.
   [ 796,  826) -> Service a request driving for customer c76 from s4 to s0.
   [ 826, 1388) -> It remains parked at station s0.
   [1388, 1508) -> Service a request driving for customer c76 from s0 to s3.
   [1508, tmax) -> It remains parked at station s3.

Schedule for EV v34:
   [   0,  847) -> It remains parked at station s4.
   [ 847,  877) -> Service a request driving for customer c63 from s4 to s4.
   [ 877, tmax) -> It remains parked at station s4.

Schedule for EV v35:
   [   0, tmax) -> It remains parked at station s4.

Schedule for EV v36:
   [   0, tmax) -> It remains parked at station s4.

Schedule for EV v37:
   [   0, tmax) -> It remains parked at station s4.

Schedule for EV v38:
   [   0, tmax) -> It remains parked at station s4.

Schedule for EV v39:
   [   0, tmax) -> It remains parked at station s4.

Schedule for EV v40:
   [   0, tmax) -> It remains parked at station s4.

Schedule for EV v41:
   [   0, tmax) -> It remains parked at station s4.

Schedule for EV v42:
   [   0, 1096) -> It remains parked at station s5.
   [1096, 1456) -> Service a request driving for customer c29 from s5 to s0.
   [1456, tmax) -> It remains parked at station s0.

Schedule for EV v43:
   [   0,  906) -> It remains parked at station s5.
   [ 906, 1116) -> Service a request driving for customer c77 from s5 to s2.
   [1116, tmax) -> It remains parked at station s2.

Schedule for EV v44:
   [   0, 1150) -> It remains parked at station s5.
   [1150, 1210) -> Service a request driving for customer c42 from s5 to s11.
   [1210, tmax) -> It remains parked at station s11.

Schedule for EV v45:
   [   0,  854) -> It remains parked at station s5.
   [ 854,  884) -> Service a request driving for customer c34 from s5 to s2.
   [ 884, tmax) -> It remains parked at station s2.

Schedule for EV v46:
   [   0,  915) -> It remains parked at station s5.
   [ 915,  945) -> Service a request driving for customer c59 from s5 to s4.
   [ 945, tmax) -> It remains parked at station s4.

Schedule for EV v47:
   [   0, tmax) -> It remains parked at station s5.

Schedule for EV v48:
   [   0, tmax) -> It remains parked at station s5.

Schedule for EV v49:
   [   0, tmax) -> It remains parked at station s5.

Schedule for EV v50:
   [   0, tmax) -> It remains parked at station s5.

Schedule for EV v51:
   [   0, tmax) -> It remains parked at station s5.

Schedule for EV v52:
   [   0,  907) -> It remains parked at station s6.
   [ 907, 1147) -> Service a request driving for customer c75 from s6 to s0.
   [1147, tmax) -> It remains parked at station s0.

Schedule for EV v53:
   [   0, 1335) -> It remains parked at station s6.
   [1335, 1425) -> Service a request driving for customer c17 from s6 to s9.
   [1425, tmax) -> It remains parked at station s9.

Schedule for EV v54:
   [   0, tmax) -> It remains parked at station s6.

Schedule for EV v55:
   [   0, tmax) -> It remains parked at station s6.

Schedule for EV v56:
   [   0, tmax) -> It remains parked at station s6.

Schedule for EV v57:
   [   0, tmax) -> It remains parked at station s6.

Schedule for EV v58:
   [   0, tmax) -> It remains parked at station s6.

Schedule for EV v59:
   [   0, tmax) -> It remains parked at station s6.

Schedule for EV v60:
   [   0, tmax) -> It remains parked at station s6.

Schedule for EV v61:
   [   0, tmax) -> It remains parked at station s6.

Schedule for EV v62:
   [   0, tmax) -> It remains parked at station s6.

Schedule for EV v63:
   [   0, tmax) -> It remains parked at station s6.

Schedule for EV v64:
   [   0, tmax) -> It remains parked at station s6.

Schedule for EV v65:
   [   0,  427) -> It remains parked at station s7.
   [ 427,  667) -> Service a request driving for customer c18 from s7 to s6.
   [ 667, tmax) -> It remains parked at station s6.

Schedule for EV v66:
   [   0,  914) -> It remains parked at station s7.
   [ 914, 1094) -> Service a request driving for customer c96 from s7 to s3.
   [1094, 1330) -> It remains parked at station s3.
   [1330, 1390) -> Service a request driving for customer c7 from s3 to s3.
   [1390, tmax) -> It remains parked at station s3.

Schedule for EV v67:
   [   0, tmax) -> It remains parked at station s7.

Schedule for EV v68:
   [   0, tmax) -> It remains parked at station s7.

Schedule for EV v69:
   [   0, tmax) -> It remains parked at station s7.

Schedule for EV v70:
   [   0, tmax) -> It remains parked at station s7.

Schedule for EV v71:
   [   0, tmax) -> It remains parked at station s7.

Schedule for EV v72:
   [   0, tmax) -> It remains parked at station s7.

Schedule for EV v73:
   [   0, tmax) -> It remains parked at station s7.

Schedule for EV v74:
   [   0,  910) -> It remains parked at station s8.
   [ 910, 1120) -> Service a request driving for customer c27 from s8 to s11.
   [1120, 1206) -> It remains parked at station s11.
   [1206, 1386) -> Service a request driving for customer c27 from s11 to s2.
   [1386, tmax) -> It remains parked at station s2.

Schedule for EV v75:
   [   0,  489) -> It remains parked at station s8.
   [ 489,  609) -> Service a request driving for customer c33 from s8 to s9.
   [ 609, tmax) -> It remains parked at station s9.

Schedule for EV v76:
   [   0, 1330) -> It remains parked at station s8.
   [1330, 1420) -> Service a request driving for customer c23 from s8 to s1.
   [1420, tmax) -> It remains parked at station s1.

Schedule for EV v77:
   [   0, 1032) -> It remains parked at station s8.
   [1032, 1122) -> Service a request driving for customer c35 from s8 to s1.
   [1122, tmax) -> It remains parked at station s1.

Schedule for EV v78:
   [   0,  850) -> It remains parked at station s8.
   [ 850,  880) -> Service a request driving for customer c11 from s8 to s9.
   [ 880, tmax) -> It remains parked at station s9.

Schedule for EV v79:
   [   0,  729) -> It remains parked at station s8.
   [ 729,  759) -> Service a request driving for customer c43 from s8 to s11.
   [ 759, tmax) -> It remains parked at station s11.

Schedule for EV v80:
   [   0, tmax) -> It remains parked at station s8.

Schedule for EV v81:
   [   0, tmax) -> It remains parked at station s8.

Schedule for EV v82:
   [   0, tmax) -> It remains parked at station s8.

Schedule for EV v83:
   [   0, tmax) -> It remains parked at station s8.

Schedule for EV v84:
   [   0, tmax) -> It remains parked at station s8.

Schedule for EV v85:
   [   0, tmax) -> It remains parked at station s8.

Schedule for EV v86:
   [   0, tmax) -> It remains parked at station s9.

Schedule for EV v87:
   [   0, tmax) -> It remains parked at station s9.

Schedule for EV v88:
   [   0, tmax) -> It remains parked at station s9.

Schedule for EV v89:
   [   0, tmax) -> It remains parked at station s9.

Schedule for EV v90:
   [   0, tmax) -> It remains parked at station s9.

Schedule for EV v91:
   [   0, tmax) -> It remains parked at station s9.

Schedule for EV v92:
   [   0, tmax) -> It remains parked at station s9.

Schedule for EV v93:
   [   0,  435) -> It remains parked at station s10.
   [ 435,  615) -> Service a request driving for customer c16 from s10 to s3.
   [ 615, tmax) -> It remains parked at station s3.

Schedule for EV v94:
   [   0, tmax) -> It remains parked at station s10.

Schedule for EV v95:
   [   0, tmax) -> It remains parked at station s10.

Schedule for EV v96:
   [   0, tmax) -> It remains parked at station s10.

Schedule for EV v97:
   [   0, tmax) -> It remains parked at station s10.

Schedule for EV v98:
   [   0, tmax) -> It remains parked at station s10.

Schedule for EV v99:
   [   0, tmax) -> It remains parked at station s10.

Schedule for EV v100:
   [   0, tmax) -> It remains parked at station s10.

Schedule for EV v101:
   [   0, tmax) -> It remains parked at station s10.

Schedule for EV v102:
   [   0, tmax) -> It remains parked at station s10.

Schedule for EV v103:
   [   0, tmax) -> It remains parked at station s10.

Schedule for EV v104:
   [   0, tmax) -> It remains parked at station s10.

Schedule for EV v105:
   [   0, tmax) -> It remains parked at station s10.

Schedule for EV v106:
   [   0, tmax) -> It remains parked at station s10.

Schedule for EV v107:
   [   0, tmax) -> It remains parked at station s10.

Schedule for EV v108:
   [   0,  909) -> It remains parked at station s11.
   [ 909,  999) -> Service a request driving for customer c55 from s11 to s4.
   [ 999, tmax) -> It remains parked at station s4.

Schedule for EV v109:
   [   0,  550) -> It remains parked at station s11.
   [ 550,  610) -> Service a request driving for customer c48 from s11 to s11.
   [ 610, tmax) -> It remains parked at station s11.

Schedule for EV v110:
   [   0, tmax) -> It remains parked at station s11.

Schedule for EV v111:
   [   0, tmax) -> It remains parked at station s11.

Schedule for EV v112:
   [   0, tmax) -> It remains parked at station s11.

Schedule for EV v113:
   [   0, tmax) -> It remains parked at station s11.

Schedule for EV v114:
   [   0, tmax) -> It remains parked at station s11.

Schedule for EV v115:
   [   0, tmax) -> It remains parked at station s11.

Schedule for EV v116:
   [   0, tmax) -> It remains parked at station s11.

Set of satisfied customers
   {c7, c11, c15, c16, c17, c18, c21, c22, c23, c24, c25, c27, c29, c30, c31, c33, c34, c35, c41, c42, c43, c46, c48, c49, c50, c55, c59, c61, c63, c70, c74, c75, c76, c77, c79, c82, c84, c85, c93, c96, c98}

