Academic license - for non-commercial use only
Gurobi Optimizer version 9.0.3 build v9.0.3rc0 (linux64)
Optimize a model with 692574 rows, 786788 columns and 2225310 nonzeros
Model fingerprint: 0xcb5ecf40
Variable types: 694500 continuous, 92288 integer (92288 binary)
Coefficient statistics:
  Matrix range     [1e+00, 4e+06]
  Objective range  [3e+01, 6e+02]
  Bounds range     [1e+00, 2e+06]
  RHS range        [1e+00, 2e+06]

Loaded user MIP start with objective 3930

Presolve removed 619838 rows and 648390 columns (presolve time = 6s) ...
Presolve removed 619837 rows and 648389 columns
Presolve time: 6.51s
Presolved: 72737 rows, 138399 columns, 708156 nonzeros
Variable types: 0 continuous, 138399 integer (113483 binary)

Root simplex log...

Iteration    Objective       Primal Inf.    Dual Inf.      Time
       0    2.0340000e+04   1.156234e+03   0.000000e+00      7s
   10059    2.0339999e+04   1.874604e+04   0.000000e+00     10s
   17126    2.0339996e+04   2.026120e+04   0.000000e+00     15s
   21110    2.0339995e+04   1.711499e+05   0.000000e+00     20s
   23591    2.0339995e+04   1.459826e+04   0.000000e+00     25s
   25676    2.0339995e+04   3.958452e+04   0.000000e+00     31s
   26476    2.0339995e+04   2.303984e+05   0.000000e+00     36s
   27156    2.0339994e+04   2.966149e+05   0.000000e+00     40s
   27826    2.0339994e+04   5.127177e+05   0.000000e+00     45s
   28676    2.0339994e+04   7.228333e+05   0.000000e+00     51s
   29366    2.0339994e+04   1.253935e+06   0.000000e+00     56s
   29946    2.0339994e+04   1.561670e+06   0.000000e+00     60s
   30696    2.0339993e+04   5.240186e+05   0.000000e+00     66s
   31186    2.0339993e+04   1.933352e+06   0.000000e+00     70s
   31846    2.0339993e+04   8.356141e+05   0.000000e+00     76s
   32336    2.0339993e+04   1.130851e+06   0.000000e+00     80s
   32996    2.0339993e+04   1.033793e+06   0.000000e+00     86s
   34021    2.0339991e+04   6.989101e+05   0.000000e+00     90s
   35046    2.0339990e+04   3.491343e+05   0.000000e+00     95s
   36016    2.0339989e+04   3.703278e+05   0.000000e+00    100s
   36836    2.0339988e+04   2.197793e+06   0.000000e+00    105s
   37626    2.0339987e+04   1.183548e+06   0.000000e+00    110s
   38446    2.0339987e+04   6.446252e+05   0.000000e+00    115s
   39196    2.0339987e+04   4.743605e+05   0.000000e+00    120s
   39916    2.0339986e+04   5.378479e+06   0.000000e+00    126s
   40506    2.0339986e+04   5.547132e+06   0.000000e+00    130s
Warning: Markowitz tolerance tightened to 0.0625
   41311    2.0339985e+04   7.690490e+05   0.000000e+00    135s
   42076    2.0339985e+04   4.587430e+06   0.000000e+00    141s
   42686    2.0339985e+04   1.890425e+06   0.000000e+00    145s
   43366    2.0339984e+04   4.285618e+06   0.000000e+00    152s
   43726    2.0339984e+04   9.904282e+05   0.000000e+00    155s
   44326    2.0339983e+04   1.350766e+06   0.000000e+00    161s
   44786    2.0339983e+04   8.132972e+05   0.000000e+00    166s
   45236    2.0339983e+04   1.938948e+06   0.000000e+00    170s
   45881    2.0339983e+04   7.775846e+05   0.000000e+00    176s
   46456    2.0339982e+04   2.940823e+06   0.000000e+00    181s
   46986    2.0339982e+04   8.396069e+05   0.000000e+00    185s
   47536    2.0339982e+04   3.507204e+06   0.000000e+00    191s
   48006    2.0339982e+04   8.246246e+05   0.000000e+00    196s
   48406    2.0339981e+04   1.714485e+06   0.000000e+00    200s
   48836    2.0339981e+04   1.695508e+06   0.000000e+00    205s
   49246    2.0339981e+04   1.907711e+05   0.000000e+00    210s
   49676    2.0339981e+04   5.958702e+05   0.000000e+00    215s
   50116    2.0339980e+04   1.172297e+06   0.000000e+00    220s
   50641    2.0339980e+04   2.523680e+06   0.000000e+00    226s
   51131    2.0339980e+04   4.262548e+05   0.000000e+00    231s
   51616    2.0339980e+04   2.048418e+06   0.000000e+00    236s
   52066    2.0339979e+04   4.783784e+05   0.000000e+00    241s
   52396    2.0339979e+04   1.038186e+06   0.000000e+00    245s
   52836    2.0339979e+04   2.009491e+06   0.000000e+00    250s
   53341    2.0339979e+04   1.352162e+06   0.000000e+00    256s
   53781    2.0339979e+04   2.643486e+06   0.000000e+00    261s
   54286    2.0339978e+04   2.859560e+06   0.000000e+00    266s
   54616    2.0339978e+04   2.256429e+06   0.000000e+00    270s
   55106    2.0339978e+04   8.423103e+06   0.000000e+00    276s
   55696    2.0339978e+04   8.042723e+05   0.000000e+00    281s
   56101    2.0339978e+04   7.291819e+06   0.000000e+00    286s
   56341    2.0339977e+04   9.345716e+06   0.000000e+00    290s
   56766    2.0339977e+04   2.247060e+06   0.000000e+00    296s
   57136    2.0339977e+04   1.968771e+06   0.000000e+00    301s
   57536    2.0339977e+04   7.726460e+05   0.000000e+00    306s
   58001    2.0339977e+04   8.367474e+05   0.000000e+00    310s
   58591    2.0339977e+04   1.281237e+06   0.000000e+00    316s
   58951    2.0339976e+04   1.286833e+06   0.000000e+00    320s
   59451    2.0339976e+04   9.191077e+05   0.000000e+00    326s
   59821    2.0339976e+04   2.669065e+06   0.000000e+00    330s
   60291    2.0339976e+04   7.029293e+05   0.000000e+00    336s
   60621    2.0339976e+04   1.707641e+06   0.000000e+00    340s
   61081    2.0339976e+04   8.344033e+06   0.000000e+00    346s
   61486    2.0339975e+04   1.053026e+06   0.000000e+00    351s
   61956    2.0339975e+04   8.047748e+06   0.000000e+00    356s
   62316    2.0339975e+04   4.699686e+05   0.000000e+00    361s
   62676    2.0339975e+04   2.805188e+06   0.000000e+00    365s
   63036    2.0339975e+04   1.988333e+06   0.000000e+00    370s
   63516    2.0339974e+04   2.815215e+06   0.000000e+00    376s
   63886    2.0339974e+04   1.768475e+06   0.000000e+00    381s
   64276    2.0339974e+04   1.591816e+06   0.000000e+00    385s
   64691    2.0339974e+04   2.891809e+06   0.000000e+00    390s
   65216    2.0339974e+04   8.786212e+05   0.000000e+00    396s
   65586    2.0339974e+04   2.644445e+06   0.000000e+00    401s
   65946    2.0339973e+04   1.073765e+06   0.000000e+00    406s
   66316    2.0339973e+04   1.876290e+06   0.000000e+00    410s
   66806    2.0339973e+04   8.821710e+05   0.000000e+00    416s
   67211    2.0339973e+04   8.019005e+06   0.000000e+00    420s
   67831    2.0339957e+04   1.644826e+06   0.000000e+00    425s
   68451    2.0339952e+04   1.848104e+06   0.000000e+00    431s
   68916    2.0339950e+04   1.903721e+06   0.000000e+00    436s
   69531    2.0339947e+04   1.956901e+07   0.000000e+00    441s
   69981    2.0339947e+04   2.654348e+06   0.000000e+00    446s
   70446    2.0339946e+04   2.680577e+06   0.000000e+00    450s
   71066    2.0339945e+04   5.258895e+05   0.000000e+00    456s
   71531    2.0339944e+04   3.833394e+06   0.000000e+00    461s
   71996    2.0339944e+04   1.947255e+06   0.000000e+00    466s
   72461    2.0339943e+04   2.719122e+06   0.000000e+00    470s
   72926    2.0339943e+04   5.984156e+05   0.000000e+00    475s
   73391    2.0339942e+04   5.648502e+05   0.000000e+00    480s
   73856    2.0339942e+04   5.024759e+05   0.000000e+00    485s
   74476    2.0339941e+04   2.887056e+05   0.000000e+00    491s
   74941    2.0339941e+04   1.020349e+07   0.000000e+00    496s
   75406    2.0339940e+04   5.124782e+05   0.000000e+00    501s
   75871    2.0339940e+04   1.359203e+06   0.000000e+00    506s
   76336    2.0339939e+04   2.149683e+06   0.000000e+00    511s
   76796    2.0339939e+04   2.941074e+05   0.000000e+00    515s
   77261    2.0339939e+04   6.422241e+05   0.000000e+00    520s
   77856    2.0339938e+04   4.619766e+05   0.000000e+00    527s
   78321    2.0339938e+04   4.356576e+05   0.000000e+00    531s
   78786    2.0339938e+04   9.522484e+06   0.000000e+00    536s
   79251    2.0339937e+04   1.064868e+06   0.000000e+00    541s
   79716    2.0339937e+04   2.990294e+07   0.000000e+00    546s
   80171    2.0339936e+04   4.747884e+05   0.000000e+00    551s
   80636    2.0339936e+04   1.857020e+06   0.000000e+00    556s
   81101    2.0339936e+04   6.549775e+05   0.000000e+00    561s
   81526    2.0339936e+04   5.763495e+06   0.000000e+00    566s
   81976    2.0339935e+04   4.350881e+05   0.000000e+00    571s
   82431    2.0339935e+04   8.241421e+05   0.000000e+00    575s
   82886    2.0339935e+04   2.798992e+06   0.000000e+00    581s
   83351    2.0339934e+04   5.348857e+05   0.000000e+00    586s
   83816    2.0339934e+04   1.046115e+05   0.000000e+00    591s
   84281    2.0339934e+04   1.298928e+06   0.000000e+00    596s
   84746    2.0339933e+04   5.323665e+05   0.000000e+00    601s
   85211    2.0339933e+04   4.277390e+05   0.000000e+00    606s
   85676    2.0339933e+04   5.163670e+05   0.000000e+00    611s
   86141    2.0339932e+04   1.044295e+06   0.000000e+00    616s
   86601    2.0339932e+04   2.367153e+05   0.000000e+00    622s
   87066    2.0339932e+04   1.390206e+06   0.000000e+00    627s
   87376    2.0339932e+04   5.219795e+05   0.000000e+00    630s
   87841    2.0339931e+04   7.106077e+06   0.000000e+00    635s
   88306    2.0339931e+04   7.636444e+05   0.000000e+00    641s
   88771    2.0339931e+04   5.610662e+05   0.000000e+00    646s
   89236    2.0339930e+04   2.975880e+06   0.000000e+00    652s
   89701    2.0339930e+04   4.114226e+06   0.000000e+00    657s
   90011    2.0339930e+04   7.195746e+05   0.000000e+00    660s
   90471    2.0339930e+04   3.249426e+06   0.000000e+00    666s
   90936    2.0339929e+04   4.920699e+05   0.000000e+00    672s
   91246    2.0339929e+04   1.059794e+06   0.000000e+00    675s
   91711    2.0339929e+04   2.271321e+06   0.000000e+00    681s
   92156    2.0339929e+04   8.243404e+05   0.000000e+00    686s
   92466    2.0339929e+04   9.401083e+06   0.000000e+00    690s
   92916    2.0339928e+04   8.025442e+05   0.000000e+00    696s
   93381    2.0339928e+04   2.738942e+06   0.000000e+00    701s
   93691    2.0339928e+04   7.134627e+05   0.000000e+00    705s
   94156    2.0339928e+04   9.870439e+05   0.000000e+00    711s
   94621    2.0339927e+04   5.344710e+05   0.000000e+00    716s
   95086    2.0339927e+04   4.543134e+05   0.000000e+00    721s
   95396    2.0339927e+04   2.233910e+06   0.000000e+00    725s
   95856    2.0339927e+04   2.835276e+05   0.000000e+00    731s
   96321    2.0339926e+04   1.091213e+06   0.000000e+00    736s
   96781    2.0339926e+04   3.089795e+05   0.000000e+00    741s
   97091    2.0339926e+04   1.205985e+06   0.000000e+00    745s
   97556    2.0339926e+04   5.950163e+06   0.000000e+00    751s
   98021    2.0339925e+04   1.864756e+06   0.000000e+00    756s
   98331    2.0339925e+04   7.668681e+05   0.000000e+00    760s
   98796    2.0339925e+04   1.956776e+07   0.000000e+00    765s
   99261    2.0339925e+04   9.629395e+06   0.000000e+00    771s
   99726    2.0339924e+04   4.861489e+05   0.000000e+00    776s
  100191    2.0339924e+04   6.796742e+05   0.000000e+00    781s
  100656    2.0339924e+04   6.631626e+05   0.000000e+00    787s
  100941    2.0339924e+04   1.239758e+06   0.000000e+00    790s
  101336    2.0339924e+04   4.151369e+06   0.000000e+00    795s
  101801    2.0339923e+04   1.882087e+06   0.000000e+00    801s
  102266    2.0339923e+04   2.188513e+06   0.000000e+00    807s
  102571    2.0339923e+04   1.237779e+06   0.000000e+00    810s
  103036    2.0339923e+04   8.636062e+05   0.000000e+00    815s
  103501    2.0339922e+04   3.446920e+05   0.000000e+00    821s
  103966    2.0339922e+04   1.014023e+06   0.000000e+00    827s
  104276    2.0339922e+04   4.603197e+05   0.000000e+00    830s
  104741    2.0339921e+04   3.758485e+06   0.000000e+00    836s
  105206    2.0339921e+04   1.457414e+06   0.000000e+00    841s
  105516    2.0339921e+04   7.533719e+05   0.000000e+00    845s
  105981    2.0339921e+04   9.464912e+06   0.000000e+00    851s
  106446    2.0339921e+04   9.829352e+05   0.000000e+00    857s
  106756    2.0339920e+04   4.406322e+05   0.000000e+00    860s
  107221    2.0339920e+04   5.493975e+05   0.000000e+00    866s
  107686    2.0339920e+04   1.127793e+06   0.000000e+00    871s
  107991    2.0339920e+04   2.930000e+05   0.000000e+00    875s
  108456    2.0339919e+04   9.147135e+06   0.000000e+00    881s
  108876    2.0339919e+04   6.733739e+05   0.000000e+00    886s
  109331    2.0339919e+04   1.975904e+06   0.000000e+00    892s
  109641    2.0339919e+04   3.705552e+05   0.000000e+00    895s
  110106    2.0339919e+04   5.871538e+06   0.000000e+00    901s
  110571    2.0339918e+04   5.794923e+05   0.000000e+00    907s
  110881    2.0339918e+04   3.671154e+06   0.000000e+00    910s
  111346    2.0339918e+04   9.722569e+05   0.000000e+00    916s
  111811    2.0339918e+04   3.344321e+06   0.000000e+00    922s
  112121    2.0339917e+04   1.101285e+06   0.000000e+00    926s
  112586    2.0339917e+04   1.005171e+06   0.000000e+00    932s
  112896    2.0339917e+04   2.709148e+06   0.000000e+00    935s
  113356    2.0339917e+04   2.675819e+06   0.000000e+00    941s
  113821    2.0339916e+04   4.022191e+06   0.000000e+00    947s
  114131    2.0339916e+04   9.790665e+05   0.000000e+00    950s
  114596    2.0339916e+04   1.481475e+06   0.000000e+00    956s
  115061    2.0339916e+04   9.066276e+05   0.000000e+00    962s
  115371    2.0339916e+04   7.502374e+05   0.000000e+00    966s
  115836    2.0339915e+04   4.081909e+05   0.000000e+00    971s
  116301    2.0339915e+04   3.220108e+06   0.000000e+00    977s
  116611    2.0339915e+04   8.783880e+06   0.000000e+00    981s
  117076    2.0339915e+04   7.408180e+05   0.000000e+00    986s
  117386    2.0339914e+04   1.052036e+07   0.000000e+00    990s
  117851    2.0339914e+04   1.030931e+06   0.000000e+00    996s
  118316    2.0339914e+04   4.592760e+05   0.000000e+00   1002s
  118626    2.0339914e+04   1.447753e+06   0.000000e+00   1006s
  119091    2.0339913e+04   1.214941e+06   0.000000e+00   1012s
  119401    2.0339913e+04   6.838930e+05   0.000000e+00   1015s
  119866    2.0339913e+04   5.194741e+07   0.000000e+00   1021s
  120176    2.0339913e+04   9.886958e+05   0.000000e+00   1025s
  120641    2.0339912e+04   4.765929e+06   0.000000e+00   1031s
  121106    2.0339912e+04   2.648377e+06   0.000000e+00   1037s
  121416    2.0339912e+04   5.868232e+05   0.000000e+00   1041s
  121881    2.0339912e+04   9.993202e+05   0.000000e+00   1047s
  122191    2.0339911e+04   2.191226e+06   0.000000e+00   1051s
  122656    2.0339911e+04   9.588821e+05   0.000000e+00   1057s
  122966    2.0339911e+04   1.382088e+07   0.000000e+00   1061s
  123431    2.0339911e+04   8.342912e+05   0.000000e+00   1066s
  123741    2.0339910e+04   8.105030e+06   0.000000e+00   1070s
  124206    2.0339910e+04   4.076650e+05   0.000000e+00   1076s
  124671    2.0339910e+04   1.028911e+06   0.000000e+00   1082s
  124981    2.0339910e+04   5.506412e+06   0.000000e+00   1085s
  125446    2.0339909e+04   6.614119e+05   0.000000e+00   1091s
  125756    2.0339909e+04   3.903640e+06   0.000000e+00   1095s
  126221    2.0339909e+04   1.582082e+06   0.000000e+00   1101s
  126531    2.0339909e+04   8.742052e+05   0.000000e+00   1105s
  126996    2.0339908e+04   9.053542e+05   0.000000e+00   1111s
  127461    2.0339908e+04   9.460682e+06   0.000000e+00   1117s
  127771    2.0339908e+04   7.527387e+05   0.000000e+00   1121s
  128236    2.0339908e+04   8.724645e+05   0.000000e+00   1127s
  128546    2.0339907e+04   2.354945e+06   0.000000e+00   1131s
  129011    2.0339907e+04   4.197865e+06   0.000000e+00   1137s
  129321    2.0339907e+04   5.854113e+07   0.000000e+00   1141s
  129781    2.0339907e+04   4.866996e+06   0.000000e+00   1147s
  130091    2.0339906e+04   1.202399e+07   0.000000e+00   1150s
  130556    2.0339906e+04   3.112890e+06   0.000000e+00   1156s
  130866    2.0339906e+04   1.784816e+06   0.000000e+00   1161s
  131331    2.0339905e+04   2.769657e+07   0.000000e+00   1167s
  131641    2.0339905e+04   1.083138e+06   0.000000e+00   1170s
  132106    2.0339905e+04   2.636441e+06   0.000000e+00   1176s
  132416    2.0339905e+04   1.179032e+06   0.000000e+00   1181s
  132881    2.0339905e+04   2.182286e+06   0.000000e+00   1187s
  133191    2.0339904e+04   1.472448e+06   0.000000e+00   1190s
  133656    2.0339904e+04   3.295020e+07   0.000000e+00   1196s
  133966    2.0339904e+04   2.295728e+06   0.000000e+00   1201s
  134431    2.0339904e+04   2.180081e+06   0.000000e+00   1206s
  134741    2.0339903e+04   2.794562e+06   0.000000e+00   1211s
  135206    2.0339903e+04   2.397169e+07   0.000000e+00   1217s
  135516    2.0339903e+04   7.766633e+07   0.000000e+00   1221s
  135981    2.0339902e+04   8.049051e+06   0.000000e+00   1227s
  136291    2.0339902e+04   9.943721e+05   0.000000e+00   1231s
  136756    2.0339902e+04   8.336631e+07   0.000000e+00   1237s
  137066    2.0339901e+04   2.629630e+06   0.000000e+00   1241s
  137376    2.0339901e+04   8.391154e+06   0.000000e+00   1245s
  137841    2.0339900e+04   4.406059e+06   0.000000e+00   1251s
  138151    2.0339900e+04   1.822869e+06   0.000000e+00   1255s
  138616    2.0339899e+04   4.952450e+05   0.000000e+00   1261s
  139081    2.0339899e+04   3.598449e+06   0.000000e+00   1267s
  139391    2.0339899e+04   5.775008e+06   0.000000e+00   1270s
  139856    2.0339898e+04   7.004375e+05   0.000000e+00   1277s
  140166    2.0339897e+04   3.526008e+07   0.000000e+00   1280s
  140631    2.0339896e+04   1.332178e+07   0.000000e+00   1287s
  140941    2.0339894e+04   2.495653e+07   0.000000e+00   1291s
  141406    2.0339893e+04   7.386478e+06   0.000000e+00   1296s
  141716    2.0339893e+04   2.732723e+06   0.000000e+00   1301s
  142181    2.0339892e+04   1.845318e+07   0.000000e+00   1306s
  142491    2.0339891e+04   4.782017e+06   0.000000e+00   1310s
  142956    2.0339889e+04   1.529278e+07   0.000000e+00   1316s
  143266    2.0339888e+04   2.691237e+07   0.000000e+00   1320s
  143731    2.0339887e+04   5.063321e+07   0.000000e+00   1326s
  144041    2.0339886e+04   3.364614e+07   0.000000e+00   1331s
  144506    2.0339884e+04   4.945179e+07   0.000000e+00   1337s
  144816    2.0339883e+04   3.172351e+07   0.000000e+00   1341s
  145126    2.0339883e+04   8.193807e+06   0.000000e+00   1345s
  145591    2.0339882e+04   7.920325e+06   0.000000e+00   1351s
  145901    2.0339881e+04   1.413763e+07   0.000000e+00   1356s
  146211    2.0339880e+04   3.058640e+07   0.000000e+00   1360s
  146676    2.0339879e+04   1.148123e+07   0.000000e+00   1366s
  146986    2.0339878e+04   1.458229e+08   0.000000e+00   1370s
  147451    2.0339877e+04   9.422239e+06   0.000000e+00   1376s
  147916    2.0339875e+04   5.656504e+07   0.000000e+00   1382s
  148226    2.0339873e+04   1.785972e+07   0.000000e+00   1385s
  148691    1.9859909e+04   6.641012e+05   0.000000e+00   1391s
  149001    1.9859909e+04   1.211173e+06   0.000000e+00   1396s
  149466    1.9859908e+04   5.393449e+07   0.000000e+00   1402s
  149776    1.9859908e+04   1.187907e+07   0.000000e+00   1406s
  150086    1.9859908e+04   8.566547e+05   0.000000e+00   1410s
  150551    1.9859908e+04   1.016045e+06   0.000000e+00   1416s
  150861    1.9859908e+04   1.829477e+06   0.000000e+00   1421s
  151326    1.9859907e+04   6.933892e+05   0.000000e+00   1427s
  151631    1.9859907e+04   1.951701e+05   0.000000e+00   1431s
  151941    1.9859907e+04   6.536661e+05   0.000000e+00   1435s
  152406    1.9859907e+04   1.261649e+06   0.000000e+00   1441s
  152716    1.9859906e+04   3.369956e+06   0.000000e+00   1446s
  153181    1.9859906e+04   6.569067e+05   0.000000e+00   1452s
  153491    1.9859906e+04   1.435442e+06   0.000000e+00   1456s
  153801    1.9859906e+04   1.921744e+06   0.000000e+00   1461s
  154111    1.9859906e+04   1.493986e+07   0.000000e+00   1465s
  154576    1.9859905e+04   1.213150e+06   0.000000e+00   1471s
  154886    1.9859905e+04   1.502094e+06   0.000000e+00   1476s
  155351    1.9859905e+04   1.343455e+06   0.000000e+00   1482s
  155661    1.9859905e+04   3.715019e+05   0.000000e+00   1486s
  155971    1.9859905e+04   4.969853e+06   0.000000e+00   1490s
  156436    1.9859904e+04   1.541397e+06   0.000000e+00   1497s
  156746    1.9859904e+04   1.169144e+06   0.000000e+00   1501s
  157056    1.9859904e+04   1.267628e+06   0.000000e+00   1505s
  157521    1.9859904e+04   2.862979e+07   0.000000e+00   1512s
  157831    1.9859904e+04   6.738291e+06   0.000000e+00   1516s
  158141    1.9859903e+04   8.190852e+05   0.000000e+00   1520s
  158606    1.9859903e+04   1.688213e+06   0.000000e+00   1526s
  158916    1.9859903e+04   7.235302e+05   0.000000e+00   1530s
  159381    1.9859903e+04   3.417712e+05   0.000000e+00   1537s
  159691    1.9859902e+04   6.568373e+05   0.000000e+00   1541s
  160001    1.9859902e+04   1.209253e+06   0.000000e+00   1545s
  160466    1.9859902e+04   2.121895e+06   0.000000e+00   1552s
  160776    1.9859902e+04   2.653261e+06   0.000000e+00   1556s
  161086    1.9859902e+04   6.308432e+05   0.000000e+00   1561s
  161396    1.9859902e+04   4.205692e+06   0.000000e+00   1565s
  161861    1.9859901e+04   1.332349e+06   0.000000e+00   1572s
  162171    1.9859901e+04   2.989903e+06   0.000000e+00   1576s
  162481    1.9859901e+04   3.587574e+07   0.000000e+00   1580s
  162946    1.9859901e+04   1.892115e+06   0.000000e+00   1586s
  163256    1.9859901e+04   3.655293e+05   0.000000e+00   1591s
  163566    1.9859900e+04   5.953508e+06   0.000000e+00   1595s
  164031    1.9859900e+04   1.135448e+06   0.000000e+00   1602s
  164341    1.9859900e+04   2.206087e+07   0.000000e+00   1606s
  164806    1.9859899e+04   7.207982e+07   0.000000e+00   1612s
  165116    1.9859898e+04   3.678095e+06   0.000000e+00   1616s
  165426    1.9859897e+04   1.477803e+06   0.000000e+00   1620s
  165891    1.9589900e+04   3.439354e+07   0.000000e+00   1627s
  166201    1.9589900e+04   3.112014e+06   0.000000e+00   1631s
  166666    1.9589900e+04   3.289668e+06   0.000000e+00   1637s
  166976    1.9589899e+04   1.642648e+07   0.000000e+00   1642s
  167286    1.9589899e+04   2.526231e+07   0.000000e+00   1646s
  167751    1.9589898e+04   5.654532e+07   0.000000e+00   1652s
  168061    1.9589897e+04   2.549179e+06   0.000000e+00   1656s
  168366    1.9589897e+04   9.547869e+06   0.000000e+00   1660s
  168831    1.9589896e+04   1.758693e+06   0.000000e+00   1667s
  169141    1.9589896e+04   7.488850e+05   0.000000e+00   1671s
  169451    1.9589896e+04   2.176094e+06   0.000000e+00   1675s
  169891    1.9589895e+04   1.385764e+06   0.000000e+00   1681s
  170186    1.9589895e+04   1.251672e+06   0.000000e+00   1685s
  170646    1.9589895e+04   1.244024e+06   0.000000e+00   1691s
  171081    1.9589895e+04   5.137013e+05   0.000000e+00   1697s
  171391    1.9589894e+04   4.048115e+06   0.000000e+00   1701s
  171831    1.9589894e+04   1.366115e+06   0.000000e+00   1706s
  172121    1.9589894e+04   1.626139e+06   0.000000e+00   1710s
  172581    1.9589894e+04   3.657429e+05   0.000000e+00   1716s
  172891    1.9589893e+04   3.842310e+06   0.000000e+00   1720s
  173356    1.9589893e+04   6.413952e+06   0.000000e+00   1726s
  173666    1.9589893e+04   2.015601e+06   0.000000e+00   1731s
  174131    1.9589893e+04   1.340559e+06   0.000000e+00   1737s
  174441    1.9589892e+04   2.621375e+07   0.000000e+00   1741s
  174906    1.9589892e+04   8.075212e+06   0.000000e+00   1746s
  175216    1.9589891e+04   6.014669e+06   0.000000e+00   1751s
  175681    1.9589891e+04   5.818104e+05   0.000000e+00   1757s
  175991    1.9589890e+04   4.359097e+06   0.000000e+00   1761s
  176456    1.9559893e+04   6.424106e+06   0.000000e+00   1767s
  176761    1.9559892e+04   3.427646e+06   0.000000e+00   1771s
  177061    1.9559892e+04   7.939755e+06   0.000000e+00   1775s
  177526    1.9559892e+04   1.225691e+07   0.000000e+00   1781s
  177991    1.9529893e+04   1.213823e+06   0.000000e+00   1787s
  178301    1.9529893e+04   4.825852e+05   0.000000e+00   1791s
  178611    1.9529892e+04   2.314347e+06   0.000000e+00   1795s
  179076    1.9529892e+04   2.948213e+06   0.000000e+00   1802s
  179386    1.9529892e+04   2.914143e+06   0.000000e+00   1806s
  179851    1.9529892e+04   7.353814e+06   0.000000e+00   1812s
  180161    1.9529892e+04   5.231653e+06   0.000000e+00   1816s
  180596    1.9529891e+04   9.468155e+05   0.000000e+00   1821s
  180906    1.9529891e+04   1.697390e+06   0.000000e+00   1825s
  181371    1.9529891e+04   4.916279e+06   0.000000e+00   1831s
  181681    1.9529891e+04   4.713822e+06   0.000000e+00   1835s
  182141    1.9529890e+04   1.532524e+06   0.000000e+00   1841s
  182451    1.9529890e+04   8.406380e+05   0.000000e+00   1846s
  182916    1.9529890e+04   1.528699e+06   0.000000e+00   1852s
  183226    1.9529890e+04   1.355573e+07   0.000000e+00   1856s
  183691    1.9529889e+04   9.801114e+05   0.000000e+00   1862s
  184001    1.9529889e+04   2.740895e+05   0.000000e+00   1866s
  184461    1.9529889e+04   4.972432e+06   0.000000e+00   1872s
  184771    1.9529889e+04   1.436368e+06   0.000000e+00   1876s
  185081    1.9529889e+04   3.745148e+06   0.000000e+00   1880s
  185546    1.9529888e+04   2.110303e+07   0.000000e+00   1886s
  185826    1.9529888e+04   5.890881e+07   0.000000e+00   1890s
  186286    1.9529888e+04   4.839736e+06   0.000000e+00   1896s
  186596    1.9529888e+04   3.369222e+05   0.000000e+00   1901s
  187056    1.9529888e+04   2.680537e+06   0.000000e+00   1907s
  187366    1.9529887e+04   3.123972e+05   0.000000e+00   1911s
  187831    1.9529887e+04   9.481336e+05   0.000000e+00   1917s
  188141    1.9529887e+04   1.852696e+06   0.000000e+00   1921s
  188451    1.9529887e+04   1.000066e+06   0.000000e+00   1925s
  188916    1.9529887e+04   8.932596e+06   0.000000e+00   1931s
  189226    1.9529886e+04   5.725263e+05   0.000000e+00   1935s
  189691    1.9529886e+04   1.574330e+06   0.000000e+00   1942s
  190001    1.9529886e+04   1.026136e+06   0.000000e+00   1946s
  190311    1.9529886e+04   1.335230e+07   0.000000e+00   1950s
  190776    1.9529886e+04   1.866052e+06   0.000000e+00   1957s
  191086    1.9529885e+04   2.360722e+06   0.000000e+00   1961s
  191396    1.9529885e+04   4.730596e+06   0.000000e+00   1965s
  191861    1.9529885e+04   7.747239e+05   0.000000e+00   1972s
  192171    1.9529885e+04   3.247980e+06   0.000000e+00   1976s
  192481    1.9529885e+04   1.361831e+06   0.000000e+00   1981s
  192791    1.9529884e+04   1.055121e+07   0.000000e+00   1985s
  193256    1.9529884e+04   2.265347e+06   0.000000e+00   1992s
  193566    1.9529884e+04   2.423132e+06   0.000000e+00   1997s
  193876    1.9529884e+04   6.612410e+06   0.000000e+00   2001s
  194186    1.9529884e+04   5.231972e+06   0.000000e+00   2005s
  194651    1.9529883e+04   2.474385e+06   0.000000e+00   2011s
  194961    1.9529883e+04   5.050999e+05   0.000000e+00   2015s
  195426    1.9529883e+04   7.351182e+05   0.000000e+00   2021s
  195736    1.9529883e+04   5.763564e+06   0.000000e+00   2026s
  196196    1.9529882e+04   8.111287e+05   0.000000e+00   2032s
  196506    1.9529882e+04   5.556472e+05   0.000000e+00   2036s
  196816    1.9529882e+04   6.681752e+06   0.000000e+00   2040s
  197281    1.9529882e+04   1.488787e+06   0.000000e+00   2047s
  197591    1.9529882e+04   1.811838e+06   0.000000e+00   2051s
  198056    1.9529881e+04   2.323205e+06   0.000000e+00   2057s
  198366    1.9529881e+04   2.602800e+06   0.000000e+00   2061s
  198676    1.9529881e+04   6.415722e+06   0.000000e+00   2065s
  199141    1.9529881e+04   5.082371e+05   0.000000e+00   2072s
  199451    1.9529881e+04   5.633583e+05   0.000000e+00   2076s
  199761    1.9529880e+04   9.166391e+06   0.000000e+00   2080s
  200226    1.9529880e+04   4.670397e+05   0.000000e+00   2087s
  200536    1.9529880e+04   1.213259e+06   0.000000e+00   2091s
  200846    1.9529880e+04   6.778994e+05   0.000000e+00   2095s
  201311    1.9529880e+04   1.936255e+06   0.000000e+00   2102s
  201621    1.9529880e+04   9.384507e+05   0.000000e+00   2106s
  201931    1.9529879e+04   2.605320e+06   0.000000e+00   2110s
  202396    1.9529879e+04   1.015176e+07   0.000000e+00   2117s
  202706    1.9529879e+04   1.587944e+08   0.000000e+00   2121s
  203016    1.9529879e+04   1.336277e+06   0.000000e+00   2125s
  203481    1.9529878e+04   1.748307e+06   0.000000e+00   2131s
  203791    1.9529878e+04   1.781817e+06   0.000000e+00   2135s
  204256    1.9529878e+04   1.277283e+06   0.000000e+00   2142s
  204566    1.9529878e+04   5.128340e+06   0.000000e+00   2146s
  205031    1.9529878e+04   2.262596e+06   0.000000e+00   2152s
  205341    1.9529877e+04   4.029028e+06   0.000000e+00   2156s
  205651    1.9529877e+04   3.915584e+06   0.000000e+00   2160s
  206116    1.9529877e+04   1.604724e+06   0.000000e+00   2167s
  206426    1.9529877e+04   1.499041e+06   0.000000e+00   2171s
  206736    1.9529877e+04   2.532098e+06   0.000000e+00   2176s
  207181    1.9529876e+04   3.927834e+05   0.000000e+00   2182s
  207491    1.9529876e+04   4.832258e+05   0.000000e+00   2186s
  207801    1.9529876e+04   1.114863e+06   0.000000e+00   2190s
  208266    1.9529876e+04   1.337665e+06   0.000000e+00   2197s
  208571    1.9529876e+04   8.773638e+06   0.000000e+00   2201s
  208981    1.9529875e+04   7.044255e+06   0.000000e+00   2206s
  209291    1.9529875e+04   1.588680e+06   0.000000e+00   2210s
  209756    1.9529875e+04   1.339863e+06   0.000000e+00   2217s
  210066    1.9529875e+04   2.162089e+06   0.000000e+00   2221s
  210376    1.9529874e+04   2.639527e+06   0.000000e+00   2225s
  210841    1.9529874e+04   6.242204e+05   0.000000e+00   2231s
  211151    1.9529874e+04   6.276576e+06   0.000000e+00   2236s
  211586    1.9529874e+04   1.543358e+06   0.000000e+00   2241s
  211861    1.9529874e+04   6.823331e+06   0.000000e+00   2245s
  212276    1.9529873e+04   1.627826e+06   0.000000e+00   2251s
  212741    1.9529873e+04   5.407948e+06   0.000000e+00   2257s
  213051    1.9529873e+04   1.409517e+06   0.000000e+00   2261s
  213516    1.9529873e+04   6.753756e+05   0.000000e+00   2267s
  213811    1.9529872e+04   1.733848e+06   0.000000e+00   2271s
  214276    1.9529872e+04   9.211105e+05   0.000000e+00   2277s
  214586    1.9529872e+04   9.363088e+05   0.000000e+00   2281s
  214896    1.9529872e+04   3.407991e+05   0.000000e+00   2285s
  215361    1.9529872e+04   7.396541e+05   0.000000e+00   2292s
  215666    1.9529871e+04   1.589238e+06   0.000000e+00   2296s
  216131    1.9529871e+04   2.214371e+06   0.000000e+00   2302s
  216441    1.9529871e+04   9.486423e+05   0.000000e+00   2306s
  216751    1.9529871e+04   1.523623e+06   0.000000e+00   2310s
  217216    1.9529870e+04   1.367548e+06   0.000000e+00   2317s
  217526    1.9529870e+04   7.266674e+06   0.000000e+00   2321s
  217836    1.9529870e+04   9.074619e+05   0.000000e+00   2325s
  218301    1.9529869e+04   2.638790e+06   0.000000e+00   2332s
  218611    1.9529869e+04   3.472409e+07   0.000000e+00   2336s
  218921    1.9529868e+04   1.215346e+07   0.000000e+00   2341s
  219386    1.9529867e+04   1.848118e+07   0.000000e+00   2347s
  219696    1.9529866e+04   6.895197e+07   0.000000e+00   2351s
  220006    1.9409878e+04   3.080063e+06   0.000000e+00   2355s
  220471    1.9409878e+04   6.145710e+06   0.000000e+00   2362s
  220781    1.9409878e+04   2.496791e+06   0.000000e+00   2366s
  221246    1.9409877e+04   1.396752e+06   0.000000e+00   2372s
  221551    1.9409877e+04   2.736107e+06   0.000000e+00   2376s
  221861    1.9409877e+04   6.483276e+05   0.000000e+00   2381s
  222326    1.9409877e+04   7.375464e+05   0.000000e+00   2387s
  222636    1.9409877e+04   2.388560e+06   0.000000e+00   2391s
  222946    1.9409877e+04   8.396026e+05   0.000000e+00   2395s
  223411    1.9409876e+04   6.956609e+05   0.000000e+00   2402s
  223721    1.9409876e+04   4.833597e+06   0.000000e+00   2406s
  224156    1.9409876e+04   1.303029e+06   0.000000e+00   2412s
  224466    1.9409876e+04   1.951938e+06   0.000000e+00   2416s
  224776    1.9409876e+04   2.258724e+06   0.000000e+00   2421s
  225086    1.9409876e+04   9.652534e+05   0.000000e+00   2425s
  225551    1.9409875e+04   4.656326e+05   0.000000e+00   2432s
  225861    1.9409875e+04   8.712063e+05   0.000000e+00   2437s
  226171    1.9409875e+04   3.897550e+06   0.000000e+00   2441s
  226481    1.9409875e+04   7.893391e+05   0.000000e+00   2446s
  226791    1.9409875e+04   2.874188e+06   0.000000e+00   2450s
  227256    1.9409875e+04   4.875406e+05   0.000000e+00   2457s
  227561    1.9409874e+04   1.447551e+06   0.000000e+00   2461s
  227866    1.9409874e+04   1.521500e+06   0.000000e+00   2466s
  228176    1.9409874e+04   1.546887e+06   0.000000e+00   2471s
  228481    1.9409874e+04   1.478007e+06   0.000000e+00   2475s
  228931    1.9409874e+04   1.128523e+06   0.000000e+00   2482s
  229236    1.9409874e+04   1.981602e+06   0.000000e+00   2486s
  229541    1.9409873e+04   3.167538e+06   0.000000e+00   2491s
  229821    1.9409873e+04   2.086050e+06   0.000000e+00   2495s
  230261    1.9409873e+04   9.220710e+05   0.000000e+00   2502s
  230561    1.9409873e+04   1.433400e+06   0.000000e+00   2506s
  230871    1.9409873e+04   5.213610e+05   0.000000e+00   2511s
  231331    1.9409872e+04   1.171428e+06   0.000000e+00   2517s
  231641    1.9409872e+04   1.090730e+06   0.000000e+00   2521s
  231946    1.9409872e+04   1.337279e+06   0.000000e+00   2526s
  232256    1.9409872e+04   2.950121e+06   0.000000e+00   2530s
  232721    1.9409872e+04   1.966031e+06   0.000000e+00   2537s
  233031    1.9409872e+04   2.462161e+05   0.000000e+00   2541s
  233341    1.9409872e+04   6.605405e+05   0.000000e+00   2545s
  233806    1.9409872e+04   5.566057e+05   0.000000e+00   2551s
  234116    1.9409871e+04   2.274998e+05   0.000000e+00   2555s
  234581    1.9409871e+04   3.234578e+06   0.000000e+00   2562s
  234891    1.9409871e+04   2.172035e+05   0.000000e+00   2566s
  235201    1.9409871e+04   1.549735e+06   0.000000e+00   2571s
  235511    1.9409871e+04   1.616328e+06   0.000000e+00   2575s
  235936    1.9409871e+04   9.351419e+05   0.000000e+00   2582s
  236241    1.9409871e+04   3.627176e+05   0.000000e+00   2586s
  236551    1.9409870e+04   1.610828e+06   0.000000e+00   2590s
  237016    1.9409870e+04   7.850541e+05   0.000000e+00   2597s
  237326    1.9409870e+04   2.400120e+06   0.000000e+00   2602s
  237631    1.9409870e+04   1.880648e+06   0.000000e+00   2606s
  237941    1.9409870e+04   1.558322e+06   0.000000e+00   2611s
  238406    1.9409870e+04   6.215064e+05   0.000000e+00   2617s
  238716    1.9409869e+04   3.862297e+06   0.000000e+00   2622s
  239026    1.9409869e+04   2.165604e+06   0.000000e+00   2626s
  239331    1.9409869e+04   6.222378e+05   0.000000e+00   2630s
  239796    1.9409869e+04   1.247635e+06   0.000000e+00   2637s
  240106    1.9409869e+04   1.659175e+05   0.000000e+00   2641s
  240416    1.9409869e+04   1.084246e+06   0.000000e+00   2645s
  240881    1.9409869e+04   3.684959e+07   0.000000e+00   2651s
  241191    1.9409869e+04   7.108872e+05   0.000000e+00   2655s
  241656    1.9409868e+04   1.829012e+06   0.000000e+00   2662s
  241966    1.9409868e+04   1.100657e+06   0.000000e+00   2666s
  242271    1.9409868e+04   1.166290e+06   0.000000e+00   2670s
  242731    1.9409868e+04   1.485023e+06   0.000000e+00   2677s
  243041    1.9409868e+04   6.455666e+05   0.000000e+00   2681s
  243341    1.9409868e+04   3.246644e+05   0.000000e+00   2685s
  243801    1.9409868e+04   2.898983e+06   0.000000e+00   2691s
  244111    1.9409867e+04   4.687062e+05   0.000000e+00   2696s
  244551    1.9409867e+04   1.765751e+06   0.000000e+00   2702s
  244841    1.9409867e+04   9.017850e+05   0.000000e+00   2706s
  245131    1.9409867e+04   1.555768e+06   0.000000e+00   2711s
  245591    1.9409867e+04   2.759995e+06   0.000000e+00   2717s
  245891    1.9409867e+04   7.074278e+05   0.000000e+00   2722s
  246191    1.9409867e+04   1.193406e+06   0.000000e+00   2726s
  246501    1.9409867e+04   4.833008e+05   0.000000e+00   2731s
  246811    1.9409866e+04   7.494251e+06   0.000000e+00   2735s
  247276    1.9409866e+04   3.898557e+05   0.000000e+00   2742s
  247581    1.9409866e+04   7.698801e+05   0.000000e+00   2746s
  247976    1.9409866e+04   1.715449e+05   0.000000e+00   2751s
  248316    1.9409866e+04   6.650252e+05   0.000000e+00   2756s
  248596    1.9409866e+04   9.423498e+05   0.000000e+00   2760s
  249051    1.9409866e+04   3.306744e+05   0.000000e+00   2767s
  249356    1.9409866e+04   6.975811e+05   0.000000e+00   2771s
  249656    1.9409865e+04   5.115342e+05   0.000000e+00   2776s
  249956    1.9409865e+04   5.843140e+05   0.000000e+00   2780s
  250416    1.9409865e+04   4.942727e+05   0.000000e+00   2787s
  250726    1.9409865e+04   2.222238e+06   0.000000e+00   2791s
  251036    1.9409865e+04   2.488865e+05   0.000000e+00   2796s
  251341    1.9409865e+04   3.208327e+05   0.000000e+00   2800s
  251806    1.9409865e+04   2.554850e+06   0.000000e+00   2807s
  252116    1.9409865e+04   3.063472e+05   0.000000e+00   2812s
  252426    1.9409865e+04   2.831819e+05   0.000000e+00   2816s
  252736    1.9409864e+04   3.674407e+05   0.000000e+00   2821s
  253136    1.9409864e+04   1.066240e+06   0.000000e+00   2827s
  253446    1.9409864e+04   1.214271e+06   0.000000e+00   2831s
  253756    1.9409864e+04   4.819858e+05   0.000000e+00   2836s
  254066    1.9409864e+04   5.910529e+05   0.000000e+00   2840s
  254531    1.9409864e+04   1.283711e+06   0.000000e+00   2847s
  254841    1.9409864e+04   2.853301e+06   0.000000e+00   2851s
  255151    1.9409864e+04   5.622074e+05   0.000000e+00   2855s
  255566    1.9409864e+04   1.189518e+06   0.000000e+00   2862s
  255871    1.9409864e+04   2.390416e+05   0.000000e+00   2866s
  256171    1.9409863e+04   6.632513e+05   0.000000e+00   2871s
  256616    1.9409863e+04   6.050246e+05   0.000000e+00   2877s
  256906    1.9409863e+04   4.244951e+05   0.000000e+00   2881s
  257186    1.9409863e+04   6.969070e+05   0.000000e+00   2886s
  257606    1.9409863e+04   4.651879e+05   0.000000e+00   2892s
  257906    1.9409863e+04   2.581423e+05   0.000000e+00   2896s
  258196    1.9409863e+04   7.739558e+05   0.000000e+00   2901s
  258496    1.9409863e+04   1.129604e+05   0.000000e+00   2905s
  258946    1.9409863e+04   1.048816e+06   0.000000e+00   2912s
  259256    1.9409863e+04   5.119785e+06   0.000000e+00   2916s
  259706    1.9409862e+04   8.660600e+05   0.000000e+00   2922s
  260011    1.9409862e+04   4.850709e+05   0.000000e+00   2926s
  260311    1.9409862e+04   4.888268e+05   0.000000e+00   2930s
  260731    1.9409862e+04   1.257810e+06   0.000000e+00   2936s
  261031    1.9409862e+04   1.088140e+06   0.000000e+00   2940s
  261496    1.9409862e+04   4.291105e+05   0.000000e+00   2947s
  261801    1.9409862e+04   5.246682e+05   0.000000e+00   2951s
  262101    1.9409862e+04   4.044237e+05   0.000000e+00   2955s
  262481    1.9409862e+04   4.270714e+05   0.000000e+00   2961s
  262871    1.9409861e+04   1.037047e+06   0.000000e+00   2967s
  263131    1.9409861e+04   7.555757e+05   0.000000e+00   2970s
  263501    1.9409861e+04   3.929887e+05   0.000000e+00   2976s
  263851    1.9409861e+04   6.093751e+05   0.000000e+00   2981s
  264131    1.9409861e+04   8.741907e+05   0.000000e+00   2985s
  264541    1.9409861e+04   1.930340e+05   0.000000e+00   2991s
  264951    1.9409861e+04   2.057389e+06   0.000000e+00   2997s
  265231    1.9409861e+04   5.686952e+05   0.000000e+00   3001s
  265531    1.9409861e+04   6.857718e+05   0.000000e+00   3005s
  265961    1.9409861e+04   1.748253e+06   0.000000e+00   3011s
  266241    1.9409861e+04   5.006971e+05   0.000000e+00   3015s
  266661    1.9409860e+04   4.042669e+05   0.000000e+00   3021s
  266941    1.9409860e+04   4.755840e+05   0.000000e+00   3026s
  267221    1.9409860e+04   3.271692e+05   0.000000e+00   3030s
  267661    1.9409860e+04   3.569910e+05   0.000000e+00   3036s
  267941    1.9409860e+04   2.297383e+05   0.000000e+00   3041s
  268251    1.9409860e+04   3.138845e+05   0.000000e+00   3045s
  268716    1.9409860e+04   9.832142e+05   0.000000e+00   3052s
  269021    1.9409860e+04   1.883952e+05   0.000000e+00   3056s
  269311    1.9409860e+04   3.205170e+05   0.000000e+00   3060s
  269761    1.9409860e+04   1.412754e+05   0.000000e+00   3067s
  270071    1.9409860e+04   5.514492e+05   0.000000e+00   3071s
  270381    1.9409860e+04   2.164515e+05   0.000000e+00   3076s
  270781    1.9409860e+04   5.624993e+05   0.000000e+00   3082s
  271061    1.9409860e+04   2.063201e+05   0.000000e+00   3086s
  271441    1.9409860e+04   5.869111e+05   0.000000e+00   3092s
  271691    1.9409860e+04   1.268862e+05   0.000000e+00   3095s
  272111    1.9409859e+04   3.503356e+05   0.000000e+00   3101s
  272481    1.9409859e+04   2.253233e+05   0.000000e+00   3107s
  272751    1.9409859e+04   5.392399e+05   0.000000e+00   3110s
  273101    1.9409859e+04   2.145304e+05   0.000000e+00   3115s
  273471    1.9409859e+04   1.054300e+05   0.000000e+00   3121s
  273861    1.9409859e+04   1.404750e+05   0.000000e+00   3126s
  274131    1.9409859e+04   1.546850e+05   0.000000e+00   3130s
  274581    1.9409859e+04   1.319193e+06   0.000000e+00   3137s
  274821    1.9409859e+04   6.278478e+04   0.000000e+00   3140s
  275201    1.9409859e+04   2.095904e+06   0.000000e+00   3146s
  275611    1.9409859e+04   3.378169e+05   0.000000e+00   3152s
  275911    1.9409859e+04   4.266565e+05   0.000000e+00   3156s
  276211    1.9409859e+04   4.703550e+05   0.000000e+00   3160s
  276621    1.9409859e+04   4.105887e+05   0.000000e+00   3166s
  276881    1.9409859e+04   3.681485e+05   0.000000e+00   3170s
  277291    1.9409859e+04   1.524136e+05   0.000000e+00   3176s
  277671    1.9409859e+04   1.292619e+05   0.000000e+00   3181s
  277961    1.9409859e+04   1.080538e+05   0.000000e+00   3185s
  278391    1.9409859e+04   2.938288e+05   0.000000e+00   3191s
  278751    1.9409859e+04   3.331580e+05   0.000000e+00   3197s
  279041    1.9409859e+04   4.748608e+04   0.000000e+00   3201s
  279411    1.9409858e+04   3.241487e+05   0.000000e+00   3206s
  279691    1.9409858e+04   8.751565e+04   0.000000e+00   3211s
  280111    1.9409858e+04   4.800816e+05   0.000000e+00   3217s
  280411    1.9409858e+04   7.116921e+04   0.000000e+00   3221s
  280711    1.9409858e+04   4.199663e+04   0.000000e+00   3225s
  281131    1.9409858e+04   4.076090e+05   0.000000e+00   3231s
  281421    1.9409858e+04   9.098197e+04   0.000000e+00   3236s
  281876    1.9409858e+04   8.698195e+04   0.000000e+00   3242s
  282136    1.9409858e+04   2.060339e+05   0.000000e+00   3245s
  282536    1.9409858e+04   7.363586e+04   0.000000e+00   3251s
  282916    1.9409858e+04   6.654678e+05   0.000000e+00   3256s
  283286    1.9409858e+04   8.692178e+04   0.000000e+00   3262s
  283546    1.9409858e+04   4.808382e+04   0.000000e+00   3266s
  283956    1.9409858e+04   2.995016e+05   0.000000e+00   3272s
  284236    1.9409858e+04   4.888126e+04   0.000000e+00   3275s
  284656    1.9409858e+04   2.459787e+05   0.000000e+00   3281s
  284936    1.9409858e+04   1.342234e+06   0.000000e+00   3285s
  285356    1.9409858e+04   4.875927e+04   0.000000e+00   3291s
  285646    1.9409858e+04   2.135677e+05   0.000000e+00   3295s
  286106    1.9409858e+04   1.102370e+05   0.000000e+00   3301s
  286486    1.9409858e+04   3.584414e+05   0.000000e+00   3307s
  286746    1.9409858e+04   6.304300e+04   0.000000e+00   3310s
  287116    1.9409858e+04   6.016600e+04   0.000000e+00   3316s
  287516    1.9409858e+04   4.165909e+04   0.000000e+00   3321s
  287796    1.9409858e+04   8.094242e+04   0.000000e+00   3325s
  288216    1.9409858e+04   1.675100e+04   0.000000e+00   3331s
  288626    1.9409858e+04   2.816713e+04   0.000000e+00   3337s
  288906    1.9409858e+04   9.985832e+04   0.000000e+00   3341s
  289326    1.9409858e+04   1.498445e+05   0.000000e+00   3346s
  289606    1.9409858e+04   3.616085e+04   0.000000e+00   3350s
  290036    1.9409858e+04   3.927653e+04   0.000000e+00   3356s
  290456    1.9409858e+04   1.414653e+05   0.000000e+00   3362s
  290726    1.9409858e+04   1.564627e+05   0.000000e+00   3365s
  291146    1.9409858e+04   1.028212e+05   0.000000e+00   3371s
  291426    1.9409858e+04   1.319366e+05   0.000000e+00   3375s
  291796    1.9409858e+04   1.057141e+04   0.000000e+00   3380s
  292166    1.9409858e+04   6.766182e+04   0.000000e+00   3386s
  292526    1.9409858e+04   1.482481e+04   0.000000e+00   3391s
  292876    1.9409858e+04   2.165205e+04   0.000000e+00   3395s
  293266    1.9409858e+04   1.286200e+04   0.000000e+00   3401s
  293686    1.9409858e+04   7.475720e+04   0.000000e+00   3407s
  293966    1.9409857e+04   1.655396e+04   0.000000e+00   3410s
  294346    1.9409857e+04   1.464719e+04   0.000000e+00   3416s
  294736    1.9409857e+04   2.037988e+05   0.000000e+00   3421s
  295156    1.9409857e+04   1.465708e+04   0.000000e+00   3427s
  295436    1.9409857e+04   1.955221e+05   0.000000e+00   3430s
  295856    1.9409857e+04   4.343552e+04   0.000000e+00   3436s
  296226    1.9409857e+04   5.465477e+04   0.000000e+00   3441s
  296486    1.9409857e+04   4.211716e+03   0.000000e+00   3445s
  296906    1.9409857e+04   1.590302e+04   0.000000e+00   3451s
  297296    1.9409857e+04   6.555655e+03   0.000000e+00   3456s
  297706    1.9409857e+04   4.281213e+03   0.000000e+00   3461s
  298136    1.9409857e+04   6.247736e+03   0.000000e+00   3466s
  298426    1.9409857e+04   3.997398e+03   0.000000e+00   3470s
  298836    1.9409857e+04   7.134408e+05   0.000000e+00   3476s
  299256    1.9409857e+04   4.694424e+03   0.000000e+00   3481s
  299676    1.9409857e+04   4.026190e+04   0.000000e+00   3487s
  299956    1.9409857e+04   5.679205e+03   0.000000e+00   3490s
  300336    1.9409857e+04   6.141470e+02   0.000000e+00   3495s
  300756    1.9409857e+04   9.188602e+01   0.000000e+00   3501s
  301166    1.9409857e+04   1.731316e+00   0.000000e+00   3506s
  301255    1.9410000e+04   0.000000e+00   0.000000e+00   3507s
  301255    1.9410000e+04   0.000000e+00   0.000000e+00   3507s

Root relaxation: objective 1.941000e+04, 301255 iterations, 3500.22 seconds

    Nodes    |    Current Node    |     Objective Bounds      |     Work
 Expl Unexpl |  Obj  Depth IntInf | Incumbent    BestBd   Gap | It/Node Time

     0     0 19410.0000    0 23294 3930.00000 19410.0000   394%     - 3600s

Explored 0 nodes (317918 simplex iterations) in 3600.13 seconds
Thread count was 1 (of 40 available processors)

Solution count 1: 3930 

Time limit reached
Best objective 3.930000000000e+03, best bound 1.941000000000e+04, gap 393.8931%

----------

Best objective (UB): 19410.000
Best feasible solution (LB): 3930.000
Gap between the lower bound and upper bound: 393.893%

----------

Number of customers served: 35

Schedule for EV v0:
   [   0,  851) -> It remains parked at station s0.
   [ 851, 1031) -> Service a request driving for customer c95 from s0 to s0.
   [1031, 1089) -> It remains parked at station s0.
   [1089, 1149) -> Service a request driving for customer c8 from s0 to s3.
   [1149, tmax) -> It remains parked at station s3.

Schedule for EV v1:
   [   0,  968) -> It remains parked at station s0.
   [ 968, 1058) -> Service a request driving for customer c71 from s0 to s0.
   [1058, 1389) -> It remains parked at station s0.
   [1389, 1419) -> Service a request driving for customer c42 from s0 to s11.
   [1419, tmax) -> It remains parked at station s11.

Schedule for EV v2:
   [   0,  790) -> It remains parked at station s0.
   [ 790,  850) -> Service a request driving for customer c47 from s0 to s4.
   [ 850, 1154) -> It remains parked at station s4.
   [1154, 1214) -> Service a request driving for customer c81 from s4 to s10.
   [1214, tmax) -> It remains parked at station s10.

Schedule for EV v3:
   [   0, tmax) -> It remains parked at station s0.

Schedule for EV v4:
   [   0, tmax) -> It remains parked at station s0.

Schedule for EV v5:
   [   0, tmax) -> It remains parked at station s0.

Schedule for EV v6:
   [   0, tmax) -> It remains parked at station s0.

Schedule for EV v7:
   [   0, tmax) -> It remains parked at station s0.

Schedule for EV v8:
   [   0, tmax) -> It remains parked at station s0.

Schedule for EV v9:
   [   0, tmax) -> It remains parked at station s0.

Schedule for EV v10:
   [   0, tmax) -> It remains parked at station s0.

Schedule for EV v11:
   [   0,  727) -> It remains parked at station s1.
   [ 727,  817) -> Service a request driving for customer c41 from s1 to s7.
   [ 817,  850) -> It remains parked at station s7.
   [ 850,  910) -> Service a request driving for customer c41 from s7 to s9.
   [ 910, tmax) -> It remains parked at station s9.

Schedule for EV v12:
   [   0,  855) -> It remains parked at station s1.
   [ 855,  915) -> Service a request driving for customer c53 from s1 to s11.
   [ 915, tmax) -> It remains parked at station s11.

Schedule for EV v13:
   [   0,  786) -> It remains parked at station s1.
   [ 786,  846) -> Service a request driving for customer c65 from s1 to s5.
   [ 846, tmax) -> It remains parked at station s5.

Schedule for EV v14:
   [   0,  425) -> It remains parked at station s1.
   [ 425,  455) -> Service a request driving for customer c75 from s1 to s10.
   [ 455,  845) -> It remains parked at station s10.
   [ 845,  905) -> Service a request driving for customer c75 from s10 to s6.
   [ 905, tmax) -> It remains parked at station s6.

Schedule for EV v15:
   [   0, tmax) -> It remains parked at station s1.

Schedule for EV v16:
   [   0, tmax) -> It remains parked at station s1.

Schedule for EV v17:
   [   0, tmax) -> It remains parked at station s1.

Schedule for EV v18:
   [   0, tmax) -> It remains parked at station s1.

Schedule for EV v19:
   [   0, tmax) -> It remains parked at station s1.

Schedule for EV v20:
   [   0, tmax) -> It remains parked at station s1.

Schedule for EV v21:
   [   0, tmax) -> It remains parked at station s1.

Schedule for EV v22:
   [   0, tmax) -> It remains parked at station s1.

Schedule for EV v23:
   [   0, 1276) -> It remains parked at station s2.
   [1276, 1486) -> Service a request driving for customer c28 from s2 to s2.
   [1486, tmax) -> It remains parked at station s2.

Schedule for EV v24:
   [   0,  612) -> It remains parked at station s2.
   [ 612,  702) -> Service a request driving for customer c35 from s2 to s1.
   [ 702, tmax) -> It remains parked at station s1.

Schedule for EV v25:
   [   0, 1091) -> It remains parked at station s2.
   [1091, 1181) -> Service a request driving for customer c67 from s2 to s10.
   [1181, tmax) -> It remains parked at station s10.

Schedule for EV v26:
   [   0, tmax) -> It remains parked at station s2.

Schedule for EV v27:
   [   0, tmax) -> It remains parked at station s2.

Schedule for EV v28:
   [   0, tmax) -> It remains parked at station s2.

Schedule for EV v29:
   [   0, tmax) -> It remains parked at station s2.

Schedule for EV v30:
   [   0,  486) -> It remains parked at station s3.
   [ 486,  756) -> Service a request driving for customer c29 from s3 to s9.
   [ 756, tmax) -> It remains parked at station s9.

Schedule for EV v31:
   [   0,  549) -> It remains parked at station s3.
   [ 549,  819) -> Service a request driving for customer c99 from s3 to s10.
   [ 819, tmax) -> It remains parked at station s10.

Schedule for EV v32:
   [   0,  553) -> It remains parked at station s3.
   [ 553,  703) -> Service a request driving for customer c6 from s3 to s4.
   [ 703, tmax) -> It remains parked at station s4.

Schedule for EV v33:
   [   0,  495) -> It remains parked at station s3.
   [ 495,  555) -> Service a request driving for customer c32 from s3 to s0.
   [ 555, 1035) -> It remains parked at station s0.
   [1035, 1155) -> Service a request driving for customer c32 from s0 to s11.
   [1155, tmax) -> It remains parked at station s11.

Schedule for EV v34:
   [   0, 1209) -> It remains parked at station s3.
   [1209, 1269) -> Service a request driving for customer c7 from s3 to s3.
   [1269, tmax) -> It remains parked at station s3.

Schedule for EV v35:
   [   0,  790) -> It remains parked at station s3.
   [ 790,  850) -> Service a request driving for customer c13 from s3 to s3.
   [ 850, tmax) -> It remains parked at station s3.

Schedule for EV v36:
   [   0, tmax) -> It remains parked at station s3.

Schedule for EV v37:
   [   0, tmax) -> It remains parked at station s3.

Schedule for EV v38:
   [   0, tmax) -> It remains parked at station s3.

Schedule for EV v39:
   [   0, tmax) -> It remains parked at station s3.

Schedule for EV v40:
   [   0,  606) -> It remains parked at station s4.
   [ 606,  756) -> Service a request driving for customer c11 from s4 to s4.
   [ 756,  852) -> It remains parked at station s4.
   [ 852, 1002) -> Service a request driving for customer c61 from s4 to s0.
   [1002, tmax) -> It remains parked at station s0.

Schedule for EV v41:
   [   0,  551) -> It remains parked at station s4.
   [ 551,  611) -> Service a request driving for customer c56 from s4 to s6.
   [ 611, 1331) -> It remains parked at station s6.
   [1331, 1511) -> Service a request driving for customer c56 from s6 to s3.
   [1511, tmax) -> It remains parked at station s3.

Schedule for EV v42:
   [   0, 1151) -> It remains parked at station s4.
   [1151, 1271) -> Service a request driving for customer c90 from s4 to s1.
   [1271, tmax) -> It remains parked at station s1.

Schedule for EV v43:
   [   0, tmax) -> It remains parked at station s4.

Schedule for EV v44:
   [   0, tmax) -> It remains parked at station s4.

Schedule for EV v45:
   [   0, tmax) -> It remains parked at station s4.

Schedule for EV v46:
   [   0, tmax) -> It remains parked at station s4.

Schedule for EV v47:
   [   0, tmax) -> It remains parked at station s4.

Schedule for EV v48:
   [   0, tmax) -> It remains parked at station s4.

Schedule for EV v49:
   [   0, tmax) -> It remains parked at station s4.

Schedule for EV v50:
   [   0, tmax) -> It remains parked at station s4.

Schedule for EV v51:
   [   0,  906) -> It remains parked at station s5.
   [ 906,  996) -> Service a request driving for customer c83 from s5 to s2.
   [ 996, tmax) -> It remains parked at station s2.

Schedule for EV v52:
   [   0, 1093) -> It remains parked at station s5.
   [1093, 1153) -> Service a request driving for customer c66 from s5 to s8.
   [1153, tmax) -> It remains parked at station s8.

Schedule for EV v53:
   [   0, tmax) -> It remains parked at station s5.

Schedule for EV v54:
   [   0, tmax) -> It remains parked at station s5.

Schedule for EV v55:
   [   0, tmax) -> It remains parked at station s5.

Schedule for EV v56:
   [   0, tmax) -> It remains parked at station s5.

Schedule for EV v57:
   [   0, tmax) -> It remains parked at station s5.

Schedule for EV v58:
   [   0, tmax) -> It remains parked at station s5.

Schedule for EV v59:
   [   0,  732) -> It remains parked at station s6.
   [ 732,  912) -> Service a request driving for customer c91 from s6 to s4.
   [ 912, tmax) -> It remains parked at station s4.

Schedule for EV v60:
   [   0,  729) -> It remains parked at station s6.
   [ 729,  879) -> Service a request driving for customer c30 from s6 to s5.
   [ 879, tmax) -> It remains parked at station s5.

Schedule for EV v61:
   [   0, 1089) -> It remains parked at station s6.
   [1089, 1149) -> Service a request driving for customer c4 from s6 to s1.
   [1149, tmax) -> It remains parked at station s1.

Schedule for EV v62:
   [   0, 1214) -> It remains parked at station s6.
   [1214, 1274) -> Service a request driving for customer c63 from s6 to s1.
   [1274, tmax) -> It remains parked at station s1.

Schedule for EV v63:
   [   0, 1149) -> It remains parked at station s6.
   [1149, 1209) -> Service a request driving for customer c74 from s6 to s4.
   [1209, tmax) -> It remains parked at station s4.

Schedule for EV v64:
   [   0, tmax) -> It remains parked at station s6.

Schedule for EV v65:
   [   0, tmax) -> It remains parked at station s6.

Schedule for EV v66:
   [   0, tmax) -> It remains parked at station s6.

Schedule for EV v67:
   [   0, tmax) -> It remains parked at station s6.

Schedule for EV v68:
   [   0, tmax) -> It remains parked at station s6.

Schedule for EV v69:
   [   0, tmax) -> It remains parked at station s6.

Schedule for EV v70:
   [   0, 1028) -> It remains parked at station s7.
   [1028, 1088) -> Service a request driving for customer c31 from s7 to s10.
   [1088, tmax) -> It remains parked at station s10.

Schedule for EV v71:
   [   0, tmax) -> It remains parked at station s7.

Schedule for EV v72:
   [   0, tmax) -> It remains parked at station s7.

Schedule for EV v73:
   [   0, tmax) -> It remains parked at station s7.

Schedule for EV v74:
   [   0, tmax) -> It remains parked at station s7.

Schedule for EV v75:
   [   0, tmax) -> It remains parked at station s7.

Schedule for EV v76:
   [   0,  550) -> It remains parked at station s8.
   [ 550,  610) -> Service a request driving for customer c55 from s8 to s9.
   [ 610, tmax) -> It remains parked at station s9.

Schedule for EV v77:
   [   0, tmax) -> It remains parked at station s8.

Schedule for EV v78:
   [   0, tmax) -> It remains parked at station s8.

Schedule for EV v79:
   [   0, tmax) -> It remains parked at station s8.

Schedule for EV v80:
   [   0, tmax) -> It remains parked at station s8.

Schedule for EV v81:
   [   0, tmax) -> It remains parked at station s8.

Schedule for EV v82:
   [   0, tmax) -> It remains parked at station s8.

Schedule for EV v83:
   [   0, tmax) -> It remains parked at station s8.

Schedule for EV v84:
   [   0, tmax) -> It remains parked at station s9.

Schedule for EV v85:
   [   0, tmax) -> It remains parked at station s9.

Schedule for EV v86:
   [   0, tmax) -> It remains parked at station s9.

Schedule for EV v87:
   [   0, tmax) -> It remains parked at station s9.

Schedule for EV v88:
   [   0, tmax) -> It remains parked at station s9.

Schedule for EV v89:
   [   0, tmax) -> It remains parked at station s9.

Schedule for EV v90:
   [   0, tmax) -> It remains parked at station s9.

Schedule for EV v91:
   [   0, tmax) -> It remains parked at station s9.

Schedule for EV v92:
   [   0, tmax) -> It remains parked at station s9.

Schedule for EV v93:
   [   0, tmax) -> It remains parked at station s9.

Schedule for EV v94:
   [   0, tmax) -> It remains parked at station s9.

Schedule for EV v95:
   [   0, tmax) -> It remains parked at station s9.

Schedule for EV v96:
   [   0, tmax) -> It remains parked at station s10.

Schedule for EV v97:
   [   0, tmax) -> It remains parked at station s10.

Schedule for EV v98:
   [   0, tmax) -> It remains parked at station s10.

Schedule for EV v99:
   [   0, tmax) -> It remains parked at station s10.

Schedule for EV v100:
   [   0, tmax) -> It remains parked at station s10.

Schedule for EV v101:
   [   0, tmax) -> It remains parked at station s10.

Schedule for EV v102:
   [   0, tmax) -> It remains parked at station s10.

Schedule for EV v103:
   [   0, tmax) -> It remains parked at station s10.

Schedule for EV v104:
   [   0, tmax) -> It remains parked at station s10.

Schedule for EV v105:
   [   0, tmax) -> It remains parked at station s10.

Schedule for EV v106:
   [   0, tmax) -> It remains parked at station s10.

Schedule for EV v107:
   [   0, tmax) -> It remains parked at station s10.

Schedule for EV v108:
   [   0, 1091) -> It remains parked at station s11.
   [1091, 1211) -> Service a request driving for customer c94 from s11 to s11.
   [1211, tmax) -> It remains parked at station s11.

Schedule for EV v109:
   [   0,  606) -> It remains parked at station s11.
   [ 606,  666) -> Service a request driving for customer c1 from s11 to s0.
   [ 666,  845) -> It remains parked at station s0.
   [ 845,  905) -> Service a request driving for customer c1 from s0 to s7.
   [ 905, tmax) -> It remains parked at station s7.

Schedule for EV v110:
   [   0,  791) -> It remains parked at station s11.
   [ 791,  821) -> Service a request driving for customer c17 from s11 to s8.
   [ 821, tmax) -> It remains parked at station s8.

Schedule for EV v111:
   [   0, tmax) -> It remains parked at station s11.

Set of satisfied customers
   {c1, c4, c6, c7, c8, c11, c13, c17, c28, c29, c30, c31, c32, c35, c41, c42, c47, c53, c55, c56, c61, c63, c65, c66, c67, c71, c74, c75, c81, c83, c90, c91, c94, c95, c99}

