Academic license - for non-commercial use only
Gurobi Optimizer version 9.0.3 build v9.0.3rc0 (linux64)
Optimize a model with 316517 rows, 350977 columns and 966009 nonzeros
Model fingerprint: 0xc86c17b9
Variable types: 318225 continuous, 32752 integer (32752 binary)
Coefficient statistics:
  Matrix range     [1e+00, 4e+06]
  Objective range  [3e+01, 5e+02]
  Bounds range     [1e+00, 2e+06]
  RHS range        [1e+00, 2e+06]

Loaded user MIP start with objective 2730

Presolve removed 297012 rows and 319485 columns
Presolve time: 2.59s
Presolved: 19505 rows, 31492 columns, 172915 nonzeros
Variable types: 198 continuous, 31294 integer (22236 binary)

Root simplex log...

Iteration    Objective       Primal Inf.    Dual Inf.      Time
    6572    8.1599982e+03   1.078599e+05   0.000000e+00      5s
   10606    7.9199974e+03   8.190041e+05   0.000000e+00     10s
   13868    7.5299970e+03   1.454968e+06   0.000000e+00     15s
   16718    7.4999963e+03   7.637699e+04   0.000000e+00     20s
   19638    7.3799959e+03   6.591946e+04   0.000000e+00     25s
   21528    7.3800000e+03   0.000000e+00   0.000000e+00     28s
   21528    7.3800000e+03   0.000000e+00   0.000000e+00     28s

Root relaxation: objective 7.380000e+03, 21528 iterations, 25.77 seconds
Total elapsed time = 42.16s
Total elapsed time = 57.84s
Total elapsed time = 67.55s
Total elapsed time = 74.09s

    Nodes    |    Current Node    |     Objective Bounds      |     Work
 Expl Unexpl |  Obj  Depth IntInf | Incumbent    BestBd   Gap | It/Node Time

     0     0 7380.00000    0 1504 2730.00000 7380.00000   170%     -   77s
H    0     0                    7350.0000000 7380.00000  0.41%     -   77s
     0     0 7380.00000    0 1928 7350.00000 7380.00000  0.41%     -   87s
     0     0 7380.00000    0 2074 7350.00000 7380.00000  0.41%     -   90s
     0     0 7380.00000    0 1273 7350.00000 7380.00000  0.41%     -  126s
H    0     0                    7380.0000000 7380.00000  0.00%     -  126s
     0     0 7380.00000    0 1264 7380.00000 7380.00000  0.00%     -  126s

Cutting planes:
  Implied bound: 1620
  MIR: 10
  StrongCG: 6
  Zero half: 1
  RLT: 134
  Relax-and-lift: 84

Explored 1 nodes (167762 simplex iterations) in 126.49 seconds
Thread count was 1 (of 40 available processors)

Solution count 3: 7380 7350 2730 

Optimal solution found (tolerance 1.00e-04)
Best objective 7.380000000000e+03, best bound 7.380000000000e+03, gap 0.0000%

----------

Best objective (UB): 7380.000
Best feasible solution (LB): 7380.000
Gap between the lower bound and upper bound: 0.000%

----------

Number of customers served: 42

Schedule for EV v0:
   [   0, tmax) -> It remains parked at station s0.

Schedule for EV v1:
   [   0,  731) -> It remains parked at station s0.
   [ 731,  821) -> Service a request driving for customer c28 from s0 to s3.
   [ 821, 1095) -> It remains parked at station s3, which was charging for charging.
   [1095, 1155) -> Service a request driving for customer c12 from s3 to s3.
   [1155, 1334) -> It remains parked at station s3.
   [1334, 1424) -> Service a request driving for customer c30 from s3 to s4.
   [1424, tmax) -> It remains parked at station s4.

Schedule for EV v2:
   [   0, tmax) -> It remains parked at station s0.

Schedule for EV v3:
   [   0,  915) -> It remains parked at station s0.
   [ 915, 1065) -> Service a request driving for customer c48 from s0 to s10.
   [1065, tmax) -> It remains parked at station s10, which was charging for charging.

Schedule for EV v4:
   [   0,  908) -> It remains parked at station s0.
   [ 908,  998) -> Service a request driving for customer c17 from s0 to s7.
   [ 998, 1087) -> It remains parked at station s7, which was charging for charging.
   [1087, 1117) -> Service a request driving for customer c19 from s7 to s9.
   [1117, 1270) -> It remains parked at station s9, which was charging for charging.
   [1270, 1510) -> Service a request driving for customer c40 from s9 to s11.
   [1510, tmax) -> It remains parked at station s11.

Schedule for EV v5:
   [   0, tmax) -> It remains parked at station s0.

Schedule for EV v6:
   [   0, tmax) -> It remains parked at station s0.

Schedule for EV v7:
   [   0, 1036) -> It remains parked at station s1.
   [1036, 1246) -> Service a request driving for customer c5 from s1 to s4.
   [1246, tmax) -> It remains parked at station s4.

Schedule for EV v8:
   [   0,  490) -> It remains parked at station s1.
   [ 490,  580) -> Service a request driving for customer c16 from s1 to s5.
   [ 580,  733) -> It remains parked at station s5, which was charging for charging.
   [ 733,  883) -> Service a request driving for customer c7 from s5 to s1.
   [ 883,  968) -> It remains parked at station s1, which was charging for charging.
   [ 968,  998) -> Service a request driving for customer c46 from s1 to s10.
   [ 998, 1027) -> It remains parked at station s10.
   [1027, 1057) -> Service a request driving for customer c39 from s10 to s4.
   [1057, 1096) -> It remains parked at station s4.
   [1096, 1156) -> Service a request driving for customer c0 from s4 to s1.
   [1156, tmax) -> It remains parked at station s1.

Schedule for EV v9:
   [   0, tmax) -> It remains parked at station s1.

Schedule for EV v10:
   [   0, tmax) -> It remains parked at station s1.

Schedule for EV v11:
   [   0, tmax) -> It remains parked at station s1.

Schedule for EV v12:
   [   0, tmax) -> It remains parked at station s1.

Schedule for EV v13:
   [   0, tmax) -> It remains parked at station s1.

Schedule for EV v14:
   [   0,  489) -> It remains parked at station s1.
   [ 489,  519) -> Service a request driving for customer c13 from s1 to s11.
   [ 519, 1388) -> It remains parked at station s11, which was charging for charging.
   [1388, 1538) -> Service a request driving for customer c0 from s11 to s4.
   [1538, tmax) -> It remains parked at station s4.

Schedule for EV v15:
   [   0, tmax) -> It remains parked at station s2.

Schedule for EV v16:
   [   0, tmax) -> It remains parked at station s2.

Schedule for EV v17:
   [   0,  555) -> It remains parked at station s2.
   [ 555,  645) -> Service a request driving for customer c43 from s2 to s0.
   [ 645,  789) -> It remains parked at station s0, which was charging for charging.
   [ 789, 1089) -> Service a request driving for customer c15 from s0 to s2.
   [1089, 1215) -> It remains parked at station s2.
   [1215, 1305) -> Service a request driving for customer c0 from s2 to s8.
   [1305, tmax) -> It remains parked at station s8.

Schedule for EV v18:
   [   0, 1212) -> It remains parked at station s2.
   [1212, 1242) -> Service a request driving for customer c43 from s2 to s7.
   [1242, tmax) -> It remains parked at station s7, which was charging for charging.

Schedule for EV v19:
   [   0, 1207) -> It remains parked at station s2.
   [1207, 1237) -> Service a request driving for customer c21 from s2 to s4.
   [1237, tmax) -> It remains parked at station s4.

Schedule for EV v20:
   [   0, tmax) -> It remains parked at station s2.

Schedule for EV v21:
   [   0, tmax) -> It remains parked at station s2.

Schedule for EV v22:
   [   0, tmax) -> It remains parked at station s2.

Schedule for EV v23:
   [   0, tmax) -> It remains parked at station s2.

Schedule for EV v24:
   [   0, 1096) -> It remains parked at station s3.
   [1096, 1336) -> Service a request driving for customer c11 from s3 to s4.
   [1336, tmax) -> It remains parked at station s4, which was charging for charging.

Schedule for EV v25:
   [   0,  670) -> It remains parked at station s3.
   [ 670,  910) -> Service a request driving for customer c33 from s3 to s0.
   [ 910, 1328) -> It remains parked at station s0, which was charging for charging.
   [1328, 1448) -> Service a request driving for customer c17 from s0 to s8.
   [1448, tmax) -> It remains parked at station s8.

Schedule for EV v26:
   [   0,  910) -> It remains parked at station s3.
   [ 910,  970) -> Service a request driving for customer c4 from s3 to s2.
   [ 970, tmax) -> It remains parked at station s2, which was charging for charging.

Schedule for EV v27:
   [   0, 1147) -> It remains parked at station s3.
   [1147, 1207) -> Service a request driving for customer c27 from s3 to s1.
   [1207, 1208) -> It remains parked at station s1, which was charging for charging.
   [1208, 1478) -> Service a request driving for customer c9 from s1 to s2.
   [1478, tmax) -> It remains parked at station s2.

Schedule for EV v28:
   [   0,  733) -> It remains parked at station s3.
   [ 733,  793) -> Service a request driving for customer c25 from s3 to s0.
   [ 793, tmax) -> It remains parked at station s0, which was charging for charging.

Schedule for EV v29:
   [   0,  549) -> It remains parked at station s4.
   [ 549,  759) -> Service a request driving for customer c46 from s4 to s11.
   [ 759,  910) -> It remains parked at station s11, which was charging for charging.
   [ 910, 1120) -> Service a request driving for customer c13 from s11 to s1.
   [1120, tmax) -> It remains parked at station s1.

Schedule for EV v30:
   [   0,  549) -> It remains parked at station s4.
   [ 549,  699) -> Service a request driving for customer c40 from s4 to s5.
   [ 699, 1087) -> It remains parked at station s5, which was charging for charging.
   [1087, 1147) -> Service a request driving for customer c18 from s5 to s9.
   [1147, tmax) -> It remains parked at station s9.

Schedule for EV v31:
   [   0,  492) -> It remains parked at station s4.
   [ 492,  822) -> Service a request driving for customer c8 from s4 to s10.
   [ 822, tmax) -> It remains parked at station s10.

Schedule for EV v32:
   [   0, 1453) -> It remains parked at station s5.
   [1453, 1513) -> Service a request driving for customer c21 from s5 to s6.
   [1513, tmax) -> It remains parked at station s6.

Schedule for EV v33:
   [   0, tmax) -> It remains parked at station s5.

Schedule for EV v34:
   [   0, tmax) -> It remains parked at station s5.

Schedule for EV v35:
   [   0, tmax) -> It remains parked at station s5.

Schedule for EV v36:
   [   0,  612) -> It remains parked at station s5.
   [ 612,  762) -> Service a request driving for customer c5 from s5 to s2.
   [ 762, 1216) -> It remains parked at station s2, which was charging for charging.
   [1216, 1276) -> Service a request driving for customer c22 from s2 to s5.
   [1276, tmax) -> It remains parked at station s5.

Schedule for EV v37:
   [   0, 1272) -> It remains parked at station s5.
   [1272, 1332) -> Service a request driving for customer c37 from s5 to s5.
   [1332, tmax) -> It remains parked at station s5, which was charging for charging.

Schedule for EV v38:
   [   0, tmax) -> It remains parked at station s6.

Schedule for EV v39:
   [   0,  975) -> It remains parked at station s6.
   [ 975, 1005) -> Service a request driving for customer c34 from s6 to s7.
   [1005, tmax) -> It remains parked at station s7, which was charging for charging.

Schedule for EV v40:
   [   0, tmax) -> It remains parked at station s6.

Schedule for EV v41:
   [   0, tmax) -> It remains parked at station s6.

Schedule for EV v42:
   [   0, tmax) -> It remains parked at station s6.

Schedule for EV v43:
   [   0,  845) -> It remains parked at station s6.
   [ 845,  875) -> Service a request driving for customer c18 from s6 to s4.
   [ 875, 1090) -> It remains parked at station s4.
   [1090, 1150) -> Service a request driving for customer c28 from s4 to s11.
   [1150, 1270) -> It remains parked at station s11.
   [1270, 1300) -> Service a request driving for customer c39 from s11 to s1.
   [1300, 1389) -> It remains parked at station s1, which was charging for charging.
   [1389, 1569) -> Service a request driving for customer c25 from s1 to s6.
   [1569, tmax) -> It remains parked at station s6.

Schedule for EV v44:
   [   0, tmax) -> It remains parked at station s6.

Schedule for EV v45:
   [   0, tmax) -> It remains parked at station s6.

Schedule for EV v46:
   [   0, tmax) -> It remains parked at station s6.

Schedule for EV v47:
   [   0, tmax) -> It remains parked at station s6.

Schedule for EV v48:
   [   0,  668) -> It remains parked at station s6, which was charging for charging.
   [ 668,  878) -> Service a request driving for customer c21 from s6 to s6.
   [ 878, tmax) -> It remains parked at station s6, which was charging for charging.

Schedule for EV v49:
   [   0, tmax) -> It remains parked at station s7.

Schedule for EV v50:
   [   0, tmax) -> It remains parked at station s7.

Schedule for EV v51:
   [   0, tmax) -> It remains parked at station s7.

Schedule for EV v52:
   [   0, tmax) -> It remains parked at station s7.

Schedule for EV v53:
   [   0, tmax) -> It remains parked at station s7.

Schedule for EV v54:
   [   0,  911) -> It remains parked at station s7.
   [ 911,  941) -> Service a request driving for customer c20 from s7 to s6.
   [ 941, 1030) -> It remains parked at station s6.
   [1030, 1090) -> Service a request driving for customer c14 from s6 to s9.
   [1090, 1275) -> It remains parked at station s9.
   [1275, 1395) -> Service a request driving for customer c36 from s9 to s7.
   [1395, tmax) -> It remains parked at station s7.

Schedule for EV v55:
   [   0,  791) -> It remains parked at station s8.
   [ 791,  881) -> Service a request driving for customer c6 from s8 to s9.
   [ 881, 1036) -> It remains parked at station s9.
   [1036, 1096) -> Service a request driving for customer c23 from s9 to s2.
   [1096, 1214) -> It remains parked at station s2.
   [1214, 1244) -> Service a request driving for customer c26 from s2 to s4.
   [1244, tmax) -> It remains parked at station s4, which was charging for charging.

Schedule for EV v56:
   [   0,  966) -> It remains parked at station s8.
   [ 966, 1086) -> Service a request driving for customer c19 from s8 to s6.
   [1086, tmax) -> It remains parked at station s6, which was charging for charging.

Schedule for EV v57:
   [   0, 1093) -> It remains parked at station s8.
   [1093, 1123) -> Service a request driving for customer c21 from s8 to s1.
   [1123, tmax) -> It remains parked at station s1, which was charging for charging.

Schedule for EV v58:
   [   0,  907) -> It remains parked at station s8.
   [ 907,  967) -> Service a request driving for customer c40 from s8 to s1.
   [ 967,  969) -> It remains parked at station s1.
   [ 969,  999) -> Service a request driving for customer c18 from s1 to s1.
   [ 999, tmax) -> It remains parked at station s1.

Schedule for EV v59:
   [   0, tmax) -> It remains parked at station s9.

Schedule for EV v60:
   [   0, tmax) -> It remains parked at station s9.

Schedule for EV v61:
   [   0,  427) -> It remains parked at station s9.
   [ 427,  457) -> Service a request driving for customer c45 from s9 to s0.
   [ 457,  548) -> It remains parked at station s0, which was charging for charging.
   [ 548,  608) -> Service a request driving for customer c7 from s0 to s4.
   [ 608,  796) -> It remains parked at station s4.
   [ 796, 1096) -> Service a request driving for customer c37 from s4 to s8.
   [1096, 1268) -> It remains parked at station s8.
   [1268, 1298) -> Service a request driving for customer c3 from s8 to s11.
   [1298, tmax) -> It remains parked at station s11, which was charging for charging.

Schedule for EV v62:
   [   0,  606) -> It remains parked at station s9.
   [ 606,  666) -> Service a request driving for customer c2 from s9 to s9.
   [ 666,  856) -> It remains parked at station s9, which was charging for charging.
   [ 856,  916) -> Service a request driving for customer c23 from s9 to s6.
   [ 916, tmax) -> It remains parked at station s6, which was charging for charging.

Schedule for EV v63:
   [   0, tmax) -> It remains parked at station s9.

Schedule for EV v64:
   [   0, tmax) -> It remains parked at station s9.

Schedule for EV v65:
   [   0,  546) -> It remains parked at station s9.
   [ 546,  606) -> Service a request driving for customer c27 from s9 to s3.
   [ 606,  855) -> It remains parked at station s3.
   [ 855, 1095) -> Service a request driving for customer c24 from s3 to s11.
   [1095, tmax) -> It remains parked at station s11, which was charging for charging.

Schedule for EV v66:
   [   0, tmax) -> It remains parked at station s9.

Schedule for EV v67:
   [   0, tmax) -> It remains parked at station s9.

Schedule for EV v68:
   [   0, tmax) -> It remains parked at station s9.

Schedule for EV v69:
   [   0, tmax) -> It remains parked at station s9.

Schedule for EV v70:
   [   0, tmax) -> It remains parked at station s10.

Schedule for EV v71:
   [   0, tmax) -> It remains parked at station s10.

Schedule for EV v72:
   [   0, tmax) -> It remains parked at station s10.

Schedule for EV v73:
   [   0, tmax) -> It remains parked at station s10.

Schedule for EV v74:
   [   0,  910) -> It remains parked at station s10.
   [ 910,  940) -> Service a request driving for customer c36 from s10 to s5.
   [ 940, 1094) -> It remains parked at station s5, which was charging for charging.
   [1094, 1124) -> Service a request driving for customer c40 from s5 to s9.
   [1124, tmax) -> It remains parked at station s9.

Schedule for EV v75:
   [   0, tmax) -> It remains parked at station s10.

Schedule for EV v76:
   [   0, tmax) -> It remains parked at station s10.

Schedule for EV v77:
   [   0, tmax) -> It remains parked at station s10.

Schedule for EV v78:
   [   0, tmax) -> It remains parked at station s10.

Schedule for EV v79:
   [   0, tmax) -> It remains parked at station s10.

Schedule for EV v80:
   [   0,  736) -> It remains parked at station s10.
   [ 736,  796) -> Service a request driving for customer c4 from s10 to s10.
   [ 796, tmax) -> It remains parked at station s10.

Schedule for EV v81:
   [   0,  785) -> It remains parked at station s11.
   [ 785,  845) -> Service a request driving for customer c3 from s11 to s4.
   [ 845,  849) -> It remains parked at station s4, which was charging for charging.
   [ 849,  879) -> Service a request driving for customer c16 from s4 to s5.
   [ 879, tmax) -> It remains parked at station s5, which was charging for charging.

Schedule for EV v82:
   [   0, tmax) -> It remains parked at station s11.

Schedule for EV v83:
   [   0,  609) -> It remains parked at station s11.
   [ 609,  669) -> Service a request driving for customer c26 from s11 to s1.
   [ 669,  792) -> It remains parked at station s1.
   [ 792,  882) -> Service a request driving for customer c19 from s1 to s4.
   [ 882,  974) -> It remains parked at station s4.
   [ 974, 1154) -> Service a request driving for customer c35 from s4 to s1.
   [1154, 1270) -> It remains parked at station s1.
   [1270, 1480) -> Service a request driving for customer c38 from s1 to s5.
   [1480, tmax) -> It remains parked at station s5.

Schedule for EV v84:
   [   0, tmax) -> It remains parked at station s11.

Schedule for EV v85:
   [   0, tmax) -> It remains parked at station s11.

Schedule for EV v86:
   [   0,  856) -> It remains parked at station s11.
   [ 856,  886) -> Service a request driving for customer c35 from s11 to s3.
   [ 886, 1035) -> It remains parked at station s3.
   [1035, 1065) -> Service a request driving for customer c34 from s3 to s7.
   [1065, tmax) -> It remains parked at station s7, which was charging for charging.

Schedule for EV v87:
   [   0,  848) -> It remains parked at station s11.
   [ 848,  908) -> Service a request driving for customer c34 from s11 to s11.
   [ 908, 1093) -> It remains parked at station s11.
   [1093, 1123) -> Service a request driving for customer c10 from s11 to s6.
   [1123, 1335) -> It remains parked at station s6, which was charging for charging.
   [1335, 1395) -> Service a request driving for customer c8 from s6 to s9.
   [1395, tmax) -> It remains parked at station s9.

Schedule for EV v88:
   [   0,  909) -> It remains parked at station s11.
   [ 909,  939) -> Service a request driving for customer c32 from s11 to s1.
   [ 939, tmax) -> It remains parked at station s1, which was charging for charging.

Set of satisfied customers
   {c0, c2, c3, c4, c5, c6, c7, c8, c9, c10, c11, c12, c13, c14, c15, c16, c17, c18, c19, c20, c21, c22, c23, c24, c25, c26, c27, c28, c30, c32, c33, c34, c35, c36, c37, c38, c39, c40, c43, c45, c46, c48}

