Academic license - for non-commercial use only
Gurobi Optimizer version 9.0.3 build v9.0.3rc0 (linux64)
Optimize a model with 2033 rows, 2419 columns and 7628 nonzeros
Model fingerprint: 0xbd175108
Variable types: 1915 continuous, 504 integer (504 binary)
Coefficient statistics:
  Matrix range     [1e+00, 1e+07]
  Objective range  [3e+01, 5e+02]
  Bounds range     [1e+00, 2e+06]
  RHS range        [1e+00, 2e+06]

Loaded user MIP start with objective 1140

Presolve removed 714 rows and 842 columns
Presolve time: 0.04s
Presolved: 1319 rows, 1577 columns, 6147 nonzeros
Variable types: 447 continuous, 1130 integer (897 binary)

Root relaxation: objective 4.421250e+03, 2586 iterations, 0.22 seconds

    Nodes    |    Current Node    |     Objective Bounds      |     Work
 Expl Unexpl |  Obj  Depth IntInf | Incumbent    BestBd   Gap | It/Node Time

     0     0 4421.25000    0  194 1140.00000 4421.25000   288%     -    0s
H    0     0                    3000.0000000 4421.25000  47.4%     -    0s
     0     0 4305.00000    0  280 3000.00000 4305.00000  43.5%     -    0s
H    0     0                    3390.0000000 4305.00000  27.0%     -    0s
     0     0 4305.00000    0  337 3390.00000 4305.00000  27.0%     -    0s
     0     0 4290.00001    0  312 3390.00000 4290.00001  26.5%     -    0s
H    0     0                    4140.0000000 4290.00001  3.62%     -    0s
     0     0 4290.00001    0  283 4140.00000 4290.00001  3.62%     -    0s
     0     0 4290.00001    0  301 4140.00000 4290.00001  3.62%     -    0s
H    0     0                    4290.0000000 4290.00001  0.00%     -    0s
     0     0 4290.00001    0  298 4290.00000 4290.00001  0.00%     -    0s

Cutting planes:
  Gomory: 2
  Implied bound: 123
  Zero half: 1
  RLT: 3
  Relax-and-lift: 8

Explored 1 nodes (5288 simplex iterations) in 0.65 seconds
Thread count was 1 (of 40 available processors)

Solution count 5: 4290 4140 3390 ... 1140

Optimal solution found (tolerance 1.00e-04)
Best objective 4.290000000000e+03, best bound 4.290000000000e+03, gap 0.0000%

----------

Best objective (UB): 4290.000
Best feasible solution (LB): 4290.000
Gap between the lower bound and upper bound: 0.000%

----------

Number of customers served: 23

Schedule for EV v0:
   [   0,  616) -> It remains parked at station s0, which was charging for charging.
   [ 616,  646) -> Service a request driving for customer c7 from s0 to s2.
   [ 646, 1155) -> It remains parked at station s2, which was charging for charging.
   [1155, 1215) -> Service a request driving for customer c14 from s2 to s1.
   [1215, 1332) -> It remains parked at station s1, which was charging for charging.
   [1332, 1422) -> Service a request driving for customer c17 from s1 to s2.
   [1422, tmax) -> It remains parked at station s2, which was charging for charging.

Schedule for EV v1:
   [   0,  793) -> It remains parked at station s0, which was charging for charging.
   [ 793,  853) -> Service a request driving for customer c6 from s0 to s1.
   [ 853,  916) -> It remains parked at station s1, which was charging for charging.
   [ 916,  976) -> Service a request driving for customer c11 from s1 to s3.
   [ 976, 1029) -> It remains parked at station s3, which was charging for charging.
   [1029, 1089) -> Service a request driving for customer c6 from s3 to s11.
   [1089, 1152) -> It remains parked at station s11, which was charging for charging.
   [1152, 1452) -> Service a request driving for customer c29 from s11 to s4.
   [1452, tmax) -> It remains parked at station s4, which was charging for charging.

Schedule for EV v2:
   [   0,  547) -> It remains parked at station s3, which was charging for charging.
   [ 547,  577) -> Service a request driving for customer c9 from s3 to s6.
   [ 577,  851) -> It remains parked at station s6, which was charging for charging.
   [ 851, 1061) -> Service a request driving for customer c4 from s6 to s4.
   [1061, 1146) -> It remains parked at station s4, which was charging for charging.
   [1146, 1296) -> Service a request driving for customer c13 from s4 to s4.
   [1296, tmax) -> It remains parked at station s4, which was charging for charging.

Schedule for EV v3:
   [   0,  365) -> It remains parked at station s3, which was charging for charging.
   [ 365,  425) -> Service a request driving for customer c0 from s3 to s4.
   [ 425,  731) -> It remains parked at station s4, which was charging for charging.
   [ 731,  791) -> Service a request driving for customer c14 from s4 to s0.
   [ 791,  909) -> It remains parked at station s0, which was charging for charging.
   [ 909, 1149) -> Service a request driving for customer c10 from s0 to s3.
   [1149, 1269) -> It remains parked at station s3, which was charging for charging.
   [1269, 1449) -> Service a request driving for customer c31 from s3 to s1.
   [1449, tmax) -> It remains parked at station s1, which was charging for charging.

Schedule for EV v4:
   [   0,  610) -> It remains parked at station s4, which was charging for charging.
   [ 610,  640) -> Service a request driving for customer c14 from s4 to s1.
   [ 640,  734) -> It remains parked at station s1, which was charging for charging.
   [ 734,  794) -> Service a request driving for customer c2 from s1 to s2.
   [ 794,  855) -> It remains parked at station s2, which was charging for charging.
   [ 855,  945) -> Service a request driving for customer c0 from s2 to s1.
   [ 945,  968) -> It remains parked at station s1, which was charging for charging.
   [ 968, 1028) -> Service a request driving for customer c5 from s1 to s6.
   [1028, 1032) -> It remains parked at station s6, which was charging for charging.
   [1032, 1062) -> Service a request driving for customer c7 from s6 to s3.
   [1062, tmax) -> It remains parked at station s3, which was charging for charging.

Schedule for EV v5:
   [   0,  976) -> It remains parked at station s5, which was charging for charging.
   [ 976, 1006) -> Service a request driving for customer c2 from s5 to s11.
   [1006, 1089) -> It remains parked at station s11, which was charging for charging.
   [1089, 1149) -> Service a request driving for customer c31 from s11 to s4.
   [1149, tmax) -> It remains parked at station s4, which was charging for charging.

Schedule for EV v6:
   [   0,  856) -> It remains parked at station s6, which was charging for charging.
   [ 856,  946) -> Service a request driving for customer c34 from s6 to s0.
   [ 946, 1268) -> It remains parked at station s0, which was charging for charging.
   [1268, 1298) -> Service a request driving for customer c7 from s0 to s3.
   [1298, tmax) -> It remains parked at station s3, which was charging for charging.

Schedule for EV v7:
   [   0,  550) -> It remains parked at station s7, which was charging for charging.
   [ 550,  640) -> Service a request driving for customer c3 from s7 to s2.
   [ 640,  725) -> It remains parked at station s2, which was charging for charging.
   [ 725,  935) -> Service a request driving for customer c9 from s2 to s6.
   [ 935, 1267) -> It remains parked at station s6, which was charging for charging.
   [1267, 1387) -> Service a request driving for customer c10 from s6 to s1.
   [1387, tmax) -> It remains parked at station s1, which was charging for charging.

Schedule for EV v8:
   [   0,  970) -> It remains parked at station s8, which was charging for charging.
   [ 970, 1090) -> Service a request driving for customer c33 from s8 to s3.
   [1090, 1145) -> It remains parked at station s3, which was charging for charging.
   [1145, 1205) -> Service a request driving for customer c22 from s3 to s11.
   [1205, tmax) -> It remains parked at station s11, which was charging for charging.

Schedule for EV v9:
   [   0,  665) -> It remains parked at station s9, which was charging for charging.
   [ 665,  755) -> Service a request driving for customer c6 from s9 to s0.
   [ 755,  908) -> It remains parked at station s0, which was charging for charging.
   [ 908,  968) -> Service a request driving for customer c29 from s0 to s3.
   [ 968, 1147) -> It remains parked at station s3, which was charging for charging.
   [1147, 1267) -> Service a request driving for customer c17 from s3 to s10.
   [1267, 1396) -> It remains parked at station s10, which was charging for charging.
   [1396, 1666) -> Service a request driving for customer c7 from s10 to s9.
   [1666, tmax) -> It remains parked at station s9, which was charging for charging.

Schedule for EV v10:
   [   0, 1330) -> It remains parked at station s9, which was charging for charging.
   [1330, 1570) -> Service a request driving for customer c39 from s9 to s6.
   [1570, tmax) -> It remains parked at station s6, which was charging for charging.

Schedule for EV v11:
   [   0,  495) -> It remains parked at station s10, which was charging for charging.
   [ 495,  525) -> Service a request driving for customer c24 from s10 to s10.
   [ 525, tmax) -> It remains parked at station s10, which was charging for charging.

Schedule for EV v12:
   [   0,  495) -> It remains parked at station s10, which was charging for charging.
   [ 495,  555) -> Service a request driving for customer c22 from s10 to s11.
   [ 555,  731) -> It remains parked at station s11, which was charging for charging.
   [ 731,  761) -> Service a request driving for customer c18 from s11 to s8.
   [ 761, tmax) -> It remains parked at station s8, which was charging for charging.

Schedule for EV v13:
   [   0,  736) -> It remains parked at station s11, which was charging for charging.
   [ 736,  856) -> Service a request driving for customer c5 from s11 to s7.
   [ 856,  910) -> It remains parked at station s7, which was charging for charging.
   [ 910, 1000) -> Service a request driving for customer c38 from s7 to s1.
   [1000, tmax) -> It remains parked at station s1, which was charging for charging.

Schedule for EV v14:
   [   0,  486) -> It remains parked at station s11, which was charging for charging.
   [ 486,  576) -> Service a request driving for customer c4 from s11 to s3.
   [ 576,  845) -> It remains parked at station s3, which was charging for charging.
   [ 845,  995) -> Service a request driving for customer c14 from s3 to s8.
   [ 995, 1155) -> It remains parked at station s8, which was charging for charging.
   [1155, 1425) -> Service a request driving for customer c19 from s8 to s5.
   [1425, tmax) -> It remains parked at station s5, which was charging for charging.

Set of satisfied customers
   {c0, c2, c3, c4, c5, c6, c7, c9, c10, c11, c13, c14, c17, c18, c19, c22, c24, c29, c31, c33, c34, c38, c39}

