Academic license - for non-commercial use only
Gurobi Optimizer version 9.0.3 build v9.0.3rc0 (linux64)
Optimize a model with 3319 rows, 4031 columns and 12970 nonzeros
Model fingerprint: 0x6d867027
Variable types: 3161 continuous, 870 integer (870 binary)
Coefficient statistics:
  Matrix range     [1e+00, 6e+06]
  Objective range  [3e+01, 4e+02]
  Bounds range     [1e+00, 2e+06]
  RHS range        [1e+00, 2e+06]

Loaded user MIP start with objective 1350

Presolve removed 1217 rows and 1501 columns
Presolve time: 0.04s
Presolved: 2102 rows, 2530 columns, 9714 nonzeros
Found heuristic solution: objective 1440.0000000
Variable types: 802 continuous, 1728 integer (1363 binary)

Root relaxation: objective 4.920000e+03, 4499 iterations, 0.46 seconds

    Nodes    |    Current Node    |     Objective Bounds      |     Work
 Expl Unexpl |  Obj  Depth IntInf | Incumbent    BestBd   Gap | It/Node Time

     0     0 4920.00000    0  295 1440.00000 4920.00000   242%     -    0s
H    0     0                    4680.0000000 4920.00000  5.13%     -    0s
     0     0 4920.00000    0  524 4680.00000 4920.00000  5.13%     -    1s
     0     0 4920.00000    0  467 4680.00000 4920.00000  5.13%     -    1s
     0     0 4920.00000    0  315 4680.00000 4920.00000  5.13%     -    1s
     0     0 4920.00000    0  318 4680.00000 4920.00000  5.13%     -    1s
     0     0 4920.00000    0  315 4680.00000 4920.00000  5.13%     -    2s
     0     2 4920.00000    0  315 4680.00000 4920.00000  5.13%     -    2s
*   30     9              24    4800.0000000 4905.00000  2.19%   136    2s

Cutting planes:
  Gomory: 4
  Cover: 6
  Implied bound: 295
  MIR: 1
  Inf proof: 3
  Zero half: 1
  RLT: 12
  Relax-and-lift: 11

Explored 103 nodes (28102 simplex iterations) in 3.69 seconds
Thread count was 1 (of 40 available processors)

Solution count 4: 4800 4680 1440 1350 

Optimal solution found (tolerance 1.00e-04)
Best objective 4.800000000000e+03, best bound 4.800000000000e+03, gap 0.0000%

----------

Best objective (UB): 4800.000
Best feasible solution (LB): 4800.000
Gap between the lower bound and upper bound: 0.000%

----------

Number of customers served: 22

Schedule for EV v0:
   [   0,  613) -> It remains parked at station s0, which was charging for charging.
   [ 613,  703) -> Service a request driving for customer c57 from s0 to s9.
   [ 703,  792) -> It remains parked at station s9, which was charging for charging.
   [ 792,  822) -> Service a request driving for customer c31 from s9 to s8.
   [ 822, 1032) -> It remains parked at station s8, which was charging for charging.
   [1032, 1182) -> Service a request driving for customer c13 from s8 to s1.
   [1182, tmax) -> It remains parked at station s1, which was charging for charging.

Schedule for EV v1:
   [   0,  547) -> It remains parked at station s0, which was charging for charging.
   [ 547,  697) -> Service a request driving for customer c21 from s0 to s11.
   [ 697, 1332) -> It remains parked at station s11, which was charging for charging.
   [1332, 1362) -> Service a request driving for customer c34 from s11 to s6.
   [1362, tmax) -> It remains parked at station s6, which was charging for charging.

Schedule for EV v2:
   [   0,  605) -> It remains parked at station s0, which was charging for charging.
   [ 605,  725) -> Service a request driving for customer c34 from s0 to s4.
   [ 725,  853) -> It remains parked at station s4, which was charging for charging.
   [ 853,  943) -> Service a request driving for customer c20 from s4 to s3.
   [ 943, 1206) -> It remains parked at station s3, which was charging for charging.
   [1206, 1296) -> Service a request driving for customer c57 from s3 to s4.
   [1296, tmax) -> It remains parked at station s4, which was charging for charging.

Schedule for EV v3:
   [   0,  495) -> It remains parked at station s2, which was charging for charging.
   [ 495,  735) -> Service a request driving for customer c19 from s2 to s0.
   [ 735, 1085) -> It remains parked at station s0, which was charging for charging.
   [1085, 1145) -> Service a request driving for customer c40 from s0 to s4.
   [1145, 1146) -> It remains parked at station s4, which was charging for charging.
   [1146, 1386) -> Service a request driving for customer c23 from s4 to s8.
   [1386, tmax) -> It remains parked at station s8, which was charging for charging.

Schedule for EV v4:
   [   0, tmax) -> It remains parked at station s2, which was charging for charging.

Schedule for EV v5:
   [   0, tmax) -> It remains parked at station s2, which was charging for charging.

Schedule for EV v6:
   [   0,  488) -> It remains parked at station s3, which was charging for charging.
   [ 488,  548) -> Service a request driving for customer c11 from s3 to s8.
   [ 548,  854) -> It remains parked at station s8, which was charging for charging.
   [ 854,  914) -> Service a request driving for customer c0 from s8 to s9.
   [ 914, 1095) -> It remains parked at station s9, which was charging for charging.
   [1095, 1185) -> Service a request driving for customer c54 from s9 to s3.
   [1185, 1214) -> It remains parked at station s3, which was charging for charging.
   [1214, 1274) -> Service a request driving for customer c29 from s3 to s3.
   [1274, tmax) -> It remains parked at station s3, which was charging for charging.

Schedule for EV v7:
   [   0,  667) -> It remains parked at station s3, which was charging for charging.
   [ 667,  727) -> Service a request driving for customer c13 from s3 to s4.
   [ 727,  796) -> It remains parked at station s4, which was charging for charging.
   [ 796,  826) -> Service a request driving for customer c30 from s4 to s3.
   [ 826, 1035) -> It remains parked at station s3, which was charging for charging.
   [1035, 1095) -> Service a request driving for customer c45 from s3 to s2.
   [1095, tmax) -> It remains parked at station s2, which was charging for charging.

Schedule for EV v8:
   [   0,  735) -> It remains parked at station s4, which was charging for charging.
   [ 735, 1065) -> Service a request driving for customer c54 from s4 to s0.
   [1065, 1094) -> It remains parked at station s0, which was charging for charging.
   [1094, 1154) -> Service a request driving for customer c57 from s0 to s1.
   [1154, tmax) -> It remains parked at station s1, which was charging for charging.

Schedule for EV v9:
   [   0,  614) -> It remains parked at station s4, which was charging for charging.
   [ 614,  644) -> Service a request driving for customer c5 from s4 to s9.
   [ 644, 1328) -> It remains parked at station s9, which was charging for charging.
   [1328, 1658) -> Service a request driving for customer c35 from s9 to s11.
   [1658, tmax) -> It remains parked at station s11, which was charging for charging.

Schedule for EV v10:
   [   0,  669) -> It remains parked at station s6, which was charging for charging.
   [ 669,  999) -> Service a request driving for customer c29 from s6 to s2.
   [ 999, 1030) -> It remains parked at station s2, which was charging for charging.
   [1030, 1060) -> Service a request driving for customer c28 from s2 to s5.
   [1060, 1273) -> It remains parked at station s5, which was charging for charging.
   [1273, 1393) -> Service a request driving for customer c30 from s5 to s11.
   [1393, tmax) -> It remains parked at station s11, which was charging for charging.

Schedule for EV v11:
   [   0,  673) -> It remains parked at station s7, which was charging for charging.
   [ 673,  853) -> Service a request driving for customer c41 from s7 to s0.
   [ 853,  976) -> It remains parked at station s0, which was charging for charging.
   [ 976, 1156) -> Service a request driving for customer c4 from s0 to s6.
   [1156, 1205) -> It remains parked at station s6, which was charging for charging.
   [1205, 1295) -> Service a request driving for customer c45 from s6 to s0.
   [1295, tmax) -> It remains parked at station s0, which was charging for charging.

Schedule for EV v12:
   [   0,  615) -> It remains parked at station s8, which was charging for charging.
   [ 615,  765) -> Service a request driving for customer c0 from s8 to s4.
   [ 765,  849) -> It remains parked at station s4, which was charging for charging.
   [ 849, 1059) -> Service a request driving for customer c57 from s4 to s2.
   [1059, tmax) -> It remains parked at station s2, which was charging for charging.

Schedule for EV v13:
   [   0,  553) -> It remains parked at station s8, which was charging for charging.
   [ 553,  643) -> Service a request driving for customer c28 from s8 to s5.
   [ 643,  905) -> It remains parked at station s5, which was charging for charging.
   [ 905, 1085) -> Service a request driving for customer c2 from s5 to s10.
   [1085, 1207) -> It remains parked at station s10, which was charging for charging.
   [1207, 1297) -> Service a request driving for customer c13 from s10 to s5.
   [1297, 1327) -> It remains parked at station s5, which was charging for charging.
   [1327, 1477) -> Service a request driving for customer c2 from s5 to s11.
   [1477, tmax) -> It remains parked at station s11, which was charging for charging.

Schedule for EV v14:
   [   0,  606) -> It remains parked at station s10, which was charging for charging.
   [ 606,  696) -> Service a request driving for customer c51 from s10 to s10.
   [ 696,  736) -> It remains parked at station s10, which was charging for charging.
   [ 736,  946) -> Service a request driving for customer c21 from s10 to s6.
   [ 946, 1095) -> It remains parked at station s6, which was charging for charging.
   [1095, 1335) -> Service a request driving for customer c20 from s6 to s7.
   [1335, tmax) -> It remains parked at station s7, which was charging for charging.

Set of satisfied customers
   {c0, c2, c4, c5, c11, c13, c19, c20, c21, c23, c28, c29, c30, c31, c34, c35, c40, c41, c45, c51, c54, c57}

