Academic license - for non-commercial use only
Gurobi Optimizer version 9.0.3 build v9.0.3rc0 (linux64)
Optimize a model with 3376 rows, 4079 columns and 13143 nonzeros
Model fingerprint: 0x7e238c5e
Variable types: 3213 continuous, 866 integer (866 binary)
Coefficient statistics:
  Matrix range     [1e+00, 8e+06]
  Objective range  [3e+01, 5e+02]
  Bounds range     [1e+00, 2e+06]
  RHS range        [1e+00, 2e+06]

Loaded user MIP start with objective 1590

Presolve removed 979 rows and 1142 columns
Presolve time: 0.05s
Presolved: 2397 rows, 2937 columns, 11427 nonzeros
Variable types: 616 continuous, 2321 integer (1685 binary)

Root relaxation: objective 6.718500e+03, 6543 iterations, 0.92 seconds

    Nodes    |    Current Node    |     Objective Bounds      |     Work
 Expl Unexpl |  Obj  Depth IntInf | Incumbent    BestBd   Gap | It/Node Time

     0     0 6718.50000    0  636 1590.00000 6718.50000   323%     -    1s
H    0     0                    5250.0000000 6718.50000  28.0%     -    1s
     0     0 6652.63027    0  800 5250.00000 6652.63027  26.7%     -    2s
     0     0 6651.72415    0  822 5250.00000 6651.72415  26.7%     -    2s
     0     0 6651.72415    0  803 5250.00000 6651.72415  26.7%     -    2s
     0     0 6630.20174    0  779 5250.00000 6630.20174  26.3%     -    2s
     0     0 6629.94497    0  814 5250.00000 6629.94497  26.3%     -    2s
     0     0 6629.94497    0  797 5250.00000 6629.94497  26.3%     -    2s
     0     0 6629.94497    0  800 5250.00000 6629.94497  26.3%     -    3s
     0     0 6629.94497    0  784 5250.00000 6629.94497  26.3%     -    3s
     0     0 6629.94497    0  783 5250.00000 6629.94497  26.3%     -    3s
     0     0 6629.94497    0  652 5250.00000 6629.94497  26.3%     -    3s
H    0     0                    6270.0000000 6629.94497  5.74%     -    3s
     0     2 6629.14086    0  652 6270.00000 6629.14086  5.73%     -    4s
H   11     9                    6390.0000000 6629.14086  3.74%   392    4s
    25    13 6595.31250    1  752 6390.00000 6595.31250  3.21%   240    5s
*  147    20              22    6450.0000000 6565.42373  1.79%   117    6s

Cutting planes:
  Gomory: 5
  Cover: 9
  Implied bound: 482
  MIR: 1
  RLT: 6
  Relax-and-lift: 28

Explored 243 nodes (44382 simplex iterations) in 7.54 seconds
Thread count was 1 (of 40 available processors)

Solution count 5: 6450 6390 6270 ... 1590

Optimal solution found (tolerance 1.00e-04)
Best objective 6.450000000000e+03, best bound 6.450000000000e+03, gap 0.0000%

----------

Best objective (UB): 6450.000
Best feasible solution (LB): 6450.000
Gap between the lower bound and upper bound: 0.000%

----------

Number of customers served: 28

Schedule for EV v0:
   [   0,  733) -> It remains parked at station s0, which was charging for charging.
   [ 733,  793) -> Service a request driving for customer c22 from s0 to s9.
   [ 793,  905) -> It remains parked at station s9, which was charging for charging.
   [ 905,  995) -> Service a request driving for customer c42 from s9 to s4.
   [ 995, 1156) -> It remains parked at station s4, which was charging for charging.
   [1156, 1366) -> Service a request driving for customer c9 from s4 to s2.
   [1366, tmax) -> It remains parked at station s2, which was charging for charging.

Schedule for EV v1:
   [   0,  728) -> It remains parked at station s1, which was charging for charging.
   [ 728,  788) -> Service a request driving for customer c0 from s1 to s4.
   [ 788,  910) -> It remains parked at station s4, which was charging for charging.
   [ 910,  970) -> Service a request driving for customer c33 from s4 to s1.
   [ 970, 1150) -> It remains parked at station s1, which was charging for charging.
   [1150, 1210) -> Service a request driving for customer c17 from s1 to s0.
   [1210, 1216) -> It remains parked at station s0, which was charging for charging.
   [1216, 1486) -> Service a request driving for customer c10 from s0 to s5.
   [1486, tmax) -> It remains parked at station s5, which was charging for charging.

Schedule for EV v2:
   [   0,  611) -> It remains parked at station s1, which was charging for charging.
   [ 611,  671) -> Service a request driving for customer c48 from s1 to s4.
   [ 671,  847) -> It remains parked at station s4, which was charging for charging.
   [ 847,  907) -> Service a request driving for customer c10 from s4 to s8.
   [ 907, 1093) -> It remains parked at station s8, which was charging for charging.
   [1093, 1243) -> Service a request driving for customer c32 from s8 to s11.
   [1243, 1325) -> It remains parked at station s11, which was charging for charging.
   [1325, 1475) -> Service a request driving for customer c5 from s11 to s1.
   [1475, tmax) -> It remains parked at station s1, which was charging for charging.

Schedule for EV v3:
   [   0,  551) -> It remains parked at station s2, which was charging for charging.
   [ 551,  761) -> Service a request driving for customer c58 from s2 to s1.
   [ 761, 1154) -> It remains parked at station s1, which was charging for charging.
   [1154, 1184) -> Service a request driving for customer c4 from s1 to s3.
   [1184, 1276) -> It remains parked at station s3, which was charging for charging.
   [1276, 1306) -> Service a request driving for customer c42 from s3 to s3.
   [1306, 1331) -> It remains parked at station s3, which was charging for charging.
   [1331, 1631) -> Service a request driving for customer c42 from s3 to s0.
   [1631, tmax) -> It remains parked at station s0, which was charging for charging.

Schedule for EV v4:
   [   0,  609) -> It remains parked at station s2, which was charging for charging.
   [ 609,  729) -> Service a request driving for customer c33 from s2 to s2.
   [ 729,  968) -> It remains parked at station s2, which was charging for charging.
   [ 968, 1028) -> Service a request driving for customer c34 from s2 to s2.
   [1028, 1096) -> It remains parked at station s2, which was charging for charging.
   [1096, 1126) -> Service a request driving for customer c58 from s2 to s2.
   [1126, 1149) -> It remains parked at station s2, which was charging for charging.
   [1149, 1209) -> Service a request driving for customer c44 from s2 to s9.
   [1209, 1273) -> It remains parked at station s9, which was charging for charging.
   [1273, 1453) -> Service a request driving for customer c31 from s9 to s3.
   [1453, tmax) -> It remains parked at station s3, which was charging for charging.

Schedule for EV v5:
   [   0,  490) -> It remains parked at station s3, which was charging for charging.
   [ 490,  580) -> Service a request driving for customer c40 from s3 to s8.
   [ 580,  916) -> It remains parked at station s8, which was charging for charging.
   [ 916, 1126) -> Service a request driving for customer c47 from s8 to s11.
   [1126, 1214) -> It remains parked at station s11, which was charging for charging.
   [1214, 1274) -> Service a request driving for customer c46 from s11 to s5.
   [1274, tmax) -> It remains parked at station s5, which was charging for charging.

Schedule for EV v6:
   [   0,  671) -> It remains parked at station s3, which was charging for charging.
   [ 671,  731) -> Service a request driving for customer c9 from s3 to s11.
   [ 731,  906) -> It remains parked at station s11, which was charging for charging.
   [ 906, 1056) -> Service a request driving for customer c23 from s11 to s9.
   [1056, 1206) -> It remains parked at station s9, which was charging for charging.
   [1206, 1236) -> Service a request driving for customer c40 from s9 to s4.
   [1236, tmax) -> It remains parked at station s4, which was charging for charging.

Schedule for EV v7:
   [   0,  668) -> It remains parked at station s4, which was charging for charging.
   [ 668,  698) -> Service a request driving for customer c4 from s4 to s11.
   [ 698, 1090) -> It remains parked at station s11, which was charging for charging.
   [1090, 1180) -> Service a request driving for customer c15 from s11 to s4.
   [1180, tmax) -> It remains parked at station s4, which was charging for charging.

Schedule for EV v8:
   [   0,  428) -> It remains parked at station s4, which was charging for charging.
   [ 428,  578) -> Service a request driving for customer c22 from s4 to s2.
   [ 578,  665) -> It remains parked at station s2, which was charging for charging.
   [ 665,  695) -> Service a request driving for customer c24 from s2 to s3.
   [ 695,  847) -> It remains parked at station s3, which was charging for charging.
   [ 847, 1087) -> Service a request driving for customer c12 from s3 to s0.
   [1087, 1094) -> It remains parked at station s0, which was charging for charging.
   [1094, 1154) -> Service a request driving for customer c46 from s0 to s3.
   [1154, 1266) -> It remains parked at station s3, which was charging for charging.
   [1266, 1476) -> Service a request driving for customer c34 from s3 to s1.
   [1476, tmax) -> It remains parked at station s1, which was charging for charging.

Schedule for EV v9:
   [   0,  846) -> It remains parked at station s5, which was charging for charging.
   [ 846,  906) -> Service a request driving for customer c15 from s5 to s9.
   [ 906, 1327) -> It remains parked at station s9, which was charging for charging.
   [1327, 1687) -> Service a request driving for customer c57 from s9 to s4.
   [1687, tmax) -> It remains parked at station s4, which was charging for charging.

Schedule for EV v10:
   [   0,  606) -> It remains parked at station s6, which was charging for charging.
   [ 606,  726) -> Service a request driving for customer c57 from s6 to s4.
   [ 726, 1033) -> It remains parked at station s4, which was charging for charging.
   [1033, 1063) -> Service a request driving for customer c4 from s4 to s10.
   [1063, 1328) -> It remains parked at station s10, which was charging for charging.
   [1328, 1568) -> Service a request driving for customer c46 from s10 to s3.
   [1568, tmax) -> It remains parked at station s3, which was charging for charging.

Schedule for EV v11:
   [   0,  490) -> It remains parked at station s6, which was charging for charging.
   [ 490,  640) -> Service a request driving for customer c27 from s6 to s10.
   [ 640,  734) -> It remains parked at station s10, which was charging for charging.
   [ 734,  794) -> Service a request driving for customer c12 from s10 to s1.
   [ 794,  966) -> It remains parked at station s1, which was charging for charging.
   [ 966, 1176) -> Service a request driving for customer c54 from s1 to s1.
   [1176, 1211) -> It remains parked at station s1, which was charging for charging.
   [1211, 1541) -> Service a request driving for customer c0 from s1 to s5.
   [1541, tmax) -> It remains parked at station s5, which was charging for charging.

Schedule for EV v12:
   [   0,  788) -> It remains parked at station s7, which was charging for charging.
   [ 788, 1028) -> Service a request driving for customer c25 from s7 to s0.
   [1028, 1208) -> It remains parked at station s0, which was charging for charging.
   [1208, 1328) -> Service a request driving for customer c4 from s0 to s1.
   [1328, 1329) -> It remains parked at station s1, which was charging for charging.
   [1329, 1389) -> Service a request driving for customer c27 from s1 to s1.
   [1389, tmax) -> It remains parked at station s1, which was charging for charging.

Schedule for EV v13:
   [   0,  616) -> It remains parked at station s9, which was charging for charging.
   [ 616,  646) -> Service a request driving for customer c46 from s9 to s6.
   [ 646,  846) -> It remains parked at station s6, which was charging for charging.
   [ 846, 1056) -> Service a request driving for customer c51 from s6 to s0.
   [1056, 1093) -> It remains parked at station s0, which was charging for charging.
   [1093, 1243) -> Service a request driving for customer c5 from s0 to s5.
   [1243, tmax) -> It remains parked at station s5, which was charging for charging.

Schedule for EV v14:
   [   0,  789) -> It remains parked at station s10, which was charging for charging.
   [ 789,  909) -> Service a request driving for customer c24 from s10 to s8.
   [ 909, 1205) -> It remains parked at station s8, which was charging for charging.
   [1205, 1505) -> Service a request driving for customer c19 from s8 to s3.
   [1505, tmax) -> It remains parked at station s3, which was charging for charging.

Set of satisfied customers
   {c0, c4, c5, c9, c10, c12, c15, c17, c19, c22, c23, c24, c25, c27, c31, c32, c33, c34, c40, c42, c44, c46, c47, c48, c51, c54, c57, c58}

