Academic license - for non-commercial use only
Gurobi Optimizer version 9.0.3 build v9.0.3rc0 (linux64)
Optimize a model with 5328 rows, 6587 columns and 21816 nonzeros
Model fingerprint: 0x6ab7d83d
Variable types: 5094 continuous, 1493 integer (1493 binary)
Coefficient statistics:
  Matrix range     [1e+00, 6e+06]
  Objective range  [3e+01, 7e+02]
  Bounds range     [1e+00, 2e+06]
  RHS range        [1e+00, 2e+06]

Loaded user MIP start with objective 1980

Presolve removed 1668 rows and 1974 columns
Presolve time: 0.12s
Presolved: 3660 rows, 4613 columns, 18425 nonzeros
Variable types: 710 continuous, 3903 integer (2729 binary)

Root relaxation: objective 7.269796e+03, 12291 iterations, 2.66 seconds
Total elapsed time = 5.31s

    Nodes    |    Current Node    |     Objective Bounds      |     Work
 Expl Unexpl |  Obj  Depth IntInf | Incumbent    BestBd   Gap | It/Node Time

     0     0 7269.79592    0 1076 1980.00000 7269.79592   267%     -    5s
H    0     0                    2070.0000000 7269.79592   251%     -    5s
     0     0 7199.98672    0 1269 2070.00000 7199.98672   248%     -    8s
     0     0 7197.71094    0 1250 2070.00000 7197.71094   248%     -    9s
     0     0 7196.97881    0 1211 2070.00000 7196.97881   248%     -   10s
     0     0 7196.82575    0 1176 2070.00000 7196.82575   248%     -   10s
     0     0 7196.82575    0 1169 2070.00000 7196.82575   248%     -   10s
     0     0 7186.32332    0 1195 2070.00000 7186.32332   247%     -   11s
     0     0 7172.37345    0 1281 2070.00000 7172.37345   246%     -   12s
     0     0 7171.61661    0 1261 2070.00000 7171.61661   246%     -   13s
     0     0 7171.61661    0 1209 2070.00000 7171.61661   246%     -   13s
     0     0 7171.61661    0 1249 2070.00000 7171.61661   246%     -   13s
H    0     0                    4470.0000000 7171.61661  60.4%     -   13s
     0     0 7171.61661    0 1197 4470.00000 7171.61661  60.4%     -   13s
     0     0 7171.61661    0 1256 4470.00000 7171.61661  60.4%     -   14s
H    0     0                    4590.0000000 7171.61661  56.2%     -   14s
     0     0 7171.61661    0 1216 4590.00000 7171.61661  56.2%     -   14s
     0     0 7170.83006    0 1142 4590.00000 7170.83006  56.2%     -   16s
     0     0 7170.83006    0 1148 4590.00000 7170.83006  56.2%     -   17s
     0     0 7170.17134    0 1278 4590.00000 7170.17134  56.2%     -   17s
     0     0 7170.17134    0 1191 4590.00000 7170.17134  56.2%     -   17s
     0     0 7170.17134    0 1278 4590.00000 7170.17134  56.2%     -   17s
     0     0 7170.17134    0 1239 4590.00000 7170.17134  56.2%     -   17s
     0     0 7170.17134    0 1125 4590.00000 7170.17134  56.2%     -   19s
     0     0 7170.17134    0 1222 4590.00000 7170.17134  56.2%     -   19s
     0     0 7170.17134    0 1045 4590.00000 7170.17134  56.2%     -   21s
     0     0 7170.17134    0 1033 4590.00000 7170.17134  56.2%     -   22s
H    0     0                    6540.0000000 7170.17134  9.64%     -   23s
     0     2 7169.34202    0 1028 6540.00000 7169.34202  9.62%     -   24s
     2     4 7150.71433    2  945 6540.00000 7168.78173  9.61%  2318   25s
H   14    14                    6570.0000000 7168.78173  9.11%   815   26s
H   22    15                    6870.0000000 7154.07177  4.13%   885   28s
    38    11 7080.00000    5  826 6870.00000 7150.71433  4.09%   674   30s

Cutting planes:
  Gomory: 4
  Cover: 2
  Implied bound: 284
  MIR: 4
  Zero half: 2
  RLT: 25
  Relax-and-lift: 19

Explored 89 nodes (132223 simplex iterations) in 33.56 seconds
Thread count was 1 (of 40 available processors)

Solution count 7: 6870 6570 6540 ... 1980

Optimal solution found (tolerance 1.00e-04)
Best objective 6.870000000000e+03, best bound 6.870000000000e+03, gap 0.0000%

----------

Best objective (UB): 6870.000
Best feasible solution (LB): 6870.000
Gap between the lower bound and upper bound: 0.000%

----------

Number of customers served: 30

Schedule for EV v0:
   [   0,  553) -> It remains parked at station s0, which was charging for charging.
   [ 553,  613) -> Service a request driving for customer c17 from s0 to s0.
   [ 613,  615) -> It remains parked at station s0, which was charging for charging.
   [ 615,  675) -> Service a request driving for customer c61 from s0 to s0.
   [ 675,  728) -> It remains parked at station s0, which was charging for charging.
   [ 728,  758) -> Service a request driving for customer c54 from s0 to s4.
   [ 758,  907) -> It remains parked at station s4, which was charging for charging.
   [ 907,  937) -> Service a request driving for customer c71 from s4 to s11.
   [ 937, 1149) -> It remains parked at station s11, which was charging for charging.
   [1149, 1239) -> Service a request driving for customer c69 from s11 to s3.
   [1239, tmax) -> It remains parked at station s3, which was charging for charging.

Schedule for EV v1:
   [   0,  431) -> It remains parked at station s1, which was charging for charging.
   [ 431,  491) -> Service a request driving for customer c74 from s1 to s10.
   [ 491,  670) -> It remains parked at station s10, which was charging for charging.
   [ 670,  880) -> Service a request driving for customer c21 from s10 to s5.
   [ 880, 1090) -> It remains parked at station s5, which was charging for charging.
   [1090, 1150) -> Service a request driving for customer c50 from s5 to s4.
   [1150, tmax) -> It remains parked at station s4, which was charging for charging.

Schedule for EV v2:
   [   0,  491) -> It remains parked at station s2, which was charging for charging.
   [ 491,  641) -> Service a request driving for customer c22 from s2 to s11.
   [ 641,  849) -> It remains parked at station s11, which was charging for charging.
   [ 849,  909) -> Service a request driving for customer c22 from s11 to s9.
   [ 909, 1093) -> It remains parked at station s9, which was charging for charging.
   [1093, 1123) -> Service a request driving for customer c5 from s9 to s0.
   [1123, 1332) -> It remains parked at station s0, which was charging for charging.
   [1332, 1422) -> Service a request driving for customer c22 from s0 to s5.
   [1422, 1447) -> It remains parked at station s5, which was charging for charging.
   [1447, 1657) -> Service a request driving for customer c55 from s5 to s10.
   [1657, tmax) -> It remains parked at station s10, which was charging for charging.

Schedule for EV v3:
   [   0,  553) -> It remains parked at station s2, which was charging for charging.
   [ 553,  613) -> Service a request driving for customer c12 from s2 to s11.
   [ 613,  734) -> It remains parked at station s11, which was charging for charging.
   [ 734,  794) -> Service a request driving for customer c71 from s11 to s11.
   [ 794,  914) -> Service a request driving for customer c52 from s11 to s3.
   [ 914,  965) -> It remains parked at station s3, which was charging for charging.
   [ 965, 1025) -> Service a request driving for customer c79 from s3 to s3.
   [1025, 1096) -> It remains parked at station s3, which was charging for charging.
   [1096, 1186) -> Service a request driving for customer c6 from s3 to s5.
   [1186, tmax) -> It remains parked at station s5, which was charging for charging.

Schedule for EV v4:
   [   0,  615) -> It remains parked at station s3, which was charging for charging.
   [ 615,  645) -> Service a request driving for customer c15 from s3 to s4.
   [ 645, 1025) -> It remains parked at station s4, which was charging for charging.
   [1025, 1145) -> Service a request driving for customer c42 from s4 to s7.
   [1145, 1447) -> It remains parked at station s7, which was charging for charging.
   [1447, 1507) -> Service a request driving for customer c54 from s7 to s11.
   [1507, tmax) -> It remains parked at station s11, which was charging for charging.

Schedule for EV v5:
   [   0,  493) -> It remains parked at station s3, which was charging for charging.
   [ 493,  553) -> Service a request driving for customer c54 from s3 to s3.
   [ 553,  611) -> It remains parked at station s3, which was charging for charging.
   [ 611,  731) -> Service a request driving for customer c66 from s3 to s3.
   [ 731,  968) -> It remains parked at station s3, which was charging for charging.
   [ 968, 1088) -> Service a request driving for customer c55 from s3 to s3.
   [1088, 1089) -> It remains parked at station s3, which was charging for charging.
   [1089, 1299) -> Service a request driving for customer c31 from s3 to s7.
   [1299, 1332) -> It remains parked at station s7, which was charging for charging.
   [1332, 1422) -> Service a request driving for customer c41 from s7 to s8.
   [1422, 1446) -> It remains parked at station s8, which was charging for charging.
   [1446, 1656) -> Service a request driving for customer c12 from s8 to s3.
   [1656, tmax) -> It remains parked at station s3, which was charging for charging.

Schedule for EV v6:
   [   0,  495) -> It remains parked at station s3, which was charging for charging.
   [ 495,  825) -> Service a request driving for customer c38 from s3 to s11.
   [ 825, 1033) -> It remains parked at station s11, which was charging for charging.
   [1033, 1093) -> Service a request driving for customer c78 from s11 to s2.
   [1093, 1154) -> It remains parked at station s2, which was charging for charging.
   [1154, 1424) -> Service a request driving for customer c76 from s2 to s3.
   [1424, tmax) -> It remains parked at station s3, which was charging for charging.

Schedule for EV v7:
   [   0,  427) -> It remains parked at station s4, which was charging for charging.
   [ 427,  487) -> Service a request driving for customer c50 from s4 to s1.
   [ 487,  615) -> It remains parked at station s1, which was charging for charging.
   [ 615,  675) -> Service a request driving for customer c2 from s1 to s1.
   [ 675,  725) -> It remains parked at station s1, which was charging for charging.
   [ 725,  785) -> Service a request driving for customer c42 from s1 to s10.
   [ 785,  853) -> It remains parked at station s10, which was charging for charging.
   [ 853, 1153) -> Service a request driving for customer c73 from s10 to s1.
   [1153, tmax) -> It remains parked at station s1, which was charging for charging.

Schedule for EV v8:
   [   0,  916) -> It remains parked at station s6, which was charging for charging.
   [ 916,  946) -> Service a request driving for customer c21 from s6 to s0.
   [ 946, 1090) -> It remains parked at station s0, which was charging for charging.
   [1090, 1360) -> Service a request driving for customer c38 from s0 to s8.
   [1360, 1391) -> It remains parked at station s8, which was charging for charging.
   [1391, 1451) -> Service a request driving for customer c6 from s8 to s2.
   [1451, tmax) -> It remains parked at station s2, which was charging for charging.

Schedule for EV v9:
   [   0,  496) -> It remains parked at station s6, which was charging for charging.
   [ 496,  646) -> Service a request driving for customer c21 from s6 to s9.
   [ 646,  849) -> It remains parked at station s9, which was charging for charging.
   [ 849,  879) -> Service a request driving for customer c23 from s9 to s3.
   [ 879,  908) -> It remains parked at station s3, which was charging for charging.
   [ 908, 1028) -> Service a request driving for customer c54 from s3 to s6.
   [1028, 1149) -> It remains parked at station s6, which was charging for charging.
   [1149, 1209) -> Service a request driving for customer c71 from s6 to s9.
   [1209, 1276) -> It remains parked at station s9, which was charging for charging.
   [1276, 1516) -> Service a request driving for customer c79 from s9 to s8.
   [1516, tmax) -> It remains parked at station s8, which was charging for charging.

Schedule for EV v10:
   [   0,  605) -> It remains parked at station s8, which was charging for charging.
   [ 605,  785) -> Service a request driving for customer c77 from s8 to s10.
   [ 785,  847) -> It remains parked at station s10, which was charging for charging.
   [ 847,  907) -> Service a request driving for customer c76 from s10 to s11.
   [ 907, 1026) -> It remains parked at station s11, which was charging for charging.
   [1026, 1356) -> Service a request driving for customer c70 from s11 to s11.
   [1356, tmax) -> It remains parked at station s11, which was charging for charging.

Schedule for EV v11:
   [   0,  610) -> It remains parked at station s9, which was charging for charging.
   [ 610,  640) -> Service a request driving for customer c60 from s9 to s6.
   [ 640,  913) -> It remains parked at station s6, which was charging for charging.
   [ 913,  943) -> Service a request driving for customer c6 from s6 to s1.
   [ 943, 1034) -> It remains parked at station s1, which was charging for charging.
   [1034, 1064) -> Service a request driving for customer c38 from s1 to s1.
   [1064, 1095) -> It remains parked at station s1, which was charging for charging.
   [1095, 1185) -> Service a request driving for customer c22 from s1 to s6.
   [1185, 1216) -> It remains parked at station s6, which was charging for charging.
   [1216, 1246) -> Service a request driving for customer c60 from s6 to s11.
   [1246, 1327) -> It remains parked at station s11, which was charging for charging.
   [1327, 1357) -> Service a request driving for customer c60 from s11 to s1.
   [1357, tmax) -> It remains parked at station s1, which was charging for charging.

Schedule for EV v12:
   [   0,  556) -> It remains parked at station s11, which was charging for charging.
   [ 556,  586) -> Service a request driving for customer c61 from s11 to s11.
   [ 586,  606) -> It remains parked at station s11, which was charging for charging.
   [ 606,  636) -> Service a request driving for customer c5 from s11 to s7.
   [ 636,  848) -> It remains parked at station s7, which was charging for charging.
   [ 848,  998) -> Service a request driving for customer c74 from s7 to s7.
   [ 998, 1091) -> It remains parked at station s7, which was charging for charging.
   [1091, 1331) -> Service a request driving for customer c2 from s7 to s11.
   [1331, tmax) -> It remains parked at station s11, which was charging for charging.

Schedule for EV v13:
   [   0,  913) -> It remains parked at station s11, which was charging for charging.
   [ 913,  943) -> Service a request driving for customer c69 from s11 to s6.
   [ 943, 1394) -> It remains parked at station s6, which was charging for charging.
   [1394, 1724) -> Service a request driving for customer c42 from s6 to s3.
   [1724, tmax) -> It remains parked at station s3, which was charging for charging.

Schedule for EV v14:
   [   0,  671) -> It remains parked at station s11, which was charging for charging.
   [ 671, 1031) -> Service a request driving for customer c78 from s11 to s2.
   [1031, 1034) -> It remains parked at station s2, which was charging for charging.
   [1034, 1184) -> Service a request driving for customer c21 from s2 to s4.
   [1184, 1395) -> It remains parked at station s4, which was charging for charging.
   [1395, 1485) -> Service a request driving for customer c44 from s4 to s10.
   [1485, tmax) -> It remains parked at station s10, which was charging for charging.

Set of satisfied customers
   {c2, c5, c6, c12, c15, c17, c21, c22, c23, c31, c38, c41, c42, c44, c50, c52, c54, c55, c60, c61, c66, c69, c70, c71, c73, c74, c76, c77, c78, c79}

