Academic license - for non-commercial use only
Gurobi Optimizer version 9.0.3 build v9.0.3rc0 (linux64)
Optimize a model with 5811 rows, 7265 columns and 24456 nonzeros
Model fingerprint: 0x3d1440bb
Variable types: 5552 continuous, 1713 integer (1713 binary)
Coefficient statistics:
  Matrix range     [1e+00, 7e+06]
  Objective range  [3e+01, 6e+02]
  Bounds range     [1e+00, 2e+06]
  RHS range        [1e+00, 2e+06]

Loaded user MIP start with objective 1230

Presolve removed 2328 rows and 2892 columns
Presolve time: 0.07s
Presolved: 3483 rows, 4373 columns, 17732 nonzeros
Variable types: 790 continuous, 3583 integer (2535 binary)

Root relaxation: objective 5.384286e+03, 8440 iterations, 1.24 seconds

    Nodes    |    Current Node    |     Objective Bounds      |     Work
 Expl Unexpl |  Obj  Depth IntInf | Incumbent    BestBd   Gap | It/Node Time

     0     0 5384.28571    0  767 1230.00000 5384.28571   338%     -    2s
     0     0 5347.27273    0  857 1230.00000 5347.27273   335%     -    3s
H    0     0                    3810.0000000 5347.27273  40.3%     -    3s
     0     0 5325.73535    0  898 3810.00000 5325.73535  39.8%     -    3s
     0     0 5324.68756    0  898 3810.00000 5324.68756  39.8%     -    3s
     0     0 5324.68756    0  882 3810.00000 5324.68756  39.8%     -    3s
     0     0 5307.01945    0  888 3810.00000 5307.01945  39.3%     -    4s
     0     0 5302.73666    0  915 3810.00000 5302.73666  39.2%     -    5s
     0     0 5301.86436    0  889 3810.00000 5301.86436  39.2%     -    5s
     0     0 5301.52828    0  844 3810.00000 5301.52828  39.1%     -    5s
     0     0 5301.52828    0  854 3810.00000 5301.52828  39.1%     -    5s
     0     0 5301.52828    0  943 3810.00000 5301.52828  39.1%     -    5s
     0     0 5301.52828    0  918 3810.00000 5301.52828  39.1%     -    5s
     0     0 5301.52828    0  942 3810.00000 5301.52828  39.1%     -    6s
     0     0 5301.52828    0  792 3810.00000 5301.52828  39.1%     -    8s
H    0     0                    4830.0000000 5301.52828  9.76%     -    8s
     0     2 5301.52828    0  775 4830.00000 5301.52828  9.76%     -    9s
     2     4 5275.07985    2  827 4830.00000 5301.52828  9.76%  2128   10s
H    8     8                    4980.0000000 5301.52828  6.46%   819   10s
H   24    14                    5040.0000000 5301.52828  5.19%   654   12s
   103    37 5284.62528    3  903 5040.00000 5298.83288  5.14%   346   15s
H  161    37                    5160.0000000 5283.68579  2.40%   324   17s
   215    35     cutoff    5      5160.00000 5254.48406  1.83%   316   20s

Cutting planes:
  Gomory: 9
  Implied bound: 864
  MIR: 5
  Zero half: 4
  RLT: 29
  Relax-and-lift: 75

Explored 296 nodes (122411 simplex iterations) in 22.12 seconds
Thread count was 1 (of 40 available processors)

Solution count 6: 5160 5040 4980 ... 1230

Optimal solution found (tolerance 1.00e-04)
Best objective 5.160000000000e+03, best bound 5.160000000000e+03, gap 0.0000%

----------

Best objective (UB): 5160.000
Best feasible solution (LB): 5160.000
Gap between the lower bound and upper bound: 0.000%

----------

Number of customers served: 24

Schedule for EV v0:
   [   0,  675) -> It remains parked at station s0, which was charging for charging.
   [ 675,  735) -> Service a request driving for customer c14 from s0 to s0.
   [ 735,  974) -> It remains parked at station s0, which was charging for charging.
   [ 974, 1124) -> Service a request driving for customer c14 from s0 to s11.
   [1124, 1265) -> It remains parked at station s11, which was charging for charging.
   [1265, 1445) -> Service a request driving for customer c43 from s11 to s7.
   [1445, tmax) -> It remains parked at station s7, which was charging for charging.

Schedule for EV v1:
   [   0,  665) -> It remains parked at station s0, which was charging for charging.
   [ 665,  785) -> Service a request driving for customer c59 from s0 to s5.
   [ 785, 1089) -> It remains parked at station s5, which was charging for charging.
   [1089, 1149) -> Service a request driving for customer c25 from s5 to s0.
   [1149, 1154) -> It remains parked at station s0, which was charging for charging.
   [1154, 1274) -> Service a request driving for customer c35 from s0 to s4.
   [1274, tmax) -> It remains parked at station s4, which was charging for charging.

Schedule for EV v2:
   [   0,  553) -> It remains parked at station s1, which was charging for charging.
   [ 553,  643) -> Service a request driving for customer c58 from s1 to s11.
   [ 643,  674) -> It remains parked at station s11, which was charging for charging.
   [ 674,  704) -> Service a request driving for customer c2 from s11 to s11.
   [ 704,  790) -> It remains parked at station s11, which was charging for charging.
   [ 790,  850) -> Service a request driving for customer c51 from s11 to s11.
   [ 850,  968) -> It remains parked at station s11, which was charging for charging.
   [ 968, 1178) -> Service a request driving for customer c66 from s11 to s9.
   [1178, tmax) -> It remains parked at station s9, which was charging for charging.

Schedule for EV v3:
   [   0,  614) -> It remains parked at station s1, which was charging for charging.
   [ 614,  644) -> Service a request driving for customer c23 from s1 to s4.
   [ 644,  791) -> It remains parked at station s4, which was charging for charging.
   [ 791,  911) -> Service a request driving for customer c58 from s4 to s2.
   [ 911,  915) -> It remains parked at station s2, which was charging for charging.
   [ 915,  975) -> Service a request driving for customer c64 from s2 to s11.
   [ 975, 1211) -> It remains parked at station s11, which was charging for charging.
   [1211, 1361) -> Service a request driving for customer c42 from s11 to s4.
   [1361, 1389) -> It remains parked at station s4, which was charging for charging.
   [1389, 1419) -> Service a request driving for customer c25 from s4 to s5.
   [1419, tmax) -> It remains parked at station s5, which was charging for charging.

Schedule for EV v4:
   [   0,  676) -> It remains parked at station s1, which was charging for charging.
   [ 676,  766) -> Service a request driving for customer c77 from s1 to s2.
   [ 766,  848) -> It remains parked at station s2, which was charging for charging.
   [ 848, 1028) -> Service a request driving for customer c49 from s2 to s2.
   [1028, 1274) -> It remains parked at station s2, which was charging for charging.
   [1274, 1304) -> Service a request driving for customer c55 from s2 to s4.
   [1304, 1332) -> It remains parked at station s4, which was charging for charging.
   [1332, 1512) -> Service a request driving for customer c78 from s4 to s1.
   [1512, tmax) -> It remains parked at station s1, which was charging for charging.

Schedule for EV v5:
   [   0,  852) -> It remains parked at station s4, which was charging for charging.
   [ 852, 1092) -> Service a request driving for customer c23 from s4 to s2.
   [1092, 1149) -> It remains parked at station s2, which was charging for charging.
   [1149, 1209) -> Service a request driving for customer c18 from s2 to s1.
   [1209, tmax) -> It remains parked at station s1, which was charging for charging.

Schedule for EV v6:
   [   0,  555) -> It remains parked at station s5, which was charging for charging.
   [ 555,  795) -> Service a request driving for customer c36 from s5 to s0.
   [ 795, 1086) -> It remains parked at station s0, which was charging for charging.
   [1086, 1206) -> Service a request driving for customer c33 from s0 to s0.
   [1206, 1215) -> It remains parked at station s0, which was charging for charging.
   [1215, 1305) -> Service a request driving for customer c2 from s0 to s2.
   [1305, tmax) -> It remains parked at station s2, which was charging for charging.

Schedule for EV v7:
   [   0,  607) -> It remains parked at station s7, which was charging for charging.
   [ 607,  667) -> Service a request driving for customer c51 from s7 to s4.
   [ 667,  725) -> It remains parked at station s4, which was charging for charging.
   [ 725,  755) -> Service a request driving for customer c78 from s4 to s0.
   [ 755, 1033) -> It remains parked at station s0, which was charging for charging.
   [1033, 1213) -> Service a request driving for customer c43 from s0 to s1.
   [1213, tmax) -> It remains parked at station s1, which was charging for charging.

Schedule for EV v8:
   [   0,  491) -> It remains parked at station s7, which was charging for charging.
   [ 491,  641) -> Service a request driving for customer c22 from s7 to s6.
   [ 641,  794) -> It remains parked at station s6, which was charging for charging.
   [ 794,  884) -> Service a request driving for customer c65 from s6 to s3.
   [ 884,  909) -> It remains parked at station s3, which was charging for charging.
   [ 909,  969) -> Service a request driving for customer c44 from s3 to s0.
   [ 969, 1085) -> It remains parked at station s0, which was charging for charging.
   [1085, 1295) -> Service a request driving for customer c20 from s0 to s3.
   [1295, 1326) -> It remains parked at station s3, which was charging for charging.
   [1326, 1596) -> Service a request driving for customer c23 from s3 to s11.
   [1596, tmax) -> It remains parked at station s11, which was charging for charging.

Schedule for EV v9:
   [   0,  915) -> It remains parked at station s7, which was charging for charging.
   [ 915, 1035) -> Service a request driving for customer c34 from s7 to s8.
   [1035, 1096) -> It remains parked at station s8, which was charging for charging.
   [1096, 1336) -> Service a request driving for customer c44 from s8 to s8.
   [1336, 1388) -> It remains parked at station s8, which was charging for charging.
   [1388, 1418) -> Service a request driving for customer c34 from s8 to s6.
   [1418, tmax) -> It remains parked at station s6, which was charging for charging.

Schedule for EV v10:
   [   0,  856) -> It remains parked at station s9, which was charging for charging.
   [ 856,  916) -> Service a request driving for customer c25 from s9 to s6.
   [ 916,  966) -> It remains parked at station s6, which was charging for charging.
   [ 966, 1026) -> Service a request driving for customer c22 from s6 to s6.
   [1026, 1092) -> It remains parked at station s6, which was charging for charging.
   [1092, 1152) -> Service a request driving for customer c49 from s6 to s4.
   [1152, 1207) -> It remains parked at station s4, which was charging for charging.
   [1207, 1387) -> Service a request driving for customer c33 from s4 to s4.
   [1387, tmax) -> It remains parked at station s4, which was charging for charging.

Schedule for EV v11:
   [   0,  969) -> It remains parked at station s9, which was charging for charging.
   [ 969, 1029) -> Service a request driving for customer c65 from s9 to s1.
   [1029, tmax) -> It remains parked at station s1, which was charging for charging.

Schedule for EV v12:
   [   0,  907) -> It remains parked at station s9, which was charging for charging.
   [ 907,  937) -> Service a request driving for customer c55 from s9 to s4.
   [ 937,  969) -> It remains parked at station s4, which was charging for charging.
   [ 969, 1029) -> Service a request driving for customer c18 from s4 to s10.
   [1029, 1149) -> It remains parked at station s10, which was charging for charging.
   [1149, 1179) -> Service a request driving for customer c23 from s10 to s5.
   [1179, tmax) -> It remains parked at station s5, which was charging for charging.

Schedule for EV v13:
   [   0,  614) -> It remains parked at station s9, which was charging for charging.
   [ 614,  644) -> Service a request driving for customer c33 from s9 to s3.
   [ 644,  671) -> It remains parked at station s3, which was charging for charging.
   [ 671,  761) -> Service a request driving for customer c64 from s3 to s7.
   [ 761,  968) -> It remains parked at station s7, which was charging for charging.
   [ 968, 1028) -> Service a request driving for customer c77 from s7 to s1.
   [1028, 1032) -> It remains parked at station s1, which was charging for charging.
   [1032, 1092) -> Service a request driving for customer c65 from s1 to s11.
   [1092, 1148) -> It remains parked at station s11, which was charging for charging.
   [1148, 1268) -> Service a request driving for customer c22 from s11 to s0.
   [1268, 1332) -> It remains parked at station s0, which was charging for charging.
   [1332, 1392) -> Service a request driving for customer c20 from s0 to s0.
   [1392, tmax) -> It remains parked at station s0, which was charging for charging.

Schedule for EV v14:
   [   0, 1033) -> It remains parked at station s10, which was charging for charging.
   [1033, 1093) -> Service a request driving for customer c22 from s10 to s6.
   [1093, tmax) -> It remains parked at station s6, which was charging for charging.

Set of satisfied customers
   {c2, c14, c18, c20, c22, c23, c25, c33, c34, c35, c36, c42, c43, c44, c49, c51, c55, c58, c59, c64, c65, c66, c77, c78}

