Academic license - for non-commercial use only
Gurobi Optimizer version 9.0.3 build v9.0.3rc0 (linux64)
Optimize a model with 8534 rows, 10789 columns and 36869 nonzeros
Model fingerprint: 0x2a84b34f
Variable types: 8170 continuous, 2619 integer (2619 binary)
Coefficient statistics:
  Matrix range     [1e+00, 6e+06]
  Objective range  [3e+01, 6e+02]
  Bounds range     [1e+00, 2e+06]
  RHS range        [1e+00, 2e+06]

Loaded user MIP start with objective 2640

Presolve removed 2411 rows and 2731 columns
Presolve time: 0.11s
Presolved: 6123 rows, 8058 columns, 32921 nonzeros
Variable types: 427 continuous, 7631 integer (5216 binary)

Root simplex log...

Iteration    Objective       Primal Inf.    Dual Inf.      Time
   16089    1.0937555e+04   3.478679e+05   0.000000e+00      5s
   26200    9.3476068e+03   5.942498e+05   0.000000e+00     10s
   35367    9.2658881e+03   5.038003e+04   0.000000e+00     15s
   37770    9.2656806e+03   0.000000e+00   0.000000e+00     16s

Root relaxation: objective 9.265681e+03, 37770 iterations, 16.25 seconds

    Nodes    |    Current Node    |     Objective Bounds      |     Work
 Expl Unexpl |  Obj  Depth IntInf | Incumbent    BestBd   Gap | It/Node Time

     0     0 9265.68063    0 2587 2640.00000 9265.68063   251%     -   20s
H    0     0                    2790.0000000 9265.68063   232%     -   20s
     0     0 9247.43697    0 2634 2790.00000 9247.43697   231%     -   27s
     0     0 9247.43697    0 2591 2790.00000 9247.43697   231%     -   28s
     0     0 9247.43697    0 2625 2790.00000 9247.43697   231%     -   29s
     0     0 9247.43697    0 2469 2790.00000 9247.43697   231%     -   29s
     0     0 9247.43697    0 2374 2790.00000 9247.43697   231%     -   34s
     0     0 9247.43697    0 2365 2790.00000 9247.43697   231%     -   37s
     0     2 9246.30435    0 2363 2790.00000 9246.30435   231%     -   46s
     2     4 9168.49624    2 2520 2790.00000 9245.58824   231%  8057   50s
     7     9 9021.10266    5 2317 2790.00000 9245.58824   231%  3742   55s
    11    13 8959.38679    7 2263 2790.00000 9245.58824   231%  3613   62s
    13    15 8251.23288    9 2147 2790.00000 9245.58824   231%  3509   65s
    27    29 8175.00000   19  902 2790.00000 9245.58824   231%  2258   70s
*   41    35              30    7680.0000000 9245.58824  20.4%  1634   71s
    44    34 9083.94482    1 2582 7680.00000 9235.17857  20.2%  1942   79s
    45    35 9082.51223    2 2440 7680.00000 9235.17857  20.2%  1923   80s
    50    40 8961.71429    6 2105 7680.00000 9235.17857  20.2%  2019   86s
    60    50 8865.00000   15 1382 7680.00000 9235.17857  20.2%  1829   90s
*   76    30              28    8820.0000000 9235.17857  4.71%  1513   92s
    83    29 9103.66071    3 2384 8820.00000 9166.46512  3.93%  1487   96s
    91    33     cutoff    8      8820.00000 9166.46512  3.93%  1471  100s
   106    34 8903.90496    6 2464 8820.00000 9166.15385  3.92%  1395  105s
*  118    20              17    8940.0000000 9166.15385  2.53%  1301  107s
   123    19 9137.29592    5 2405 8940.00000 9150.00000  2.35%  1291  110s
   130    18     cutoff    7      8940.00000 9135.00000  2.18%  1325  115s
   143    19     cutoff    7      8940.00000 9134.49500  2.18%  1291  120s
   157    29 9036.05769   14 2072 8940.00000 9134.49500  2.18%  1252  125s
*  168    26              25    9000.0000000 9134.49500  1.49%  1178  125s
   183    28 9042.85714   11 2283 9000.00000 9134.49500  1.49%  1158  130s
   188    23     cutoff    6      9000.00000 9114.33123  1.27%  1229  137s
   197    23 9042.85714   11 2346 9000.00000 9111.42857  1.24%  1209  140s
   213    19     cutoff   12      9000.00000 9105.00000  1.17%  1179  145s
   230    15 infeasible   14      9000.00000 9098.61111  1.10%  1144  150s
   236     9     cutoff    3      9000.00000 9074.50000  0.83%  1163  155s
   254     5 9040.91205    5 2389 9000.00000 9058.87850  0.65%  1129  160s

Cutting planes:
  Gomory: 1
  Cover: 2
  Implied bound: 599
  MIR: 4
  Zero half: 5
  RLT: 52
  Relax-and-lift: 41

Explored 264 nodes (368448 simplex iterations) in 161.64 seconds
Thread count was 1 (of 40 available processors)

Solution count 6: 9000 8940 8820 ... 2640

Optimal solution found (tolerance 1.00e-04)
Best objective 9.000000000000e+03, best bound 9.000000000000e+03, gap 0.0000%

----------

Best objective (UB): 9000.000
Best feasible solution (LB): 9000.000
Gap between the lower bound and upper bound: 0.000%

----------

Number of customers served: 35

Schedule for EV v0:
   [   0,  555) -> It remains parked at station s1, which was charging for charging.
   [ 555,  645) -> Service a request driving for customer c53 from s1 to s3.
   [ 645,  736) -> It remains parked at station s3, which was charging for charging.
   [ 736,  886) -> Service a request driving for customer c7 from s3 to s2.
   [ 886,  915) -> It remains parked at station s2, which was charging for charging.
   [ 915,  945) -> Service a request driving for customer c100 from s2 to s10.
   [ 945,  965) -> It remains parked at station s10, which was charging for charging.
   [ 965, 1145) -> Service a request driving for customer c53 from s10 to s6.
   [1145, 1266) -> It remains parked at station s6, which was charging for charging.
   [1266, 1596) -> Service a request driving for customer c35 from s6 to s4.
   [1596, tmax) -> It remains parked at station s4, which was charging for charging.

Schedule for EV v1:
   [   0,  554) -> It remains parked at station s2, which was charging for charging.
   [ 554,  644) -> Service a request driving for customer c63 from s2 to s6.
   [ 644,  669) -> It remains parked at station s6, which was charging for charging.
   [ 669,  879) -> Service a request driving for customer c81 from s6 to s5.
   [ 879,  968) -> It remains parked at station s5, which was charging for charging.
   [ 968,  998) -> Service a request driving for customer c101 from s5 to s6.
   [ 998, 1028) -> It remains parked at station s6, which was charging for charging.
   [1028, 1178) -> Service a request driving for customer c59 from s6 to s4.
   [1178, 1276) -> It remains parked at station s4, which was charging for charging.
   [1276, 1606) -> Service a request driving for customer c90 from s4 to s0.
   [1606, tmax) -> It remains parked at station s0, which was charging for charging.

Schedule for EV v2:
   [   0,  493) -> It remains parked at station s3, which was charging for charging.
   [ 493,  523) -> Service a request driving for customer c53 from s3 to s1.
   [ 523,  547) -> It remains parked at station s1, which was charging for charging.
   [ 547,  697) -> Service a request driving for customer c73 from s1 to s1.
   [ 697,  727) -> It remains parked at station s1, which was charging for charging.
   [ 727,  967) -> Service a request driving for customer c79 from s1 to s8.
   [ 967, 1207) -> It remains parked at station s8, which was charging for charging.
   [1207, 1267) -> Service a request driving for customer c79 from s8 to s6.
   [1267, 1328) -> It remains parked at station s6, which was charging for charging.
   [1328, 1538) -> Service a request driving for customer c81 from s6 to s10.
   [1538, tmax) -> It remains parked at station s10, which was charging for charging.

Schedule for EV v3:
   [   0,  616) -> It remains parked at station s4, which was charging for charging.
   [ 616,  856) -> Service a request driving for customer c101 from s4 to s2.
   [ 856,  909) -> It remains parked at station s2, which was charging for charging.
   [ 909, 1149) -> Service a request driving for customer c6 from s2 to s4.
   [1149, 1266) -> It remains parked at station s4, which was charging for charging.
   [1266, 1476) -> Service a request driving for customer c114 from s4 to s11.
   [1476, tmax) -> It remains parked at station s11, which was charging for charging.

Schedule for EV v4:
   [   0,  548) -> It remains parked at station s4, which was charging for charging.
   [ 548,  608) -> Service a request driving for customer c52 from s4 to s11.
   [ 608,  728) -> It remains parked at station s11, which was charging for charging.
   [ 728,  818) -> Service a request driving for customer c85 from s11 to s3.
   [ 818,  854) -> It remains parked at station s3, which was charging for charging.
   [ 854,  914) -> Service a request driving for customer c12 from s3 to s5.
   [ 914, 1036) -> It remains parked at station s5, which was charging for charging.
   [1036, 1096) -> Service a request driving for customer c106 from s5 to s0.
   [1096, 1206) -> It remains parked at station s0, which was charging for charging.
   [1206, 1296) -> Service a request driving for customer c2 from s0 to s7.
   [1296, tmax) -> It remains parked at station s7, which was charging for charging.

Schedule for EV v5:
   [   0,  490) -> It remains parked at station s4, which was charging for charging.
   [ 490,  580) -> Service a request driving for customer c55 from s4 to s0.
   [ 580,  614) -> It remains parked at station s0, which was charging for charging.
   [ 614,  764) -> Service a request driving for customer c100 from s0 to s9.
   [ 764,  795) -> It remains parked at station s9, which was charging for charging.
   [ 795,  855) -> Service a request driving for customer c1 from s9 to s3.
   [ 855,  905) -> It remains parked at station s3, which was charging for charging.
   [ 905,  935) -> Service a request driving for customer c33 from s3 to s3.
   [ 935, 1030) -> It remains parked at station s3, which was charging for charging.
   [1030, 1090) -> Service a request driving for customer c37 from s3 to s9.
   [1090, 1275) -> It remains parked at station s9, which was charging for charging.
   [1275, 1485) -> Service a request driving for customer c37 from s9 to s6.
   [1485, tmax) -> It remains parked at station s6, which was charging for charging.

Schedule for EV v6:
   [   0,  548) -> It remains parked at station s5, which was charging for charging.
   [ 548,  578) -> Service a request driving for customer c104 from s5 to s10.
   [ 578,  615) -> It remains parked at station s10, which was charging for charging.
   [ 615,  705) -> Service a request driving for customer c37 from s10 to s1.
   [ 705,  794) -> It remains parked at station s1, which was charging for charging.
   [ 794,  854) -> Service a request driving for customer c38 from s1 to s1.
   [ 854, 1207) -> It remains parked at station s1, which was charging for charging.
   [1207, 1267) -> Service a request driving for customer c104 from s1 to s11.
   [1267, 1270) -> It remains parked at station s11, which was charging for charging.
   [1270, 1420) -> Service a request driving for customer c86 from s11 to s0.
   [1420, tmax) -> It remains parked at station s0, which was charging for charging.

Schedule for EV v7:
   [   0,  426) -> It remains parked at station s6, which was charging for charging.
   [ 426,  636) -> Service a request driving for customer c7 from s6 to s9.
   [ 636,  666) -> It remains parked at station s9, which was charging for charging.
   [ 666,  786) -> Service a request driving for customer c55 from s9 to s4.
   [ 786,  905) -> It remains parked at station s4, which was charging for charging.
   [ 905, 1175) -> Service a request driving for customer c75 from s4 to s2.
   [1175, 1267) -> It remains parked at station s2, which was charging for charging.
   [1267, 1597) -> Service a request driving for customer c33 from s2 to s0.
   [1597, tmax) -> It remains parked at station s0, which was charging for charging.

Schedule for EV v8:
   [   0,  489) -> It remains parked at station s6, which was charging for charging.
   [ 489,  669) -> Service a request driving for customer c11 from s6 to s4.
   [ 669,  670) -> It remains parked at station s4, which was charging for charging.
   [ 670,  730) -> Service a request driving for customer c25 from s4 to s4.
   [ 730,  735) -> It remains parked at station s4, which was charging for charging.
   [ 735,  855) -> Service a request driving for customer c86 from s4 to s0.
   [ 855,  968) -> It remains parked at station s0, which was charging for charging.
   [ 968, 1088) -> Service a request driving for customer c85 from s0 to s1.
   [1088, 1094) -> It remains parked at station s1, which was charging for charging.
   [1094, 1184) -> Service a request driving for customer c35 from s1 to s0.
   [1184, 1274) -> It remains parked at station s0, which was charging for charging.
   [1274, 1484) -> Service a request driving for customer c38 from s0 to s8.
   [1484, tmax) -> It remains parked at station s8, which was charging for charging.

Schedule for EV v9:
   [   0,  969) -> It remains parked at station s7, which was charging for charging.
   [ 969, 1029) -> Service a request driving for customer c51 from s7 to s6.
   [1029, 1033) -> It remains parked at station s6, which was charging for charging.
   [1033, 1153) -> Service a request driving for customer c11 from s6 to s11.
   [1153, 1208) -> It remains parked at station s11, which was charging for charging.
   [1208, 1448) -> Service a request driving for customer c91 from s11 to s11.
   [1448, tmax) -> It remains parked at station s11, which was charging for charging.

Schedule for EV v10:
   [   0,  673) -> It remains parked at station s7, which was charging for charging.
   [ 673,  823) -> Service a request driving for customer c104 from s7 to s0.
   [ 823,  846) -> It remains parked at station s0, which was charging for charging.
   [ 846,  876) -> Service a request driving for customer c59 from s0 to s11.
   [ 876,  965) -> It remains parked at station s11, which was charging for charging.
   [ 965,  995) -> Service a request driving for customer c12 from s11 to s7.
   [ 995, 1154) -> It remains parked at station s7, which was charging for charging.
   [1154, 1244) -> Service a request driving for customer c101 from s7 to s1.
   [1244, 1271) -> It remains parked at station s1, which was charging for charging.
   [1271, 1541) -> Service a request driving for customer c106 from s1 to s3.
   [1541, tmax) -> It remains parked at station s3, which was charging for charging.

Schedule for EV v11:
   [   0,  856) -> It remains parked at station s7, which was charging for charging.
   [ 856, 1006) -> Service a request driving for customer c70 from s7 to s11.
   [1006, 1025) -> It remains parked at station s11, which was charging for charging.
   [1025, 1085) -> Service a request driving for customer c1 from s11 to s11.
   [1085, 1088) -> It remains parked at station s11, which was charging for charging.
   [1088, 1178) -> Service a request driving for customer c16 from s11 to s5.
   [1178, 1331) -> It remains parked at station s5, which was charging for charging.
   [1331, 1601) -> Service a request driving for customer c16 from s5 to s1.
   [1601, tmax) -> It remains parked at station s1, which was charging for charging.

Schedule for EV v12:
   [   0,  430) -> It remains parked at station s8, which was charging for charging.
   [ 430,  460) -> Service a request driving for customer c2 from s8 to s5.
   [ 460,  725) -> It remains parked at station s5, which was charging for charging.
   [ 725,  785) -> Service a request driving for customer c35 from s5 to s0.
   [ 785,  795) -> It remains parked at station s0, which was charging for charging.
   [ 795,  825) -> Service a request driving for customer c53 from s0 to s10.
   [ 825, 1207) -> It remains parked at station s10, which was charging for charging.
   [1207, 1327) -> Service a request driving for customer c100 from s10 to s8.
   [1327, 1336) -> It remains parked at station s8, which was charging for charging.
   [1336, 1486) -> Service a request driving for customer c34 from s8 to s4.
   [1486, tmax) -> It remains parked at station s4, which was charging for charging.

Schedule for EV v13:
   [   0,  491) -> It remains parked at station s10, which was charging for charging.
   [ 491,  551) -> Service a request driving for customer c70 from s10 to s3.
   [ 551,  556) -> It remains parked at station s3, which was charging for charging.
   [ 556,  766) -> Service a request driving for customer c34 from s3 to s3.
   [ 766,  905) -> It remains parked at station s3, which was charging for charging.
   [ 905,  995) -> Service a request driving for customer c52 from s3 to s0.
   [ 995, 1095) -> It remains parked at station s0, which was charging for charging.
   [1095, 1155) -> Service a request driving for customer c90 from s0 to s3.
   [1155, tmax) -> It remains parked at station s3, which was charging for charging.

Schedule for EV v14:
   [   0,  785) -> It remains parked at station s11, which was charging for charging.
   [ 785,  845) -> Service a request driving for customer c15 from s11 to s6.
   [ 845,  907) -> It remains parked at station s6, which was charging for charging.
   [ 907,  937) -> Service a request driving for customer c119 from s6 to s8.
   [ 937,  973) -> It remains parked at station s8, which was charging for charging.
   [ 973, 1153) -> Service a request driving for customer c79 from s8 to s3.
   [1153, 1154) -> It remains parked at station s3, which was charging for charging.
   [1154, 1484) -> Service a request driving for customer c119 from s3 to s11.
   [1484, tmax) -> It remains parked at station s11, which was charging for charging.

Set of satisfied customers
   {c1, c2, c6, c7, c11, c12, c15, c16, c25, c33, c34, c35, c37, c38, c51, c52, c53, c55, c59, c63, c70, c73, c75, c79, c81, c85, c86, c90, c91, c100, c101, c104, c106, c114, c119}

