Academic license - for non-commercial use only
Gurobi Optimizer version 9.0.3 build v9.0.3rc0 (linux64)
Optimize a model with 28628 rows, 36090 columns and 110372 nonzeros
Model fingerprint: 0x34603e83
Variable types: 28650 continuous, 7440 integer (7440 binary)
Coefficient statistics:
  Matrix range     [1e+00, 3e+06]
  Objective range  [3e+01, 2e+02]
  Bounds range     [1e+00, 2e+06]
  RHS range        [1e+00, 2e+06]

Loaded user MIP start with objective 2341

Presolve removed 21595 rows and 23572 columns
Presolve time: 0.23s
Presolved: 7033 rows, 12518 columns, 56058 nonzeros
Variable types: 0 continuous, 12518 integer (9804 binary)

Root simplex log...

Iteration    Objective       Primal Inf.    Dual Inf.      Time
   12006    3.1369981e+03   4.931105e+03   0.000000e+00      5s
   18808    2.8999981e+03   5.899186e+03   0.000000e+00     10s
   21401    2.9000000e+03   0.000000e+00   0.000000e+00     12s

Root relaxation: objective 2.900000e+03, 21401 iterations, 11.83 seconds
Total elapsed time = 17.54s
Total elapsed time = 22.46s
Total elapsed time = 25.73s

    Nodes    |    Current Node    |     Objective Bounds      |     Work
 Expl Unexpl |  Obj  Depth IntInf | Incumbent    BestBd   Gap | It/Node Time

     0     0 2900.00000    0 1557 2341.00000 2900.00000  23.9%     -   29s
     0     0 2900.00000    0 1950 2341.00000 2900.00000  23.9%     -   31s
     0     0 2900.00000    0 2090 2341.00000 2900.00000  23.9%     -   32s
     0     0 2900.00000    0 1631 2341.00000 2900.00000  23.9%     -   47s
     0     0 2900.00000    0 1701 2341.00000 2900.00000  23.9%     -   48s
     0     0 2900.00000    0 1515 2341.00000 2900.00000  23.9%     -   64s
     0     0 2900.00000    0 1514 2341.00000 2900.00000  23.9%     -   68s
     0     2 2900.00000    0 1514 2341.00000 2900.00000  23.9%     -   81s
     9    11 2900.00000    5 1774 2341.00000 2900.00000  23.9%  2251   85s
    22    24 2900.00000   14 1587 2341.00000 2900.00000  23.9%  1739   90s
    39    41 2900.00000   25 1186 2341.00000 2900.00000  23.9%  1408   95s
    67    69 2900.00000   43  485 2341.00000 2900.00000  23.9%  1088  100s
*   76     2              52    2900.0000000 2900.00000  0.00%   965  100s

Cutting planes:
  Implied bound: 282
  MIR: 17
  StrongCG: 2
  RLT: 134
  Relax-and-lift: 16

Explored 77 nodes (238456 simplex iterations) in 100.23 seconds
Thread count was 1 (of 40 available processors)

Solution count 2: 2900 2341 

Optimal solution found (tolerance 1.00e-04)
Best objective 2.900000000000e+03, best bound 2.900000000000e+03, gap 0.0000%

----------

Best objective (UB): 2900.000
Best feasible solution (LB): 2900.000
Gap between the lower bound and upper bound: 0.000%

----------

Number of customers served: 26

Schedule for EV v0:
   [   0,  470) -> It remains parked at station s0.
   [ 470,  506) -> Service a request driving for customer c3 from s0 to s1.
   [ 506, 1170) -> It remains parked at station s1, which was charging for charging.
   [1170, 1246) -> Service a request driving for customer c27 from s1 to s3.
   [1246, tmax) -> It remains parked at station s3.

Schedule for EV v1:
   [   0,  635) -> It remains parked at station s0.
   [ 635,  663) -> Service a request driving for customer c15 from s0 to s2.
   [ 663, 1210) -> It remains parked at station s2, which was charging for charging.
   [1210, 1253) -> Service a request driving for customer c12 from s2 to s0.
   [1253, 1285) -> It remains parked at station s0, which was charging for charging.
   [1285, 1308) -> Service a request driving for customer c12 from s0 to s2.
   [1308, tmax) -> It remains parked at station s2.

Schedule for EV v2:
   [   0,  480) -> It remains parked at station s0.
   [ 480,  521) -> Service a request driving for customer c8 from s0 to s1.
   [ 521, 1015) -> It remains parked at station s1, which was charging for charging.
   [1015, 1086) -> Service a request driving for customer c16 from s1 to s3.
   [1086, tmax) -> It remains parked at station s3, which was charging for charging.

Schedule for EV v3:
   [   0,  335) -> It remains parked at station s0.
   [ 335,  376) -> Service a request driving for customer c19 from s0 to s1.
   [ 376, tmax) -> It remains parked at station s1, which was charging for charging.

Schedule for EV v4:
   [   0,  500) -> It remains parked at station s0.
   [ 500,  538) -> Service a request driving for customer c26 from s0 to s2.
   [ 538, tmax) -> It remains parked at station s2, which was charging for charging.

Schedule for EV v5:
   [   0,  320) -> It remains parked at station s0.
   [ 320,  378) -> Service a request driving for customer c17 from s0 to s3.
   [ 378, tmax) -> It remains parked at station s3.

Schedule for EV v6:
   [   0,  420) -> It remains parked at station s0.
   [ 420,  478) -> Service a request driving for customer c21 from s0 to s3.
   [ 478,  505) -> It remains parked at station s3, which was charging for charging.
   [ 505,  544) -> Service a request driving for customer c20 from s3 to s2.
   [ 544, 1080) -> It remains parked at station s2, which was charging for charging.
   [1080, 1124) -> Service a request driving for customer c22 from s2 to s3.
   [1124, 1250) -> It remains parked at station s3, which was charging for charging.
   [1250, 1304) -> Service a request driving for customer c17 from s3 to s2.
   [1304, tmax) -> It remains parked at station s2.

Schedule for EV v7:
   [   0,  535) -> It remains parked at station s1.
   [ 535,  566) -> Service a request driving for customer c3 from s1 to s0.
   [ 566,  870) -> It remains parked at station s0, which was charging for charging.
   [ 870,  901) -> Service a request driving for customer c1 from s0 to s1.
   [ 901, tmax) -> It remains parked at station s1.

Schedule for EV v8:
   [   0,  430) -> It remains parked at station s1.
   [ 430,  476) -> Service a request driving for customer c1 from s1 to s0.
   [ 476,  795) -> It remains parked at station s0.
   [ 795,  848) -> Service a request driving for customer c0 from s0 to s3.
   [ 848, 1100) -> It remains parked at station s3.
   [1100, 1159) -> Service a request driving for customer c16 from s3 to s2.
   [1159, tmax) -> It remains parked at station s2, which was charging for charging.

Schedule for EV v9:
   [   0,  450) -> It remains parked at station s1.
   [ 450,  521) -> Service a request driving for customer c13 from s1 to s3.
   [ 521, 1320) -> It remains parked at station s3.
   [1320, 1363) -> Service a request driving for customer c21 from s3 to s0.
   [1363, tmax) -> It remains parked at station s0.

Schedule for EV v10:
   [   0,  835) -> It remains parked at station s1.
   [ 835,  903) -> Service a request driving for customer c28 from s1 to s2.
   [ 903, tmax) -> It remains parked at station s2.

Schedule for EV v11:
   [   0,  910) -> It remains parked at station s1.
   [ 910,  941) -> Service a request driving for customer c12 from s1 to s0.
   [ 941, 1155) -> It remains parked at station s0.
   [1155, 1198) -> Service a request driving for customer c3 from s0 to s2.
   [1198, tmax) -> It remains parked at station s2, which was charging for charging.

Schedule for EV v12:
   [   0, tmax) -> It remains parked at station s1.

Schedule for EV v13:
   [   0,  700) -> It remains parked at station s1.
   [ 700,  753) -> Service a request driving for customer c2 from s1 to s2.
   [ 753, 1105) -> It remains parked at station s2, which was charging for charging.
   [1105, 1164) -> Service a request driving for customer c26 from s2 to s3.
   [1164, tmax) -> It remains parked at station s3, which was charging for charging.

Schedule for EV v14:
   [   0,  815) -> It remains parked at station s1.
   [ 815,  878) -> Service a request driving for customer c22 from s1 to s2.
   [ 878,  895) -> It remains parked at station s2.
   [ 895,  934) -> Service a request driving for customer c24 from s2 to s3.
   [ 934, 1090) -> It remains parked at station s3.
   [1090, 1139) -> Service a request driving for customer c24 from s3 to s2.
   [1139, tmax) -> It remains parked at station s2, which was charging for charging.

Schedule for EV v15:
   [   0,  990) -> It remains parked at station s1.
   [ 990, 1056) -> Service a request driving for customer c7 from s1 to s3.
   [1056, 1100) -> It remains parked at station s3, which was charging for charging.
   [1100, 1166) -> Service a request driving for customer c7 from s3 to s1.
   [1166, tmax) -> It remains parked at station s1, which was charging for charging.

Schedule for EV v16:
   [   0, tmax) -> It remains parked at station s1.

Schedule for EV v17:
   [   0,  460) -> It remains parked at station s2.
   [ 460,  494) -> Service a request driving for customer c27 from s2 to s3.
   [ 494,  965) -> It remains parked at station s3.
   [ 965,  999) -> Service a request driving for customer c0 from s3 to s2.
   [ 999, 1095) -> It remains parked at station s2.
   [1095, 1139) -> Service a request driving for customer c2 from s2 to s3.
   [1139, tmax) -> It remains parked at station s3.

Schedule for EV v18:
   [   0,  515) -> It remains parked at station s2.
   [ 515,  564) -> Service a request driving for customer c5 from s2 to s3.
   [ 564, 1105) -> It remains parked at station s3, which was charging for charging.
   [1105, 1181) -> Service a request driving for customer c4 from s3 to s1.
   [1181, tmax) -> It remains parked at station s1.

Schedule for EV v19:
   [   0,  430) -> It remains parked at station s2.
   [ 430,  498) -> Service a request driving for customer c14 from s2 to s1.
   [ 498,  835) -> It remains parked at station s1, which was charging for charging.
   [ 835,  866) -> Service a request driving for customer c6 from s1 to s0.
   [ 866, 1095) -> It remains parked at station s0, which was charging for charging.
   [1095, 1153) -> Service a request driving for customer c21 from s0 to s3.
   [1153, tmax) -> It remains parked at station s3.

Schedule for EV v20:
   [   0, tmax) -> It remains parked at station s2.

Schedule for EV v21:
   [   0,  740) -> It remains parked at station s2.
   [ 740,  798) -> Service a request driving for customer c6 from s2 to s1.
   [ 798, 1140) -> It remains parked at station s1, which was charging for charging.
   [1140, 1216) -> Service a request driving for customer c19 from s1 to s3.
   [1216, tmax) -> It remains parked at station s3.

Schedule for EV v22:
   [   0,  475) -> It remains parked at station s2.
   [ 475,  509) -> Service a request driving for customer c9 from s2 to s3.
   [ 509, 1085) -> It remains parked at station s3.
   [1085, 1146) -> Service a request driving for customer c29 from s3 to s1.
   [1146, tmax) -> It remains parked at station s1.

Schedule for EV v23:
   [   0, 1125) -> It remains parked at station s2.
   [1125, 1178) -> Service a request driving for customer c9 from s2 to s1.
   [1178, tmax) -> It remains parked at station s1.

Schedule for EV v24:
   [   0, tmax) -> It remains parked at station s2.

Schedule for EV v25:
   [   0,  710) -> It remains parked at station s2.
   [ 710,  773) -> Service a request driving for customer c20 from s2 to s1.
   [ 773, 1110) -> It remains parked at station s1.
   [1110, 1186) -> Service a request driving for customer c14 from s1 to s3.
   [1186, tmax) -> It remains parked at station s3.

Schedule for EV v26:
   [   0,  450) -> It remains parked at station s2.
   [ 450,  494) -> Service a request driving for customer c4 from s2 to s3.
   [ 494,  805) -> It remains parked at station s3.
   [ 805,  864) -> Service a request driving for customer c9 from s3 to s2.
   [ 864, 1075) -> It remains parked at station s2.
   [1075, 1124) -> Service a request driving for customer c28 from s2 to s3.
   [1124, 1135) -> It remains parked at station s3, which was charging for charging.
   [1135, 1179) -> Service a request driving for customer c28 from s3 to s2.
   [1179, tmax) -> It remains parked at station s2.

Schedule for EV v27:
   [   0,  470) -> It remains parked at station s3.
   [ 470,  533) -> Service a request driving for customer c23 from s3 to s0.
   [ 533, 1170) -> It remains parked at station s0, which was charging for charging.
   [1170, 1203) -> Service a request driving for customer c12 from s0 to s2.
   [1203, tmax) -> It remains parked at station s2.

Schedule for EV v28:
   [   0,  520) -> It remains parked at station s3.
   [ 520,  581) -> Service a request driving for customer c27 from s3 to s1.
   [ 581, tmax) -> It remains parked at station s1, which was charging for charging.

Schedule for EV v29:
   [   0,  490) -> It remains parked at station s3.
   [ 490,  543) -> Service a request driving for customer c21 from s3 to s0.
   [ 543,  740) -> It remains parked at station s0, which was charging for charging.
   [ 740,  776) -> Service a request driving for customer c28 from s0 to s1.
   [ 776,  805) -> It remains parked at station s1, which was charging for charging.
   [ 805,  866) -> Service a request driving for customer c29 from s1 to s3.
   [ 866, 1045) -> It remains parked at station s3, which was charging for charging.
   [1045, 1106) -> Service a request driving for customer c5 from s3 to s1.
   [1106, tmax) -> It remains parked at station s1, which was charging for charging.

Set of satisfied customers
   {c0, c1, c2, c3, c4, c5, c6, c7, c8, c9, c12, c13, c14, c15, c16, c17, c19, c20, c21, c22, c23, c24, c26, c27, c28, c29}

