Academic license - for non-commercial use only
Gurobi Optimizer version 9.0.3 build v9.0.3rc0 (linux64)
Optimize a model with 75764 rows, 93540 columns and 282434 nonzeros
Model fingerprint: 0xc9b69872
Variable types: 75828 continuous, 17712 integer (17712 binary)
Coefficient statistics:
  Matrix range     [1e+00, 3e+06]
  Objective range  [2e+01, 3e+02]
  Bounds range     [1e+00, 2e+06]
  RHS range        [1e+00, 2e+06]

Loaded user MIP start with objective 5671

Presolve removed 58816 rows and 62767 columns
Presolve time: 0.80s
Presolved: 16948 rows, 30773 columns, 142752 nonzeros
Variable types: 0 continuous, 30773 integer (24430 binary)

Root simplex log...

Iteration    Objective       Primal Inf.    Dual Inf.      Time
    8067    6.9919966e+03   9.629594e+05   0.000000e+00      5s
   10757    6.9919954e+03   2.215275e+05   0.000000e+00     10s
   13107    6.9919947e+03   2.967222e+05   0.000000e+00     15s
   15227    6.9919940e+03   6.213471e+05   0.000000e+00     20s
   17387    6.9919933e+03   1.867142e+05   0.000000e+00     25s
   19427    6.9919927e+03   3.002615e+05   0.000000e+00     30s
   21457    6.9159926e+03   2.074219e+05   0.000000e+00     35s
   23387    6.9159924e+03   5.029979e+04   0.000000e+00     40s
   25427    6.9159923e+03   7.839889e+03   0.000000e+00     45s
   26901    6.9160000e+03   0.000000e+00   0.000000e+00     49s
   26901    6.9160000e+03   0.000000e+00   0.000000e+00     49s

Root relaxation: objective 6.916000e+03, 26901 iterations, 47.73 seconds
Total elapsed time = 133.72s
Total elapsed time = 223.27s
Total elapsed time = 272.00s
Total elapsed time = 308.88s

    Nodes    |    Current Node    |     Objective Bounds      |     Work
 Expl Unexpl |  Obj  Depth IntInf | Incumbent    BestBd   Gap | It/Node Time

     0     0 6916.00000    0 5544 5671.00000 6916.00000  22.0%     -  341s
     0     0 6916.00000    0 7765 5671.00000 6916.00000  22.0%     -  383s
     0     0 6916.00000    0 7491 5671.00000 6916.00000  22.0%     -  395s
     0     0 6916.00000    0 5513 5671.00000 6916.00000  22.0%     -  652s
     0     0 6916.00000    0 5232 5671.00000 6916.00000  22.0%     -  789s
     0     2 6916.00000    0 5230 5671.00000 6916.00000  22.0%     - 1049s
     1     3 6916.00000    1 5743 5671.00000 6916.00000  22.0% 72965 1072s
     2     4 6916.00000    1 5314 5671.00000 6916.00000  22.0% 41285 1090s
     3     5 6916.00000    2 5243 5671.00000 6916.00000  22.0% 28970 1098s
     4     6 6916.00000    3 5091 5671.00000 6916.00000  22.0% 22770 1105s
     5     7 6916.00000    3 5267 5671.00000 6916.00000  22.0% 19074 1112s
     6     8 6916.00000    4 5044 5671.00000 6916.00000  22.0% 16627 1119s
     7     9 6916.00000    5 5123 5671.00000 6916.00000  22.0% 14747 1125s
     8    10 6916.00000    5 5122 5671.00000 6916.00000  22.0% 13400 1132s
     9    11 6916.00000    6 5087 5671.00000 6916.00000  22.0% 12283 1137s
    10    12 6916.00000    6 5527 5671.00000 6916.00000  22.0% 17692 1237s
    12    12 infeasible    7      5671.00000 6916.00000  22.0% 15404 1267s
    14    14 6916.00000    8 5305 5671.00000 6916.00000  22.0% 13654 1272s
    15    15 6916.00000    9 5307 5671.00000 6916.00000  22.0% 13018 1275s
    16    16 6913.00000    9 5468 5671.00000 6916.00000  22.0% 12740 1282s
    18    18 6913.00000   10 5416 5671.00000 6916.00000  22.0% 11607 1285s
    20    20 6913.00000   11 5027 5671.00000 6916.00000  22.0% 10910 1291s
    23    23 6913.00000   14 4809 5671.00000 6916.00000  22.0%  9885 1297s
    24    24 6913.00000   15 4878 5671.00000 6916.00000  22.0%  9661 1300s
    27    27 6913.00000   17 4957 5671.00000 6916.00000  22.0%  8895 1306s
    28    28 6913.00000   17 5027 5671.00000 6916.00000  22.0%  9031 1313s
    29    29 6913.00000   18 4931 5671.00000 6916.00000  22.0%  8957 1317s
    31    31 6823.00000   20 4615 5671.00000 6916.00000  22.0%  8478 1322s
    32    32 6913.00000   20 4820 5671.00000 6916.00000  22.0%  8476 1327s
    35    35 6823.00000   23 4488 5671.00000 6916.00000  22.0%  7800 1330s
    40    40 6823.00000   28 4312 5671.00000 6916.00000  22.0%  6938 1337s
    42    42 6823.00000   30 4294 5671.00000 6916.00000  22.0%  6663 1340s
    45    45 6823.00000   33 4526 5671.00000 6916.00000  22.0%  6340 1346s
    46    46 6823.00000   33 4491 5671.00000 6916.00000  22.0%  6264 1350s
    50    50 6823.00000   37 4477 5671.00000 6916.00000  22.0%  5911 1357s
    52    52 6823.00000   38 4567 5671.00000 6916.00000  22.0%  5841 1362s
    53    53 6823.00000   39 4358 5671.00000 6916.00000  22.0%  5787 1366s
    55    55 6823.00000   41 4665 5671.00000 6916.00000  22.0%  5669 1373s
    56    56 6823.00000   42 4766 5671.00000 6916.00000  22.0%  5739 1379s
    57    57 6823.00000   42 4474 5671.00000 6916.00000  22.0%  5684 1383s
    59    59 6823.00000   44 4422 5671.00000 6916.00000  22.0%  5540 1388s
    62    62 6823.00000   46 4397 5671.00000 6916.00000  22.0%  5410 1393s
    63    63 6823.00000   47 4153 5671.00000 6916.00000  22.0%  5358 1396s
    65    65 6823.00000   48 4330 5671.00000 6916.00000  22.0%  5314 1403s
    67    67 6823.00000   50 4209 5671.00000 6916.00000  22.0%  5209 1405s
    75    75 6823.00000   58 4168 5671.00000 6916.00000  22.0%  4722 1413s
    78    78 6823.00000   61 4271 5671.00000 6916.00000  22.0%  4594 1419s
    80    80 6823.00000   63 4290 5671.00000 6916.00000  22.0%  4496 1420s
    82    82 6823.00000   64 4184 5671.00000 6916.00000  22.0%  4571 1428s
    83    83 6823.00000   65 4021 5671.00000 6916.00000  22.0%  4553 1432s
    85    85 6823.00000   67 4374 5671.00000 6916.00000  22.0%  4492 1438s
    87    87 6823.00000   68 4367 5671.00000 6916.00000  22.0%  4508 1444s
    89    89 6823.00000   70 4290 5671.00000 6916.00000  22.0%  4435 1447s
    90    90 6823.00000   71 4247 5671.00000 6916.00000  22.0%  4407 1450s
    93    93 6823.00000   74 4117 5671.00000 6916.00000  22.0%  4301 1455s
    96    96 6823.00000   77 4174 5671.00000 6916.00000  22.0%  4202 1460s
   100   100 6823.00000   80 4073 5671.00000 6916.00000  22.0%  4122 1465s
   108   108 6823.00000   88 3897 5671.00000 6916.00000  22.0%  3851 1470s
   110   110 6823.00000   90 3854 5671.00000 6916.00000  22.0%  3808 1475s
   113   113 6823.00000   93 4152 5671.00000 6916.00000  22.0%  3749 1481s
   119   119 6823.00000   99 3933 5671.00000 6916.00000  22.0%  3598 1487s
   121   121 6823.00000  101 3859 5671.00000 6916.00000  22.0%  3552 1490s
   124   124 6823.00000  104 3958 5671.00000 6916.00000  22.0%  3500 1495s
   126   126 6823.00000  106 4055 5671.00000 6916.00000  22.0%  3470 1500s
   129   129 6823.00000  108 4086 5671.00000 6916.00000  22.0%  3491 1506s
   131   131 6823.00000  110 3929 5671.00000 6916.00000  22.0%  3477 1513s
   132   132 6823.00000  111 3734 5671.00000 6916.00000  22.0%  3501 1516s
   134   134 6823.00000  113 3615 5671.00000 6916.00000  22.0%  3482 1522s
   136   136 6823.00000  115 3527 5671.00000 6916.00000  22.0%  3466 1526s
   140   140 6823.00000  119 3498 5671.00000 6916.00000  22.0%  3414 1531s
   144   144 6823.00000  123 3680 5671.00000 6916.00000  22.0%  3351 1537s
   146   146 6823.00000  125 3574 5671.00000 6916.00000  22.0%  3318 1540s
   151   151 6823.00000  129 3629 5671.00000 6916.00000  22.0%  3305 1546s
   162   162 6823.00000  140 3499 5671.00000 6916.00000  22.0%  3131 1551s
   171   171 6823.00000  149 3518 5671.00000 6916.00000  22.0%  3010 1555s
   179   179 6823.00000  157 3639 5671.00000 6916.00000  22.0%  2954 1562s
   187   187 6823.00000  165 3608 5671.00000 6916.00000  22.0%  2864 1566s
   191   191 6823.00000  168 3516 5671.00000 6916.00000  22.0%  2861 1571s
   203   203 6823.00000  180 3509 5671.00000 6916.00000  22.0%  2724 1575s
   209   209 6823.00000  186 3244 5671.00000 6916.00000  22.0%  2696 1580s
   216   216 6823.00000  193 3445 5671.00000 6916.00000  22.0%  2656 1585s
   219   219 6823.00000  196 3347 5671.00000 6916.00000  22.0%  2672 1590s
   221   221 6823.00000  198 3511 5671.00000 6916.00000  22.0%  2704 1596s
   227   227 6823.00000  204 3380 5671.00000 6916.00000  22.0%  2670 1600s
   231   231 6823.00000  207 3361 5671.00000 6916.00000  22.0%  2694 1607s
   235   235 6823.00000  211 3197 5671.00000 6916.00000  22.0%  2672 1610s
   250   250 6823.00000  226 3251 5671.00000 6916.00000  22.0%  2569 1617s
   253   253 6714.00000  229 3097 5671.00000 6916.00000  22.0%  2569 1620s
   257   257 6823.00000  232 3403 5671.00000 6916.00000  22.0%  2569 1625s
   270   270 6823.00000  245 3276 5671.00000 6916.00000  22.0%  2483 1630s
   282   282 6823.00000  257 3270 5671.00000 6916.00000  22.0%  2414 1635s
   298   298 6823.00000  273 3215 5671.00000 6916.00000  22.0%  2318 1640s
   307   307 6823.00000  282 3203 5671.00000 6916.00000  22.0%  2284 1645s
   323   323 6823.00000  298 3144 5671.00000 6916.00000  22.0%  2204 1650s
   334   334 6823.00000  309 3326 5671.00000 6916.00000  22.0%  2173 1657s
   335   335 6823.00000  309 3520 5671.00000 6916.00000  22.0%  2198 1661s
   345   345 6823.00000  319 3463 5671.00000 6916.00000  22.0%  2153 1665s
   358   358 6823.00000  332 3127 5671.00000 6916.00000  22.0%  2103 1670s
   367   367 6823.00000  341 3116 5671.00000 6916.00000  22.0%  2080 1675s
   376   376 6823.00000  350 3135 5671.00000 6916.00000  22.0%  2070 1682s
   377   377 6823.00000  350 3015 5671.00000 6916.00000  22.0%  2088 1685s
   384   384 6823.00000  357 3006 5671.00000 6916.00000  22.0%  2074 1690s
   388   388 6823.00000  360 3040 5671.00000 6916.00000  22.0%  2085 1695s
   402   402 6823.00000  374 2946 5671.00000 6916.00000  22.0%  2037 1700s
   409   409 6823.00000  381 3181 5671.00000 6916.00000  22.0%  2026 1705s
   418   418 6705.00000  390 3523 5671.00000 6916.00000  22.0%  2027 1713s
   419   419 6823.00000  390 2940 5671.00000 6916.00000  22.0%  2036 1715s
   427   427 6823.00000  398 3027 5671.00000 6916.00000  22.0%  2020 1720s
H  432    32                    6823.0000000 6916.00000  1.36%  2006 1724s
   435    31 6916.00000    4 5173 6823.00000 6916.00000  1.36%  2003 1727s
   436    32 6916.00000    5 5053 6823.00000 6916.00000  1.36%  2021 1733s
   437    33 6916.00000    6 4971 6823.00000 6916.00000  1.36%  2025 1736s
   440    36 6916.00000    9 4959 6823.00000 6916.00000  1.36%  2028 1741s
   443    39 6916.00000   12 4741 6823.00000 6916.00000  1.36%  2027 1745s
   449    45 6916.00000   17 4643 6823.00000 6916.00000  1.36%  2035 1754s
   450    46 6916.00000   18 4569 6823.00000 6916.00000  1.36%  2033 1755s
   455    51 6916.00000   23 4555 6823.00000 6916.00000  1.36%  2028 1760s
H  459     3                    6916.0000000 6916.00000  0.00%  2016 1770s

Cutting planes:
  Gomory: 3
  Implied bound: 2242
  MIR: 54
  StrongCG: 15
  RLT: 393
  Relax-and-lift: 159

Explored 460 nodes (1475003 simplex iterations) in 1770.95 seconds
Thread count was 1 (of 40 available processors)

Solution count 3: 6916 6823 5671 

Optimal solution found (tolerance 1.00e-04)
Best objective 6.916000000000e+03, best bound 6.916000000000e+03, gap 0.0000%

----------

Best objective (UB): 6916.000
Best feasible solution (LB): 6916.000
Gap between the lower bound and upper bound: 0.000%

----------

Number of customers served: 59

Schedule for EV v0:
   [   0, tmax) -> It remains parked at station s0.

Schedule for EV v1:
   [   0,  485) -> It remains parked at station s0.
   [ 485,  574) -> Service a request driving for customer c39 from s0 to s4.
   [ 574,  595) -> It remains parked at station s4.
   [ 595,  664) -> Service a request driving for customer c33 from s4 to s0.
   [ 664, 1045) -> It remains parked at station s0, which was charging for charging.
   [1045, 1134) -> Service a request driving for customer c36 from s0 to s4.
   [1134, 1205) -> It remains parked at station s4, which was charging for charging.
   [1205, 1299) -> Service a request driving for customer c42 from s4 to s0.
   [1299, 1355) -> It remains parked at station s0.
   [1355, 1397) -> Service a request driving for customer c58 from s0 to s2.
   [1397, tmax) -> It remains parked at station s2.

Schedule for EV v2:
   [   0, tmax) -> It remains parked at station s0.

Schedule for EV v3:
   [   0,  410) -> It remains parked at station s0.
   [ 410,  467) -> Service a request driving for customer c0 from s0 to s3.
   [ 467,  470) -> It remains parked at station s3.
   [ 470,  526) -> Service a request driving for customer c47 from s3 to s2.
   [ 526, tmax) -> It remains parked at station s2.

Schedule for EV v4:
   [   0,  435) -> It remains parked at station s0.
   [ 435,  472) -> Service a request driving for customer c26 from s0 to s2.
   [ 472,  485) -> It remains parked at station s2.
   [ 485,  545) -> Service a request driving for customer c6 from s2 to s4.
   [ 545,  900) -> It remains parked at station s4, which was charging for charging.
   [ 900,  970) -> Service a request driving for customer c3 from s4 to s2.
   [ 970, 1075) -> It remains parked at station s2, which was charging for charging.
   [1075, 1155) -> Service a request driving for customer c24 from s2 to s4.
   [1155, 1230) -> It remains parked at station s4, which was charging for charging.
   [1230, 1319) -> Service a request driving for customer c6 from s4 to s0.
   [1319, tmax) -> It remains parked at station s0, which was charging for charging.

Schedule for EV v5:
   [   0,  350) -> It remains parked at station s0.
   [ 350,  429) -> Service a request driving for customer c22 from s0 to s4.
   [ 429,  500) -> It remains parked at station s4, which was charging for charging.
   [ 500,  579) -> Service a request driving for customer c36 from s4 to s0.
   [ 579, 1035) -> It remains parked at station s0.
   [1035, 1107) -> Service a request driving for customer c31 from s0 to s3.
   [1107, 1135) -> It remains parked at station s3, which was charging for charging.
   [1135, 1201) -> Service a request driving for customer c13 from s3 to s2.
   [1201, tmax) -> It remains parked at station s2, which was charging for charging.

Schedule for EV v6:
   [   0, tmax) -> It remains parked at station s0.

Schedule for EV v7:
   [   0,  990) -> It remains parked at station s0.
   [ 990, 1042) -> Service a request driving for customer c49 from s0 to s3.
   [1042, 1115) -> It remains parked at station s3, which was charging for charging.
   [1115, 1181) -> Service a request driving for customer c49 from s3 to s2.
   [1181, tmax) -> It remains parked at station s2.

Schedule for EV v8:
   [   0,  315) -> It remains parked at station s0.
   [ 315,  384) -> Service a request driving for customer c38 from s0 to s4.
   [ 384,  495) -> It remains parked at station s4, which was charging for charging.
   [ 495,  579) -> Service a request driving for customer c9 from s4 to s0.
   [ 579,  585) -> It remains parked at station s0.
   [ 585,  630) -> Service a request driving for customer c14 from s0 to s1.
   [ 630,  870) -> It remains parked at station s1, which was charging for charging.
   [ 870,  971) -> Service a request driving for customer c8 from s1 to s4.
   [ 971, 1085) -> It remains parked at station s4.
   [1085, 1170) -> Service a request driving for customer c5 from s4 to s2.
   [1170, tmax) -> It remains parked at station s2.

Schedule for EV v9:
   [   0,  715) -> It remains parked at station s0.
   [ 715,  765) -> Service a request driving for customer c32 from s0 to s1.
   [ 765,  890) -> It remains parked at station s1, which was charging for charging.
   [ 890,  970) -> Service a request driving for customer c19 from s1 to s3.
   [ 970, 1000) -> It remains parked at station s3, which was charging for charging.
   [1000, 1052) -> Service a request driving for customer c27 from s3 to s0.
   [1052, 1095) -> It remains parked at station s0, which was charging for charging.
   [1095, 1117) -> Service a request driving for customer c29 from s0 to s2.
   [1117, 1150) -> It remains parked at station s2, which was charging for charging.
   [1150, 1228) -> Service a request driving for customer c19 from s2 to s1.
   [1228, 1235) -> It remains parked at station s1, which was charging for charging.
   [1235, 1311) -> Service a request driving for customer c18 from s1 to s4.
   [1311, 1325) -> It remains parked at station s4.
   [1325, 1409) -> Service a request driving for customer c25 from s4 to s0.
   [1409, tmax) -> It remains parked at station s0.

Schedule for EV v10:
   [   0,  420) -> It remains parked at station s1.
   [ 420,  490) -> Service a request driving for customer c53 from s1 to s3.
   [ 490,  520) -> It remains parked at station s3, which was charging for charging.
   [ 520,  582) -> Service a request driving for customer c57 from s3 to s0.
   [ 582,  980) -> It remains parked at station s0.
   [ 980, 1037) -> Service a request driving for customer c1 from s0 to s3.
   [1037, 1040) -> It remains parked at station s3, which was charging for charging.
   [1040, 1096) -> Service a request driving for customer c1 from s3 to s2.
   [1096, 1100) -> It remains parked at station s2.
   [1100, 1163) -> Service a request driving for customer c0 from s2 to s1.
   [1163, 1185) -> It remains parked at station s1, which was charging for charging.
   [1185, 1258) -> Service a request driving for customer c12 from s1 to s2.
   [1258, tmax) -> It remains parked at station s2.

Schedule for EV v11:
   [   0,  460) -> It remains parked at station s1.
   [ 460,  528) -> Service a request driving for customer c41 from s1 to s2.
   [ 528, tmax) -> It remains parked at station s2.

Schedule for EV v12:
   [   0,  365) -> It remains parked at station s1.
   [ 365,  410) -> Service a request driving for customer c29 from s1 to s0.
   [ 410,  520) -> It remains parked at station s0.
   [ 520,  585) -> Service a request driving for customer c18 from s0 to s1.
   [ 585,  855) -> It remains parked at station s1.
   [ 855,  895) -> Service a request driving for customer c1 from s1 to s0.
   [ 895, 1100) -> It remains parked at station s0.
   [1100, 1145) -> Service a request driving for customer c56 from s0 to s1.
   [1145, 1170) -> It remains parked at station s1, which was charging for charging.
   [1170, 1240) -> Service a request driving for customer c7 from s1 to s3.
   [1240, tmax) -> It remains parked at station s3.

Schedule for EV v13:
   [   0,  450) -> It remains parked at station s1.
   [ 450,  546) -> Service a request driving for customer c20 from s1 to s4.
   [ 546, 1115) -> It remains parked at station s4, which was charging for charging.
   [1115, 1149) -> Service a request driving for customer c34 from s4 to s3.
   [1149, tmax) -> It remains parked at station s3, which was charging for charging.

Schedule for EV v14:
   [   0,  505) -> It remains parked at station s1.
   [ 505,  545) -> Service a request driving for customer c31 from s1 to s0.
   [ 545,  625) -> It remains parked at station s0, which was charging for charging.
   [ 625,  652) -> Service a request driving for customer c40 from s0 to s2.
   [ 652,  675) -> It remains parked at station s2.
   [ 675,  707) -> Service a request driving for customer c44 from s2 to s0.
   [ 707,  825) -> It remains parked at station s0, which was charging for charging.
   [ 825,  870) -> Service a request driving for customer c19 from s0 to s1.
   [ 870, 1100) -> It remains parked at station s1, which was charging for charging.
   [1100, 1180) -> Service a request driving for customer c14 from s1 to s3.
   [1180, tmax) -> It remains parked at station s3, which was charging for charging.

Schedule for EV v15:
   [   0, tmax) -> It remains parked at station s1.

Schedule for EV v16:
   [   0,  470) -> It remains parked at station s1.
   [ 470,  543) -> Service a request driving for customer c43 from s1 to s2.
   [ 543, 1195) -> It remains parked at station s2, which was charging for charging.
   [1195, 1217) -> Service a request driving for customer c37 from s2 to s0.
   [1217, tmax) -> It remains parked at station s0.

Schedule for EV v17:
   [   0,  520) -> It remains parked at station s1, which was charging for charging.
   [ 520,  610) -> Service a request driving for customer c12 from s1 to s3.
   [ 610, 1035) -> It remains parked at station s3.
   [1035, 1096) -> Service a request driving for customer c19 from s3 to s2.
   [1096, tmax) -> It remains parked at station s2.

Schedule for EV v18:
   [   0, tmax) -> It remains parked at station s2.

Schedule for EV v19:
   [   0,  420) -> It remains parked at station s2.
   [ 420,  505) -> Service a request driving for customer c45 from s2 to s4.
   [ 505,  535) -> It remains parked at station s4, which was charging for charging.
   [ 535,  611) -> Service a request driving for customer c38 from s4 to s1.
   [ 611, 1040) -> It remains parked at station s1, which was charging for charging.
   [1040, 1080) -> Service a request driving for customer c10 from s1 to s0.
   [1080, tmax) -> It remains parked at station s0.

Schedule for EV v20:
   [   0,  335) -> It remains parked at station s2.
   [ 335,  382) -> Service a request driving for customer c14 from s2 to s0.
   [ 382, 1150) -> It remains parked at station s0, which was charging for charging.
   [1150, 1182) -> Service a request driving for customer c44 from s0 to s2.
   [1182, tmax) -> It remains parked at station s2.

Schedule for EV v21:
   [   0, tmax) -> It remains parked at station s2.

Schedule for EV v22:
   [   0, 1020) -> It remains parked at station s2.
   [1020, 1061) -> Service a request driving for customer c47 from s2 to s3.
   [1061, tmax) -> It remains parked at station s3, which was charging for charging.

Schedule for EV v23:
   [   0,  555) -> It remains parked at station s2.
   [ 555,  628) -> Service a request driving for customer c43 from s2 to s1.
   [ 628,  720) -> It remains parked at station s1.
   [ 720,  778) -> Service a request driving for customer c37 from s1 to s2.
   [ 778,  840) -> It remains parked at station s2, which was charging for charging.
   [ 840,  877) -> Service a request driving for customer c16 from s2 to s0.
   [ 877, 1045) -> It remains parked at station s0, which was charging for charging.
   [1045, 1107) -> Service a request driving for customer c17 from s0 to s3.
   [1107, tmax) -> It remains parked at station s3, which was charging for charging.

Schedule for EV v24:
   [   0,  490) -> It remains parked at station s2.
   [ 490,  556) -> Service a request driving for customer c27 from s2 to s3.
   [ 556,  570) -> It remains parked at station s3, which was charging for charging.
   [ 570,  636) -> Service a request driving for customer c28 from s3 to s2.
   [ 636, tmax) -> It remains parked at station s2.

Schedule for EV v25:
   [   0,  430) -> It remains parked at station s2.
   [ 430,  483) -> Service a request driving for customer c55 from s2 to s1.
   [ 483,  510) -> It remains parked at station s1, which was charging for charging.
   [ 510,  591) -> Service a request driving for customer c33 from s1 to s4.
   [ 591,  665) -> It remains parked at station s4.
   [ 665,  689) -> Service a request driving for customer c46 from s4 to s3.
   [ 689,  845) -> It remains parked at station s3.
   [ 845,  912) -> Service a request driving for customer c31 from s3 to s0.
   [ 912, 1070) -> It remains parked at station s0, which was charging for charging.
   [1070, 1097) -> Service a request driving for customer c57 from s0 to s2.
   [1097, tmax) -> It remains parked at station s2.

Schedule for EV v26:
   [   0,  840) -> It remains parked at station s2.
   [ 840,  905) -> Service a request driving for customer c41 from s2 to s4.
   [ 905,  965) -> It remains parked at station s4, which was charging for charging.
   [ 965, 1061) -> Service a request driving for customer c52 from s4 to s1.
   [1061, 1100) -> It remains parked at station s1, which was charging for charging.
   [1100, 1190) -> Service a request driving for customer c48 from s1 to s3.
   [1190, tmax) -> It remains parked at station s3, which was charging for charging.

Schedule for EV v27:
   [   0,  470) -> It remains parked at station s2.
   [ 470,  545) -> Service a request driving for customer c34 from s2 to s4.
   [ 545,  625) -> Service a request driving for customer c16 from s4 to s2.
   [ 625, tmax) -> It remains parked at station s2.

Schedule for EV v28:
   [   0,  450) -> It remains parked at station s2.
   [ 450,  511) -> Service a request driving for customer c58 from s2 to s3.
   [ 511,  995) -> It remains parked at station s3, which was charging for charging.
   [ 995, 1065) -> Service a request driving for customer c2 from s3 to s1.
   [1065, 1080) -> It remains parked at station s1.
   [1080, 1143) -> Service a request driving for customer c32 from s1 to s2.
   [1143, 1145) -> It remains parked at station s2, which was charging for charging.
   [1145, 1201) -> Service a request driving for customer c28 from s2 to s3.
   [1201, tmax) -> It remains parked at station s3, which was charging for charging.

Schedule for EV v29:
   [   0,  460) -> It remains parked at station s3.
   [ 460,  550) -> Service a request driving for customer c23 from s3 to s1.
   [ 550, 1170) -> It remains parked at station s1, which was charging for charging.
   [1170, 1210) -> Service a request driving for customer c4 from s1 to s0.
   [1210, tmax) -> It remains parked at station s0.

Schedule for EV v30:
   [   0, tmax) -> It remains parked at station s3.

Schedule for EV v31:
   [   0,  525) -> It remains parked at station s3.
   [ 525,  577) -> Service a request driving for customer c59 from s3 to s0.
   [ 577,  985) -> It remains parked at station s0, which was charging for charging.
   [ 985, 1079) -> Service a request driving for customer c16 from s0 to s4.
   [1079, 1130) -> It remains parked at station s4.
   [1130, 1215) -> Service a request driving for customer c45 from s4 to s2.
   [1215, tmax) -> It remains parked at station s2.

Schedule for EV v32:
   [   0,  540) -> It remains parked at station s3.
   [ 540,  607) -> Service a request driving for customer c58 from s3 to s0.
   [ 607,  705) -> It remains parked at station s0, which was charging for charging.
   [ 705,  777) -> Service a request driving for customer c31 from s0 to s3.
   [ 777,  930) -> It remains parked at station s3, which was charging for charging.
   [ 930,  996) -> Service a request driving for customer c51 from s3 to s2.
   [ 996, tmax) -> It remains parked at station s2.

Schedule for EV v33:
   [   0, 1015) -> It remains parked at station s3.
   [1015, 1081) -> Service a request driving for customer c0 from s3 to s2.
   [1081, tmax) -> It remains parked at station s2.

Schedule for EV v34:
   [   0,  490) -> It remains parked at station s3.
   [ 490,  557) -> Service a request driving for customer c56 from s3 to s0.
   [ 557, tmax) -> It remains parked at station s0.

Schedule for EV v35:
   [   0,  435) -> It remains parked at station s3.
   [ 435,  510) -> Service a request driving for customer c48 from s3 to s1.
   [ 510, tmax) -> It remains parked at station s1.

Schedule for EV v36:
   [   0,  310) -> It remains parked at station s3.
   [ 310,  339) -> Service a request driving for customer c5 from s3 to s4.
   [ 339,  480) -> It remains parked at station s4.
   [ 480,  524) -> Service a request driving for customer c13 from s4 to s3.
   [ 524,  580) -> It remains parked at station s3, which was charging for charging.
   [ 580,  609) -> Service a request driving for customer c3 from s3 to s4.
   [ 609, 1075) -> It remains parked at station s4, which was charging for charging.
   [1075, 1109) -> Service a request driving for customer c41 from s4 to s3.
   [1109, tmax) -> It remains parked at station s3, which was charging for charging.

Schedule for EV v37:
   [   0,  400) -> It remains parked at station s4.
   [ 400,  496) -> Service a request driving for customer c21 from s4 to s1.
   [ 496,  510) -> It remains parked at station s1, which was charging for charging.
   [ 510,  596) -> Service a request driving for customer c42 from s1 to s4.
   [ 596,  800) -> It remains parked at station s4, which was charging for charging.
   [ 800,  839) -> Service a request driving for customer c22 from s4 to s3.
   [ 839,  975) -> It remains parked at station s3.
   [ 975, 1065) -> Service a request driving for customer c12 from s3 to s1.
   [1065, 1150) -> It remains parked at station s1, which was charging for charging.
   [1150, 1235) -> Service a request driving for customer c43 from s1 to s3.
   [1235, tmax) -> It remains parked at station s3.

Schedule for EV v38:
   [   0,  435) -> It remains parked at station s4.
   [ 435,  529) -> Service a request driving for customer c40 from s4 to s0.
   [ 529,  530) -> It remains parked at station s0, which was charging for charging.
   [ 530,  587) -> Service a request driving for customer c50 from s0 to s3.
   [ 587,  960) -> It remains parked at station s3, which was charging for charging.
   [ 960, 1030) -> Service a request driving for customer c53 from s3 to s1.
   [1030, 1050) -> It remains parked at station s1, which was charging for charging.
   [1050, 1140) -> Service a request driving for customer c11 from s1 to s3.
   [1140, tmax) -> It remains parked at station s3, which was charging for charging.

Schedule for EV v39:
   [   0,  515) -> It remains parked at station s4.
   [ 515,  601) -> Service a request driving for customer c35 from s4 to s1.
   [ 601,  955) -> It remains parked at station s1, which was charging for charging.
   [ 955, 1045) -> Service a request driving for customer c55 from s1 to s3.
   [1045, tmax) -> It remains parked at station s3, which was charging for charging.

Schedule for EV v40:
   [   0,  540) -> It remains parked at station s4.
   [ 540,  619) -> Service a request driving for customer c30 from s4 to s0.
   [ 619, 1100) -> It remains parked at station s0.
   [1100, 1167) -> Service a request driving for customer c15 from s0 to s3.
   [1167, tmax) -> It remains parked at station s3.

Set of satisfied customers
   {c0, c1, c2, c3, c4, c5, c6, c7, c8, c9, c10, c11, c12, c13, c14, c15, c16, c17, c18, c19, c20, c21, c22, c23, c24, c25, c26, c27, c28, c29, c30, c31, c32, c33, c34, c35, c36, c37, c38, c39, c40, c41, c42, c43, c44, c45, c46, c47, c48, c49, c50, c51, c52, c53, c55, c56, c57, c58, c59}

