Academic license - for non-commercial use only
Gurobi Optimizer version 9.0.3 build v9.0.3rc0 (linux64)
Optimize a model with 37472 rows, 52758 columns and 174780 nonzeros
Model fingerprint: 0x54acc2ea
Variable types: 37134 continuous, 15624 integer (15624 binary)
Coefficient statistics:
  Matrix range     [1e+00, 3e+06]
  Objective range  [2e+01, 3e+02]
  Bounds range     [1e+00, 2e+06]
  RHS range        [1e+00, 2e+06]

Loaded user MIP start with objective 4082

Presolve removed 22140 rows and 23195 columns
Presolve time: 0.49s
Presolved: 15332 rows, 29563 columns, 126272 nonzeros
Variable types: 0 continuous, 29563 integer (24448 binary)

Root simplex log...

Iteration    Objective       Primal Inf.    Dual Inf.      Time
    8098    1.1135996e+04   2.561060e+06   0.000000e+00      5s
   10895    1.1135995e+04   9.020353e+05   0.000000e+00     10s
   13489    1.1135993e+04   2.373658e+05   0.000000e+00     15s
   15632    1.1135992e+04   1.087521e+06   0.000000e+00     20s
   17817    1.1135991e+04   1.529999e+06   0.000000e+00     25s
   19986    1.1135990e+04   6.199408e+05   0.000000e+00     30s
   22083    1.1135989e+04   1.116765e+06   0.000000e+00     35s
   24291    1.1135988e+04   7.650426e+06   0.000000e+00     40s
Warning: Markowitz tolerance tightened to 0.03125
   26497    1.1135986e+04   4.500046e+06   0.000000e+00     45s
   28828    1.0583986e+04   3.332274e+07   0.000000e+00     50s
   31337    1.0583984e+04   3.011945e+06   0.000000e+00     55s
   33747    1.0583981e+04   2.679696e+06   0.000000e+00     60s
   36239    1.0581977e+04   3.448518e+06   0.000000e+00     65s
   38763    1.0293979e+04   1.855838e+06   0.000000e+00     70s
   41288    1.0293977e+04   2.363490e+06   0.000000e+00     75s
   43756    1.0293974e+04   1.825700e+06   0.000000e+00     80s
   46282    1.0293970e+04   9.136645e+06   0.000000e+00     85s
   48745    1.0293968e+04   9.403123e+05   0.000000e+00     90s
   51159    1.0293965e+04   4.944379e+06   0.000000e+00     95s
   53605    1.0293963e+04   5.089384e+06   0.000000e+00    100s
   56010    9.8749548e+03   8.841176e+06   0.000000e+00    105s
   58407    9.5109794e+03   1.829213e+05   0.000000e+00    110s
   60748    9.5109778e+03   1.996491e+06   0.000000e+00    115s
   63207    9.5109757e+03   8.226118e+05   0.000000e+00    120s
   65754    9.5109737e+03   1.333018e+06   0.000000e+00    125s
   68295    9.5109718e+03   2.847837e+06   0.000000e+00    130s
   70493    9.5109703e+03   1.275976e+06   0.000000e+00    135s
   72988    9.4719689e+03   3.684572e+05   0.000000e+00    140s
   75487    9.4719673e+03   6.675107e+05   0.000000e+00    145s
   78048    9.3359663e+03   3.001982e+05   0.000000e+00    150s
   80478    9.3359648e+03   9.922067e+05   0.000000e+00    155s
   82887    9.1334680e+03   9.442133e+05   0.000000e+00    160s
   85160    9.0559723e+03   3.026434e+05   0.000000e+00    165s
   87310    8.9624737e+03   1.189080e+05   0.000000e+00    170s
   89711    8.9624729e+03   2.285257e+05   0.000000e+00    175s
   91974    8.9409769e+03   3.939024e+05   0.000000e+00    180s
   94294    8.9409763e+03   2.228199e+05   0.000000e+00    185s
   96583    8.9409759e+03   1.498166e+05   0.000000e+00    190s
   98835    8.9409756e+03   4.010975e+04   0.000000e+00    195s
  101215    8.9409754e+03   3.022432e+04   0.000000e+00    200s
  103498    8.9409752e+03   4.924267e+04   0.000000e+00    205s
  105862    8.9409752e+03   4.214413e+01   0.000000e+00    210s
  105982    8.9410000e+03   0.000000e+00   0.000000e+00    210s
  105982    8.9410000e+03   0.000000e+00   0.000000e+00    210s

Root relaxation: objective 8.941000e+03, 105982 iterations, 209.83 seconds
Total elapsed time = 241.06s
Total elapsed time = 274.33s
Total elapsed time = 288.77s
Total elapsed time = 301.73s

    Nodes    |    Current Node    |     Objective Bounds      |     Work
 Expl Unexpl |  Obj  Depth IntInf | Incumbent    BestBd   Gap | It/Node Time

     0     0 8941.00000    0 6715 4082.00000 8941.00000   119%     -  316s
     0     0 8941.00000    0 7649 4082.00000 8941.00000   119%     -  329s
     0     0 8941.00000    0 7804 4082.00000 8941.00000   119%     -  332s
     0     0 8941.00000    0 5333 4082.00000 8941.00000   119%     -  486s
     0     0 8941.00000    0 5793 4082.00000 8941.00000   119%     -  489s
     0     0 8941.00000    0 6272 4082.00000 8941.00000   119%     -  656s
     0     0 8941.00000    0 6777 4082.00000 8941.00000   119%     -  663s
     0     0 8941.00000    0 6839 4082.00000 8941.00000   119%     -  712s
     0     0 8941.00000    0 6207 4082.00000 8941.00000   119%     -  796s
     0     2 8941.00000    0 6205 4082.00000 8941.00000   119%     -  940s
     1     3 8941.00000    1 6021 4082.00000 8941.00000   119% 24653  948s
     2     4 8941.00000    1 6706 4082.00000 8941.00000   119% 15322  960s
     3     5 8941.00000    2 6097 4082.00000 8941.00000   119% 10956  965s
     4     6 8941.00000    2 6451 4082.00000 8941.00000   119%  9328  973s
     5     7 8941.00000    3 6241 4082.00000 8941.00000   119%  7887  977s
     6     8 8941.00000    3 6505 4082.00000 8941.00000   119%  7272  985s
     7     9 8941.00000    4 6280 4082.00000 8941.00000   119%  6607  990s
     8    10 8941.00000    4 6474 4082.00000 8941.00000   119%  6212  997s
    10    10 infeasible    6      4082.00000 8941.00000   119%  5950 1012s
    11    11 8941.00000    6 8006 4082.00000 8941.00000   119% 18641 1286s
    12    10 infeasible    7      4082.00000 8941.00000   119% 17262 1291s
    13    11 8941.00000    7 7510 4082.00000 8941.00000   119% 16346 1303s
    14    12 8941.00000    8 7240 4082.00000 8941.00000   119% 15454 1312s
    15    11 infeasible    8      4082.00000 8941.00000   119% 14893 1325s
    16    10 infeasible    9      4082.00000 8941.00000   119% 14147 1331s
    17    11 8941.00000    9 7005 4082.00000 8941.00000   119% 13497 1338s
    18    12 8941.00000   10 7043 4082.00000 8941.00000   119% 12930 1345s
    19    13 8941.00000   10 7122 4082.00000 8941.00000   119% 12417 1352s
    20    14 8941.00000   11 6877 4082.00000 8941.00000   119% 11885 1355s
    21    13 infeasible   11      4082.00000 8941.00000   119% 11464 1361s
    22    14 8856.00000   12 7152 4082.00000 8941.00000   119% 11672 1391s
    23    15 8856.00000   13 7186 4082.00000 8941.00000   119% 11277 1396s
    24    16 8856.00000   13 7085 4082.00000 8941.00000   119% 10945 1404s
    25    17 8856.00000   14 6708 4082.00000 8941.00000   119% 10599 1408s
    26    18 8856.00000   15 6552 4082.00000 8941.00000   119% 10300 1414s
    27    19 8856.00000   16 6836 4082.00000 8941.00000   119% 10037 1421s
    28    20 8856.00000   16 6735 4082.00000 8941.00000   119%  9796 1427s
    29    21 8856.00000   17 6733 4082.00000 8941.00000   119%  9540 1432s
    30    22 8856.00000   17 6647 4082.00000 8941.00000   119%  9299 1437s
    31    23 8856.00000   18 6573 4082.00000 8941.00000   119%  9055 1440s
    32    24 8856.00000   18 6596 4082.00000 8941.00000   119%  8853 1445s
    33    25 8856.00000   19 6508 4082.00000 8941.00000   119%  8663 1450s
    35    27 8856.00000   20 6314 4082.00000 8941.00000   119%  8242 1455s
    36    28 8856.00000   21 6323 4082.00000 8941.00000   119%  8095 1461s
    37    29 8856.00000   22 6470 4082.00000 8941.00000   119%  7934 1465s
    39    31 8856.00000   23 6453 4082.00000 8941.00000   119%  7611 1471s
    40    32 8856.00000   24 6708 4082.00000 8941.00000   119%  7488 1476s
    41    33 8856.00000   24 6306 4082.00000 8941.00000   119%  7359 1480s
    43    35 8856.00000   25 6255 4082.00000 8941.00000   119%  7103 1487s
    44    36 8856.00000   26 6502 4082.00000 8941.00000   119%  6991 1491s
    45    37 8856.00000   26 6258 4082.00000 8941.00000   119%  6887 1495s
    47    39 8856.00000   28 6365 4082.00000 8941.00000   119%  6651 1500s
    48    40 8856.00000   28 6456 4082.00000 8941.00000   119%  6574 1505s
    50    42 8856.00000   30 6074 4082.00000 8941.00000   119%  6368 1510s
    52    44 8856.00000   31 6247 4082.00000 8941.00000   119%  6195 1517s
    53    45 8856.00000   32 6261 4082.00000 8941.00000   119%  6116 1521s
    56    48 8856.00000   35 5983 4082.00000 8941.00000   119%  5855 1527s
    57    49 8856.00000   35 5985 4082.00000 8941.00000   119%  5801 1532s
    58    50 8856.00000   36 5876 4082.00000 8941.00000   119%  5730 1535s
    60    52 8856.00000   37 5878 4082.00000 8941.00000   119%  5606 1542s
    61    53 8856.00000   38 6081 4082.00000 8941.00000   119%  5556 1546s
    63    55 8856.00000   40 6049 4082.00000 8941.00000   119%  5429 1552s
    64    56 8856.00000   40 6078 4082.00000 8941.00000   119%  5380 1556s
    66    58 8856.00000   42 5736 4082.00000 8941.00000   119%  5274 1562s
    67    59 8856.00000   43 5778 4082.00000 8941.00000   119%  5218 1565s
    70    62 8856.00000   46 5682 4082.00000 8941.00000   119%  5052 1572s
    71    63 8856.00000   46 5779 4082.00000 8941.00000   119%  5021 1576s
    72    64 8856.00000   47 5579 4082.00000 8941.00000   119%  4983 1580s
    74    66 8856.00000   49 5480 4082.00000 8941.00000   119%  4888 1585s
    76    68 8856.00000   50 5626 4082.00000 8941.00000   119%  4817 1592s
    77    69 8856.00000   51 5593 4082.00000 8941.00000   119%  4784 1596s
    78    70 8856.00000   52 5356 4082.00000 8941.00000   119%  4751 1600s
    81    73 8856.00000   54 5469 4082.00000 8941.00000   119%  4635 1608s
    82    74 8856.00000   55 5328 4082.00000 8941.00000   119%  4593 1610s
    84    76 8856.00000   56 5263 4082.00000 8941.00000   119%  4522 1615s
    86    78 8856.00000   58 5110 4082.00000 8941.00000   119%  4455 1620s
    88    80 8856.00000   59 5105 4082.00000 8941.00000   119%  4401 1627s
    90    82 8856.00000   60 5016 4082.00000 8941.00000   119%  4326 1630s
    92    84 8856.00000   62 4946 4082.00000 8941.00000   119%  4280 1637s
    93    85 8856.00000   62 4958 4082.00000 8941.00000   119%  4261 1641s
    95    87 8856.00000   63 5032 4082.00000 8941.00000   119%  4218 1648s
    97    89 8856.00000   65 4991 4082.00000 8941.00000   119%  4163 1652s
    99    91 8856.00000   66 4969 4082.00000 8941.00000   119%  4119 1658s
   100    92 8856.00000   67 5012 4082.00000 8941.00000   119%  4094 1661s
   102    94 8856.00000   68 4871 4082.00000 8941.00000   119%  4045 1666s
   104    96 8856.00000   70 4682 4082.00000 8941.00000   119%  3994 1670s
   106    98 8856.00000   71 4687 4082.00000 8941.00000   119%  3968 1677s
   108   100 8856.00000   72 4592 4082.00000 8941.00000   119%  3930 1683s
   109   101 8856.00000   73 4276 4082.00000 8941.00000   119%  3907 1685s
   112   104 8856.00000   75 4431 4082.00000 8941.00000   119%  3835 1690s
   116   108 8856.00000   79 4266 4082.00000 8941.00000   119%  3739 1695s
   119   111 8856.00000   81 4184 4082.00000 8941.00000   119%  3680 1701s
   121   113 8856.00000   82 4266 4082.00000 8941.00000   119%  3647 1705s
   124   116 8856.00000   84 3994 4082.00000 8941.00000   119%  3589 1710s
   127   119 8856.00000   86 3856 4082.00000 8941.00000   119%  3547 1717s
   128   120 8856.00000   86 3837 4082.00000 8941.00000   119%  3548 1721s
   131   123 8856.00000   89 3738 4082.00000 8941.00000   119%  3488 1725s
   135   127 8856.00000   92 3654 4082.00000 8941.00000   119%  3416 1730s
   139   131 8856.00000   95 3462 4082.00000 8941.00000   119%  3347 1735s
   143   135 8856.00000   98 3200 4082.00000 8941.00000   119%  3289 1741s
   148   140 8856.00000  101 2953 4082.00000 8941.00000   119%  3202 1745s
   154   146 8856.00000  106 2730 4082.00000 8941.00000   119%  3111 1750s
   160   152 8856.00000  111 2570 4082.00000 8941.00000   119%  3024 1755s
   167   159 8856.00000  115 2238 4082.00000 8941.00000   119%  2925 1760s
   175   167 8856.00000  120 1575 4082.00000 8941.00000   119%  2822 1765s
   188   180 8856.00000  130 1710 4082.00000 8941.00000   119%  2656 1770s
   219   211 8856.00000  158 1484 4082.00000 8941.00000   119%  2310 1775s
   247   239 8856.00000  185  836 4082.00000 8941.00000   119%  2073 1780s
H  270    14                    8856.0000000 8941.00000  0.96%  1916 1784s
   273    13 8941.00000    2 6721 8856.00000 8941.00000  0.96%  1906 1790s
   274    14 8941.00000    3 6566 8856.00000 8941.00000  0.96%  1910 1796s
   275    15 8941.00000    3 6657 8856.00000 8941.00000  0.96%  1917 1804s
   276    16 8941.00000    4 6351 8856.00000 8941.00000  0.96%  1919 1808s
   278    16 8941.00000    5 6574 8856.00000 8941.00000  0.96%  1914 1813s
   280    16 8941.00000    6 6396 8856.00000 8941.00000  0.96%  1903 1815s
   282    16 8941.00000    7 6511 8856.00000 8941.00000  0.96%  1900 1821s
   284    18 8941.00000    9 6701 8856.00000 8941.00000  0.96%  1903 1830s
   285    19 8941.00000   10 6661 8856.00000 8941.00000  0.96%  1905 1835s
   288    18 8941.00000   11 6590 8856.00000 8941.00000  0.96%  1896 1841s
   289    19 8941.00000   12 6428 8856.00000 8941.00000  0.96%  1907 1850s
   290    20 8941.00000   12 6496 8856.00000 8941.00000  0.96%  1909 1855s
   291    21 8941.00000   13 6673 8856.00000 8941.00000  0.96%  1913 1861s
   292    22 8941.00000   13 6667 8856.00000 8941.00000  0.96%  1917 1867s
   293    21     cutoff   14      8856.00000 8941.00000  0.96%  1939 1882s
   295    21 8941.00000   14 6627 8856.00000 8941.00000  0.96%  1934 1887s
   296    22 8941.00000   14 6889 8856.00000 8941.00000  0.96%  1942 1896s
   297    23 8941.00000   15 6940 8856.00000 8941.00000  0.96%  1946 1902s
   298    24 8941.00000   16 6670 8856.00000 8941.00000  0.96%  1947 1906s
   299    25 8941.00000   16 6541 8856.00000 8941.00000  0.96%  1951 1912s
   300    26 8941.00000   17 6771 8856.00000 8941.00000  0.96%  1950 1916s
   302    26 8941.00000   18 6571 8856.00000 8941.00000  0.96%  1945 1920s
   303    27 8941.00000   18 6349 8856.00000 8941.00000  0.96%  1949 1926s
   304    28 8941.00000   19 6598 8856.00000 8941.00000  0.96%  1956 1933s
   305    29 8941.00000   20 6760 8856.00000 8941.00000  0.96%  1956 1937s
   307    29 8941.00000   21 6705 8856.00000 8941.00000  0.96%  1952 1942s
   308    30 8941.00000   22 6570 8856.00000 8941.00000  0.96%  1950 1945s
   311    31 8941.00000   24 6442 8856.00000 8941.00000  0.96%  1942 1951s
   313    33 8941.00000   26 6191 8856.00000 8941.00000  0.96%  1938 1956s
   315    35 8941.00000   28 6084 8856.00000 8941.00000  0.96%  1937 1962s
   317    37 8941.00000   30 5938 8856.00000 8941.00000  0.96%  1937 1968s
   318    38 8941.00000   31 5839 8856.00000 8941.00000  0.96%  1937 1971s
   319    39 8941.00000   31 6113 8856.00000 8941.00000  0.96%  1938 1975s
   321    41 8941.00000   33 6187 8856.00000 8941.00000  0.96%  1939 1983s
   322    42 8941.00000   33 6160 8856.00000 8941.00000  0.96%  1941 1988s
   323    43 8941.00000   34 6107 8856.00000 8941.00000  0.96%  1942 1992s
   324    44 8941.00000   34 6119 8856.00000 8941.00000  0.96%  1941 1995s
   326    46 8941.00000   36 5984 8856.00000 8941.00000  0.96%  1942 2003s
   327    47 8941.00000   37 5993 8856.00000 8941.00000  0.96%  1943 2007s
   328    48 8941.00000   38 5711 8856.00000 8941.00000  0.96%  1943 2010s
   331    51 8941.00000   40 5486 8856.00000 8941.00000  0.96%  1938 2018s
   332    52 8941.00000   41 5458 8856.00000 8941.00000  0.96%  1939 2022s
   333    53 8941.00000   41 5334 8856.00000 8941.00000  0.96%  1938 2025s
   335    55 8941.00000   42 5869 8856.00000 8941.00000  0.96%  1941 2034s
   336    56 8941.00000   43 5830 8856.00000 8941.00000  0.96%  1941 2038s
   337    57 8941.00000   44 5768 8856.00000 8941.00000  0.96%  1939 2040s
   339    59 8941.00000   46 5387 8856.00000 8941.00000  0.96%  1939 2046s
   340    60 8941.00000   47 5336 8856.00000 8941.00000  0.96%  1939 2050s
   342    62 8941.00000   48 5132 8856.00000 8941.00000  0.96%  1936 2055s
   344    64 8941.00000   49 5031 8856.00000 8941.00000  0.96%  1935 2060s
   346    66 8941.00000   51 4891 8856.00000 8941.00000  0.96%  1933 2066s
   348    68 8941.00000   52 4931 8856.00000 8941.00000  0.96%  1931 2071s
   350    70 8941.00000   54 5106 8856.00000 8941.00000  0.96%  1930 2077s
   352    72 8941.00000   56 4895 8856.00000 8941.00000  0.96%  1927 2082s
   353    73 8941.00000   56 4998 8856.00000 8941.00000  0.96%  1926 2085s
   355    75 8941.00000   57 4838 8856.00000 8941.00000  0.96%  1925 2091s
   357    77 8941.00000   59 4830 8856.00000 8941.00000  0.96%  1923 2096s
   358    78 8941.00000   59 4812 8856.00000 8941.00000  0.96%  1925 2100s
   360    80 8941.00000   61 4794 8856.00000 8941.00000  0.96%  1923 2105s
   362    82 8941.00000   62 5024 8856.00000 8941.00000  0.96%  1924 2112s
   363    83 8941.00000   62 4771 8856.00000 8941.00000  0.96%  1928 2118s
   364    84 8941.00000   63 4559 8856.00000 8941.00000  0.96%  1928 2121s
   365    85 8941.00000   63 4842 8856.00000 8941.00000  0.96%  1930 2125s
   367    87 8941.00000   64 4884 8856.00000 8941.00000  0.96%  1931 2132s
   368    88 8941.00000   65 4876 8856.00000 8941.00000  0.96%  1931 2136s
   370    90 8941.00000   66 4831 8856.00000 8941.00000  0.96%  1933 2143s
   371    91 8941.00000   67 4631 8856.00000 8941.00000  0.96%  1932 2146s
   373    93 8941.00000   69 4652 8856.00000 8941.00000  0.96%  1928 2150s
   376    96 8941.00000   71 4806 8856.00000 8941.00000  0.96%  1924 2156s
   378    98 8941.00000   73 4583 8856.00000 8941.00000  0.96%  1921 2161s
   379    99 8941.00000   74 4586 8856.00000 8941.00000  0.96%  1921 2165s
   381   101 8941.00000   75 4541 8856.00000 8941.00000  0.96%  1920 2171s
   383   103 8941.00000   76 4580 8856.00000 8941.00000  0.96%  1920 2177s
   384   104 8941.00000   77 4330 8856.00000 8941.00000  0.96%  1921 2180s
   387   107 8941.00000   79 4412 8856.00000 8941.00000  0.96%  1917 2187s
   389   109 8941.00000   80 4438 8856.00000 8941.00000  0.96%  1917 2193s
   390   110 8941.00000   81 4501 8856.00000 8941.00000  0.96%  1915 2195s
   393   113 8941.00000   83 4630 8856.00000 8941.00000  0.96%  1912 2201s
   396   116 8941.00000   86 4507 8856.00000 8941.00000  0.96%  1908 2207s
   398   118 8941.00000   88 4429 8856.00000 8941.00000  0.96%  1904 2210s
   401   121 8941.00000   90 4249 8856.00000 8941.00000  0.96%  1897 2215s
   404   124 8941.00000   91 4302 8856.00000 8941.00000  0.96%  1895 2222s
   407   127 8941.00000   93 4271 8856.00000 8941.00000  0.96%  1888 2225s
   409   129 8941.00000   94 4085 8856.00000 8941.00000  0.96%  1887 2230s
   413   133 8941.00000   97 3981 8856.00000 8941.00000  0.96%  1879 2236s
   415   135 8941.00000   98 3642 8856.00000 8941.00000  0.96%  1878 2240s
   419   139 8941.00000  101 3518 8856.00000 8941.00000  0.96%  1875 2248s
   421   141 8941.00000  102 3471 8856.00000 8941.00000  0.96%  1872 2250s
   425   145 8941.00000  104 3351 8856.00000 8941.00000  0.96%  1862 2255s
   430   150 8941.00000  108 3261 8856.00000 8941.00000  0.96%  1853 2261s
   432   152 8941.00000  110 3022 8856.00000 8941.00000  0.96%  1849 2282s
   435   155 8941.00000  112 3006 8856.00000 8941.00000  0.96%  1842 2285s
   440   160 8941.00000  115 2578 8856.00000 8941.00000  0.96%  1833 2291s
   447   167 8941.00000  120 1800 8856.00000 8941.00000  0.96%  1813 2295s
H  458     4                    8941.0000000 8941.00000  0.00%  1780 2299s

Cutting planes:
  Implied bound: 1570
  MIR: 121
  StrongCG: 53
  RLT: 270
  Relax-and-lift: 118

Explored 459 nodes (1408008 simplex iterations) in 2299.87 seconds
Thread count was 1 (of 40 available processors)

Solution count 3: 8941 8856 4082 

Optimal solution found (tolerance 1.00e-04)
Best objective 8.941000000000e+03, best bound 8.941000000000e+03, gap 0.0000%

----------

Best objective (UB): 8941.000
Best feasible solution (LB): 8941.000
Gap between the lower bound and upper bound: 0.000%

----------

Number of customers served: 66

Schedule for EV v0:
   [   0,  425) -> It remains parked at station s0.
   [ 425,  498) -> Service a request driving for customer c56 from s0 to s1.
   [ 498,  505) -> It remains parked at station s1.
   [ 505,  528) -> Service a request driving for customer c16 from s1 to s2.
   [ 528,  530) -> It remains parked at station s2, which was charging for charging.
   [ 530,  548) -> Service a request driving for customer c68 from s2 to s1.
   [ 548,  810) -> It remains parked at station s1, which was charging for charging.
   [ 810,  843) -> Service a request driving for customer c29 from s1 to s2.
   [ 843, 1025) -> It remains parked at station s2.
   [1025, 1092) -> Service a request driving for customer c33 from s2 to s0.
   [1092, 1095) -> It remains parked at station s0.
   [1095, 1153) -> Service a request driving for customer c63 from s0 to s1.
   [1153, 1175) -> It remains parked at station s1.
   [1175, 1258) -> Service a request driving for customer c71 from s1 to s0.
   [1258, 1265) -> It remains parked at station s0.
   [1265, 1337) -> Service a request driving for customer c82 from s0 to s2.
   [1337, tmax) -> It remains parked at station s2.

Schedule for EV v1:
   [   0,  440) -> It remains parked at station s0.
   [ 440,  507) -> Service a request driving for customer c2 from s0 to s2.
   [ 507,  520) -> It remains parked at station s2, which was charging for charging.
   [ 520,  607) -> Service a request driving for customer c83 from s2 to s0.
   [ 607, 1075) -> It remains parked at station s0, which was charging for charging.
   [1075, 1162) -> Service a request driving for customer c0 from s0 to s2.
   [1162, tmax) -> It remains parked at station s2.

Schedule for EV v2:
   [   0,  355) -> It remains parked at station s0.
   [ 355,  437) -> Service a request driving for customer c29 from s0 to s2.
   [ 437,  520) -> It remains parked at station s2, which was charging for charging.
   [ 520,  587) -> Service a request driving for customer c72 from s2 to s0.
   [ 587,  780) -> It remains parked at station s0.
   [ 780,  853) -> Service a request driving for customer c72 from s0 to s1.
   [ 853,  925) -> It remains parked at station s1, which was charging for charging.
   [ 925,  953) -> Service a request driving for customer c80 from s1 to s2.
   [ 953, 1030) -> It remains parked at station s2.
   [1030, 1117) -> Service a request driving for customer c20 from s2 to s0.
   [1117, 1135) -> It remains parked at station s0, which was charging for charging.
   [1135, 1213) -> Service a request driving for customer c79 from s0 to s1.
   [1213, 1250) -> It remains parked at station s1, which was charging for charging.
   [1250, 1278) -> Service a request driving for customer c54 from s1 to s2.
   [1278, tmax) -> It remains parked at station s2, which was charging for charging.

Schedule for EV v3:
   [   0,  415) -> It remains parked at station s0.
   [ 415,  492) -> Service a request driving for customer c43 from s0 to s2.
   [ 492,  500) -> It remains parked at station s2, which was charging for charging.
   [ 500,  528) -> Service a request driving for customer c29 from s2 to s1.
   [ 528,  530) -> It remains parked at station s1.
   [ 530,  598) -> Service a request driving for customer c6 from s1 to s0.
   [ 598,  655) -> It remains parked at station s0.
   [ 655,  717) -> Service a request driving for customer c83 from s0 to s2.
   [ 717,  745) -> It remains parked at station s2, which was charging for charging.
   [ 745,  807) -> Service a request driving for customer c16 from s2 to s0.
   [ 807,  995) -> It remains parked at station s0, which was charging for charging.
   [ 995, 1058) -> Service a request driving for customer c88 from s0 to s1.
   [1058, 1065) -> It remains parked at station s1.
   [1065, 1128) -> Service a request driving for customer c86 from s1 to s0.
   [1128, tmax) -> It remains parked at station s0.

Schedule for EV v4:
   [   0,  445) -> It remains parked at station s0.
   [ 445,  523) -> Service a request driving for customer c46 from s0 to s1.
   [ 523,  525) -> It remains parked at station s1.
   [ 525,  583) -> Service a request driving for customer c76 from s1 to s0.
   [ 583,  590) -> It remains parked at station s0.
   [ 590,  657) -> Service a request driving for customer c20 from s0 to s2.
   [ 657, 1065) -> It remains parked at station s2, which was charging for charging.
   [1065, 1083) -> Service a request driving for customer c47 from s2 to s1.
   [1083, 1090) -> It remains parked at station s1.
   [1090, 1123) -> Service a request driving for customer c22 from s1 to s2.
   [1123, 1135) -> It remains parked at station s2.
   [1135, 1153) -> Service a request driving for customer c67 from s2 to s1.
   [1153, 1160) -> It remains parked at station s1, which was charging for charging.
   [1160, 1233) -> Service a request driving for customer c78 from s1 to s0.
   [1233, 1240) -> It remains parked at station s0.
   [1240, 1317) -> Service a request driving for customer c30 from s0 to s2.
   [1317, tmax) -> It remains parked at station s2, which was charging for charging.

Schedule for EV v5:
   [   0,  310) -> It remains parked at station s0.
   [ 310,  377) -> Service a request driving for customer c64 from s0 to s2.
   [ 377,  400) -> It remains parked at station s2.
   [ 400,  423) -> Service a request driving for customer c80 from s2 to s1.
   [ 423,  435) -> It remains parked at station s1.
   [ 435,  513) -> Service a request driving for customer c42 from s1 to s0.
   [ 513,  515) -> It remains parked at station s0, which was charging for charging.
   [ 515,  587) -> Service a request driving for customer c87 from s0 to s2.
   [ 587,  590) -> It remains parked at station s2, which was charging for charging.
   [ 590,  667) -> Service a request driving for customer c79 from s2 to s0.
   [ 667,  800) -> It remains parked at station s0, which was charging for charging.
   [ 800,  858) -> Service a request driving for customer c86 from s0 to s1.
   [ 858,  860) -> It remains parked at station s1, which was charging for charging.
   [ 860,  918) -> Service a request driving for customer c10 from s1 to s0.
   [ 918,  970) -> It remains parked at station s0.
   [ 970, 1053) -> Service a request driving for customer c4 from s0 to s1.
   [1053, 1060) -> It remains parked at station s1, which was charging for charging.
   [1060, 1133) -> Service a request driving for customer c1 from s1 to s0.
   [1133, 1320) -> It remains parked at station s0, which was charging for charging.
   [1320, 1378) -> Service a request driving for customer c67 from s0 to s1.
   [1378, tmax) -> It remains parked at station s1, which was charging for charging.

Schedule for EV v6:
   [   0,  390) -> It remains parked at station s0.
   [ 390,  463) -> Service a request driving for customer c76 from s0 to s1.
   [ 463,  525) -> It remains parked at station s1, which was charging for charging.
   [ 525,  553) -> Service a request driving for customer c34 from s1 to s2.
   [ 553,  625) -> It remains parked at station s2, which was charging for charging.
   [ 625,  707) -> Service a request driving for customer c82 from s2 to s0.
   [ 707, 1065) -> It remains parked at station s0.
   [1065, 1142) -> Service a request driving for customer c58 from s0 to s2.
   [1142, tmax) -> It remains parked at station s2, which was charging for charging.

Schedule for EV v7:
   [   0,  300) -> It remains parked at station s1.
   [ 300,  338) -> Service a request driving for customer c11 from s1 to s2.
   [ 338,  495) -> It remains parked at station s2, which was charging for charging.
   [ 495,  533) -> Service a request driving for customer c43 from s2 to s1.
   [ 533,  550) -> It remains parked at station s1.
   [ 550,  568) -> Service a request driving for customer c79 from s1 to s2.
   [ 568,  760) -> It remains parked at station s2.
   [ 760,  788) -> Service a request driving for customer c2 from s2 to s1.
   [ 788,  840) -> It remains parked at station s1, which was charging for charging.
   [ 840,  883) -> Service a request driving for customer c47 from s1 to s2.
   [ 883, 1045) -> It remains parked at station s2, which was charging for charging.
   [1045, 1122) -> Service a request driving for customer c39 from s2 to s0.
   [1122, tmax) -> It remains parked at station s0.

Schedule for EV v8:
   [   0,  345) -> It remains parked at station s1.
   [ 345,  418) -> Service a request driving for customer c45 from s1 to s0.
   [ 418,  460) -> It remains parked at station s0.
   [ 460,  537) -> Service a request driving for customer c85 from s0 to s2.
   [ 537,  550) -> It remains parked at station s2, which was charging for charging.
   [ 550,  583) -> Service a request driving for customer c66 from s2 to s1.
   [ 583,  635) -> It remains parked at station s1, which was charging for charging.
   [ 635,  693) -> Service a request driving for customer c4 from s1 to s0.
   [ 693, 1075) -> It remains parked at station s0, which was charging for charging.
   [1075, 1142) -> Service a request driving for customer c73 from s0 to s2.
   [1142, tmax) -> It remains parked at station s2.

Schedule for EV v9:
   [   0,  400) -> It remains parked at station s1.
   [ 400,  463) -> Service a request driving for customer c52 from s1 to s0.
   [ 463,  480) -> It remains parked at station s0, which was charging for charging.
   [ 480,  563) -> Service a request driving for customer c62 from s0 to s1.
   [ 563,  565) -> It remains parked at station s1.
   [ 565,  628) -> Service a request driving for customer c51 from s1 to s0.
   [ 628, 1040) -> It remains parked at station s0, which was charging for charging.
   [1040, 1098) -> Service a request driving for customer c16 from s0 to s1.
   [1098, 1105) -> It remains parked at station s1.
   [1105, 1138) -> Service a request driving for customer c70 from s1 to s2.
   [1138, tmax) -> It remains parked at station s2, which was charging for charging.

Schedule for EV v10:
   [   0,  440) -> It remains parked at station s2.
   [ 440,  502) -> Service a request driving for customer c36 from s2 to s0.
   [ 502,  520) -> It remains parked at station s0.
   [ 520,  598) -> Service a request driving for customer c1 from s0 to s1.
   [ 598,  660) -> It remains parked at station s1.
   [ 660,  738) -> Service a request driving for customer c73 from s1 to s0.
   [ 738,  915) -> It remains parked at station s0.
   [ 915,  997) -> Service a request driving for customer c36 from s0 to s2.
   [ 997, 1065) -> It remains parked at station s2, which was charging for charging.
   [1065, 1103) -> Service a request driving for customer c71 from s2 to s1.
   [1103, 1130) -> It remains parked at station s1.
   [1130, 1193) -> Service a request driving for customer c51 from s1 to s0.
   [1193, 1200) -> It remains parked at station s0, which was charging for charging.
   [1200, 1278) -> Service a request driving for customer c1 from s0 to s1.
   [1278, 1280) -> It remains parked at station s1, which was charging for charging.
   [1280, 1323) -> Service a request driving for customer c60 from s1 to s2.
   [1323, tmax) -> It remains parked at station s2.

Schedule for EV v11:
   [   0,  355) -> It remains parked at station s2.
   [ 355,  417) -> Service a request driving for customer c11 from s2 to s0.
   [ 417,  490) -> It remains parked at station s0, which was charging for charging.
   [ 490,  552) -> Service a request driving for customer c12 from s0 to s2.
   [ 552, 1035) -> It remains parked at station s2, which was charging for charging.
   [1035, 1102) -> Service a request driving for customer c80 from s2 to s0.
   [1102, 1105) -> It remains parked at station s0, which was charging for charging.
   [1105, 1187) -> Service a request driving for customer c68 from s0 to s2.
   [1187, 1245) -> It remains parked at station s2, which was charging for charging.
   [1245, 1322) -> Service a request driving for customer c73 from s2 to s0.
   [1322, tmax) -> It remains parked at station s0.

Schedule for EV v12:
   [   0,  440) -> It remains parked at station s2.
   [ 440,  473) -> Service a request driving for customer c39 from s2 to s1.
   [ 473,  500) -> It remains parked at station s1, which was charging for charging.
   [ 500,  538) -> Service a request driving for customer c39 from s1 to s2.
   [ 538,  545) -> It remains parked at station s2.
   [ 545,  627) -> Service a request driving for customer c63 from s2 to s0.
   [ 627,  710) -> It remains parked at station s0.
   [ 710,  777) -> Service a request driving for customer c64 from s0 to s2.
   [ 777,  980) -> It remains parked at station s2.
   [ 980, 1008) -> Service a request driving for customer c12 from s2 to s1.
   [1008, 1050) -> It remains parked at station s1, which was charging for charging.
   [1050, 1128) -> Service a request driving for customer c28 from s1 to s0.
   [1128, 1140) -> It remains parked at station s0, which was charging for charging.
   [1140, 1203) -> Service a request driving for customer c89 from s0 to s1.
   [1203, 1230) -> It remains parked at station s1.
   [1230, 1303) -> Service a request driving for customer c79 from s1 to s0.
   [1303, tmax) -> It remains parked at station s0, which was charging for charging.

Schedule for EV v13:
   [   0,  310) -> It remains parked at station s2.
   [ 310,  328) -> Service a request driving for customer c34 from s2 to s1.
   [ 328,  330) -> It remains parked at station s1, which was charging for charging.
   [ 330,  413) -> Service a request driving for customer c87 from s1 to s0.
   [ 413,  465) -> It remains parked at station s0, which was charging for charging.
   [ 465,  527) -> Service a request driving for customer c40 from s0 to s2.
   [ 527,  535) -> It remains parked at station s2, which was charging for charging.
   [ 535,  573) -> Service a request driving for customer c60 from s2 to s1.
   [ 573,  585) -> It remains parked at station s1.
   [ 585,  628) -> Service a request driving for customer c33 from s1 to s2.
   [ 628, 1065) -> It remains parked at station s2.
   [1065, 1103) -> Service a request driving for customer c24 from s2 to s1.
   [1103, 1125) -> It remains parked at station s1, which was charging for charging.
   [1125, 1183) -> Service a request driving for customer c72 from s1 to s0.
   [1183, 1320) -> It remains parked at station s0, which was charging for charging.
   [1320, 1388) -> Service a request driving for customer c55 from s0 to s1.
   [1388, tmax) -> It remains parked at station s1.

Schedule for EV v14:
   [   0,  450) -> It remains parked at station s2.
   [ 450,  512) -> Service a request driving for customer c81 from s2 to s0.
   [ 512,  525) -> It remains parked at station s0, which was charging for charging.
   [ 525,  583) -> Service a request driving for customer c59 from s0 to s1.
   [ 583,  705) -> It remains parked at station s1.
   [ 705,  738) -> Service a request driving for customer c25 from s1 to s2.
   [ 738, 1090) -> It remains parked at station s2, which was charging for charging.
   [1090, 1128) -> Service a request driving for customer c57 from s2 to s1.
   [1128, 1130) -> It remains parked at station s1.
   [1130, 1193) -> Service a request driving for customer c65 from s1 to s0.
   [1193, 1290) -> It remains parked at station s0, which was charging for charging.
   [1290, 1348) -> Service a request driving for customer c51 from s0 to s1.
   [1348, 1360) -> It remains parked at station s1, which was charging for charging.
   [1360, 1443) -> Service a request driving for customer c66 from s1 to s0.
   [1443, tmax) -> It remains parked at station s0.

Schedule for EV v15:
   [   0,  495) -> It remains parked at station s2.
   [ 495,  572) -> Service a request driving for customer c70 from s2 to s0.
   [ 572,  620) -> It remains parked at station s0, which was charging for charging.
   [ 620,  688) -> Service a request driving for customer c22 from s0 to s1.
   [ 688,  775) -> It remains parked at station s1, which was charging for charging.
   [ 775,  843) -> Service a request driving for customer c26 from s1 to s0.
   [ 843, 1050) -> It remains parked at station s0.
   [1050, 1133) -> Service a request driving for customer c56 from s0 to s1.
   [1133, 1135) -> It remains parked at station s1.
   [1135, 1153) -> Service a request driving for customer c57 from s1 to s2.
   [1153, 1230) -> It remains parked at station s2, which was charging for charging.
   [1230, 1302) -> Service a request driving for customer c0 from s2 to s0.
   [1302, tmax) -> It remains parked at station s0.

Schedule for EV v16:
   [   0,  370) -> It remains parked at station s2.
   [ 370,  457) -> Service a request driving for customer c30 from s2 to s0.
   [ 457,  480) -> It remains parked at station s0, which was charging for charging.
   [ 480,  563) -> Service a request driving for customer c26 from s0 to s1.
   [ 563,  595) -> It remains parked at station s1.
   [ 595,  628) -> Service a request driving for customer c68 from s1 to s2.
   [ 628,  670) -> It remains parked at station s2.
   [ 670,  757) -> Service a request driving for customer c68 from s2 to s0.
   [ 757,  845) -> It remains parked at station s0, which was charging for charging.
   [ 845,  922) -> Service a request driving for customer c26 from s0 to s2.
   [ 922, 1020) -> It remains parked at station s2.
   [1020, 1102) -> Service a request driving for customer c85 from s2 to s0.
   [1102, 1110) -> It remains parked at station s0.
   [1110, 1178) -> Service a request driving for customer c45 from s0 to s1.
   [1178, 1190) -> It remains parked at station s1, which was charging for charging.
   [1190, 1253) -> Service a request driving for customer c44 from s1 to s0.
   [1253, tmax) -> It remains parked at station s0, which was charging for charging.

Schedule for EV v17:
   [   0,  475) -> It remains parked at station s2.
   [ 475,  562) -> Service a request driving for customer c64 from s2 to s0.
   [ 562,  755) -> It remains parked at station s0, which was charging for charging.
   [ 755,  813) -> Service a request driving for customer c65 from s0 to s1.
   [ 813,  845) -> It remains parked at station s1, which was charging for charging.
   [ 845,  918) -> Service a request driving for customer c21 from s1 to s0.
   [ 918,  960) -> It remains parked at station s0.
   [ 960, 1028) -> Service a request driving for customer c51 from s0 to s1.
   [1028, 1080) -> It remains parked at station s1, which was charging for charging.
   [1080, 1153) -> Service a request driving for customer c55 from s1 to s0.
   [1153, 1195) -> It remains parked at station s0.
   [1195, 1278) -> Service a request driving for customer c13 from s0 to s1.
   [1278, tmax) -> It remains parked at station s1.

Schedule for EV v18:
   [   0,  385) -> It remains parked at station s2.
   [ 385,  413) -> Service a request driving for customer c57 from s2 to s1.
   [ 413,  435) -> It remains parked at station s1.
   [ 435,  513) -> Service a request driving for customer c88 from s1 to s0.
   [ 513,  535) -> It remains parked at station s0.
   [ 535,  617) -> Service a request driving for customer c82 from s0 to s2.
   [ 617,  735) -> It remains parked at station s2, which was charging for charging.
   [ 735,  773) -> Service a request driving for customer c44 from s2 to s1.
   [ 773,  810) -> It remains parked at station s1.
   [ 810,  888) -> Service a request driving for customer c59 from s1 to s0.
   [ 888,  915) -> It remains parked at station s0, which was charging for charging.
   [ 915, 1002) -> Service a request driving for customer c84 from s0 to s2.
   [1002, 1035) -> It remains parked at station s2.
   [1035, 1122) -> Service a request driving for customer c36 from s2 to s0.
   [1122, 1160) -> It remains parked at station s0, which was charging for charging.
   [1160, 1223) -> Service a request driving for customer c8 from s0 to s1.
   [1223, 1345) -> It remains parked at station s1, which was charging for charging.
   [1345, 1383) -> Service a request driving for customer c13 from s1 to s2.
   [1383, tmax) -> It remains parked at station s2.

Schedule for EV v19:
   [   0,  465) -> It remains parked at station s2.
   [ 465,  542) -> Service a request driving for customer c8 from s2 to s0.
   [ 542,  545) -> It remains parked at station s0, which was charging for charging.
   [ 545,  627) -> Service a request driving for customer c67 from s0 to s2.
   [ 627,  930) -> It remains parked at station s2, which was charging for charging.
   [ 930,  973) -> Service a request driving for customer c75 from s2 to s1.
   [ 973,  995) -> It remains parked at station s1.
   [ 995, 1053) -> Service a request driving for customer c38 from s1 to s0.
   [1053, 1070) -> It remains parked at station s0.
   [1070, 1157) -> Service a request driving for customer c81 from s0 to s2.
   [1157, 1175) -> It remains parked at station s2, which was charging for charging.
   [1175, 1237) -> Service a request driving for customer c25 from s2 to s0.
   [1237, 1250) -> It remains parked at station s0, which was charging for charging.
   [1250, 1313) -> Service a request driving for customer c39 from s0 to s1.
   [1313, tmax) -> It remains parked at station s1, which was charging for charging.

Schedule for EV v20:
   [   0,  395) -> It remains parked at station s2.
   [ 395,  477) -> Service a request driving for customer c58 from s2 to s0.
   [ 477,  490) -> It remains parked at station s0, which was charging for charging.
   [ 490,  558) -> Service a request driving for customer c78 from s0 to s1.
   [ 558,  560) -> It remains parked at station s1, which was charging for charging.
   [ 560,  638) -> Service a request driving for customer c56 from s1 to s0.
   [ 638,  650) -> It remains parked at station s0.
   [ 650,  718) -> Service a request driving for customer c70 from s0 to s1.
   [ 718,  850) -> It remains parked at station s1.
   [ 850,  883) -> Service a request driving for customer c57 from s1 to s2.
   [ 883, 1020) -> It remains parked at station s2.
   [1020, 1097) -> Service a request driving for customer c34 from s2 to s0.
   [1097, 1105) -> It remains parked at station s0.
   [1105, 1173) -> Service a request driving for customer c54 from s0 to s1.
   [1173, 1210) -> It remains parked at station s1, which was charging for charging.
   [1210, 1283) -> Service a request driving for customer c67 from s1 to s0.
   [1283, 1300) -> It remains parked at station s0, which was charging for charging.
   [1300, 1362) -> Service a request driving for customer c28 from s0 to s2.
   [1362, 1365) -> It remains parked at station s2, which was charging for charging.
   [1365, 1388) -> Service a request driving for customer c64 from s2 to s1.
   [1388, tmax) -> It remains parked at station s1.

Set of satisfied customers
   {c0, c1, c2, c4, c6, c8, c10, c11, c12, c13, c16, c20, c21, c22, c24, c25, c26, c28, c29, c30, c33, c34, c36, c38, c39, c40, c42, c43, c44, c45, c46, c47, c51, c52, c54, c55, c56, c57, c58, c59, c60, c62, c63, c64, c65, c66, c67, c68, c70, c71, c72, c73, c75, c76, c78, c79, c80, c81, c82, c83, c84, c85, c86, c87, c88, c89}

