Academic license - for non-commercial use only
Gurobi Optimizer version 9.0.3 build v9.0.3rc0 (linux64)
Optimize a model with 32966 rows, 48672 columns and 166770 nonzeros
Model fingerprint: 0xd082a095
Variable types: 32488 continuous, 16184 integer (16184 binary)
Coefficient statistics:
  Matrix range     [1e+00, 3e+06]
  Objective range  [4e+01, 3e+02]
  Bounds range     [1e+00, 2e+06]
  RHS range        [1e+00, 2e+06]

Loaded user MIP start with objective 3977

Presolve removed 19364 rows and 21180 columns
Presolve time: 0.48s
Presolved: 13602 rows, 27492 columns, 119615 nonzeros
Variable types: 0 continuous, 27492 integer (23224 binary)

Root simplex log...

Iteration    Objective       Primal Inf.    Dual Inf.      Time
    8160    1.5178996e+04   4.168656e+05   0.000000e+00      5s
Warning: Markowitz tolerance tightened to 0.125
   11211    1.5178994e+04   1.155034e+06   0.000000e+00     10s
   14050    1.5178992e+04   1.877292e+06   0.000000e+00     15s
   16708    1.5178989e+04   1.058122e+07   0.000000e+00     20s
   19508    1.4095991e+04   5.170435e+05   0.000000e+00     25s
   22200    1.4095989e+04   8.126266e+05   0.000000e+00     30s
   25217    1.3821989e+04   1.754788e+06   0.000000e+00     35s
   28132    1.3357991e+04   9.427504e+06   0.000000e+00     40s
   31072    1.3336988e+04   5.361182e+06   0.000000e+00     45s
   33856    1.3336985e+04   9.811340e+05   0.000000e+00     50s
   36760    1.2616988e+04   7.862871e+05   0.000000e+00     55s
   39693    1.2616986e+04   3.600910e+06   0.000000e+00     60s
   42768    1.2616983e+04   1.072883e+07   0.000000e+00     65s
   45837    1.1386987e+04   2.765195e+06   0.000000e+00     70s
   48837    1.1329985e+04   2.843114e+06   0.000000e+00     75s
   51738    1.1098985e+04   7.934459e+05   0.000000e+00     80s
   54775    1.1087982e+04   9.746551e+06   0.000000e+00     85s
   57746    1.1087979e+04   3.514884e+06   0.000000e+00     90s
   60672    1.1087977e+04   8.875570e+05   0.000000e+00     95s
   63836    1.1087973e+04   1.076356e+06   0.000000e+00    100s
   66941    1.0756978e+04   4.314390e+05   0.000000e+00    105s
   69967    1.0756976e+04   5.278332e+05   0.000000e+00    110s
   73022    1.0751973e+04   2.603283e+06   0.000000e+00    115s
   76246    1.0751969e+04   1.347525e+06   0.000000e+00    120s
   79386    1.0731967e+04   2.159156e+06   0.000000e+00    125s
   82623    1.0731964e+04   2.842302e+06   0.000000e+00    130s
   85803    1.0731961e+04   2.648779e+06   0.000000e+00    135s
   89052    1.0731957e+04   1.164273e+07   0.000000e+00    140s
   92184    1.0731953e+04   6.151263e+07   0.000000e+00    145s
   95402    1.0717949e+04   1.488342e+06   0.000000e+00    150s
   98518    1.0702940e+04   1.923368e+06   0.000000e+00    155s
  101683    1.0486956e+04   1.033225e+06   0.000000e+00    160s
  104983    1.0417456e+04   4.790404e+06   0.000000e+00    165s
  107963    1.0378960e+04   3.868074e+05   0.000000e+00    170s
  111223    1.0341969e+04   3.679542e+06   0.000000e+00    175s
  114373    1.0341453e+04   7.730373e+06   0.000000e+00    180s
  117612    1.0341449e+04   1.982256e+07   0.000000e+00    185s
  120675    1.0341445e+04   4.634086e+05   0.000000e+00    190s
  123860    1.0341442e+04   8.733543e+05   0.000000e+00    195s
  127070    1.0341439e+04   1.369263e+06   0.000000e+00    200s
  130246    1.0312763e+04   1.298285e+06   0.000000e+00    205s
  133332    1.0277282e+04   4.200923e+05   0.000000e+00    210s
  136513    1.0194949e+04   2.675766e+05   0.000000e+00    215s
  139683    1.0190446e+04   1.501342e+05   0.000000e+00    220s
  142834    1.0172838e+04   2.379316e+05   0.000000e+00    225s
  145913    1.0166347e+04   3.194661e+05   0.000000e+00    230s
  148973    1.0166346e+04   2.144600e+05   0.000000e+00    235s
  151866    1.0166345e+04   1.451134e+05   0.000000e+00    240s
  154895    1.0166344e+04   1.733609e+05   0.000000e+00    245s
  157824    1.0149110e+04   9.183074e+05   0.000000e+00    250s
  160745    1.0148445e+04   1.017434e+05   0.000000e+00    255s
  163809    1.0148372e+04   4.467454e+04   0.000000e+00    260s
  166661    1.0148372e+04   4.319160e+04   0.000000e+00    265s
  169489    1.0148429e+04   0.000000e+00   0.000000e+00    270s
  169489    1.0148429e+04   0.000000e+00   0.000000e+00    270s

Root relaxation: objective 1.014843e+04, 169489 iterations, 269.43 seconds
Total elapsed time = 288.40s
Total elapsed time = 302.53s
Total elapsed time = 314.17s
Total elapsed time = 328.94s

    Nodes    |    Current Node    |     Objective Bounds      |     Work
 Expl Unexpl |  Obj  Depth IntInf | Incumbent    BestBd   Gap | It/Node Time

     0     0 10148.4286    0 6323 3977.00000 10148.4286   155%     -  334s
     0     0 10148.4286    0 7174 3977.00000 10148.4286   155%     -  355s
     0     0 10148.4286    0 7232 3977.00000 10148.4286   155%     -  360s
     0     0 10148.4286    0 6765 3977.00000 10148.4286   155%     -  457s
     0     0 10148.4286    0 6909 3977.00000 10148.4286   155%     -  462s
     0     0 10148.4286    0 6675 3977.00000 10148.4286   155%     -  528s
     0     0 10148.4286    0 6658 3977.00000 10148.4286   155%     -  585s
     0     2 10148.4286    0 6438 3977.00000 10148.4286   155%     -  774s
     1     3 10148.4286    1 6256 3977.00000 10148.4286   155% 46443  779s
     2     4 9874.88889    2 6403 3977.00000 10148.4286   155% 26502  791s
     3     5 10148.4286    2 6513 3977.00000 10148.4286   155% 19385  801s
     4     6 10148.4286    3 6544 3977.00000 10148.4286   155% 15261  807s
     6     6 10148.4286    4 6490 3977.00000 10148.4286   155% 10714  813s
     8     6 10080.2500    5 6659 3977.00000 10148.4286   155%  9029  828s
     9     7 10148.4286    5 6612 3977.00000 10148.4286   155%  8336  834s
    10     8 10148.4286    6 6545 3977.00000 10148.4286   155%  7746  839s
    11     9 10148.4286    7 6572 3977.00000 10148.4286   155%  7317  844s
    12    10 10148.4286    7 7335 3977.00000 10148.4286   155% 17349 1047s
    13    11 10148.4286    8 6665 3977.00000 10148.4286   155% 16224 1053s
    14    12 10148.4286    8 6484 3977.00000 10148.4286   155% 15222 1057s
    15    13 10148.4286    9 6562 3977.00000 10148.4286   155% 14406 1062s
    16    14 10148.4286    9 6414 3977.00000 10148.4286   155% 13669 1067s
    17    15 10148.4286   10 6423 3977.00000 10148.4286   155% 13026 1072s
    18    16 10148.4286   11 6426 3977.00000 10148.4286   155% 12428 1077s
    19    17 10148.4286   12 6471 3977.00000 10148.4286   155% 11909 1081s
    20    18 10148.4286   13 6359 3977.00000 10148.4286   155% 11410 1085s
    21    19 10148.4286   13 6362 3977.00000 10148.4286   155% 11000 1090s
    23    21 10148.4286   15 6376 3977.00000 10148.4286   155% 10232 1098s
    24    22 10148.4286   16 6386 3977.00000 10148.4286   155%  9912 1103s
    25    23 10148.4286   17 6341 3977.00000 10148.4286   155%  9605 1107s
    26    24 10148.4286   18 6236 3977.00000 10148.4286   155%  9333 1112s
    27    25 10144.2857   18 6286 3977.00000 10148.4286   155%  9172 1121s
    28    26 10134.5000   19 6360 3977.00000 10148.4286   155%  9046 1131s
    29    27 10134.5000   20 6255 3977.00000 10148.4286   155%  8837 1137s
    30    28 10105.1111   21 6248 3977.00000 10148.4286   155%  8806 1150s
    32    30 10105.0000   23 6120 3977.00000 10148.4286   155%  8390 1158s
    33    31 10099.8571   24 6371 3977.00000 10148.4286   155%  8298 1167s
    34    32 10099.8571   25 6299 3977.00000 10148.4286   155%  8133 1172s
    35    33 10098.7857   25 6276 3977.00000 10148.4286   155%  7998 1179s
    36    34 10098.7857   26 6120 3977.00000 10148.4286   155%  7831 1182s
    37    35 10098.2500   26 6170 3977.00000 10148.4286   155%  7703 1189s
    38    36 10098.2500   27 6089 3977.00000 10148.4286   155%  7558 1193s
    39    37 10098.2500   28 6093 3977.00000 10148.4286   155%  7432 1198s
    40    38 10098.2500   28 5963 3977.00000 10148.4286   155%  7309 1202s
    41    39 10098.2500   29 5933 3977.00000 10148.4286   155%  7177 1205s
    43    41 10098.2500   30 5702 3977.00000 10148.4286   155%  6928 1212s
    44    42 10098.2500   31 5634 3977.00000 10148.4286   155%  6817 1215s
    46    44 10098.2500   33 5774 3977.00000 10148.4286   155%  6590 1221s
    47    45 10098.2500   33 5687 3977.00000 10148.4286   155%  6515 1226s
    48    46 10098.2500   34 5667 3977.00000 10148.4286   155%  6427 1230s
    50    48 10098.2500   35 5529 3977.00000 10148.4286   155%  6240 1236s
    51    49 10098.2500   36 5577 3977.00000 10148.4286   155%  6169 1240s
    53    51 10081.0000   37 5481 3977.00000 10148.4286   155%  5997 1245s
H   54    50                    4077.0000000 10148.4286   149%  5886 1252s
    56    54 10072.0000   40 5109 4077.00000 10148.4286   149%  5813 1257s
    58    56 10072.0000   41 5080 4077.00000 10148.4286   149%  5686 1264s
    59    57 10072.0000   42 5113 4077.00000 10148.4286   149%  5621 1267s
    60    58 10072.0000   42 5196 4077.00000 10148.4286   149%  5560 1270s
    62    60 10072.0000   44 5194 4077.00000 10148.4286   149%  5434 1275s
    64    62 10072.0000   45 5189 4077.00000 10148.4286   149%  5332 1282s
    66    64 10072.0000   47 5310 4077.00000 10148.4286   149%  5222 1287s
    67    65 10072.0000   47 5244 4077.00000 10148.4286   149%  5173 1290s
    70    68 10072.0000   50 5392 4077.00000 10148.4286   149%  5017 1297s
    71    69 10072.0000   51 5068 4077.00000 10148.4286   149%  4974 1300s
    73    71 10072.0000   53 4980 4077.00000 10148.4286   149%  4882 1305s
    76    74 10072.0000   56 4884 4077.00000 10148.4286   149%  4768 1314s
    77    75 10072.0000   57 4862 4077.00000 10148.4286   149%  4722 1316s
    79    77 10072.0000   58 4696 4077.00000 10148.4286   149%  4641 1320s
    82    80 10072.0000   60 4365 4077.00000 10148.4286   149%  4518 1326s
    84    82 10072.0000   61 4328 4077.00000 10148.4286   149%  4445 1330s
    88    86 10072.0000   64 4165 4077.00000 10148.4286   149%  4302 1337s
    90    88 10072.0000   65 3904 4077.00000 10148.4286   149%  4239 1341s
    92    90 10072.0000   67 3783 4077.00000 10148.4286   149%  4171 1345s
    96    94 10072.0000   70 3443 4077.00000 10148.4286   149%  4043 1350s
    98    96 10072.0000   72 3565 4077.00000 10148.4286   149%  3982 1355s
   103   101 10072.0000   75 3694 4077.00000 10148.4286   149%  3833 1360s
   108   106 10072.0000   78 3085 4077.00000 10148.4286   149%  3697 1365s
   113   111 10072.0000   82 3105 4077.00000 10148.4286   149%  3573 1370s
   118   116 10072.0000   86 2604 4077.00000 10148.4286   149%  3461 1375s
   125   123 10072.0000   92 2318 4077.00000 10148.4286   149%  3305 1380s
   136   134 10072.0000  100 1818 4077.00000 10148.4286   149%  3078 1385s
H  139    50                    10072.000000 10148.4286  0.76%  3023 1386s
   142    49 10148.4286    1 6611 10072.0000 10148.4286  0.76%  2998 1396s
   143    50 10146.3000    2 6440 10072.0000 10148.4286  0.76%  3001 1402s
   145    50 10146.3000    3 6381 10072.0000 10148.4286  0.76%  2973 1406s
   148    51 10146.3000    5 6367 10072.0000 10148.4286  0.76%  2938 1413s
   149    52 10080.2500    5 6500 10072.0000 10148.4286  0.76%  2963 1424s
   150    53 10146.3000    6 6330 10072.0000 10148.4286  0.76%  2960 1429s
   151    54 10146.3000    7 6139 10072.0000 10148.4286  0.76%  2954 1433s
   152    55 10146.3000    8 6186 10072.0000 10148.4286  0.76%  2945 1435s
   153    56 10142.9286    9 6281 10072.0000 10148.4286  0.76%  2958 1444s
   154    57 10145.8286    9 6235 10072.0000 10148.4286  0.76%  2959 1449s
   155    58 10145.8286   10 6192 10072.0000 10148.4286  0.76%  2955 1453s
   156    59 10145.8286   11 6185 10072.0000 10148.4286  0.76%  2950 1457s
   157    60 10145.8286   12 6149 10072.0000 10148.4286  0.76%  2945 1461s
   158    61 10145.8286   13 6098 10072.0000 10148.4286  0.76%  2939 1465s
   160    63 10145.8286   14 6106 10072.0000 10148.4286  0.76%  2932 1473s
   161    64 10145.8286   15 6169 10072.0000 10148.4286  0.76%  2926 1476s
   162    65 10145.8286   15 6143 10072.0000 10148.4286  0.76%  2920 1480s
   163    66 10132.8000   16 6197 10072.0000 10148.4286  0.76%  2938 1490s
   165    68 10132.8000   18 6074 10072.0000 10148.4286  0.76%  2925 1496s
   166    69 10130.0000   19 5946 10072.0000 10148.4286  0.76%  2923 1501s
   167    70 10130.0000   20 6093 10072.0000 10148.4286  0.76%  2922 1505s
   168    71 10130.0000   20 6039 10072.0000 10148.4286  0.76%  2920 1510s
   169    72 10130.0000   21 5974 10072.0000 10148.4286  0.76%  2921 1515s
   172    75 10130.0000   24 5927 10072.0000 10148.4286  0.76%  2895 1522s
   173    76 10119.3333   24 5894 10072.0000 10148.4286  0.76%  2901 1529s
   174    77 10118.3333   25 5933 10072.0000 10148.4286  0.76%  2908 1535s
   177    80 10087.0000   27 5538 10072.0000 10148.4286  0.76%  2896 1545s
   180    83 10087.0000   30 5446 10072.0000 10148.4286  0.76%  2869 1552s
   182    85 10087.0000   32 5165 10072.0000 10148.4286  0.76%  2853 1556s
   185    88 10087.0000   35 5048 10072.0000 10148.4286  0.76%  2829 1562s
   186    89 10087.0000   36 5011 10072.0000 10148.4286  0.76%  2826 1565s
   189    92 10087.0000   39 5027 10072.0000 10148.4286  0.76%  2802 1570s
   191    94 10087.0000   41 5132 10072.0000 10148.4286  0.76%  2786 1577s
   193    96 10087.0000   43 5009 10072.0000 10148.4286  0.76%  2772 1581s
   195    98 10087.0000   45 4929 10072.0000 10148.4286  0.76%  2755 1585s
   198   101 10087.0000   46 4758 10072.0000 10148.4286  0.76%  2735 1591s
   201   104 10087.0000   48 4617 10072.0000 10148.4286  0.76%  2712 1595s
   203   106 10087.0000   50 4255 10072.0000 10148.4286  0.76%  2698 1601s
   206   109 10087.0000   52 4425 10072.0000 10148.4286  0.76%  2677 1606s
   210   113 10087.0000   56 4330 10072.0000 10148.4286  0.76%  2645 1611s
   213   116 10087.0000   58 4359 10072.0000 10148.4286  0.76%  2625 1616s
   216   119 10087.0000   61 4140 10072.0000 10148.4286  0.76%  2604 1620s
   221   124 10087.0000   65 3803 10072.0000 10148.4286  0.76%  2566 1625s
   225   128 10087.0000   67 3645 10072.0000 10148.4286  0.76%  2537 1630s
   230   133 10087.0000   71 3382 10072.0000 10148.4286  0.76%  2503 1635s
   235   138 10087.0000   75 3134 10072.0000 10148.4286  0.76%  2467 1640s
   243   146 10087.0000   80 2605 10072.0000 10148.4286  0.76%  2408 1645s
   255   158 10087.0000   90 2235 10072.0000 10148.4286  0.76%  2317 1650s
H  260    78                    10087.000000 10148.4286  0.61%  2279 1652s
   266    74 10148.4286   10 6319 10087.0000 10148.4286  0.61%  2239 1657s
   267    75 10148.4286   11 6383 10087.0000 10148.4286  0.61%  2244 1664s
   268    76 10148.4286   12 6426 10087.0000 10148.4286  0.61%  2245 1669s
   269    77 10148.4286   12 6260 10087.0000 10148.4286  0.61%  2246 1674s
   270    78 10148.4286   13 6234 10087.0000 10148.4286  0.61%  2248 1679s
   271    79 10148.4286   13 6363 10087.0000 10148.4286  0.61%  2250 1685s
   272    80 10148.4286   14 6203 10087.0000 10148.4286  0.61%  2252 1690s
   273    81 10144.2857   15 6059 10087.0000 10148.4286  0.61%  2323 1728s
   274    82 10148.4286   15 6310 10087.0000 10148.4286  0.61%  2321 1732s
   276    82 10148.4286   16 6210 10087.0000 10148.4286  0.61%  2315 1737s
   277    83 10144.2857   17 6341 10087.0000 10148.4286  0.61%  2327 1748s
   278    84 10134.5000   17 6144 10087.0000 10148.4286  0.61%  2338 1758s
   279    85 10134.5000   18 6153 10087.0000 10148.4286  0.61%  2339 1763s
   280    86 10134.5000   19 6027 10087.0000 10148.4286  0.61%  2339 1767s
   281    87 10134.5000   19 6085 10087.0000 10148.4286  0.61%  2340 1772s
   282    88 10134.5000   20 5872 10087.0000 10148.4286  0.61%  2339 1776s
   283    89 10130.0000   21 5824 10087.0000 10148.4286  0.61%  2348 1784s
   284    90 10128.3333   21 5792 10087.0000 10148.4286  0.61%  2356 1792s
   285    91 10130.0000   22 5836 10087.0000 10148.4286  0.61%  2356 1802s
   286    92 10130.0000   23 5735 10087.0000 10148.4286  0.61%  2353 1805s
   288    94 10130.0000   24 5804 10087.0000 10148.4286  0.61%  2348 1811s
   290    96 10130.0000   26 5755 10087.0000 10148.4286  0.61%  2346 1818s
   292    98 10130.0000   28 5645 10087.0000 10148.4286  0.61%  2341 1823s
   293    99 10130.0000   28 5706 10087.0000 10148.4286  0.61%  2339 1826s
   294   100 10119.3333   29 5700 10087.0000 10148.4286  0.61%  2346 1833s
   295    99     cutoff   30      10087.0000 10148.4286  0.61%  2354 1841s
   297    99     cutoff   31      10087.0000 10148.4286  0.61%  2364 1853s
   298   100 10099.0000   31 5614 10087.0000 10148.4286  0.61%  2368 1859s
   299   101 10099.0000   32 5386 10087.0000 10148.4286  0.61%  2365 1861s
   302   100 10099.0000   32 5654 10087.0000 10148.4286  0.61%  2355 1868s
   305    99 10146.3000   11 6236 10087.0000 10148.4286  0.61%  2349 1877s
   306   100 10146.3000   12 6312 10087.0000 10148.4286  0.61%  2350 1882s
   308   102 10146.3000   14 6263 10087.0000 10148.4286  0.61%  2348 1889s
   309   103 10146.3000   15 6142 10087.0000 10148.4286  0.61%  2346 1892s
   310   104 10146.3000   15 6196 10087.0000 10148.4286  0.61%  2347 1897s
   311   105 10119.5000   16 6304 10087.0000 10148.4286  0.61%  2363 1911s
   312   106 10146.3000   16 6335 10087.0000 10148.4286  0.61%  2368 1918s
   313   107 10146.3000   14 6095 10087.0000 10148.4286  0.61%  2369 1923s
   314   108 10146.3000   15 6117 10087.0000 10148.4286  0.61%  2367 1926s
   315   109 10146.3000   15 6083 10087.0000 10148.4286  0.61%  2367 1930s
   317   111 10146.3000   16 6137 10087.0000 10148.4286  0.61%  2368 1940s
   318   112 10146.3000   16 6087 10087.0000 10148.4286  0.61%  2372 1946s
   319   113 10146.3000   17 6025 10087.0000 10148.4286  0.61%  2370 1950s
   321   115 10146.3000   19 6028 10087.0000 10148.4286  0.61%  2365 1955s
   323   117 10146.3000   20 5917 10087.0000 10148.4286  0.61%  2362 1962s
   324   118 10146.3000   21 5932 10087.0000 10148.4286  0.61%  2361 1966s
   325   119 10132.6000   21 5911 10087.0000 10148.4286  0.61%  2371 1975s
   327   121 10132.6000   22 6088 10087.0000 10148.4286  0.61%  2365 1980s
   329   123 10132.6000   24 5786 10087.0000 10148.4286  0.61%  2359 1985s
   332   126 10132.3333   26 5770 10087.0000 10148.4286  0.61%  2352 1992s
   334   128 10132.3333   28 5798 10087.0000 10148.4286  0.61%  2347 1998s
   335   129 10132.3333   29 5668 10087.0000 10148.4286  0.61%  2343 2000s
   336   130 10125.5000   30 5712 10087.0000 10148.4286  0.61%  2370 2017s
   337   131 10121.2000   30 5805 10087.0000 10148.4286  0.61%  2376 2025s
   338   132 10121.2000   29 5778 10087.0000 10148.4286  0.61%  2381 2032s
   339   133 10121.2000   30 5645 10087.0000 10148.4286  0.61%  2380 2035s
   341   135 10105.0000   32 5658 10087.0000 10148.4286  0.61%  2382 2044s
   342   136 10121.2000   32 5628 10087.0000 10148.4286  0.61%  2383 2048s
   343   137 10121.2000   33 5651 10087.0000 10148.4286  0.61%  2383 2051s
   345   139 10121.2000   34 5504 10087.0000 10148.4286  0.61%  2379 2058s
   346   140 10110.6667   35 5553 10087.0000 10148.4286  0.61%  2382 2063s
   347   141 10110.6667   36 5451 10087.0000 10148.4286  0.61%  2379 2065s
   349   143 10110.6667   37 5165 10087.0000 10148.4286  0.61%  2375 2070s
   352   146 10110.6667   40 5270 10087.0000 10148.4286  0.61%  2364 2076s
   355   149 10110.6667   41 5289 10087.0000 10148.4286  0.61%  2357 2082s
   356   150 10110.6667   42 5394 10087.0000 10148.4286  0.61%  2354 2085s
   358   152 10110.6667   42 5312 10087.0000 10148.4286  0.61%  2351 2090s
   361   155 10110.6667   45 5001 10087.0000 10148.4286  0.61%  2341 2095s
   363   157 10105.0000   46 5014 10087.0000 10148.4286  0.61%  2344 2103s
   365   157 10102.0000   47 4910 10087.0000 10148.4286  0.61%  2338 2107s
   367   159 10102.0000   49 4773 10087.0000 10148.4286  0.61%  2333 2111s
   369   161 10102.0000   50 4514 10087.0000 10148.4286  0.61%  2329 2116s
   372   164 10102.0000   52 4454 10087.0000 10148.4286  0.61%  2320 2121s
   375   167 10102.0000   52 4458 10087.0000 10148.4286  0.61%  2312 2126s
   378   170 10102.0000   54 4431 10087.0000 10148.4286  0.61%  2301 2130s
   379   171 10102.0000   55 4432 10087.0000 10148.4286  0.61%  2297 2144s
   380   172 10102.0000   55 4234 10087.0000 10148.4286  0.61%  2294 2146s
   382   174 10102.0000   56 4252 10087.0000 10148.4286  0.61%  2289 2150s
   386   178 10102.0000   60 4157 10087.0000 10148.4286  0.61%  2278 2156s
   389   181 10102.0000   61 4165 10087.0000 10148.4286  0.61%  2268 2160s
   393   185 10102.0000   65 3805 10087.0000 10148.4286  0.61%  2258 2166s
   396   188 10102.0000   67 3610 10087.0000 10148.4286  0.61%  2250 2170s
   401   193 10102.0000   71 3553 10087.0000 10148.4286  0.61%  2233 2175s
H  406   139                    10102.000000 10148.4286  0.46%  2213 2188s
   411   136 10148.4286   12 6248 10102.0000 10148.4286  0.46%  2194 2193s
   412   137 10146.3000   13 6098 10102.0000 10148.4286  0.46%  2199 2201s
   413   138 10146.3000   14 6214 10102.0000 10148.4286  0.46%  2200 2206s
   414   139 10146.3000   14 6111 10102.0000 10148.4286  0.46%  2201 2211s
   416   141 10119.5000   16 6228 10102.0000 10148.4286  0.46%  2211 2226s
   417   142 10146.3000   16 5998 10102.0000 10148.4286  0.46%  2213 2232s
   418   143 10146.3000   15 6010 10102.0000 10148.4286  0.46%  2213 2236s
   420   145 10146.3000   17 5934 10102.0000 10148.4286  0.46%  2211 2242s
   422   147 10146.3000   19 5894 10102.0000 10148.4286  0.46%  2208 2248s
   423   146     cutoff   19      10102.0000 10148.4286  0.46%  2217 2258s
   424   147 10146.3000   20 5878 10102.0000 10148.4286  0.46%  2214 2260s
   425   148 10133.9000   21 5786 10102.0000 10148.4286  0.46%  2217 2266s
   427   150 10133.9000   23 5937 10102.0000 10148.4286  0.46%  2213 2270s
   428   151 10125.5000   23 5952 10102.0000 10148.4286  0.46%  2221 2280s
   430   153 10125.5000   25 5821 10102.0000 10148.4286  0.46%  2218 2285s
   432   155 10125.5000   27 5748 10102.0000 10148.4286  0.46%  2217 2292s
   434   157 10125.5000   28 5658 10102.0000 10148.4286  0.46%  2214 2298s
   435   158 10125.5000   29 5752 10102.0000 10148.4286  0.46%  2212 2300s
   437   160 10125.5000   30 5673 10102.0000 10148.4286  0.46%  2211 2307s
   438   161 10125.5000   31 5589 10102.0000 10148.4286  0.46%  2212 2311s
   440   163 10125.5000   32 5670 10102.0000 10148.4286  0.46%  2208 2315s
   441   164 10111.8000   33 5678 10102.0000 10148.4286  0.46%  2210 2320s
   443   166 10104.5000   35 5567 10102.0000 10148.4286  0.46%  2212 2328s
   444   166 10104.5000   36 5411 10102.0000 10148.4286  0.46%  2211 2331s
   445   167 10103.0000   37 5380 10102.0000 10148.4286  0.46%  2214 2337s
   446   168 10103.0000   38 5225 10102.0000 10148.4286  0.46%  2214 2340s
   449   171 10103.0000   41 5145 10102.0000 10148.4286  0.46%  2208 2345s
   451   173 10103.0000   43 5038 10102.0000 10148.4286  0.46%  2207 2351s
   454   176 10103.0000   46 4690 10102.0000 10148.4286  0.46%  2199 2355s
   456   178 10103.0000   48 4857 10102.0000 10148.4286  0.46%  2199 2362s
   458   180 10103.0000   50 4635 10102.0000 10148.4286  0.46%  2194 2365s
   460   182 10103.0000   52 4639 10102.0000 10148.4286  0.46%  2191 2371s
   463   185 10103.0000   54 4626 10102.0000 10148.4286  0.46%  2184 2375s
   466   188 10103.0000   56 4480 10102.0000 10148.4286  0.46%  2177 2380s
   469   191 10103.0000   58 4341 10102.0000 10148.4286  0.46%  2171 2385s
   473   195 10103.0000   61 4288 10102.0000 10148.4286  0.46%  2161 2390s
   477   199 10103.0000   65 3855 10102.0000 10148.4286  0.46%  2151 2395s
   481   203 10103.0000   68 3441 10102.0000 10148.4286  0.46%  2144 2401s
   485   207 10103.0000   70 3302 10102.0000 10148.4286  0.46%  2135 2405s
   488   210 10103.0000   73 3064 10102.0000 10148.4286  0.46%  2128 2411s
   494   216 10103.0000   77 2536 10102.0000 10148.4286  0.46%  2111 2415s
H  502   169                    10103.000000 10148.4286  0.45%  2084 2419s
   509   164 10144.2857   19 6253 10103.0000 10148.4286  0.45%  2069 2430s
   511   165 10145.8286   12 6658 10103.0000 10148.4286  0.45%  2061 2629s
   513   166 10130.0000   25 6089 10103.0000 10148.4286  0.45%  2053 2961s
   514   167 10137.3987   17 5587 10103.0000 10137.3987  0.34%  2049 3087s
   515   168 10118.3333   28 6286 10103.0000 10137.1945  0.34%  2045 3099s
   516   168 10136.5622   19 6261 10103.0000 10136.5622  0.33%  2041 3105s
   517   169 10136.5622   17 6407 10103.0000 10136.5622  0.33%  2037 3111s
   518   170 10132.8000   18 5632 10103.0000 10136.5622  0.33%  2033 3195s
   519   170 10136.5315   13 6192 10103.0000 10136.5315  0.33%  2029 3203s
   520   171 10118.3333   26 6229 10103.0000 10136.3475  0.33%  2025 3208s
   521   172 10136.3075   12 6191 10103.0000 10136.3075  0.33%  2021 3211s
   522   172 10136.3075   16 6143 10103.0000 10136.3075  0.33%  2017 3215s
   523   173 10134.5000   20 6311 10103.0000 10136.3075  0.33%  2013 3252s
   524   174 10132.8000   17 6618 10103.0000 10136.3075  0.33%  2010 3262s
   525   174 10136.3075   13 6082 10103.0000 10136.3075  0.33%  2006 3341s
   526   175 10136.3075   10 6607 10103.0000 10136.3075  0.33%  2002 3355s
   527   176 10125.5000   31 6405 10103.0000 10136.3075  0.33%  1998 3380s
   528   176 10125.5000   31 6546 10103.0000 10136.3075  0.33%  1994 3390s
   529   177 10136.3075   20 6255 10103.0000 10136.3075  0.33%  1991 3453s
   530   178 10132.6000   26 6249 10103.0000 10136.3075  0.33%  1987 3501s
   532   180 10136.3075   20 6658 10103.0000 10136.3075  0.33%  3305 3551s

Explored 533 nodes (2229314 simplex iterations) in 3600.01 seconds
Thread count was 1 (of 40 available processors)

Solution count 6: 10103 10102 10087 ... 3977

Time limit reached
Best objective 1.010300000000e+04, best bound 1.013600000000e+04, gap 0.3266%

----------

Best objective (UB): 10136.000
Best feasible solution (LB): 10103.000
Gap between the lower bound and upper bound: 0.327%

----------

Number of customers served: 65

Schedule for EV v0:
   [   0,  445) -> It remains parked at station s0.
   [ 445,  495) -> Service a request driving for customer c7 from s0 to s1.
   [ 495,  500) -> It remains parked at station s1.
   [ 500,  545) -> Service a request driving for customer c52 from s1 to s0.
   [ 545,  560) -> It remains parked at station s0.
   [ 560,  642) -> Service a request driving for customer c17 from s0 to s2.
   [ 642,  890) -> It remains parked at station s2, which was charging for charging.
   [ 890,  992) -> Service a request driving for customer c35 from s2 to s0.
   [ 992,  995) -> It remains parked at station s0.
   [ 995, 1087) -> Service a request driving for customer c62 from s0 to s2.
   [1087, 1105) -> It remains parked at station s2, which was charging for charging.
   [1105, 1163) -> Service a request driving for customer c29 from s2 to s1.
   [1163, 1165) -> It remains parked at station s1, which was charging for charging.
   [1165, 1228) -> Service a request driving for customer c31 from s1 to s2.
   [1228, 1245) -> It remains parked at station s2.
   [1245, 1352) -> Service a request driving for customer c0 from s2 to s0.
   [1352, 1355) -> It remains parked at station s0, which was charging for charging.
   [1355, 1390) -> Service a request driving for customer c76 from s0 to s1.
   [1390, tmax) -> It remains parked at station s1, which was charging for charging.

Schedule for EV v1:
   [   0,  420) -> It remains parked at station s0.
   [ 420,  522) -> Service a request driving for customer c6 from s0 to s2.
   [ 522,  570) -> It remains parked at station s2, which was charging for charging.
   [ 570,  667) -> Service a request driving for customer c101 from s2 to s0.
   [ 667,  900) -> It remains parked at station s0, which was charging for charging.
   [ 900,  997) -> Service a request driving for customer c68 from s0 to s2.
   [ 997, 1020) -> It remains parked at station s2, which was charging for charging.
   [1020, 1078) -> Service a request driving for customer c31 from s2 to s1.
   [1078, 1085) -> It remains parked at station s1, which was charging for charging.
   [1085, 1145) -> Service a request driving for customer c95 from s1 to s0.
   [1145, 1155) -> It remains parked at station s0.
   [1155, 1205) -> Service a request driving for customer c41 from s0 to s1.
   [1205, 1220) -> It remains parked at station s1.
   [1220, 1288) -> Service a request driving for customer c4 from s1 to s2.
   [1288, 1355) -> It remains parked at station s2, which was charging for charging.
   [1355, 1438) -> Service a request driving for customer c94 from s2 to s1.
   [1438, tmax) -> It remains parked at station s1.

Schedule for EV v2:
   [   0,  445) -> It remains parked at station s0.
   [ 445,  505) -> Service a request driving for customer c114 from s0 to s1.
   [ 505,  545) -> It remains parked at station s1, which was charging for charging.
   [ 545,  585) -> Service a request driving for customer c84 from s1 to s0.
   [ 585,  595) -> It remains parked at station s0, which was charging for charging.
   [ 595,  687) -> Service a request driving for customer c5 from s0 to s2.
   [ 687,  700) -> It remains parked at station s2.
   [ 700,  797) -> Service a request driving for customer c96 from s2 to s0.
   [ 797,  890) -> It remains parked at station s0, which was charging for charging.
   [ 890,  972) -> Service a request driving for customer c88 from s0 to s2.
   [ 972,  985) -> It remains parked at station s2, which was charging for charging.
   [ 985, 1077) -> Service a request driving for customer c88 from s2 to s0.
   [1077, 1080) -> It remains parked at station s0, which was charging for charging.
   [1080, 1125) -> Service a request driving for customer c36 from s0 to s1.
   [1125, 1208) -> Service a request driving for customer c115 from s1 to s2.
   [1208, 1210) -> It remains parked at station s2.
   [1210, 1268) -> Service a request driving for customer c72 from s2 to s1.
   [1268, 1340) -> It remains parked at station s1, which was charging for charging.
   [1340, 1395) -> Service a request driving for customer c54 from s1 to s0.
   [1395, tmax) -> It remains parked at station s0.

Schedule for EV v3:
   [   0,  500) -> It remains parked at station s0.
   [ 500,  550) -> Service a request driving for customer c53 from s0 to s1.
   [ 550,  585) -> Service a request driving for customer c40 from s1 to s0.
   [ 585,  590) -> It remains parked at station s0.
   [ 590,  697) -> Service a request driving for customer c39 from s0 to s2.
   [ 697,  850) -> It remains parked at station s2.
   [ 850,  913) -> Service a request driving for customer c6 from s2 to s1.
   [ 913,  925) -> It remains parked at station s1, which was charging for charging.
   [ 925,  965) -> Service a request driving for customer c63 from s1 to s0.
   [ 965, 1035) -> It remains parked at station s0, which was charging for charging.
   [1035, 1095) -> Service a request driving for customer c93 from s0 to s1.
   [1095, 1105) -> It remains parked at station s1, which was charging for charging.
   [1105, 1160) -> Service a request driving for customer c25 from s1 to s0.
   [1160, 1170) -> It remains parked at station s0.
   [1170, 1267) -> Service a request driving for customer c42 from s0 to s2.
   [1267, tmax) -> It remains parked at station s2.

Schedule for EV v4:
   [   0,  405) -> It remains parked at station s0.
   [ 405,  497) -> Service a request driving for customer c32 from s0 to s2.
   [ 497,  520) -> It remains parked at station s2.
   [ 520,  603) -> Service a request driving for customer c88 from s2 to s1.
   [ 603,  660) -> It remains parked at station s1, which was charging for charging.
   [ 660,  715) -> Service a request driving for customer c88 from s1 to s0.
   [ 715,  720) -> It remains parked at station s0.
   [ 720,  765) -> Service a request driving for customer c28 from s0 to s1.
   [ 765,  785) -> It remains parked at station s1.
   [ 785,  835) -> Service a request driving for customer c98 from s1 to s0.
   [ 835,  995) -> It remains parked at station s0, which was charging for charging.
   [ 995, 1097) -> Service a request driving for customer c72 from s0 to s2.
   [1097, 1100) -> It remains parked at station s2.
   [1100, 1197) -> Service a request driving for customer c68 from s2 to s0.
   [1197, 1340) -> It remains parked at station s0.
   [1340, 1447) -> Service a request driving for customer c83 from s0 to s2.
   [1447, tmax) -> It remains parked at station s2.

Schedule for EV v5:
   [   0,  415) -> It remains parked at station s1.
   [ 415,  473) -> Service a request driving for customer c24 from s1 to s2.
   [ 473,  495) -> It remains parked at station s2, which was charging for charging.
   [ 495,  582) -> Service a request driving for customer c5 from s2 to s0.
   [ 582,  585) -> It remains parked at station s0.
   [ 585,  672) -> Service a request driving for customer c52 from s0 to s2.
   [ 672,  710) -> It remains parked at station s2.
   [ 710,  797) -> Service a request driving for customer c11 from s2 to s0.
   [ 797,  900) -> It remains parked at station s0.
   [ 900,  992) -> Service a request driving for customer c94 from s0 to s2.
   [ 992, 1015) -> It remains parked at station s2, which was charging for charging.
   [1015, 1107) -> Service a request driving for customer c52 from s2 to s0.
   [1107, 1125) -> It remains parked at station s0, which was charging for charging.
   [1125, 1227) -> Service a request driving for customer c87 from s0 to s2.
   [1227, tmax) -> It remains parked at station s2.

Schedule for EV v6:
   [   0,  445) -> It remains parked at station s1.
   [ 445,  503) -> Service a request driving for customer c68 from s1 to s2.
   [ 503,  520) -> It remains parked at station s2.
   [ 520,  602) -> Service a request driving for customer c2 from s2 to s0.
   [ 602,  615) -> It remains parked at station s0, which was charging for charging.
   [ 615,  675) -> Service a request driving for customer c22 from s0 to s1.
   [ 675,  725) -> It remains parked at station s1, which was charging for charging.
   [ 725,  760) -> Service a request driving for customer c72 from s1 to s0.
   [ 760,  820) -> It remains parked at station s0, which was charging for charging.
   [ 820,  855) -> Service a request driving for customer c78 from s0 to s1.
   [ 855,  875) -> It remains parked at station s1, which was charging for charging.
   [ 875,  953) -> Service a request driving for customer c66 from s1 to s2.
   [ 953, 1040) -> It remains parked at station s2, which was charging for charging.
   [1040, 1137) -> Service a request driving for customer c83 from s2 to s0.
   [1137, 1165) -> It remains parked at station s0, which was charging for charging.
   [1165, 1262) -> Service a request driving for customer c109 from s0 to s2.
   [1262, tmax) -> It remains parked at station s2.

Schedule for EV v7:
   [   0,  425) -> It remains parked at station s1.
   [ 425,  483) -> Service a request driving for customer c5 from s1 to s2.
   [ 483,  485) -> It remains parked at station s2, which was charging for charging.
   [ 485,  558) -> Service a request driving for customer c72 from s2 to s1.
   [ 558,  565) -> It remains parked at station s1, which was charging for charging.
   [ 565,  610) -> Service a request driving for customer c42 from s1 to s0.
   [ 610,  615) -> It remains parked at station s0, which was charging for charging.
   [ 615,  702) -> Service a request driving for customer c50 from s0 to s2.
   [ 702,  725) -> It remains parked at station s2.
   [ 725,  783) -> Service a request driving for customer c91 from s2 to s1.
   [ 783,  910) -> It remains parked at station s1, which was charging for charging.
   [ 910,  960) -> Service a request driving for customer c91 from s1 to s0.
   [ 960, 1030) -> It remains parked at station s0.
   [1030, 1085) -> Service a request driving for customer c65 from s0 to s1.
   [1085, 1090) -> It remains parked at station s1, which was charging for charging.
   [1090, 1125) -> Service a request driving for customer c58 from s1 to s0.
   [1125, 1130) -> It remains parked at station s0.
   [1130, 1212) -> Service a request driving for customer c6 from s0 to s2.
   [1212, 1215) -> It remains parked at station s2.
   [1215, 1317) -> Service a request driving for customer c13 from s2 to s0.
   [1317, tmax) -> It remains parked at station s0.

Schedule for EV v8:
   [   0,  450) -> It remains parked at station s1.
   [ 450,  485) -> Service a request driving for customer c109 from s1 to s0.
   [ 485,  490) -> It remains parked at station s0.
   [ 490,  572) -> Service a request driving for customer c87 from s0 to s2.
   [ 572,  580) -> It remains parked at station s2.
   [ 580,  643) -> Service a request driving for customer c103 from s2 to s1.
   [ 643,  700) -> It remains parked at station s1.
   [ 700,  768) -> Service a request driving for customer c53 from s1 to s2.
   [ 768,  895) -> It remains parked at station s2.
   [ 895,  987) -> Service a request driving for customer c87 from s2 to s0.
   [ 987, 1060) -> It remains parked at station s0, which was charging for charging.
   [1060, 1157) -> Service a request driving for customer c116 from s0 to s2.
   [1157, 1165) -> It remains parked at station s2.
   [1165, 1248) -> Service a request driving for customer c17 from s2 to s1.
   [1248, 1305) -> It remains parked at station s1.
   [1305, 1373) -> Service a request driving for customer c12 from s1 to s2.
   [1373, tmax) -> It remains parked at station s2.

Schedule for EV v9:
   [   0,  445) -> It remains parked at station s1.
   [ 445,  513) -> Service a request driving for customer c83 from s1 to s2.
   [ 513,  520) -> It remains parked at station s2, which was charging for charging.
   [ 520,  627) -> Service a request driving for customer c119 from s2 to s0.
   [ 627,  650) -> It remains parked at station s0, which was charging for charging.
   [ 650,  690) -> Service a request driving for customer c2 from s0 to s1.
   [ 690,  820) -> It remains parked at station s1, which was charging for charging.
   [ 820,  888) -> Service a request driving for customer c2 from s1 to s2.
   [ 888,  900) -> It remains parked at station s2, which was charging for charging.
   [ 900,  983) -> Service a request driving for customer c43 from s2 to s1.
   [ 983, 1015) -> It remains parked at station s1, which was charging for charging.
   [1015, 1070) -> Service a request driving for customer c1 from s1 to s0.
   [1070, 1095) -> It remains parked at station s0, which was charging for charging.
   [1095, 1135) -> Service a request driving for customer c78 from s0 to s1.
   [1135, 1140) -> It remains parked at station s1, which was charging for charging.
   [1140, 1208) -> Service a request driving for customer c36 from s1 to s2.
   [1208, tmax) -> It remains parked at station s2, which was charging for charging.

Schedule for EV v10:
   [   0,  305) -> It remains parked at station s1.
   [ 305,  383) -> Service a request driving for customer c30 from s1 to s2.
   [ 383,  410) -> It remains parked at station s2.
   [ 410,  507) -> Service a request driving for customer c41 from s2 to s0.
   [ 507,  510) -> It remains parked at station s0, which was charging for charging.
   [ 510,  617) -> Service a request driving for customer c81 from s0 to s2.
   [ 617,  630) -> It remains parked at station s2, which was charging for charging.
   [ 630,  712) -> Service a request driving for customer c68 from s2 to s0.
   [ 712,  960) -> It remains parked at station s0, which was charging for charging.
   [ 960, 1042) -> Service a request driving for customer c0 from s0 to s2.
   [1042, 1070) -> It remains parked at station s2, which was charging for charging.
   [1070, 1172) -> Service a request driving for customer c33 from s2 to s0.
   [1172, 1180) -> It remains parked at station s0.
   [1180, 1277) -> Service a request driving for customer c33 from s0 to s2.
   [1277, tmax) -> It remains parked at station s2, which was charging for charging.

Schedule for EV v11:
   [   0,  400) -> It remains parked at station s1.
   [ 400,  483) -> Service a request driving for customer c74 from s1 to s2.
   [ 483,  495) -> It remains parked at station s2.
   [ 495,  578) -> Service a request driving for customer c74 from s2 to s1.
   [ 578,  595) -> It remains parked at station s1.
   [ 595,  640) -> Service a request driving for customer c62 from s1 to s0.
   [ 640,  660) -> It remains parked at station s0, which was charging for charging.
   [ 660,  752) -> Service a request driving for customer c30 from s0 to s2.
   [ 752,  890) -> It remains parked at station s2, which was charging for charging.
   [ 890,  997) -> Service a request driving for customer c12 from s2 to s0.
   [ 997, 1045) -> It remains parked at station s0, which was charging for charging.
   [1045, 1095) -> Service a request driving for customer c12 from s0 to s1.
   [1095, 1158) -> Service a request driving for customer c80 from s1 to s2.
   [1158, 1165) -> It remains parked at station s2.
   [1165, 1257) -> Service a request driving for customer c81 from s2 to s0.
   [1257, 1290) -> It remains parked at station s0, which was charging for charging.
   [1290, 1372) -> Service a request driving for customer c52 from s0 to s2.
   [1372, tmax) -> It remains parked at station s2, which was charging for charging.

Schedule for EV v12:
   [   0,  460) -> It remains parked at station s2.
   [ 460,  562) -> Service a request driving for customer c28 from s2 to s0.
   [ 562,  570) -> It remains parked at station s0.
   [ 570,  657) -> Service a request driving for customer c86 from s0 to s2.
   [ 657,  790) -> It remains parked at station s2, which was charging for charging.
   [ 790,  873) -> Service a request driving for customer c1 from s2 to s1.
   [ 873, 1025) -> It remains parked at station s1, which was charging for charging.
   [1025, 1065) -> Service a request driving for customer c78 from s1 to s0.
   [1065, 1090) -> It remains parked at station s0, which was charging for charging.
   [1090, 1172) -> Service a request driving for customer c101 from s0 to s2.
   [1172, 1185) -> It remains parked at station s2, which was charging for charging.
   [1185, 1287) -> Service a request driving for customer c2 from s2 to s0.
   [1287, 1315) -> It remains parked at station s0, which was charging for charging.
   [1315, 1417) -> Service a request driving for customer c119 from s0 to s2.
   [1417, tmax) -> It remains parked at station s2.

Schedule for EV v13:
   [   0,  330) -> It remains parked at station s2.
   [ 330,  417) -> Service a request driving for customer c94 from s2 to s0.
   [ 417,  445) -> It remains parked at station s0, which was charging for charging.
   [ 445,  500) -> Service a request driving for customer c54 from s0 to s1.
   [ 500,  535) -> It remains parked at station s1, which was charging for charging.
   [ 535,  598) -> Service a request driving for customer c7 from s1 to s2.
   [ 598,  855) -> It remains parked at station s2, which was charging for charging.
   [ 855,  923) -> Service a request driving for customer c4 from s2 to s1.
   [ 923, 1040) -> It remains parked at station s1, which was charging for charging.
   [1040, 1123) -> Service a request driving for customer c103 from s1 to s2.
   [1123, 1125) -> It remains parked at station s2.
   [1125, 1217) -> Service a request driving for customer c50 from s2 to s0.
   [1217, 1225) -> It remains parked at station s0, which was charging for charging.
   [1225, 1260) -> Service a request driving for customer c46 from s0 to s1.
   [1260, 1315) -> It remains parked at station s1, which was charging for charging.
   [1315, 1393) -> Service a request driving for customer c46 from s1 to s2.
   [1393, tmax) -> It remains parked at station s2.

Schedule for EV v14:
   [   0,  470) -> It remains parked at station s2.
   [ 470,  562) -> Service a request driving for customer c50 from s2 to s0.
   [ 562,  595) -> It remains parked at station s0.
   [ 595,  692) -> Service a request driving for customer c91 from s0 to s2.
   [ 692,  790) -> It remains parked at station s2.
   [ 790,  863) -> Service a request driving for customer c51 from s2 to s1.
   [ 863, 1050) -> It remains parked at station s1, which was charging for charging.
   [1050, 1100) -> Service a request driving for customer c46 from s1 to s0.
   [1100, 1192) -> Service a request driving for customer c13 from s0 to s2.
   [1192, 1195) -> It remains parked at station s2, which was charging for charging.
   [1195, 1258) -> Service a request driving for customer c107 from s2 to s1.
   [1258, 1290) -> It remains parked at station s1.
   [1290, 1325) -> Service a request driving for customer c28 from s1 to s0.
   [1325, 1350) -> It remains parked at station s0, which was charging for charging.
   [1350, 1442) -> Service a request driving for customer c98 from s0 to s2.
   [1442, tmax) -> It remains parked at station s2.

Schedule for EV v15:
   [   0,  435) -> It remains parked at station s2.
   [ 435,  527) -> Service a request driving for customer c30 from s2 to s0.
   [ 527,  535) -> It remains parked at station s0.
   [ 535,  627) -> Service a request driving for customer c18 from s0 to s2.
   [ 627,  700) -> It remains parked at station s2, which was charging for charging.
   [ 700,  783) -> Service a request driving for customer c95 from s2 to s1.
   [ 783, 1025) -> It remains parked at station s1, which was charging for charging.
   [1025, 1080) -> Service a request driving for customer c6 from s1 to s0.
   [1080, 1090) -> It remains parked at station s0.
   [1090, 1145) -> Service a request driving for customer c63 from s0 to s1.
   [1145, 1208) -> Service a request driving for customer c43 from s1 to s2.
   [1208, tmax) -> It remains parked at station s2, which was charging for charging.

Schedule for EV v16:
   [   0,  345) -> It remains parked at station s2.
   [ 345,  427) -> Service a request driving for customer c65 from s2 to s0.
   [ 427,  450) -> It remains parked at station s0, which was charging for charging.
   [ 450,  537) -> Service a request driving for customer c51 from s0 to s2.
   [ 537,  565) -> It remains parked at station s2, which was charging for charging.
   [ 565,  657) -> Service a request driving for customer c78 from s2 to s0.
   [ 657,  850) -> It remains parked at station s0, which was charging for charging.
   [ 850,  942) -> Service a request driving for customer c29 from s0 to s2.
   [ 942,  950) -> It remains parked at station s2.
   [ 950, 1013) -> Service a request driving for customer c32 from s2 to s1.
   [1013, 1055) -> It remains parked at station s1, which was charging for charging.
   [1055, 1105) -> Service a request driving for customer c22 from s1 to s0.
   [1105, 1135) -> It remains parked at station s0, which was charging for charging.
   [1135, 1237) -> Service a request driving for customer c11 from s0 to s2.
   [1237, tmax) -> It remains parked at station s2.

Set of satisfied customers
   {c0, c1, c2, c4, c5, c6, c7, c11, c12, c13, c17, c18, c22, c24, c25, c28, c29, c30, c31, c32, c33, c35, c36, c39, c40, c41, c42, c43, c46, c50, c51, c52, c53, c54, c58, c62, c63, c65, c66, c68, c72, c74, c76, c78, c80, c81, c83, c84, c86, c87, c88, c91, c93, c94, c95, c96, c98, c101, c103, c107, c109, c114, c115, c116, c119}

