Academic license - for non-commercial use only
Gurobi Optimizer version 9.0.3 build v9.0.3rc0 (linux64)
Optimize a model with 98559 rows, 131258 columns and 420079 nonzeros
Model fingerprint: 0xe34690f8
Variable types: 98274 continuous, 32984 integer (32984 binary)
Coefficient statistics:
  Matrix range     [1e+00, 3e+06]
  Objective range  [3e+01, 4e+02]
  Bounds range     [1e+00, 2e+06]
  RHS range        [1e+00, 2e+06]

Loaded user MIP start with objective 6588

Presolve removed 68206 rows and 73002 columns
Presolve time: 1.21s
Presolved: 30353 rows, 58256 columns, 260493 nonzeros
Variable types: 0 continuous, 58256 integer (48019 binary)

Root simplex log...

Iteration    Objective       Primal Inf.    Dual Inf.      Time
   10124    1.8267996e+04   1.197162e+06   0.000000e+00      5s
   12708    1.8267994e+04   1.225299e+06   0.000000e+00     10s
   14508    1.7309995e+04   6.081883e+05   0.000000e+00     15s
   16236    1.7309994e+04   5.819135e+05   0.000000e+00     20s
   17626    1.7309994e+04   9.145830e+05   0.000000e+00     25s
Warning: Markowitz tolerance tightened to 0.03125
   19110    1.7265993e+04   1.950032e+06   0.000000e+00     31s
   20224    1.7265993e+04   7.085286e+05   0.000000e+00     35s
   21444    1.7265992e+04   2.680798e+06   0.000000e+00     40s
   22540    1.7265991e+04   3.495197e+06   0.000000e+00     45s
   23774    1.7265991e+04   1.515323e+06   0.000000e+00     50s
   24856    1.7265990e+04   1.088226e+06   0.000000e+00     55s
   25788    1.7265990e+04   2.161357e+06   0.000000e+00     60s
   26786    1.7265989e+04   1.321941e+06   0.000000e+00     65s
   27788    1.7265989e+04   1.543188e+06   0.000000e+00     70s
   28760    1.7265989e+04   4.202163e+06   0.000000e+00     76s
   29592    1.7265988e+04   1.915259e+05   0.000000e+00     80s
   30528    1.7265988e+04   7.388814e+05   0.000000e+00     85s
   31540    1.7265988e+04   6.480379e+05   0.000000e+00     90s
   32566    1.7265987e+04   9.925005e+05   0.000000e+00     96s
   33290    1.7265987e+04   1.084345e+06   0.000000e+00    100s
   34222    1.7265987e+04   1.317922e+06   0.000000e+00    105s
   35158    1.7265986e+04   1.412974e+06   0.000000e+00    111s
   35990    1.7265986e+04   1.131860e+06   0.000000e+00    115s
   36922    1.7265986e+04   2.862323e+06   0.000000e+00    120s
   37796    1.7265985e+04   8.097064e+05   0.000000e+00    126s
   38628    1.7265985e+04   1.063302e+06   0.000000e+00    130s
   39460    1.7265984e+04   1.037044e+06   0.000000e+00    135s
   40292    1.7265984e+04   1.364850e+06   0.000000e+00    140s
   41310    1.7265984e+04   3.759513e+05   0.000000e+00    146s
   42038    1.7265983e+04   1.145238e+06   0.000000e+00    150s
   42870    1.6854984e+04   2.133500e+06   0.000000e+00    155s
   43806    1.6854984e+04   6.757571e+05   0.000000e+00    161s
   44638    1.6854984e+04   2.877114e+05   0.000000e+00    165s
   45470    1.6794984e+04   1.027417e+06   0.000000e+00    170s
   46450    1.6794983e+04   9.302043e+05   0.000000e+00    176s
   47258    1.6794983e+04   9.232834e+05   0.000000e+00    181s
   47998    1.6794983e+04   4.849616e+05   0.000000e+00    185s
   48848    1.6794982e+04   1.339178e+06   0.000000e+00    190s
   49756    1.6794982e+04   1.145095e+06   0.000000e+00    195s
   50630    1.6794982e+04   3.372637e+06   0.000000e+00    200s
   51560    1.6794981e+04   1.115617e+06   0.000000e+00    206s
   52364    1.6794981e+04   2.165145e+06   0.000000e+00    210s
   53276    1.6794981e+04   1.699147e+06   0.000000e+00    215s
   54196    1.6794980e+04   1.246316e+06   0.000000e+00    220s
   55104    1.6794980e+04   6.210847e+05   0.000000e+00    225s
   56114    1.6794980e+04   2.281700e+06   0.000000e+00    231s
   56914    1.6794979e+04   1.557095e+06   0.000000e+00    235s
   57764    1.6794979e+04   1.082074e+06   0.000000e+00    240s
   58688    1.6794978e+04   1.633227e+06   0.000000e+00    245s
   59504    1.6794978e+04   3.041284e+06   0.000000e+00    250s
   60440    1.6794977e+04   5.136438e+06   0.000000e+00    255s
   61264    1.6794977e+04   7.976551e+05   0.000000e+00    260s
   62196    1.6794976e+04   1.059908e+06   0.000000e+00    265s
   63110    1.6794976e+04   2.896919e+06   0.000000e+00    270s
   64022    1.6794975e+04   6.485170e+05   0.000000e+00    275s
   64958    1.6794975e+04   2.831212e+06   0.000000e+00    280s
   65860    1.6794974e+04   3.289639e+06   0.000000e+00    285s
   66660    1.6794974e+04   2.112740e+06   0.000000e+00    290s
   67584    1.6794974e+04   1.052823e+06   0.000000e+00    295s
   68496    1.6794973e+04   2.413475e+06   0.000000e+00    300s
   69404    1.6794973e+04   1.356682e+06   0.000000e+00    305s
   70320    1.6794972e+04   1.192085e+06   0.000000e+00    310s
   71256    1.6794972e+04   2.658914e+06   0.000000e+00    315s
   72176    1.6794971e+04   1.528570e+06   0.000000e+00    320s
   73100    1.6794971e+04   2.430898e+06   0.000000e+00    325s
   74028    1.6794970e+04   2.738907e+06   0.000000e+00    331s
   74944    1.6794969e+04   4.231005e+06   0.000000e+00    336s
   75776    1.6794969e+04   7.610414e+06   0.000000e+00    340s
   76712    1.6794968e+04   1.496969e+06   0.000000e+00    345s
   77648    1.6794967e+04   5.439282e+06   0.000000e+00    351s
   78472    1.6794967e+04   4.716161e+06   0.000000e+00    355s
   79408    1.6794966e+04   1.494140e+06   0.000000e+00    360s
   80344    1.6794966e+04   1.857801e+06   0.000000e+00    366s
   81172    1.6794965e+04   1.501944e+06   0.000000e+00    370s
   82108    1.6794964e+04   4.732596e+06   0.000000e+00    375s
   82940    1.6794963e+04   5.076259e+06   0.000000e+00    380s
   83876    1.6794962e+04   8.724648e+06   0.000000e+00    385s
   84812    1.6794961e+04   3.804040e+06   0.000000e+00    390s
   85740    1.6627964e+04   2.278237e+06   0.000000e+00    395s
   86676    1.6627963e+04   2.306797e+06   0.000000e+00    400s
   87612    1.6627963e+04   7.768794e+05   0.000000e+00    406s
   88540    1.6552970e+04   3.608177e+06   0.000000e+00    411s
   89452    1.6552969e+04   1.471232e+06   0.000000e+00    415s
   90380    1.6552968e+04   4.024632e+06   0.000000e+00    421s
   91212    1.6552968e+04   2.246149e+06   0.000000e+00    425s
   92136    1.6552967e+04   5.201293e+06   0.000000e+00    430s
   93044    1.6552966e+04   3.043671e+06   0.000000e+00    435s
   94052    1.6552966e+04   1.897072e+06   0.000000e+00    441s
   94880    1.6552965e+04   1.324675e+06   0.000000e+00    445s
   95816    1.6552965e+04   1.489042e+06   0.000000e+00    450s
   96748    1.6552964e+04   5.209005e+05   0.000000e+00    455s
   97676    1.6472965e+04   1.473612e+06   0.000000e+00    461s
   98508    1.6472964e+04   1.149167e+06   0.000000e+00    465s
   99428    1.6472963e+04   2.760232e+06   0.000000e+00    470s
  100344    1.6472963e+04   2.214140e+06   0.000000e+00    475s
  101352    1.6472963e+04   1.788139e+06   0.000000e+00    480s
  102256    1.6472962e+04   2.141484e+06   0.000000e+00    485s
  103184    1.6472962e+04   1.076313e+06   0.000000e+00    490s
  104224    1.6472961e+04   9.990088e+05   0.000000e+00    496s
  105160    1.6472961e+04   1.941852e+06   0.000000e+00    501s
  105992    1.6472960e+04   7.556462e+05   0.000000e+00    505s
  107032    1.6472960e+04   2.867582e+06   0.000000e+00    510s
  107948    1.6472959e+04   2.093770e+06   0.000000e+00    515s
  108884    1.6464965e+04   4.953744e+06   0.000000e+00    520s
  109820    1.6394976e+04   1.927086e+06   0.000000e+00    525s
  110756    1.6338967e+04   1.730307e+06   0.000000e+00    530s
  111692    1.6280964e+04   2.791672e+06   0.000000e+00    535s
  112728    1.6280964e+04   8.747184e+05   0.000000e+00    540s
  113648    1.6280963e+04   2.380078e+06   0.000000e+00    545s
  114656    1.6280963e+04   9.780294e+05   0.000000e+00    550s
  115576    1.6280963e+04   2.232631e+06   0.000000e+00    555s
  116508    1.6280962e+04   6.808995e+06   0.000000e+00    560s
  117432    1.6280961e+04   7.102297e+06   0.000000e+00    565s
  118368    1.6272963e+04   2.056354e+06   0.000000e+00    570s
  119300    1.6257963e+04   8.669421e+05   0.000000e+00    575s
  120236    1.6257962e+04   1.455402e+06   0.000000e+00    580s
  121172    1.6232964e+04   8.454541e+05   0.000000e+00    585s
  122108    1.6232964e+04   7.400269e+05   0.000000e+00    590s
  122940    1.6232964e+04   2.909495e+06   0.000000e+00    595s
  123872    1.6232964e+04   7.978839e+05   0.000000e+00    600s
  124796    1.6232963e+04   1.159168e+06   0.000000e+00    605s
  125836    1.6228962e+04   3.152999e+05   0.000000e+00    610s
  126760    1.6228961e+04   1.207029e+06   0.000000e+00    615s
  127664    1.6228961e+04   5.232218e+05   0.000000e+00    620s
  128576    1.6228961e+04   5.804798e+05   0.000000e+00    625s
  129544    1.6228961e+04   1.141258e+06   0.000000e+00    630s
  130558    1.6228961e+04   5.947882e+05   0.000000e+00    636s
  131486    1.6228960e+04   6.074915e+05   0.000000e+00    640s
  132394    1.6228960e+04   8.491018e+05   0.000000e+00    645s
  133422    1.6228960e+04   2.556723e+05   0.000000e+00    650s
  134334    1.6228960e+04   1.006666e+06   0.000000e+00    655s
  135346    1.6228959e+04   2.885625e+05   0.000000e+00    660s
  136274    1.6221959e+04   1.504862e+06   0.000000e+00    665s
  137190    1.6221959e+04   3.137348e+05   0.000000e+00    670s
  138194    1.6221959e+04   2.854807e+05   0.000000e+00    675s
  139210    1.6221959e+04   5.917472e+05   0.000000e+00    680s
  140138    1.6221958e+04   1.766646e+05   0.000000e+00    685s
  141150    1.6221958e+04   5.763393e+05   0.000000e+00    691s
  142054    1.6221958e+04   3.607957e+05   0.000000e+00    695s
  142958    1.6221958e+04   8.017051e+05   0.000000e+00    700s
  143966    1.6221958e+04   5.980487e+05   0.000000e+00    705s
  144874    1.6221957e+04   1.119137e+06   0.000000e+00    710s
  145782    1.6221957e+04   3.407920e+05   0.000000e+00    715s
  146786    1.6216958e+04   8.149814e+05   0.000000e+00    720s
  147690    1.6213958e+04   1.959150e+05   0.000000e+00    725s
  148698    1.6213958e+04   1.272285e+05   0.000000e+00    730s
  149602    1.6213958e+04   5.218716e+05   0.000000e+00    735s
  150602    1.6213958e+04   9.892232e+05   0.000000e+00    740s
  151506    1.6213958e+04   2.172333e+05   0.000000e+00    745s
  152522    1.6213957e+04   1.398259e+06   0.000000e+00    750s
  153426    1.6163962e+04   3.035800e+05   0.000000e+00    755s
  154342    1.6147962e+04   8.123053e+05   0.000000e+00    760s
  155342    1.6132962e+04   1.555485e+05   0.000000e+00    766s
  156250    1.6132962e+04   3.193782e+05   0.000000e+00    770s
  157266    1.6132962e+04   1.823818e+05   0.000000e+00    776s
  158178    1.6129962e+04   3.242926e+05   0.000000e+00    780s
  159114    1.6121965e+04   3.601471e+05   0.000000e+00    785s
  160150    1.6121964e+04   9.713349e+05   0.000000e+00    790s
  161082    1.6121964e+04   2.455382e+05   0.000000e+00    795s
  162002    1.6120963e+04   1.435341e+05   0.000000e+00    800s
  162938    1.6120963e+04   1.182329e+05   0.000000e+00    805s
  163978    1.6120963e+04   6.836428e+04   0.000000e+00    810s
  164894    1.6120963e+04   1.483632e+05   0.000000e+00    815s
  165902    1.6119961e+04   4.234536e+05   0.000000e+00    820s
  166906    1.6106964e+04   6.068581e+05   0.000000e+00    825s
  167796    1.6106964e+04   3.684743e+05   0.000000e+00    830s
  168808    1.6106964e+04   1.210132e+05   0.000000e+00    835s
  169720    1.6106964e+04   6.272665e+04   0.000000e+00    840s
  170720    1.6106963e+04   1.315972e+05   0.000000e+00    845s
  171620    1.6106963e+04   1.809212e+05   0.000000e+00    850s
  172600    1.6106963e+04   3.732635e+05   0.000000e+00    855s
  173594    1.6106963e+04   2.120201e+05   0.000000e+00    860s
  174494    1.6106963e+04   5.492435e+05   0.000000e+00    865s
  175394    1.6106963e+04   2.246873e+05   0.000000e+00    870s
  176484    1.6106963e+04   3.158590e+04   0.000000e+00    876s
  177384    1.6106963e+04   6.426172e+04   0.000000e+00    880s
  178274    1.6106963e+04   4.596634e+04   0.000000e+00    885s
  179274    1.6106963e+04   1.560924e+04   0.000000e+00    890s
  180274    1.6106963e+04   1.966691e+05   0.000000e+00    895s
  181194    1.6106962e+04   4.561078e+04   0.000000e+00    900s
  182154    1.6106962e+04   2.864406e+04   0.000000e+00    905s
  183148    1.6106962e+04   6.030200e+04   0.000000e+00    910s
  184098    1.6106962e+04   1.338043e+04   0.000000e+00    915s
  185082    1.6106962e+04   4.591455e+04   0.000000e+00    921s
  186066    1.6106962e+04   6.218960e+02   0.000000e+00    926s
  186946    1.6106962e+04   1.156264e+02   0.000000e+00    930s
  187403    1.6107000e+04   0.000000e+00   0.000000e+00    932s
  187403    1.6107000e+04   0.000000e+00   0.000000e+00    933s

Root relaxation: objective 1.610700e+04, 187403 iterations, 931.24 seconds
Total elapsed time = 1255.06s
Total elapsed time = 1522.77s
Total elapsed time = 1630.74s
Total elapsed time = 1729.76s

    Nodes    |    Current Node    |     Objective Bounds      |     Work
 Expl Unexpl |  Obj  Depth IntInf | Incumbent    BestBd   Gap | It/Node Time

     0     0 16107.0000    0 13977 6588.00000 16107.0000   144%     - 1766s
     0     0 16107.0000    0 17070 6588.00000 16107.0000   144%     - 1926s
     0     0 16107.0000    0 16845 6588.00000 16107.0000   144%     - 1990s
     0     0 16107.0000    0 14471 6588.00000 16107.0000   144%     - 2895s
     0     0 16107.0000    0 15374 6588.00000 16107.0000   144%     - 2930s
     0     0 16107.0000    0 14735 6588.00000 16107.0000   144%     - 3417s
     0     0 16107.0000    0 14715 6588.00000 16107.0000   144%     - 3600s

Cutting planes:
  Implied bound: 2537
  MIR: 76
  StrongCG: 24
  RLT: 728
  Relax-and-lift: 183

Explored 1 nodes (983232 simplex iterations) in 3600.02 seconds
Thread count was 1 (of 40 available processors)

Solution count 1: 6588 

Time limit reached
Best objective 6.588000000000e+03, best bound 1.610700000000e+04, gap 144.4900%

----------

Best objective (UB): 16107.000
Best feasible solution (LB): 6588.000
Gap between the lower bound and upper bound: 144.490%

----------

Number of customers served: 50

Schedule for EV v0:
   [   0, 1005) -> It remains parked at station s0.
   [1005, 1116) -> Service a request driving for customer c42 from s0 to s3.
   [1116, 1130) -> It remains parked at station s3.
   [1130, 1228) -> Service a request driving for customer c101 from s3 to s1.
   [1228, 1350) -> It remains parked at station s1.
   [1350, 1448) -> Service a request driving for customer c101 from s1 to s3.
   [1448, tmax) -> It remains parked at station s3.

Schedule for EV v1:
   [   0,  500) -> It remains parked at station s0.
   [ 500,  611) -> Service a request driving for customer c94 from s0 to s3.
   [ 611, 1060) -> It remains parked at station s3, which was charging for charging.
   [1060, 1161) -> Service a request driving for customer c94 from s3 to s2.
   [1161, tmax) -> It remains parked at station s2.

Schedule for EV v2:
   [   0,  450) -> It remains parked at station s0.
   [ 450,  540) -> Service a request driving for customer c71 from s0 to s1.
   [ 540, 1120) -> It remains parked at station s1, which was charging for charging.
   [1120, 1228) -> Service a request driving for customer c71 from s1 to s3.
   [1228, tmax) -> It remains parked at station s3.

Schedule for EV v3:
   [   0,  565) -> It remains parked at station s0.
   [ 565,  659) -> Service a request driving for customer c33 from s0 to s2.
   [ 659, tmax) -> It remains parked at station s2.

Schedule for EV v4:
   [   0,  505) -> It remains parked at station s0.
   [ 505,  599) -> Service a request driving for customer c69 from s0 to s2.
   [ 599, tmax) -> It remains parked at station s2, which was charging for charging.

Schedule for EV v5:
   [   0,  470) -> It remains parked at station s0.
   [ 470,  550) -> Service a request driving for customer c46 from s0 to s1.
   [ 550, tmax) -> It remains parked at station s1, which was charging for charging.

Schedule for EV v6:
   [   0,  425) -> It remains parked at station s0.
   [ 425,  505) -> Service a request driving for customer c102 from s0 to s1.
   [ 505, tmax) -> It remains parked at station s1, which was charging for charging.

Schedule for EV v7:
   [   0,  315) -> It remains parked at station s0.
   [ 315,  404) -> Service a request driving for customer c30 from s0 to s2.
   [ 404, 1010) -> It remains parked at station s2, which was charging for charging.
   [1010, 1059) -> Service a request driving for customer c30 from s2 to s1.
   [1059, tmax) -> It remains parked at station s1.

Schedule for EV v8:
   [   0,  730) -> It remains parked at station s0.
   [ 730,  814) -> Service a request driving for customer c79 from s0 to s2.
   [ 814, 1130) -> It remains parked at station s2.
   [1130, 1179) -> Service a request driving for customer c79 from s2 to s1.
   [1179, tmax) -> It remains parked at station s1.

Schedule for EV v9:
   [   0,  795) -> It remains parked at station s0.
   [ 795,  864) -> Service a request driving for customer c36 from s0 to s2.
   [ 864, 1090) -> It remains parked at station s2.
   [1090, 1139) -> Service a request driving for customer c36 from s2 to s1.
   [1139, tmax) -> It remains parked at station s1.

Schedule for EV v10:
   [   0, tmax) -> It remains parked at station s0, which was charging for charging.

Schedule for EV v11:
   [   0,  475) -> It remains parked at station s1.
   [ 475,  593) -> Service a request driving for customer c104 from s1 to s3.
   [ 593,  805) -> It remains parked at station s3.
   [ 805,  908) -> Service a request driving for customer c105 from s3 to s1.
   [ 908, 1040) -> It remains parked at station s1, which was charging for charging.
   [1040, 1143) -> Service a request driving for customer c105 from s1 to s3.
   [1143, tmax) -> It remains parked at station s3.

Schedule for EV v12:
   [   0,  720) -> It remains parked at station s1.
   [ 720,  843) -> Service a request driving for customer c45 from s1 to s3.
   [ 843, 1185) -> It remains parked at station s3, which was charging for charging.
   [1185, 1291) -> Service a request driving for customer c45 from s3 to s0.
   [1291, tmax) -> It remains parked at station s0, which was charging for charging.

Schedule for EV v13:
   [   0, 1095) -> It remains parked at station s1.
   [1095, 1208) -> Service a request driving for customer c6 from s1 to s3.
   [1208, tmax) -> It remains parked at station s3, which was charging for charging.

Schedule for EV v14:
   [   0,  575) -> It remains parked at station s1.
   [ 575,  693) -> Service a request driving for customer c3 from s1 to s3.
   [ 693,  975) -> It remains parked at station s3, which was charging for charging.
   [ 975, 1098) -> Service a request driving for customer c3 from s3 to s1.
   [1098, 1225) -> It remains parked at station s1.
   [1225, 1320) -> Service a request driving for customer c3 from s1 to s0.
   [1320, tmax) -> It remains parked at station s0, which was charging for charging.

Schedule for EV v15:
   [   0,  650) -> It remains parked at station s1.
   [ 650,  768) -> Service a request driving for customer c47 from s1 to s3.
   [ 768, 1260) -> It remains parked at station s3, which was charging for charging.
   [1260, 1366) -> Service a request driving for customer c47 from s3 to s0.
   [1366, tmax) -> It remains parked at station s0, which was charging for charging.

Schedule for EV v16:
   [   0,  505) -> It remains parked at station s1.
   [ 505,  613) -> Service a request driving for customer c52 from s1 to s3.
   [ 613,  885) -> It remains parked at station s3.
   [ 885,  983) -> Service a request driving for customer c0 from s3 to s1.
   [ 983, 1135) -> It remains parked at station s1.
   [1135, 1248) -> Service a request driving for customer c0 from s1 to s3.
   [1248, tmax) -> It remains parked at station s3.

Schedule for EV v17:
   [   0,  410) -> It remains parked at station s1.
   [ 410,  518) -> Service a request driving for customer c80 from s1 to s3.
   [ 518,  570) -> It remains parked at station s3, which was charging for charging.
   [ 570,  681) -> Service a request driving for customer c80 from s3 to s0.
   [ 681,  985) -> It remains parked at station s0, which was charging for charging.
   [ 985, 1086) -> Service a request driving for customer c80 from s0 to s3.
   [1086, tmax) -> It remains parked at station s3, which was charging for charging.

Schedule for EV v18:
   [   0,  585) -> It remains parked at station s1.
   [ 585,  670) -> Service a request driving for customer c18 from s1 to s0.
   [ 670, 1040) -> It remains parked at station s0.
   [1040, 1151) -> Service a request driving for customer c18 from s0 to s3.
   [1151, tmax) -> It remains parked at station s3, which was charging for charging.

Schedule for EV v19:
   [   0,  500) -> It remains parked at station s1, which was charging for charging.
   [ 500,  549) -> Service a request driving for customer c82 from s1 to s2.
   [ 549, 1045) -> It remains parked at station s2.
   [1045, 1089) -> Service a request driving for customer c75 from s2 to s1.
   [1089, tmax) -> It remains parked at station s1, which was charging for charging.

Schedule for EV v20:
   [   0,  550) -> It remains parked at station s1, which was charging for charging.
   [ 550,  599) -> Service a request driving for customer c106 from s1 to s2.
   [ 599, tmax) -> It remains parked at station s2, which was charging for charging.

Schedule for EV v21:
   [   0,  475) -> It remains parked at station s1, which was charging for charging.
   [ 475,  519) -> Service a request driving for customer c34 from s1 to s2.
   [ 519, tmax) -> It remains parked at station s2, which was charging for charging.

Schedule for EV v22:
   [   0,  670) -> It remains parked at station s1, which was charging for charging.
   [ 670,  714) -> Service a request driving for customer c87 from s1 to s2.
   [ 714, 1335) -> It remains parked at station s2, which was charging for charging.
   [1335, 1379) -> Service a request driving for customer c87 from s2 to s1.
   [1379, tmax) -> It remains parked at station s1.

Schedule for EV v23:
   [   0, 1025) -> It remains parked at station s2.
   [1025, 1116) -> Service a request driving for customer c85 from s2 to s3.
   [1116, 1185) -> It remains parked at station s3.
   [1185, 1296) -> Service a request driving for customer c85 from s3 to s0.
   [1296, tmax) -> It remains parked at station s0.

Schedule for EV v24:
   [   0,  980) -> It remains parked at station s2.
   [ 980, 1081) -> Service a request driving for customer c115 from s2 to s3.
   [1081, tmax) -> It remains parked at station s3.

Schedule for EV v25:
   [   0,  840) -> It remains parked at station s2.
   [ 840,  934) -> Service a request driving for customer c44 from s2 to s0.
   [ 934, 1120) -> It remains parked at station s0.
   [1120, 1214) -> Service a request driving for customer c14 from s0 to s2.
   [1214, 1255) -> It remains parked at station s2.
   [1255, 1336) -> Service a request driving for customer c14 from s2 to s3.
   [1336, tmax) -> It remains parked at station s3, which was charging for charging.

Schedule for EV v26:
   [   0,  490) -> It remains parked at station s2.
   [ 490,  579) -> Service a request driving for customer c37 from s2 to s0.
   [ 579,  595) -> It remains parked at station s0.
   [ 595,  685) -> Service a request driving for customer c61 from s0 to s1.
   [ 685, 1020) -> It remains parked at station s1.
   [1020, 1105) -> Service a request driving for customer c61 from s1 to s0.
   [1105, tmax) -> It remains parked at station s0.

Schedule for EV v27:
   [   0,  555) -> It remains parked at station s2.
   [ 555,  639) -> Service a request driving for customer c24 from s2 to s0.
   [ 639, 1025) -> It remains parked at station s0.
   [1025, 1109) -> Service a request driving for customer c64 from s0 to s2.
   [1109, 1135) -> It remains parked at station s2.
   [1135, 1179) -> Service a request driving for customer c43 from s2 to s1.
   [1179, tmax) -> It remains parked at station s1, which was charging for charging.

Schedule for EV v28:
   [   0,  930) -> It remains parked at station s2.
   [ 930, 1014) -> Service a request driving for customer c98 from s2 to s0.
   [1014, tmax) -> It remains parked at station s0, which was charging for charging.

Schedule for EV v29:
   [   0, 1005) -> It remains parked at station s2.
   [1005, 1084) -> Service a request driving for customer c62 from s2 to s0.
   [1084, tmax) -> It remains parked at station s0.

Schedule for EV v30:
   [   0,  495) -> It remains parked at station s2.
   [ 495,  569) -> Service a request driving for customer c13 from s2 to s0.
   [ 569, 1080) -> It remains parked at station s0.
   [1080, 1149) -> Service a request driving for customer c12 from s0 to s2.
   [1149, 1295) -> It remains parked at station s2.
   [1295, 1369) -> Service a request driving for customer c12 from s2 to s0.
   [1369, tmax) -> It remains parked at station s0.

Schedule for EV v31:
   [   0,  950) -> It remains parked at station s2.
   [ 950, 1024) -> Service a request driving for customer c111 from s2 to s0.
   [1024, tmax) -> It remains parked at station s0.

Schedule for EV v32:
   [   0,  570) -> It remains parked at station s2.
   [ 570,  609) -> Service a request driving for customer c81 from s2 to s1.
   [ 609, tmax) -> It remains parked at station s1, which was charging for charging.

Schedule for EV v33:
   [   0, 1015) -> It remains parked at station s3.
   [1015, 1128) -> Service a request driving for customer c68 from s3 to s1.
   [1128, 1195) -> It remains parked at station s1.
   [1195, 1249) -> Service a request driving for customer c96 from s1 to s2.
   [1249, tmax) -> It remains parked at station s2.

Schedule for EV v34:
   [   0,  640) -> It remains parked at station s3.
   [ 640,  743) -> Service a request driving for customer c78 from s3 to s1.
   [ 743,  995) -> It remains parked at station s1.
   [ 995, 1113) -> Service a request driving for customer c78 from s1 to s3.
   [1113, 1350) -> It remains parked at station s3.
   [1350, 1436) -> Service a request driving for customer c23 from s3 to s0.
   [1436, tmax) -> It remains parked at station s0.

Schedule for EV v35:
   [   0,  300) -> It remains parked at station s3.
   [ 300,  398) -> Service a request driving for customer c63 from s3 to s1.
   [ 398,  700) -> It remains parked at station s1, which was charging for charging.
   [ 700,  808) -> Service a request driving for customer c63 from s1 to s3.
   [ 808, 1095) -> It remains parked at station s3.
   [1095, 1218) -> Service a request driving for customer c63 from s3 to s1.
   [1218, 1255) -> It remains parked at station s1.
   [1255, 1299) -> Service a request driving for customer c110 from s1 to s2.
   [1299, tmax) -> It remains parked at station s2.

Schedule for EV v36:
   [   0,  575) -> It remains parked at station s3.
   [ 575,  683) -> Service a request driving for customer c20 from s3 to s1.
   [ 683, tmax) -> It remains parked at station s1.

Schedule for EV v37:
   [   0,  835) -> It remains parked at station s3.
   [ 835,  948) -> Service a request driving for customer c88 from s3 to s1.
   [ 948, 1010) -> It remains parked at station s1.
   [1010, 1105) -> Service a request driving for customer c88 from s1 to s0.
   [1105, 1130) -> It remains parked at station s0.
   [1130, 1225) -> Service a request driving for customer c49 from s0 to s1.
   [1225, tmax) -> It remains parked at station s1.

Set of satisfied customers
   {c0, c3, c6, c12, c13, c14, c18, c20, c23, c24, c30, c33, c34, c36, c37, c42, c43, c44, c45, c46, c47, c49, c52, c61, c62, c63, c64, c68, c69, c71, c75, c78, c79, c80, c81, c82, c85, c87, c88, c94, c96, c98, c101, c102, c104, c105, c106, c110, c111, c115}

