Academic license - for non-commercial use only
Gurobi Optimizer version 9.0.3 build v9.0.3rc0 (linux64)
Optimize a model with 24760 rows, 16632 columns and 153343 nonzeros
Model fingerprint: 0x383c35ef
Variable types: 8540 continuous, 8092 integer (8092 binary)
Coefficient statistics:
  Matrix range     [1e+00, 6e+06]
  Objective range  [3e+01, 4e+02]
  Bounds range     [1e+00, 2e+06]
  RHS range        [1e+00, 2e+06]

Loaded user MIP start with objective 6180

Presolve removed 14968 rows and 6940 columns
Presolve time: 0.28s
Presolved: 9792 rows, 9692 columns, 73886 nonzeros
Variable types: 262 continuous, 9430 integer (6839 binary)

Root simplex log...

Iteration    Objective       Primal Inf.    Dual Inf.      Time
   13914    1.9199944e+04   3.244134e+05   0.000000e+00      5s
   20628    1.3439940e+04   1.403603e+05   0.000000e+00     10s
   27942    1.2329929e+04   1.832708e+05   0.000000e+00     15s
   34735    1.2209864e+04   8.592125e+04   0.000000e+00     20s
   36280    1.2210000e+04   0.000000e+00   0.000000e+00     21s

Root relaxation: objective 1.221000e+04, 36280 iterations, 20.88 seconds
Total elapsed time = 25.11s

    Nodes    |    Current Node    |     Objective Bounds      |     Work
 Expl Unexpl |  Obj  Depth IntInf | Incumbent    BestBd   Gap | It/Node Time

     0     0 12210.0000    0 3085 6180.00000 12210.0000  97.6%     -   26s
H    0     0                    9780.0000000 12210.0000  24.8%     -   26s
     0     0 12210.0000    0 3140 9780.00000 12210.0000  24.8%     -   30s
H    0     0                    11280.000000 12210.0000  8.24%     -   30s
     0     0 12210.0000    0 3137 11280.0000 12210.0000  8.24%     -   30s
     0     0 12210.0000    0 2911 11280.0000 12210.0000  8.24%     -   37s
     0     0 12210.0000    0 2887 11280.0000 12210.0000  8.24%     -   37s
     0     0 12210.0000    0 2907 11280.0000 12210.0000  8.24%     -   44s
H    0     0                    11490.000000 12210.0000  6.27%     -   44s
     0     0 12210.0000    0 2902 11490.0000 12210.0000  6.27%     -   45s
     0     0 12210.0000    0 2796 11490.0000 12210.0000  6.27%     -   49s
     0     0 12210.0000    0 2850 11490.0000 12210.0000  6.27%     -   50s
     0     0 12210.0000    0 2609 11490.0000 12210.0000  6.27%     -   54s
     0     0 12210.0000    0 2602 11490.0000 12210.0000  6.27%     -   54s
     0     0 12210.0000    0 2387 11490.0000 12210.0000  6.27%     -   56s
     0     0 12210.0000    0 2377 11490.0000 12210.0000  6.27%     -   58s
H    0     0                    11850.000000 12210.0000  3.04%     -   59s
H    0     0                    12210.000000 12210.0000  0.00%     -   60s
     0     0 12210.0000    0 2377 12210.0000 12210.0000  0.00%     -   60s

Cutting planes:
  Implied bound: 82
  MIR: 2
  RLT: 5

Explored 1 nodes (103805 simplex iterations) in 60.07 seconds
Thread count was 1 (of 40 available processors)

Solution count 6: 12210 11850 11490 ... 6180

Optimal solution found (tolerance 1.00e-04)
Best objective 1.221000000000e+04, best bound 1.221000000000e+04, gap 0.0000%

----------

Best objective (UB): 12210.000
Best feasible solution (LB): 12210.000
Gap between the lower bound and upper bound: 0.000%

----------

Number of customers served: 88

Schedule for EV v0:
   [   0,  427) -> It remains parked at station s0, which was charging for charging.
   [ 427,  517) -> Service a request driving for customer c19 from s0 to s4.
   [ 517,  549) -> It remains parked at station s4, which was charging for charging.
   [ 549,  639) -> Service a request driving for customer c196 from s4 to s5.
   [ 639,  671) -> It remains parked at station s5, which was charging for charging.
   [ 671,  701) -> Service a request driving for customer c237 from s5 to s9.
   [ 701,  729) -> It remains parked at station s9, which was charging for charging.
   [ 729,  969) -> Service a request driving for customer c145 from s9 to s6.
   [ 969, 1026) -> It remains parked at station s6, which was charging for charging.
   [1026, 1116) -> Service a request driving for customer c209 from s6 to s0.
   [1116, 1145) -> It remains parked at station s0, which was charging for charging.
   [1145, 1175) -> Service a request driving for customer c68 from s0 to s11.
   [1175, 1270) -> It remains parked at station s11, which was charging for charging.
   [1270, 1510) -> Service a request driving for customer c224 from s11 to s10.
   [1510, tmax) -> It remains parked at station s10, which was charging for charging.

Schedule for EV v1:
   [   0,  369) -> It remains parked at station s0, which was charging for charging.
   [ 369,  399) -> Service a request driving for customer c152 from s0 to s8.
   [ 399,  494) -> It remains parked at station s8, which was charging for charging.
   [ 494,  824) -> Service a request driving for customer c187 from s8 to s4.
   [ 824,  850) -> It remains parked at station s4, which was charging for charging.
   [ 850,  910) -> Service a request driving for customer c169 from s4 to s3.
   [ 910,  968) -> It remains parked at station s3, which was charging for charging.
   [ 968, 1058) -> Service a request driving for customer c5 from s3 to s3.
   [1058, 1094) -> It remains parked at station s3, which was charging for charging.
   [1094, 1154) -> Service a request driving for customer c31 from s3 to s4.
   [1154, 1184) -> Service a request driving for customer c59 from s4 to s11.
   [1184, 1208) -> It remains parked at station s11, which was charging for charging.
   [1208, 1478) -> Service a request driving for customer c48 from s11 to s6.
   [1478, tmax) -> It remains parked at station s6, which was charging for charging.

Schedule for EV v2:
   [   0,  545) -> It remains parked at station s1, which was charging for charging.
   [ 545,  605) -> Service a request driving for customer c179 from s1 to s7.
   [ 605,  674) -> It remains parked at station s7, which was charging for charging.
   [ 674,  734) -> Service a request driving for customer c60 from s7 to s11.
   [ 734,  787) -> It remains parked at station s11, which was charging for charging.
   [ 787,  847) -> Service a request driving for customer c50 from s11 to s0.
   [ 847,  850) -> It remains parked at station s0, which was charging for charging.
   [ 850, 1060) -> Service a request driving for customer c194 from s0 to s1.
   [1060, 1090) -> It remains parked at station s1, which was charging for charging.
   [1090, 1120) -> Service a request driving for customer c242 from s1 to s7.
   [1120, 1156) -> It remains parked at station s7, which was charging for charging.
   [1156, 1486) -> Service a request driving for customer c136 from s7 to s6.
   [1486, tmax) -> It remains parked at station s6, which was charging for charging.

Schedule for EV v3:
   [   0,  425) -> It remains parked at station s2, which was charging for charging.
   [ 425,  485) -> Service a request driving for customer c7 from s2 to s3.
   [ 485,  490) -> It remains parked at station s3, which was charging for charging.
   [ 490,  820) -> Service a request driving for customer c233 from s3 to s3.
   [ 820,  910) -> It remains parked at station s3, which was charging for charging.
   [ 910,  940) -> Service a request driving for customer c144 from s3 to s9.
   [ 940, 1026) -> It remains parked at station s9, which was charging for charging.
   [1026, 1326) -> Service a request driving for customer c85 from s9 to s6.
   [1326, 1333) -> It remains parked at station s6, which was charging for charging.
   [1333, 1633) -> Service a request driving for customer c76 from s6 to s3.
   [1633, tmax) -> It remains parked at station s3, which was charging for charging.

Schedule for EV v4:
   [   0,  426) -> It remains parked at station s4, which was charging for charging.
   [ 426,  456) -> Service a request driving for customer c246 from s4 to s11.
   [ 456,  494) -> It remains parked at station s11, which was charging for charging.
   [ 494,  614) -> Service a request driving for customer c128 from s11 to s3.
   [ 614,  730) -> It remains parked at station s3, which was charging for charging.
   [ 730,  760) -> Service a request driving for customer c123 from s3 to s3.
   [ 760,  785) -> It remains parked at station s3, which was charging for charging.
   [ 785,  845) -> Service a request driving for customer c54 from s3 to s9.
   [ 845,  851) -> It remains parked at station s9, which was charging for charging.
   [ 851, 1091) -> Service a request driving for customer c217 from s9 to s5.
   [1091, 1146) -> It remains parked at station s5, which was charging for charging.
   [1146, 1266) -> Service a request driving for customer c222 from s5 to s9.
   [1266, 1272) -> It remains parked at station s9, which was charging for charging.
   [1272, 1572) -> Service a request driving for customer c149 from s9 to s1.
   [1572, tmax) -> It remains parked at station s1, which was charging for charging.

Schedule for EV v5:
   [   0,  550) -> It remains parked at station s4, which was charging for charging.
   [ 550,  700) -> Service a request driving for customer c115 from s4 to s4.
   [ 700,  725) -> It remains parked at station s4, which was charging for charging.
   [ 725,  755) -> Service a request driving for customer c245 from s4 to s0.
   [ 755,  788) -> It remains parked at station s0, which was charging for charging.
   [ 788, 1028) -> Service a request driving for customer c12 from s0 to s5.
   [1028, 1089) -> It remains parked at station s5, which was charging for charging.
   [1089, 1359) -> Service a request driving for customer c159 from s5 to s3.
   [1359, tmax) -> It remains parked at station s3, which was charging for charging.

Schedule for EV v6:
   [   0,  427) -> It remains parked at station s4, which was charging for charging.
   [ 427,  517) -> Service a request driving for customer c184 from s4 to s3.
   [ 517,  554) -> It remains parked at station s3, which was charging for charging.
   [ 554,  584) -> Service a request driving for customer c58 from s3 to s4.
   [ 584,  673) -> It remains parked at station s4, which was charging for charging.
   [ 673,  913) -> Service a request driving for customer c109 from s4 to s0.
   [ 913,  967) -> It remains parked at station s0, which was charging for charging.
   [ 967, 1027) -> Service a request driving for customer c240 from s0 to s8.
   [1027, 1030) -> It remains parked at station s8, which was charging for charging.
   [1030, 1090) -> Service a request driving for customer c114 from s8 to s1.
   [1090, 1096) -> It remains parked at station s1, which was charging for charging.
   [1096, 1306) -> Service a request driving for customer c1 from s1 to s0.
   [1306, 1336) -> It remains parked at station s0, which was charging for charging.
   [1336, 1456) -> Service a request driving for customer c138 from s0 to s9.
   [1456, tmax) -> It remains parked at station s9, which was charging for charging.

Schedule for EV v7:
   [   0,  605) -> It remains parked at station s5, which was charging for charging.
   [ 605,  875) -> Service a request driving for customer c38 from s5 to s5.
   [ 875,  909) -> It remains parked at station s5, which was charging for charging.
   [ 909, 1119) -> Service a request driving for customer c22 from s5 to s6.
   [1119, 1147) -> It remains parked at station s6, which was charging for charging.
   [1147, 1177) -> Service a request driving for customer c46 from s6 to s1.
   [1177, 1207) -> It remains parked at station s1, which was charging for charging.
   [1207, 1477) -> Service a request driving for customer c117 from s1 to s6.
   [1477, tmax) -> It remains parked at station s6, which was charging for charging.

Schedule for EV v8:
   [   0,  550) -> It remains parked at station s5, which was charging for charging.
   [ 550,  760) -> Service a request driving for customer c39 from s5 to s1.
   [ 760,  849) -> It remains parked at station s1, which was charging for charging.
   [ 849,  879) -> Service a request driving for customer c78 from s1 to s5.
   [ 879,  967) -> It remains parked at station s5, which was charging for charging.
   [ 967, 1027) -> Service a request driving for customer c225 from s5 to s1.
   [1027, 1028) -> It remains parked at station s1, which was charging for charging.
   [1028, 1148) -> Service a request driving for customer c228 from s1 to s3.
   [1148, 1154) -> It remains parked at station s3, which was charging for charging.
   [1154, 1184) -> Service a request driving for customer c175 from s3 to s7.
   [1184, 1212) -> It remains parked at station s7, which was charging for charging.
   [1212, 1452) -> Service a request driving for customer c200 from s7 to s0.
   [1452, tmax) -> It remains parked at station s0, which was charging for charging.

Schedule for EV v9:
   [   0,  727) -> It remains parked at station s5, which was charging for charging.
   [ 727,  967) -> Service a request driving for customer c205 from s5 to s4.
   [ 967,  971) -> It remains parked at station s4, which was charging for charging.
   [ 971, 1091) -> Service a request driving for customer c148 from s4 to s11.
   [1091, 1094) -> It remains parked at station s11, which was charging for charging.
   [1094, 1184) -> Service a request driving for customer c111 from s11 to s4.
   [1184, 1206) -> It remains parked at station s4, which was charging for charging.
   [1206, 1386) -> Service a request driving for customer c197 from s4 to s9.
   [1386, tmax) -> It remains parked at station s9, which was charging for charging.

Schedule for EV v10:
   [   0,  433) -> It remains parked at station s6, which was charging for charging.
   [ 433,  493) -> Service a request driving for customer c183 from s6 to s9.
   [ 493,  545) -> It remains parked at station s9, which was charging for charging.
   [ 545,  605) -> Service a request driving for customer c164 from s9 to s2.
   [ 605,  785) -> Service a request driving for customer c186 from s2 to s3.
   [ 785,  791) -> It remains parked at station s3, which was charging for charging.
   [ 791,  911) -> Service a request driving for customer c64 from s3 to s11.
   [ 911,  913) -> It remains parked at station s11, which was charging for charging.
   [ 913, 1183) -> Service a request driving for customer c238 from s11 to s5.
   [1183, 1206) -> It remains parked at station s5, which was charging for charging.
   [1206, 1476) -> Service a request driving for customer c218 from s5 to s11.
   [1476, tmax) -> It remains parked at station s11, which was charging for charging.

Schedule for EV v11:
   [   0,  490) -> It remains parked at station s7, which was charging for charging.
   [ 490,  520) -> Service a request driving for customer c170 from s7 to s4.
   [ 520,  546) -> It remains parked at station s4, which was charging for charging.
   [ 546,  756) -> Service a request driving for customer c74 from s4 to s7.
   [ 756,  788) -> It remains parked at station s7, which was charging for charging.
   [ 788,  818) -> Service a request driving for customer c189 from s7 to s4.
   [ 818,  853) -> It remains parked at station s4, which was charging for charging.
   [ 853,  883) -> Service a request driving for customer c9 from s4 to s8.
   [ 883,  916) -> It remains parked at station s8, which was charging for charging.
   [ 916, 1036) -> Service a request driving for customer c88 from s8 to s6.
   [1036, 1096) -> It remains parked at station s6, which was charging for charging.
   [1096, 1306) -> Service a request driving for customer c10 from s6 to s4.
   [1306, 1332) -> It remains parked at station s4, which was charging for charging.
   [1332, 1392) -> Service a request driving for customer c163 from s4 to s0.
   [1392, tmax) -> It remains parked at station s0, which was charging for charging.

Schedule for EV v12:
   [   0,  427) -> It remains parked at station s10, which was charging for charging.
   [ 427,  487) -> Service a request driving for customer c40 from s10 to s0.
   [ 487,  488) -> It remains parked at station s0, which was charging for charging.
   [ 488,  548) -> Service a request driving for customer c188 from s0 to s1.
   [ 548,  615) -> It remains parked at station s1, which was charging for charging.
   [ 615,  855) -> Service a request driving for customer c3 from s1 to s3.
   [ 855,  915) -> It remains parked at station s3, which was charging for charging.
   [ 915, 1095) -> Service a request driving for customer c199 from s3 to s11.
   [1095, 1156) -> It remains parked at station s11, which was charging for charging.
   [1156, 1366) -> Service a request driving for customer c102 from s11 to s5.
   [1366, 1391) -> It remains parked at station s5, which was charging for charging.
   [1391, 1601) -> Service a request driving for customer c103 from s5 to s1.
   [1601, tmax) -> It remains parked at station s1, which was charging for charging.

Schedule for EV v13:
   [   0,  668) -> It remains parked at station s11, which was charging for charging.
   [ 668,  728) -> Service a request driving for customer c79 from s11 to s0.
   [ 728,  729) -> It remains parked at station s0, which was charging for charging.
   [ 729, 1089) -> Service a request driving for customer c221 from s0 to s7.
   [1089, 1145) -> It remains parked at station s7, which was charging for charging.
   [1145, 1295) -> Service a request driving for customer c57 from s7 to s6.
   [1295, 1330) -> It remains parked at station s6, which was charging for charging.
   [1330, 1360) -> Service a request driving for customer c158 from s6 to s0.
   [1360, 1386) -> It remains parked at station s0, which was charging for charging.
   [1386, 1536) -> Service a request driving for customer c81 from s0 to s2.
   [1536, tmax) -> It remains parked at station s2, which was charging for charging.

Schedule for EV v14:
   [   0,  486) -> It remains parked at station s11, which was charging for charging.
   [ 486,  546) -> Service a request driving for customer c208 from s11 to s0.
   [ 546,  548) -> It remains parked at station s0, which was charging for charging.
   [ 548,  758) -> Service a request driving for customer c203 from s0 to s8.
   [ 758,  796) -> It remains parked at station s8, which was charging for charging.
   [ 796,  826) -> Service a request driving for customer c84 from s8 to s1.
   [ 826,  845) -> It remains parked at station s1, which was charging for charging.
   [ 845,  965) -> Service a request driving for customer c105 from s1 to s3.
   [ 965,  966) -> It remains parked at station s3, which was charging for charging.
   [ 966, 1026) -> Service a request driving for customer c125 from s3 to s6.
   [1026, 1027) -> It remains parked at station s6, which was charging for charging.
   [1027, 1177) -> Service a request driving for customer c171 from s6 to s8.
   [1177, 1211) -> It remains parked at station s8, which was charging for charging.
   [1211, 1481) -> Service a request driving for customer c124 from s8 to s4.
   [1481, tmax) -> It remains parked at station s4, which was charging for charging.

Set of satisfied customers
   {c1, c3, c5, c7, c9, c10, c12, c19, c22, c31, c38, c39, c40, c46, c48, c50, c54, c57, c58, c59, c60, c64, c68, c74, c76, c78, c79, c81, c84, c85, c88, c102, c103, c105, c109, c111, c114, c115, c117, c123, c124, c125, c128, c136, c138, c144, c145, c148, c149, c152, c158, c159, c163, c164, c169, c170, c171, c175, c179, c183, c184, c186, c187, c188, c189, c194, c196, c197, c199, c200, c203, c205, c208, c209, c217, c218, c221, c222, c224, c225, c228, c233, c237, c238, c240, c242, c245, c246}

