Academic license - for non-commercial use only
Gurobi Optimizer version 9.0.3 build v9.0.3rc0 (linux64)
Optimize a model with 22808 rows, 15273 columns and 140689 nonzeros
Model fingerprint: 0xd15b456a
Variable types: 7943 continuous, 7330 integer (7330 binary)
Coefficient statistics:
  Matrix range     [1e+00, 6e+06]
  Objective range  [3e+01, 4e+02]
  Bounds range     [1e+00, 2e+06]
  RHS range        [1e+00, 2e+06]

Loaded user MIP start with objective 5520

Presolve removed 13569 rows and 6241 columns
Presolve time: 0.27s
Presolved: 9239 rows, 9032 columns, 67939 nonzeros
Variable types: 477 continuous, 8555 integer (6330 binary)

Root simplex log...

Iteration    Objective       Primal Inf.    Dual Inf.      Time
   14014    1.8719882e+04   8.702590e+06   0.000000e+00      5s
   22469    1.1909932e+04   2.033169e+05   0.000000e+00     10s
   30492    1.1369863e+04   1.990658e+05   0.000000e+00     15s
   33143    1.1370000e+04   0.000000e+00   0.000000e+00     17s

Root relaxation: objective 1.137000e+04, 33143 iterations, 16.48 seconds
Total elapsed time = 20.13s

    Nodes    |    Current Node    |     Objective Bounds      |     Work
 Expl Unexpl |  Obj  Depth IntInf | Incumbent    BestBd   Gap | It/Node Time

     0     0 11370.0000    0 2197 5520.00000 11370.0000   106%     -   21s
H    0     0                    10410.000000 11370.0000  9.22%     -   21s
     0     0 11370.0000    0 2326 10410.0000 11370.0000  9.22%     -   23s
     0     0 11370.0000    0 2321 10410.0000 11370.0000  9.22%     -   24s
     0     0 11370.0000    0 1975 10410.0000 11370.0000  9.22%     -   28s
H    0     0                    10590.000000 11370.0000  7.37%     -   28s
     0     0 11370.0000    0 1956 10590.0000 11370.0000  7.37%     -   29s
     0     0 11370.0000    0 2058 10590.0000 11370.0000  7.37%     -   31s
     0     0 11370.0000    0 2037 10590.0000 11370.0000  7.37%     -   31s
     0     0 11370.0000    0 1970 10590.0000 11370.0000  7.37%     -   33s
     0     0 11370.0000    0 1965 10590.0000 11370.0000  7.37%     -   33s
     0     0 11370.0000    0 1963 10590.0000 11370.0000  7.37%     -   36s
     0     0 11370.0000    0 1962 10590.0000 11370.0000  7.37%     -   39s
H    0     0                    10770.000000 11370.0000  5.57%     -   39s
H    0     0                    11040.000000 11370.0000  2.99%     -   40s
H    0     0                    11220.000000 11370.0000  1.34%     -   40s
H    0     0                    11370.000000 11370.0000  0.00%     -   40s
     0     0 11370.0000    0 1962 11370.0000 11370.0000  0.00%     -   40s

Cutting planes:
  Implied bound: 186
  MIR: 3
  RLT: 7
  Relax-and-lift: 7

Explored 1 nodes (74780 simplex iterations) in 40.65 seconds
Thread count was 1 (of 40 available processors)

Solution count 7: 11370 11220 11040 ... 5520

Optimal solution found (tolerance 1.00e-04)
Best objective 1.137000000000e+04, best bound 1.137000000000e+04, gap 0.0000%

----------

Best objective (UB): 11370.000
Best feasible solution (LB): 11370.000
Gap between the lower bound and upper bound: 0.000%

----------

Number of customers served: 80

Schedule for EV v0:
   [   0,  427) -> It remains parked at station s0, which was charging for charging.
   [ 427,  697) -> Service a request driving for customer c213 from s0 to s8.
   [ 697,  794) -> It remains parked at station s8, which was charging for charging.
   [ 794, 1004) -> Service a request driving for customer c175 from s8 to s3.
   [1004, 1035) -> It remains parked at station s3, which was charging for charging.
   [1035, 1065) -> Service a request driving for customer c170 from s3 to s10.
   [1065, 1090) -> It remains parked at station s10, which was charging for charging.
   [1090, 1210) -> Service a request driving for customer c191 from s10 to s0.
   [1210, 1216) -> It remains parked at station s0, which was charging for charging.
   [1216, 1426) -> Service a request driving for customer c62 from s0 to s10.
   [1426, tmax) -> It remains parked at station s10, which was charging for charging.

Schedule for EV v1:
   [   0,  606) -> It remains parked at station s1, which was charging for charging.
   [ 606,  876) -> Service a request driving for customer c50 from s1 to s5.
   [ 876, 1026) -> It remains parked at station s5, which was charging for charging.
   [1026, 1326) -> Service a request driving for customer c140 from s5 to s4.
   [1326, 1329) -> It remains parked at station s4, which was charging for charging.
   [1329, 1479) -> Service a request driving for customer c164 from s4 to s7.
   [1479, tmax) -> It remains parked at station s7, which was charging for charging.

Schedule for EV v2:
   [   0,  609) -> It remains parked at station s1, which was charging for charging.
   [ 609,  699) -> Service a request driving for customer c98 from s1 to s11.
   [ 699,  726) -> It remains parked at station s11, which was charging for charging.
   [ 726,  936) -> Service a request driving for customer c68 from s11 to s9.
   [ 936, 1031) -> It remains parked at station s9, which was charging for charging.
   [1031, 1061) -> Service a request driving for customer c240 from s9 to s4.
   [1061, 1085) -> It remains parked at station s4, which was charging for charging.
   [1085, 1445) -> Service a request driving for customer c144 from s4 to s1.
   [1445, tmax) -> It remains parked at station s1, which was charging for charging.

Schedule for EV v3:
   [   0,  435) -> It remains parked at station s1, which was charging for charging.
   [ 435,  465) -> Service a request driving for customer c13 from s1 to s11.
   [ 465,  493) -> It remains parked at station s11, which was charging for charging.
   [ 493,  523) -> Service a request driving for customer c245 from s11 to s5.
   [ 523,  545) -> It remains parked at station s5, which was charging for charging.
   [ 545,  665) -> Service a request driving for customer c24 from s5 to s2.
   [ 665,  729) -> It remains parked at station s2, which was charging for charging.
   [ 729,  879) -> Service a request driving for customer c198 from s2 to s4.
   [ 879,  916) -> It remains parked at station s4, which was charging for charging.
   [ 916, 1246) -> Service a request driving for customer c155 from s4 to s11.
   [1246, 1273) -> It remains parked at station s11, which was charging for charging.
   [1273, 1333) -> Service a request driving for customer c36 from s11 to s9.
   [1333, 1387) -> It remains parked at station s9, which was charging for charging.
   [1387, 1477) -> Service a request driving for customer c60 from s9 to s0.
   [1477, tmax) -> It remains parked at station s0, which was charging for charging.

Schedule for EV v4:
   [   0,  736) -> It remains parked at station s2, which was charging for charging.
   [ 736,  796) -> Service a request driving for customer c238 from s2 to s1.
   [ 796,  845) -> It remains parked at station s1, which was charging for charging.
   [ 845,  935) -> Service a request driving for customer c223 from s1 to s11.
   [ 935,  973) -> It remains parked at station s11, which was charging for charging.
   [ 973, 1033) -> Service a request driving for customer c115 from s11 to s8.
   [1033, 1035) -> It remains parked at station s8, which was charging for charging.
   [1035, 1095) -> Service a request driving for customer c17 from s8 to s9.
   [1095, 1150) -> It remains parked at station s9, which was charging for charging.
   [1150, 1420) -> Service a request driving for customer c247 from s9 to s0.
   [1420, tmax) -> It remains parked at station s0, which was charging for charging.

Schedule for EV v5:
   [   0,  610) -> It remains parked at station s2, which was charging for charging.
   [ 610,  670) -> Service a request driving for customer c21 from s2 to s8.
   [ 670,  674) -> It remains parked at station s8, which was charging for charging.
   [ 674,  854) -> Service a request driving for customer c153 from s8 to s4.
   [ 854,  856) -> It remains parked at station s4, which was charging for charging.
   [ 856, 1216) -> Service a request driving for customer c241 from s4 to s1.
   [1216, 1267) -> It remains parked at station s1, which was charging for charging.
   [1267, 1327) -> Service a request driving for customer c6 from s1 to s2.
   [1327, 1328) -> It remains parked at station s2, which was charging for charging.
   [1328, 1448) -> Service a request driving for customer c126 from s2 to s1.
   [1448, tmax) -> It remains parked at station s1, which was charging for charging.

Schedule for EV v6:
   [   0,  851) -> It remains parked at station s2, which was charging for charging.
   [ 851, 1031) -> Service a request driving for customer c122 from s2 to s4.
   [1031, 1092) -> It remains parked at station s4, which was charging for charging.
   [1092, 1152) -> Service a request driving for customer c168 from s4 to s8.
   [1152, 1154) -> It remains parked at station s8, which was charging for charging.
   [1154, 1244) -> Service a request driving for customer c236 from s8 to s6.
   [1244, 1392) -> It remains parked at station s6, which was charging for charging.
   [1392, 1722) -> Service a request driving for customer c95 from s6 to s3.
   [1722, tmax) -> It remains parked at station s3, which was charging for charging.

Schedule for EV v7:
   [   0,  545) -> It remains parked at station s3, which was charging for charging.
   [ 545,  575) -> Service a request driving for customer c16 from s3 to s3.
   [ 575,  730) -> It remains parked at station s3, which was charging for charging.
   [ 730,  820) -> Service a request driving for customer c108 from s3 to s0.
   [ 820,  853) -> It remains parked at station s0, which was charging for charging.
   [ 853,  913) -> Service a request driving for customer c226 from s0 to s1.
   [ 913,  916) -> It remains parked at station s1, which was charging for charging.
   [ 916,  976) -> Service a request driving for customer c18 from s1 to s8.
   [ 976, 1034) -> It remains parked at station s8, which was charging for charging.
   [1034, 1064) -> Service a request driving for customer c31 from s8 to s1.
   [1064, 1096) -> It remains parked at station s1, which was charging for charging.
   [1096, 1306) -> Service a request driving for customer c5 from s1 to s7.
   [1306, 1453) -> It remains parked at station s7, which was charging for charging.
   [1453, 1663) -> Service a request driving for customer c148 from s7 to s8.
   [1663, tmax) -> It remains parked at station s8, which was charging for charging.

Schedule for EV v8:
   [   0,  489) -> It remains parked at station s3, which was charging for charging.
   [ 489,  549) -> Service a request driving for customer c125 from s3 to s3.
   [ 549,  554) -> It remains parked at station s3, which was charging for charging.
   [ 554,  614) -> Service a request driving for customer c100 from s3 to s0.
   [ 614,  667) -> It remains parked at station s0, which was charging for charging.
   [ 667,  787) -> Service a request driving for customer c234 from s0 to s10.
   [ 787,  852) -> It remains parked at station s10, which was charging for charging.
   [ 852,  912) -> Service a request driving for customer c79 from s10 to s3.
   [ 912,  974) -> It remains parked at station s3, which was charging for charging.
   [ 974, 1154) -> Service a request driving for customer c212 from s3 to s4.
   [1154, 1273) -> It remains parked at station s4, which was charging for charging.
   [1273, 1363) -> Service a request driving for customer c228 from s4 to s2.
   [1363, 1392) -> It remains parked at station s2, which was charging for charging.
   [1392, 1602) -> Service a request driving for customer c220 from s2 to s11.
   [1602, tmax) -> It remains parked at station s11, which was charging for charging.

Schedule for EV v9:
   [   0,  436) -> It remains parked at station s4, which was charging for charging.
   [ 436,  646) -> Service a request driving for customer c243 from s4 to s4.
   [ 646,  666) -> It remains parked at station s4, which was charging for charging.
   [ 666,  786) -> Service a request driving for customer c57 from s4 to s0.
   [ 786,  795) -> It remains parked at station s0, which was charging for charging.
   [ 795,  855) -> Service a request driving for customer c82 from s0 to s1.
   [ 855,  908) -> It remains parked at station s1, which was charging for charging.
   [ 908, 1028) -> Service a request driving for customer c210 from s1 to s11.
   [1028, 1085) -> It remains parked at station s11, which was charging for charging.
   [1085, 1265) -> Service a request driving for customer c73 from s11 to s4.
   [1265, 1270) -> It remains parked at station s4, which was charging for charging.
   [1270, 1330) -> Service a request driving for customer c200 from s4 to s2.
   [1330, 1332) -> It remains parked at station s2, which was charging for charging.
   [1332, 1392) -> Service a request driving for customer c64 from s2 to s3.
   [1392, 1395) -> It remains parked at station s3, which was charging for charging.
   [1395, 1425) -> Service a request driving for customer c116 from s3 to s4.
   [1425, 1455) -> It remains parked at station s4, which was charging for charging.
   [1455, 1725) -> Service a request driving for customer c132 from s4 to s2.
   [1725, tmax) -> It remains parked at station s2, which was charging for charging.

Schedule for EV v10:
   [   0,  434) -> It remains parked at station s4, which was charging for charging.
   [ 434,  494) -> Service a request driving for customer c2 from s4 to s1.
   [ 494,  545) -> It remains parked at station s1, which was charging for charging.
   [ 545,  755) -> Service a request driving for customer c37 from s1 to s1.
   [ 755,  787) -> It remains parked at station s1, which was charging for charging.
   [ 787,  847) -> Service a request driving for customer c248 from s1 to s4.
   [ 847,  848) -> It remains parked at station s4, which was charging for charging.
   [ 848,  908) -> Service a request driving for customer c14 from s4 to s4.
   [ 908, 1058) -> Service a request driving for customer c161 from s4 to s1.
   [1058, 1085) -> It remains parked at station s1, which was charging for charging.
   [1085, 1115) -> Service a request driving for customer c33 from s1 to s2.
   [1115, 1208) -> It remains parked at station s2, which was charging for charging.
   [1208, 1508) -> Service a request driving for customer c84 from s2 to s1.
   [1508, tmax) -> It remains parked at station s1, which was charging for charging.

Schedule for EV v11:
   [   0,  432) -> It remains parked at station s5, which was charging for charging.
   [ 432,  612) -> Service a request driving for customer c40 from s5 to s3.
   [ 612,  785) -> It remains parked at station s3, which was charging for charging.
   [ 785,  935) -> Service a request driving for customer c59 from s3 to s1.
   [ 935, 1031) -> It remains parked at station s1, which was charging for charging.
   [1031, 1091) -> Service a request driving for customer c249 from s1 to s11.
   [1091, 1092) -> It remains parked at station s11, which was charging for charging.
   [1092, 1272) -> Service a request driving for customer c183 from s11 to s5.
   [1272, 1273) -> It remains parked at station s5, which was charging for charging.
   [1273, 1333) -> Service a request driving for customer c129 from s5 to s1.
   [1333, 1388) -> It remains parked at station s1, which was charging for charging.
   [1388, 1478) -> Service a request driving for customer c106 from s1 to s11.
   [1478, tmax) -> It remains parked at station s11, which was charging for charging.

Schedule for EV v12:
   [   0,  548) -> It remains parked at station s8, which was charging for charging.
   [ 548,  668) -> Service a request driving for customer c29 from s8 to s10.
   [ 668,  673) -> It remains parked at station s10, which was charging for charging.
   [ 673,  943) -> Service a request driving for customer c201 from s10 to s6.
   [ 943, 1087) -> It remains parked at station s6, which was charging for charging.
   [1087, 1237) -> Service a request driving for customer c56 from s6 to s3.
   [1237, 1390) -> It remains parked at station s3, which was charging for charging.
   [1390, 1510) -> Service a request driving for customer c1 from s3 to s2.
   [1510, tmax) -> It remains parked at station s2, which was charging for charging.

Schedule for EV v13:
   [   0,  547) -> It remains parked at station s8, which was charging for charging.
   [ 547,  607) -> Service a request driving for customer c11 from s8 to s6.
   [ 607,  727) -> It remains parked at station s6, which was charging for charging.
   [ 727, 1057) -> Service a request driving for customer c70 from s6 to s11.
   [1057, 1089) -> It remains parked at station s11, which was charging for charging.
   [1089, 1149) -> Service a request driving for customer c20 from s11 to s5.
   [1149, 1153) -> It remains parked at station s5, which was charging for charging.
   [1153, 1423) -> Service a request driving for customer c230 from s5 to s1.
   [1423, tmax) -> It remains parked at station s1, which was charging for charging.

Schedule for EV v14:
   [   0,  495) -> It remains parked at station s10, which was charging for charging.
   [ 495,  645) -> Service a request driving for customer c176 from s10 to s4.
   [ 645,  672) -> It remains parked at station s4, which was charging for charging.
   [ 672, 1002) -> Service a request driving for customer c113 from s4 to s11.
   [1002, 1096) -> It remains parked at station s11, which was charging for charging.
   [1096, 1396) -> Service a request driving for customer c218 from s11 to s5.
   [1396, tmax) -> It remains parked at station s5, which was charging for charging.

Set of satisfied customers
   {c1, c2, c5, c6, c11, c13, c14, c16, c17, c18, c20, c21, c24, c29, c31, c33, c36, c37, c40, c50, c56, c57, c59, c60, c62, c64, c68, c70, c73, c79, c82, c84, c95, c98, c100, c106, c108, c113, c115, c116, c122, c125, c126, c129, c132, c140, c144, c148, c153, c155, c161, c164, c168, c170, c175, c176, c183, c191, c198, c200, c201, c210, c212, c213, c218, c220, c223, c226, c228, c230, c234, c236, c238, c240, c241, c243, c245, c247, c248, c249}

