Academic license - for non-commercial use only
Gurobi Optimizer version 9.0.3 build v9.0.3rc0 (linux64)
Optimize a model with 23522 rows, 15800 columns and 147912 nonzeros
Model fingerprint: 0x26bef0b2
Variable types: 8133 continuous, 7667 integer (7667 binary)
Coefficient statistics:
  Matrix range     [1e+00, 6e+06]
  Objective range  [3e+01, 4e+02]
  Bounds range     [1e+00, 2e+06]
  RHS range        [1e+00, 2e+06]

Loaded user MIP start with objective 6480

Presolve removed 14022 rows and 6485 columns
Presolve time: 0.28s
Presolved: 9500 rows, 9315 columns, 71525 nonzeros
Variable types: 551 continuous, 8764 integer (6600 binary)

Root simplex log...

Iteration    Objective       Primal Inf.    Dual Inf.      Time
   16698    1.4099747e+04   1.106240e+06   0.000000e+00      5s
   26063    1.1940000e+04   0.000000e+00   0.000000e+00     10s

Root relaxation: objective 1.194000e+04, 26063 iterations, 9.74 seconds

    Nodes    |    Current Node    |     Objective Bounds      |     Work
 Expl Unexpl |  Obj  Depth IntInf | Incumbent    BestBd   Gap | It/Node Time

     0     0 11940.0000    0 2341 6480.00000 11940.0000  84.3%     -   14s
H    0     0                    11100.000000 11940.0000  7.57%     -   14s
     0     0 11940.0000    0 2240 11100.0000 11940.0000  7.57%     -   16s
H    0     0                    11130.000000 11940.0000  7.28%     -   16s
     0     0 11940.0000    0 2232 11130.0000 11940.0000  7.28%     -   16s
     0     0 11940.0000    0 1938 11130.0000 11940.0000  7.28%     -   21s
H    0     0                    11340.000000 11940.0000  5.29%     -   21s
     0     0 11940.0000    0 1968 11340.0000 11940.0000  5.29%     -   21s
     0     0 11940.0000    0 1917 11340.0000 11940.0000  5.29%     -   23s
     0     0 11940.0000    0 1882 11340.0000 11940.0000  5.29%     -   23s
     0     0 11940.0000    0 1753 11340.0000 11940.0000  5.29%     -   26s
     0     0 11940.0000    0 1749 11340.0000 11940.0000  5.29%     -   28s
H    0     0                    11550.000000 11940.0000  3.38%     -   28s
H    0     0                    11640.000000 11940.0000  2.58%     -   29s
H    0     0                    11940.000000 11940.0000  0.00%     -   29s
     0     0 11940.0000    0 1749 11940.0000 11940.0000  0.00%     -   29s

Cutting planes:
  Implied bound: 80
  MIR: 9
  Zero half: 1
  RLT: 8
  Relax-and-lift: 1

Explored 1 nodes (56776 simplex iterations) in 29.72 seconds
Thread count was 1 (of 40 available processors)

Solution count 7: 11940 11640 11550 ... 6480

Optimal solution found (tolerance 1.00e-04)
Best objective 1.194000000000e+04, best bound 1.194000000000e+04, gap 0.0000%

----------

Best objective (UB): 11940.000
Best feasible solution (LB): 11940.000
Gap between the lower bound and upper bound: 0.000%

----------

Number of customers served: 85

Schedule for EV v0:
   [   0,  548) -> It remains parked at station s1, which was charging for charging.
   [ 548,  608) -> Service a request driving for customer c1 from s1 to s6.
   [ 608,  758) -> Service a request driving for customer c198 from s6 to s11.
   [ 758,  848) -> It remains parked at station s11, which was charging for charging.
   [ 848, 1208) -> Service a request driving for customer c167 from s11 to s1.
   [1208, 1216) -> It remains parked at station s1, which was charging for charging.
   [1216, 1246) -> Service a request driving for customer c188 from s1 to s5.
   [1246, 1267) -> It remains parked at station s5, which was charging for charging.
   [1267, 1327) -> Service a request driving for customer c223 from s5 to s6.
   [1327, 1331) -> It remains parked at station s6, which was charging for charging.
   [1331, 1421) -> Service a request driving for customer c97 from s6 to s1.
   [1421, 1450) -> It remains parked at station s1, which was charging for charging.
   [1450, 1630) -> Service a request driving for customer c157 from s1 to s3.
   [1630, tmax) -> It remains parked at station s3, which was charging for charging.

Schedule for EV v1:
   [   0,  554) -> It remains parked at station s2, which was charging for charging.
   [ 554,  584) -> Service a request driving for customer c168 from s2 to s0.
   [ 584,  613) -> It remains parked at station s0, which was charging for charging.
   [ 613,  943) -> Service a request driving for customer c257 from s0 to s1.
   [ 943,  971) -> It remains parked at station s1, which was charging for charging.
   [ 971, 1091) -> Service a request driving for customer c144 from s1 to s7.
   [1091, 1096) -> It remains parked at station s7, which was charging for charging.
   [1096, 1156) -> Service a request driving for customer c43 from s7 to s0.
   [1156, 1275) -> It remains parked at station s0, which was charging for charging.
   [1275, 1575) -> Service a request driving for customer c123 from s0 to s9.
   [1575, tmax) -> It remains parked at station s9, which was charging for charging.

Schedule for EV v2:
   [   0,  554) -> It remains parked at station s3, which was charging for charging.
   [ 554,  854) -> Service a request driving for customer c154 from s3 to s0.
   [ 854,  905) -> It remains parked at station s0, which was charging for charging.
   [ 905, 1055) -> Service a request driving for customer c153 from s0 to s1.
   [1055, 1087) -> It remains parked at station s1, which was charging for charging.
   [1087, 1147) -> Service a request driving for customer c265 from s1 to s11.
   [1147, 1148) -> It remains parked at station s11, which was charging for charging.
   [1148, 1208) -> Service a request driving for customer c213 from s11 to s4.
   [1208, 1271) -> It remains parked at station s4, which was charging for charging.
   [1271, 1481) -> Service a request driving for customer c102 from s4 to s6.
   [1481, tmax) -> It remains parked at station s6, which was charging for charging.

Schedule for EV v3:
   [   0,  425) -> It remains parked at station s4, which was charging for charging.
   [ 425,  725) -> Service a request driving for customer c221 from s4 to s4.
   [ 725,  905) -> Service a request driving for customer c197 from s4 to s4.
   [ 905,  907) -> It remains parked at station s4, which was charging for charging.
   [ 907,  937) -> Service a request driving for customer c56 from s4 to s0.
   [ 937,  965) -> It remains parked at station s0, which was charging for charging.
   [ 965, 1025) -> Service a request driving for customer c99 from s0 to s0.
   [1025, 1034) -> It remains parked at station s0, which was charging for charging.
   [1034, 1184) -> Service a request driving for customer c174 from s0 to s9.
   [1184, 1209) -> It remains parked at station s9, which was charging for charging.
   [1209, 1269) -> Service a request driving for customer c3 from s9 to s1.
   [1269, 1327) -> It remains parked at station s1, which was charging for charging.
   [1327, 1507) -> Service a request driving for customer c93 from s1 to s4.
   [1507, tmax) -> It remains parked at station s4, which was charging for charging.

Schedule for EV v4:
   [   0,  613) -> It remains parked at station s4, which was charging for charging.
   [ 613,  673) -> Service a request driving for customer c264 from s4 to s11.
   [ 673,  726) -> It remains parked at station s11, which was charging for charging.
   [ 726, 1026) -> Service a request driving for customer c211 from s11 to s4.
   [1026, 1028) -> It remains parked at station s4, which was charging for charging.
   [1028, 1088) -> Service a request driving for customer c244 from s4 to s2.
   [1088, 1148) -> Service a request driving for customer c57 from s2 to s6.
   [1148, 1153) -> It remains parked at station s6, which was charging for charging.
   [1153, 1273) -> Service a request driving for customer c192 from s6 to s10.
   [1273, 1333) -> Service a request driving for customer c155 from s10 to s1.
   [1333, 1394) -> It remains parked at station s1, which was charging for charging.
   [1394, 1484) -> Service a request driving for customer c217 from s1 to s4.
   [1484, tmax) -> It remains parked at station s4, which was charging for charging.

Schedule for EV v5:
   [   0,  428) -> It remains parked at station s5, which was charging for charging.
   [ 428,  488) -> Service a request driving for customer c176 from s5 to s6.
   [ 488,  606) -> It remains parked at station s6, which was charging for charging.
   [ 606,  786) -> Service a request driving for customer c135 from s6 to s11.
   [ 786,  789) -> It remains parked at station s11, which was charging for charging.
   [ 789,  969) -> Service a request driving for customer c260 from s11 to s0.
   [ 969,  971) -> It remains parked at station s0, which was charging for charging.
   [ 971, 1211) -> Service a request driving for customer c96 from s0 to s3.
   [1211, 1215) -> It remains parked at station s3, which was charging for charging.
   [1215, 1275) -> Service a request driving for customer c242 from s3 to s11.
   [1275, 1328) -> It remains parked at station s11, which was charging for charging.
   [1328, 1508) -> Service a request driving for customer c121 from s11 to s11.
   [1508, tmax) -> It remains parked at station s11, which was charging for charging.

Schedule for EV v6:
   [   0,  674) -> It remains parked at station s5, which was charging for charging.
   [ 674,  974) -> Service a request driving for customer c127 from s5 to s2.
   [ 974, 1036) -> It remains parked at station s2, which was charging for charging.
   [1036, 1216) -> Service a request driving for customer c18 from s2 to s6.
   [1216, 1270) -> It remains parked at station s6, which was charging for charging.
   [1270, 1450) -> Service a request driving for customer c184 from s6 to s11.
   [1450, 1456) -> It remains parked at station s11, which was charging for charging.
   [1456, 1576) -> Service a request driving for customer c218 from s11 to s0.
   [1576, tmax) -> It remains parked at station s0, which was charging for charging.

Schedule for EV v7:
   [   0,  613) -> It remains parked at station s8, which was charging for charging.
   [ 613,  853) -> Service a request driving for customer c209 from s8 to s10.
   [ 853,  856) -> It remains parked at station s10, which was charging for charging.
   [ 856,  916) -> Service a request driving for customer c207 from s10 to s4.
   [ 916,  976) -> Service a request driving for customer c118 from s4 to s0.
   [ 976, 1028) -> It remains parked at station s0, which was charging for charging.
   [1028, 1088) -> Service a request driving for customer c48 from s0 to s3.
   [1088, 1094) -> It remains parked at station s3, which was charging for charging.
   [1094, 1154) -> Service a request driving for customer c158 from s3 to s2.
   [1154, 1214) -> Service a request driving for customer c5 from s2 to s11.
   [1214, 1328) -> It remains parked at station s11, which was charging for charging.
   [1328, 1568) -> Service a request driving for customer c110 from s11 to s0.
   [1568, tmax) -> It remains parked at station s0, which was charging for charging.

Schedule for EV v8:
   [   0,  607) -> It remains parked at station s9, which was charging for charging.
   [ 607,  667) -> Service a request driving for customer c89 from s9 to s3.
   [ 667,  725) -> It remains parked at station s3, which was charging for charging.
   [ 725,  905) -> Service a request driving for customer c194 from s3 to s1.
   [ 905,  911) -> It remains parked at station s1, which was charging for charging.
   [ 911, 1061) -> Service a request driving for customer c27 from s1 to s3.
   [1061, 1085) -> It remains parked at station s3, which was charging for charging.
   [1085, 1145) -> Service a request driving for customer c146 from s3 to s11.
   [1145, 1206) -> It remains parked at station s11, which was charging for charging.
   [1206, 1446) -> Service a request driving for customer c205 from s11 to s6.
   [1446, tmax) -> It remains parked at station s6, which was charging for charging.

Schedule for EV v9:
   [   0,  494) -> It remains parked at station s9, which was charging for charging.
   [ 494,  674) -> Service a request driving for customer c269 from s9 to s1.
   [ 674,  730) -> It remains parked at station s1, which was charging for charging.
   [ 730, 1030) -> Service a request driving for customer c199 from s1 to s0.
   [1030, 1089) -> It remains parked at station s0, which was charging for charging.
   [1089, 1149) -> Service a request driving for customer c182 from s0 to s7.
   [1149, 1152) -> It remains parked at station s7, which was charging for charging.
   [1152, 1362) -> Service a request driving for customer c241 from s7 to s4.
   [1362, 1390) -> It remains parked at station s4, which was charging for charging.
   [1390, 1510) -> Service a request driving for customer c178 from s4 to s11.
   [1510, tmax) -> It remains parked at station s11, which was charging for charging.

Schedule for EV v10:
   [   0,  607) -> It remains parked at station s10, which was charging for charging.
   [ 607,  817) -> Service a request driving for customer c162 from s10 to s3.
   [ 817,  850) -> It remains parked at station s3, which was charging for charging.
   [ 850,  880) -> Service a request driving for customer c137 from s3 to s7.
   [ 880,  905) -> It remains parked at station s7, which was charging for charging.
   [ 905, 1175) -> Service a request driving for customer c101 from s7 to s3.
   [1175, 1269) -> It remains parked at station s3, which was charging for charging.
   [1269, 1539) -> Service a request driving for customer c36 from s3 to s0.
   [1539, tmax) -> It remains parked at station s0, which was charging for charging.

Schedule for EV v11:
   [   0,  668) -> It remains parked at station s10, which was charging for charging.
   [ 668,  848) -> Service a request driving for customer c185 from s10 to s4.
   [ 848,  850) -> It remains parked at station s4, which was charging for charging.
   [ 850,  940) -> Service a request driving for customer c200 from s4 to s0.
   [ 940,  974) -> It remains parked at station s0, which was charging for charging.
   [ 974, 1004) -> Service a request driving for customer c51 from s0 to s7.
   [1004, 1027) -> It remains parked at station s7, which was charging for charging.
   [1027, 1087) -> Service a request driving for customer c173 from s7 to s0.
   [1087, 1095) -> It remains parked at station s0, which was charging for charging.
   [1095, 1275) -> Service a request driving for customer c249 from s0 to s4.
   [1275, 1331) -> It remains parked at station s4, which was charging for charging.
   [1331, 1571) -> Service a request driving for customer c216 from s4 to s5.
   [1571, tmax) -> It remains parked at station s5, which was charging for charging.

Schedule for EV v12:
   [   0,  856) -> It remains parked at station s10, which was charging for charging.
   [ 856, 1096) -> Service a request driving for customer c35 from s10 to s2.
   [1096, 1148) -> It remains parked at station s2, which was charging for charging.
   [1148, 1298) -> Service a request driving for customer c251 from s2 to s1.
   [1298, 1327) -> It remains parked at station s1, which was charging for charging.
   [1327, 1357) -> Service a request driving for customer c62 from s1 to s2.
   [1357, 1385) -> It remains parked at station s2, which was charging for charging.
   [1385, 1505) -> Service a request driving for customer c111 from s2 to s11.
   [1505, tmax) -> It remains parked at station s11, which was charging for charging.

Schedule for EV v13:
   [   0,  553) -> It remains parked at station s11, which was charging for charging.
   [ 553,  793) -> Service a request driving for customer c259 from s11 to s1.
   [ 793,  856) -> It remains parked at station s1, which was charging for charging.
   [ 856,  916) -> Service a request driving for customer c60 from s1 to s11.
   [ 916, 1126) -> Service a request driving for customer c86 from s11 to s0.
   [1126, 1148) -> It remains parked at station s0, which was charging for charging.
   [1148, 1268) -> Service a request driving for customer c85 from s0 to s1.
   [1268, 1271) -> It remains parked at station s1, which was charging for charging.
   [1271, 1301) -> Service a request driving for customer c169 from s1 to s1.
   [1301, 1326) -> It remains parked at station s1, which was charging for charging.
   [1326, 1446) -> Service a request driving for customer c129 from s1 to s0.
   [1446, tmax) -> It remains parked at station s0, which was charging for charging.

Schedule for EV v14:
   [   0,  487) -> It remains parked at station s11, which was charging for charging.
   [ 487,  697) -> Service a request driving for customer c31 from s11 to s2.
   [ 697,  735) -> It remains parked at station s2, which was charging for charging.
   [ 735,  915) -> Service a request driving for customer c143 from s2 to s1.
   [ 915,  976) -> It remains parked at station s1, which was charging for charging.
   [ 976, 1006) -> Service a request driving for customer c138 from s1 to s1.
   [1006, 1026) -> It remains parked at station s1, which was charging for charging.
   [1026, 1056) -> Service a request driving for customer c30 from s1 to s8.
   [1056, 1085) -> It remains parked at station s8, which was charging for charging.
   [1085, 1175) -> Service a request driving for customer c64 from s8 to s4.
   [1175, 1216) -> It remains parked at station s4, which was charging for charging.
   [1216, 1336) -> Service a request driving for customer c95 from s4 to s8.
   [1336, 1451) -> It remains parked at station s8, which was charging for charging.
   [1451, 1571) -> Service a request driving for customer c6 from s8 to s6.
   [1571, tmax) -> It remains parked at station s6, which was charging for charging.

Set of satisfied customers
   {c1, c3, c5, c6, c18, c27, c30, c31, c35, c36, c43, c48, c51, c56, c57, c60, c62, c64, c85, c86, c89, c93, c95, c96, c97, c99, c101, c102, c110, c111, c118, c121, c123, c127, c129, c135, c137, c138, c143, c144, c146, c153, c154, c155, c157, c158, c162, c167, c168, c169, c173, c174, c176, c178, c182, c184, c185, c188, c192, c194, c197, c198, c199, c200, c205, c207, c209, c211, c213, c216, c217, c218, c221, c223, c241, c242, c244, c249, c251, c257, c259, c260, c264, c265, c269}

