Academic license - for non-commercial use only
Gurobi Optimizer version 9.0.3 build v9.0.3rc0 (linux64)
Optimize a model with 26827 rows, 18025 columns and 169236 nonzeros
Model fingerprint: 0x0e8b3ff5
Variable types: 9218 continuous, 8807 integer (8807 binary)
Coefficient statistics:
  Matrix range     [1e+00, 5e+06]
  Objective range  [3e+01, 4e+02]
  Bounds range     [1e+00, 2e+06]
  RHS range        [1e+00, 2e+06]

Loaded user MIP start with objective 6300

Presolve removed 16247 rows and 7549 columns
Presolve time: 0.35s
Presolved: 10580 rows, 10476 columns, 81688 nonzeros
Variable types: 431 continuous, 10045 integer (7422 binary)

Root simplex log...

Iteration    Objective       Primal Inf.    Dual Inf.      Time
   14027    2.0999861e+04   3.022794e+06   0.000000e+00      5s
   21482    1.5569853e+04   6.648939e+05   0.000000e+00     10s
   29092    1.2419789e+04   6.179920e+05   0.000000e+00     15s
   36727    1.2389650e+04   6.046683e+05   0.000000e+00     20s
   40204    1.2390000e+04   0.000000e+00   0.000000e+00     22s

Root relaxation: objective 1.239000e+04, 40204 iterations, 22.09 seconds
Total elapsed time = 26.07s
Total elapsed time = 30.47s

    Nodes    |    Current Node    |     Objective Bounds      |     Work
 Expl Unexpl |  Obj  Depth IntInf | Incumbent    BestBd   Gap | It/Node Time

     0     0 12390.0000    0 2322 6300.00000 12390.0000  96.7%     -   31s
H    0     0                    11820.000000 12390.0000  4.82%     -   31s
     0     0 12390.0000    0 2184 11820.0000 12390.0000  4.82%     -   33s
     0     0 12390.0000    0 2036 11820.0000 12390.0000  4.82%     -   41s
     0     0 12390.0000    0 2031 11820.0000 12390.0000  4.82%     -   41s
     0     0 12390.0000    0 2083 11820.0000 12390.0000  4.82%     -   44s
     0     0 12390.0000    0 2136 11820.0000 12390.0000  4.82%     -   45s
     0     0 12390.0000    0 2091 11820.0000 12390.0000  4.82%     -   48s
H    0     0                    12030.000000 12390.0000  2.99%     -   48s
     0     0 12390.0000    0 2095 12030.0000 12390.0000  2.99%     -   48s
     0     0 12390.0000    0 2071 12030.0000 12390.0000  2.99%     -   52s
     0     0 12390.0000    0 2067 12030.0000 12390.0000  2.99%     -   52s
     0     0 12390.0000    0 2050 12030.0000 12390.0000  2.99%     -   59s
     0     0 12390.0000    0 2050 12030.0000 12390.0000  2.99%     -   63s
H    0     0                    12390.000000 12390.0000  0.00%     -   65s
     0     0 12390.0000    0 2050 12390.0000 12390.0000  0.00%     -   65s

Cutting planes:
  Implied bound: 93
  MIR: 1
  RLT: 6

Explored 1 nodes (103768 simplex iterations) in 65.16 seconds
Thread count was 1 (of 40 available processors)

Solution count 4: 12390 12030 11820 6300 

Optimal solution found (tolerance 1.00e-04)
Best objective 1.239000000000e+04, best bound 1.239000000000e+04, gap 0.0000%

----------

Best objective (UB): 12390.000
Best feasible solution (LB): 12390.000
Gap between the lower bound and upper bound: 0.000%

----------

Number of customers served: 80

Schedule for EV v0:
   [   0,  425) -> It remains parked at station s0, which was charging for charging.
   [ 425,  485) -> Service a request driving for customer c185 from s0 to s2.
   [ 485,  551) -> It remains parked at station s2, which was charging for charging.
   [ 551,  731) -> Service a request driving for customer c7 from s2 to s8.
   [ 731,  732) -> It remains parked at station s8, which was charging for charging.
   [ 732,  792) -> Service a request driving for customer c193 from s8 to s8.
   [ 792,  793) -> It remains parked at station s8, which was charging for charging.
   [ 793,  973) -> Service a request driving for customer c27 from s8 to s11.
   [ 973, 1028) -> It remains parked at station s11, which was charging for charging.
   [1028, 1238) -> Service a request driving for customer c140 from s11 to s2.
   [1238, 1267) -> It remains parked at station s2, which was charging for charging.
   [1267, 1357) -> Service a request driving for customer c26 from s2 to s3.
   [1357, 1388) -> It remains parked at station s3, which was charging for charging.
   [1388, 1478) -> Service a request driving for customer c9 from s3 to s11.
   [1478, tmax) -> It remains parked at station s11, which was charging for charging.

Schedule for EV v1:
   [   0,  606) -> It remains parked at station s1, which was charging for charging.
   [ 606,  666) -> Service a request driving for customer c265 from s1 to s3.
   [ 666,  725) -> It remains parked at station s3, which was charging for charging.
   [ 725,  845) -> Service a request driving for customer c198 from s3 to s6.
   [ 845,  854) -> It remains parked at station s6, which was charging for charging.
   [ 854,  974) -> Service a request driving for customer c200 from s6 to s7.
   [ 974, 1026) -> It remains parked at station s7, which was charging for charging.
   [1026, 1086) -> Service a request driving for customer c4 from s7 to s7.
   [1086, 1266) -> Service a request driving for customer c245 from s7 to s1.
   [1266, 1296) -> Service a request driving for customer c47 from s1 to s1.
   [1296, 1328) -> It remains parked at station s1, which was charging for charging.
   [1328, 1598) -> Service a request driving for customer c89 from s1 to s1.
   [1598, tmax) -> It remains parked at station s1, which was charging for charging.

Schedule for EV v2:
   [   0,  555) -> It remains parked at station s1, which was charging for charging.
   [ 555,  765) -> Service a request driving for customer c99 from s1 to s9.
   [ 765,  794) -> It remains parked at station s9, which was charging for charging.
   [ 794,  974) -> Service a request driving for customer c14 from s9 to s6.
   [ 974, 1025) -> It remains parked at station s6, which was charging for charging.
   [1025, 1085) -> Service a request driving for customer c32 from s6 to s10.
   [1085, 1094) -> It remains parked at station s10, which was charging for charging.
   [1094, 1274) -> Service a request driving for customer c206 from s10 to s8.
   [1274, 1327) -> It remains parked at station s8, which was charging for charging.
   [1327, 1357) -> Service a request driving for customer c74 from s8 to s3.
   [1357, 1394) -> It remains parked at station s3, which was charging for charging.
   [1394, 1484) -> Service a request driving for customer c44 from s3 to s1.
   [1484, tmax) -> It remains parked at station s1, which was charging for charging.

Schedule for EV v3:
   [   0,  612) -> It remains parked at station s1, which was charging for charging.
   [ 612,  762) -> Service a request driving for customer c135 from s1 to s0.
   [ 762,  852) -> It remains parked at station s0, which was charging for charging.
   [ 852, 1032) -> Service a request driving for customer c224 from s0 to s0.
   [1032, 1149) -> It remains parked at station s0, which was charging for charging.
   [1149, 1509) -> Service a request driving for customer c148 from s0 to s11.
   [1509, tmax) -> It remains parked at station s11, which was charging for charging.

Schedule for EV v4:
   [   0,  548) -> It remains parked at station s3, which was charging for charging.
   [ 548,  638) -> Service a request driving for customer c165 from s3 to s2.
   [ 638,  670) -> It remains parked at station s2, which was charging for charging.
   [ 670,  910) -> Service a request driving for customer c112 from s2 to s11.
   [ 910,  971) -> It remains parked at station s11, which was charging for charging.
   [ 971, 1181) -> Service a request driving for customer c190 from s11 to s7.
   [1181, 1208) -> It remains parked at station s7, which was charging for charging.
   [1208, 1298) -> Service a request driving for customer c71 from s7 to s1.
   [1298, 1328) -> It remains parked at station s1, which was charging for charging.
   [1328, 1478) -> Service a request driving for customer c218 from s1 to s10.
   [1478, tmax) -> It remains parked at station s10, which was charging for charging.

Schedule for EV v5:
   [   0,  609) -> It remains parked at station s3, which was charging for charging.
   [ 609,  849) -> Service a request driving for customer c176 from s3 to s2.
   [ 849,  908) -> It remains parked at station s2, which was charging for charging.
   [ 908,  968) -> Service a request driving for customer c50 from s2 to s0.
   [ 968,  973) -> It remains parked at station s0, which was charging for charging.
   [ 973, 1123) -> Service a request driving for customer c258 from s0 to s5.
   [1123, 1156) -> It remains parked at station s5, which was charging for charging.
   [1156, 1486) -> Service a request driving for customer c147 from s5 to s8.
   [1486, tmax) -> It remains parked at station s8, which was charging for charging.

Schedule for EV v6:
   [   0,  489) -> It remains parked at station s4, which was charging for charging.
   [ 489,  699) -> Service a request driving for customer c105 from s4 to s5.
   [ 699,  734) -> It remains parked at station s5, which was charging for charging.
   [ 734, 1034) -> Service a request driving for customer c114 from s5 to s11.
   [1034, 1090) -> It remains parked at station s11, which was charging for charging.
   [1090, 1180) -> Service a request driving for customer c42 from s11 to s1.
   [1180, 1212) -> It remains parked at station s1, which was charging for charging.
   [1212, 1482) -> Service a request driving for customer c104 from s1 to s10.
   [1482, tmax) -> It remains parked at station s10, which was charging for charging.

Schedule for EV v7:
   [   0,  548) -> It remains parked at station s7, which was charging for charging.
   [ 548,  608) -> Service a request driving for customer c59 from s7 to s0.
   [ 608,  611) -> It remains parked at station s0, which was charging for charging.
   [ 611,  761) -> Service a request driving for customer c45 from s0 to s1.
   [ 761,  788) -> It remains parked at station s1, which was charging for charging.
   [ 788,  878) -> Service a request driving for customer c98 from s1 to s0.
   [ 878,  913) -> It remains parked at station s0, which was charging for charging.
   [ 913, 1063) -> Service a request driving for customer c130 from s0 to s1.
   [1063, 1091) -> It remains parked at station s1, which was charging for charging.
   [1091, 1151) -> Service a request driving for customer c40 from s1 to s4.
   [1151, 1153) -> It remains parked at station s4, which was charging for charging.
   [1153, 1423) -> Service a request driving for customer c125 from s4 to s7.
   [1423, tmax) -> It remains parked at station s7, which was charging for charging.

Schedule for EV v8:
   [   0,  432) -> It remains parked at station s8, which was charging for charging.
   [ 432,  732) -> Service a request driving for customer c216 from s8 to s6.
   [ 732,  795) -> It remains parked at station s6, which was charging for charging.
   [ 795,  825) -> Service a request driving for customer c56 from s6 to s11.
   [ 825,  852) -> It remains parked at station s11, which was charging for charging.
   [ 852, 1002) -> Service a request driving for customer c139 from s11 to s11.
   [1002, 1025) -> It remains parked at station s11, which was charging for charging.
   [1025, 1235) -> Service a request driving for customer c61 from s11 to s1.
   [1235, 1267) -> It remains parked at station s1, which was charging for charging.
   [1267, 1417) -> Service a request driving for customer c231 from s1 to s1.
   [1417, tmax) -> It remains parked at station s1, which was charging for charging.

Schedule for EV v9:
   [   0,  545) -> It remains parked at station s9, which was charging for charging.
   [ 545,  755) -> Service a request driving for customer c266 from s9 to s9.
   [ 755,  905) -> It remains parked at station s9, which was charging for charging.
   [ 905, 1085) -> Service a request driving for customer c225 from s9 to s0.
   [1085, 1115) -> Service a request driving for customer c189 from s0 to s4.
   [1115, 1145) -> It remains parked at station s4, which was charging for charging.
   [1145, 1355) -> Service a request driving for customer c35 from s4 to s4.
   [1355, 1388) -> It remains parked at station s4, which was charging for charging.
   [1388, 1598) -> Service a request driving for customer c162 from s4 to s0.
   [1598, tmax) -> It remains parked at station s0, which was charging for charging.

Schedule for EV v10:
   [   0,  426) -> It remains parked at station s9, which was charging for charging.
   [ 426,  726) -> Service a request driving for customer c241 from s9 to s1.
   [ 726,  795) -> It remains parked at station s1, which was charging for charging.
   [ 795,  885) -> Service a request driving for customer c158 from s1 to s2.
   [ 885,  916) -> It remains parked at station s2, which was charging for charging.
   [ 916, 1186) -> Service a request driving for customer c34 from s2 to s3.
   [1186, 1331) -> It remains parked at station s3, which was charging for charging.
   [1331, 1481) -> Service a request driving for customer c132 from s3 to s2.
   [1481, tmax) -> It remains parked at station s2, which was charging for charging.

Schedule for EV v11:
   [   0,  495) -> It remains parked at station s10, which was charging for charging.
   [ 495,  555) -> Service a request driving for customer c38 from s10 to s11.
   [ 555,  616) -> It remains parked at station s11, which was charging for charging.
   [ 616,  646) -> Service a request driving for customer c240 from s11 to s4.
   [ 646,  670) -> It remains parked at station s4, which was charging for charging.
   [ 670,  820) -> Service a request driving for customer c57 from s4 to s5.
   [ 820,  854) -> It remains parked at station s5, which was charging for charging.
   [ 854,  974) -> Service a request driving for customer c256 from s5 to s1.
   [ 974, 1036) -> It remains parked at station s1, which was charging for charging.
   [1036, 1096) -> Service a request driving for customer c51 from s1 to s11.
   [1096, 1147) -> It remains parked at station s11, which was charging for charging.
   [1147, 1207) -> Service a request driving for customer c128 from s11 to s1.
   [1207, 1417) -> Service a request driving for customer c214 from s1 to s8.
   [1417, tmax) -> It remains parked at station s8, which was charging for charging.

Schedule for EV v12:
   [   0,  611) -> It remains parked at station s10, which was charging for charging.
   [ 611,  971) -> Service a request driving for customer c164 from s10 to s4.
   [ 971,  974) -> It remains parked at station s4, which was charging for charging.
   [ 974, 1124) -> Service a request driving for customer c36 from s4 to s3.
   [1124, 1145) -> It remains parked at station s3, which was charging for charging.
   [1145, 1295) -> Service a request driving for customer c252 from s3 to s10.
   [1295, 1335) -> It remains parked at station s10, which was charging for charging.
   [1335, 1395) -> Service a request driving for customer c221 from s10 to s11.
   [1395, 1454) -> It remains parked at station s11, which was charging for charging.
   [1454, 1784) -> Service a request driving for customer c169 from s11 to s2.
   [1784, tmax) -> It remains parked at station s2, which was charging for charging.

Schedule for EV v13:
   [   0,  425) -> It remains parked at station s11, which was charging for charging.
   [ 425,  545) -> Service a request driving for customer c43 from s11 to s4.
   [ 545,  550) -> It remains parked at station s4, which was charging for charging.
   [ 550,  610) -> Service a request driving for customer c141 from s4 to s4.
   [ 610,  615) -> It remains parked at station s4, which was charging for charging.
   [ 615,  675) -> Service a request driving for customer c48 from s4 to s10.
   [ 675,  735) -> Service a request driving for customer c54 from s10 to s3.
   [ 735,  786) -> It remains parked at station s3, which was charging for charging.
   [ 786,  876) -> Service a request driving for customer c208 from s3 to s1.
   [ 876,  911) -> It remains parked at station s1, which was charging for charging.
   [ 911, 1211) -> Service a request driving for customer c156 from s1 to s8.
   [1211, 1214) -> It remains parked at station s8, which was charging for charging.
   [1214, 1454) -> Service a request driving for customer c13 from s8 to s3.
   [1454, tmax) -> It remains parked at station s3, which was charging for charging.

Schedule for EV v14:
   [   0,  432) -> It remains parked at station s11, which was charging for charging.
   [ 432,  552) -> Service a request driving for customer c191 from s11 to s4.
   [ 552,  556) -> It remains parked at station s4, which was charging for charging.
   [ 556,  766) -> Service a request driving for customer c171 from s4 to s1.
   [ 766,  852) -> It remains parked at station s1, which was charging for charging.
   [ 852, 1152) -> Service a request driving for customer c83 from s1 to s10.
   [1152, 1205) -> It remains parked at station s10, which was charging for charging.
   [1205, 1265) -> Service a request driving for customer c136 from s10 to s7.
   [1265, 1326) -> It remains parked at station s7, which was charging for charging.
   [1326, 1506) -> Service a request driving for customer c262 from s7 to s9.
   [1506, tmax) -> It remains parked at station s9, which was charging for charging.

Set of satisfied customers
   {c4, c7, c9, c13, c14, c26, c27, c32, c34, c35, c36, c38, c40, c42, c43, c44, c45, c47, c48, c50, c51, c54, c56, c57, c59, c61, c71, c74, c83, c89, c98, c99, c104, c105, c112, c114, c125, c128, c130, c132, c135, c136, c139, c140, c141, c147, c148, c156, c158, c162, c164, c165, c169, c171, c176, c185, c189, c190, c191, c193, c198, c200, c206, c208, c214, c216, c218, c221, c224, c225, c231, c240, c241, c245, c252, c256, c258, c262, c265, c266}

