Academic license - for non-commercial use only
Gurobi Optimizer version 9.0.3 build v9.0.3rc0 (linux64)
Optimize a model with 32288 rows, 21575 columns and 207433 nonzeros
Model fingerprint: 0xd1e67a9b
Variable types: 10849 continuous, 10726 integer (10726 binary)
Coefficient statistics:
  Matrix range     [1e+00, 6e+06]
  Objective range  [3e+01, 4e+02]
  Bounds range     [1e+00, 2e+06]
  RHS range        [1e+00, 2e+06]

Loaded user MIP start with objective 6390

Presolve removed 19499 rows and 8924 columns
Presolve time: 0.44s
Presolved: 12789 rows, 12651 columns, 100309 nonzeros
Variable types: 480 continuous, 12171 integer (9243 binary)

Root simplex log...

Iteration    Objective       Primal Inf.    Dual Inf.      Time
    9856    3.0899939e+04   6.759130e+06   0.000000e+00      5s
Warning: Markowitz tolerance tightened to 0.0625
   15266    2.6759923e+04   2.029055e+07   0.000000e+00     10s
   20662    2.4809928e+04   3.654579e+07   0.000000e+00     15s
   26413    1.9139915e+04   9.849418e+07   0.000000e+00     20s
   31880    1.6799918e+04   2.060465e+06   0.000000e+00     25s
   37347    1.5119863e+04   2.118270e+07   0.000000e+00     30s
   42529    1.4519854e+04   3.856637e+05   0.000000e+00     35s
   47215    1.3739786e+04   1.060737e+07   0.000000e+00     40s
   52070    1.3589767e+04   1.112024e+08   0.000000e+00     45s
   56501    1.3589628e+04   7.220103e+05   0.000000e+00     50s
   60510    1.3590000e+04   0.000000e+00   0.000000e+00     54s
   60510    1.3590000e+04   0.000000e+00   0.000000e+00     54s

Root relaxation: objective 1.359000e+04, 60510 iterations, 53.99 seconds
Total elapsed time = 59.41s
Total elapsed time = 61.62s

    Nodes    |    Current Node    |     Objective Bounds      |     Work
 Expl Unexpl |  Obj  Depth IntInf | Incumbent    BestBd   Gap | It/Node Time

     0     0 13590.0000    0 2519 6390.00000 13590.0000   113%     -   65s
     0     0 13590.0000    0 2584 6390.00000 13590.0000   113%     -   67s
     0     0 13590.0000    0 2393 6390.00000 13590.0000   113%     -   68s
     0     0 13590.0000    0 2127 6390.00000 13590.0000   113%     -   78s
     0     0 13590.0000    0 2075 6390.00000 13590.0000   113%     -   79s
     0     0 13590.0000    0 2121 6390.00000 13590.0000   113%     -   84s
     0     0 13590.0000    0 2097 6390.00000 13590.0000   113%     -   85s
     0     0 13590.0000    0 2093 6390.00000 13590.0000   113%     -   91s
     0     0 13590.0000    0 2093 6390.00000 13590.0000   113%     -   91s
     0     0 13590.0000    0 2012 6390.00000 13590.0000   113%     -   99s
H    0     0                    13590.000000 13590.0000  0.00%     -  101s
     0     0 13590.0000    0 2012 13590.0000 13590.0000  0.00%     -  101s

Cutting planes:
  Implied bound: 13
  MIR: 1
  RLT: 3

Explored 1 nodes (120498 simplex iterations) in 101.56 seconds
Thread count was 1 (of 40 available processors)

Solution count 2: 13590 6390 

Optimal solution found (tolerance 1.00e-04)
Best objective 1.359000000000e+04, best bound 1.359000000000e+04, gap 0.0000%

----------

Best objective (UB): 13590.000
Best feasible solution (LB): 13590.000
Gap between the lower bound and upper bound: 0.000%

----------

Number of customers served: 85

Schedule for EV v0:
   [   0,  487) -> It remains parked at station s0, which was charging for charging.
   [ 487,  547) -> Service a request driving for customer c140 from s0 to s4.
   [ 547,  551) -> It remains parked at station s4, which was charging for charging.
   [ 551,  671) -> Service a request driving for customer c130 from s4 to s0.
   [ 671,  673) -> It remains parked at station s0, which was charging for charging.
   [ 673,  943) -> Service a request driving for customer c28 from s0 to s9.
   [ 943,  972) -> It remains parked at station s9, which was charging for charging.
   [ 972, 1272) -> Service a request driving for customer c206 from s9 to s6.
   [1272, 1392) -> It remains parked at station s6, which was charging for charging.
   [1392, 1452) -> Service a request driving for customer c119 from s6 to s0.
   [1452, 1454) -> It remains parked at station s0, which was charging for charging.
   [1454, 1484) -> Service a request driving for customer c151 from s0 to s5.
   [1484, tmax) -> It remains parked at station s5, which was charging for charging.

Schedule for EV v1:
   [   0,  485) -> It remains parked at station s1, which was charging for charging.
   [ 485,  545) -> Service a request driving for customer c20 from s1 to s1.
   [ 545,  605) -> Service a request driving for customer c242 from s1 to s8.
   [ 605,  608) -> It remains parked at station s8, which was charging for charging.
   [ 608,  668) -> Service a request driving for customer c156 from s8 to s0.
   [ 668,  669) -> It remains parked at station s0, which was charging for charging.
   [ 669,  729) -> Service a request driving for customer c336 from s0 to s11.
   [ 729,  736) -> It remains parked at station s11, which was charging for charging.
   [ 736,  976) -> Service a request driving for customer c202 from s11 to s1.
   [ 976, 1088) -> It remains parked at station s1, which was charging for charging.
   [1088, 1298) -> Service a request driving for customer c49 from s1 to s11.
   [1298, 1325) -> It remains parked at station s11, which was charging for charging.
   [1325, 1595) -> Service a request driving for customer c153 from s11 to s9.
   [1595, tmax) -> It remains parked at station s9, which was charging for charging.

Schedule for EV v2:
   [   0,  615) -> It remains parked at station s2, which was charging for charging.
   [ 615,  885) -> Service a request driving for customer c150 from s2 to s0.
   [ 885,  909) -> It remains parked at station s0, which was charging for charging.
   [ 909, 1029) -> Service a request driving for customer c186 from s0 to s3.
   [1029, 1032) -> It remains parked at station s3, which was charging for charging.
   [1032, 1242) -> Service a request driving for customer c245 from s3 to s9.
   [1242, 1334) -> It remains parked at station s9, which was charging for charging.
   [1334, 1574) -> Service a request driving for customer c332 from s9 to s10.
   [1574, tmax) -> It remains parked at station s10, which was charging for charging.

Schedule for EV v3:
   [   0,  434) -> It remains parked at station s3, which was charging for charging.
   [ 434,  584) -> Service a request driving for customer c103 from s3 to s10.
   [ 584,  674) -> It remains parked at station s10, which was charging for charging.
   [ 674,  734) -> Service a request driving for customer c90 from s10 to s8.
   [ 734,  735) -> It remains parked at station s8, which was charging for charging.
   [ 735,  945) -> Service a request driving for customer c174 from s8 to s3.
   [ 945,  965) -> It remains parked at station s3, which was charging for charging.
   [ 965, 1205) -> Service a request driving for customer c165 from s3 to s2.
   [1205, 1268) -> It remains parked at station s2, which was charging for charging.
   [1268, 1568) -> Service a request driving for customer c244 from s2 to s10.
   [1568, tmax) -> It remains parked at station s10, which was charging for charging.

Schedule for EV v4:
   [   0,  489) -> It remains parked at station s4, which was charging for charging.
   [ 489,  609) -> Service a request driving for customer c218 from s4 to s1.
   [ 609,  610) -> It remains parked at station s1, which was charging for charging.
   [ 610,  670) -> Service a request driving for customer c320 from s1 to s1.
   [ 670,  675) -> It remains parked at station s1, which was charging for charging.
   [ 675,  945) -> Service a request driving for customer c267 from s1 to s0.
   [ 945,  967) -> It remains parked at station s0, which was charging for charging.
   [ 967, 1027) -> Service a request driving for customer c196 from s0 to s11.
   [1027, 1091) -> It remains parked at station s11, which was charging for charging.
   [1091, 1181) -> Service a request driving for customer c115 from s11 to s1.
   [1181, 1210) -> It remains parked at station s1, which was charging for charging.
   [1210, 1510) -> Service a request driving for customer c168 from s1 to s6.
   [1510, tmax) -> It remains parked at station s6, which was charging for charging.

Schedule for EV v5:
   [   0,  435) -> It remains parked at station s5, which was charging for charging.
   [ 435,  495) -> Service a request driving for customer c189 from s5 to s11.
   [ 495,  550) -> It remains parked at station s11, which was charging for charging.
   [ 550,  880) -> Service a request driving for customer c0 from s11 to s2.
   [ 880,  914) -> It remains parked at station s2, which was charging for charging.
   [ 914, 1154) -> Service a request driving for customer c39 from s2 to s7.
   [1154, 1205) -> It remains parked at station s7, which was charging for charging.
   [1205, 1265) -> Service a request driving for customer c224 from s7 to s3.
   [1265, 1267) -> It remains parked at station s3, which was charging for charging.
   [1267, 1477) -> Service a request driving for customer c112 from s3 to s4.
   [1477, tmax) -> It remains parked at station s4, which was charging for charging.

Schedule for EV v6:
   [   0,  426) -> It remains parked at station s5, which was charging for charging.
   [ 426,  546) -> Service a request driving for customer c89 from s5 to s1.
   [ 546,  555) -> It remains parked at station s1, which was charging for charging.
   [ 555,  765) -> Service a request driving for customer c102 from s1 to s2.
   [ 765,  794) -> It remains parked at station s2, which was charging for charging.
   [ 794,  854) -> Service a request driving for customer c68 from s2 to s6.
   [ 854, 1004) -> Service a request driving for customer c204 from s6 to s4.
   [1004, 1027) -> It remains parked at station s4, which was charging for charging.
   [1027, 1207) -> Service a request driving for customer c322 from s4 to s11.
   [1207, 1210) -> It remains parked at station s11, which was charging for charging.
   [1210, 1270) -> Service a request driving for customer c118 from s11 to s1.
   [1270, 1273) -> It remains parked at station s1, which was charging for charging.
   [1273, 1333) -> Service a request driving for customer c70 from s1 to s4.
   [1333, 1513) -> Service a request driving for customer c75 from s4 to s8.
   [1513, tmax) -> It remains parked at station s8, which was charging for charging.

Schedule for EV v7:
   [   0,  490) -> It remains parked at station s6, which was charging for charging.
   [ 490,  670) -> Service a request driving for customer c308 from s6 to s8.
   [ 670,  674) -> It remains parked at station s8, which was charging for charging.
   [ 674,  734) -> Service a request driving for customer c304 from s8 to s10.
   [ 734,  790) -> It remains parked at station s10, which was charging for charging.
   [ 790,  970) -> Service a request driving for customer c83 from s10 to s6.
   [ 970, 1033) -> It remains parked at station s6, which was charging for charging.
   [1033, 1273) -> Service a request driving for customer c71 from s6 to s4.
   [1273, 1333) -> Service a request driving for customer c314 from s4 to s4.
   [1333, 1393) -> It remains parked at station s4, which was charging for charging.
   [1393, 1693) -> Service a request driving for customer c225 from s4 to s0.
   [1693, tmax) -> It remains parked at station s0, which was charging for charging.

Schedule for EV v8:
   [   0,  428) -> It remains parked at station s7, which was charging for charging.
   [ 428,  488) -> Service a request driving for customer c53 from s7 to s8.
   [ 488,  612) -> It remains parked at station s8, which was charging for charging.
   [ 612,  792) -> Service a request driving for customer c124 from s8 to s2.
   [ 792,  796) -> It remains parked at station s2, which was charging for charging.
   [ 796,  856) -> Service a request driving for customer c5 from s2 to s5.
   [ 856,  909) -> It remains parked at station s5, which was charging for charging.
   [ 909, 1089) -> Service a request driving for customer c58 from s5 to s1.
   [1089, 1095) -> It remains parked at station s1, which was charging for charging.
   [1095, 1365) -> Service a request driving for customer c233 from s1 to s7.
   [1365, 1395) -> It remains parked at station s7, which was charging for charging.
   [1395, 1455) -> Service a request driving for customer c45 from s7 to s0.
   [1455, tmax) -> It remains parked at station s0, which was charging for charging.

Schedule for EV v9:
   [   0,  546) -> It remains parked at station s7, which was charging for charging.
   [ 546,  846) -> Service a request driving for customer c60 from s7 to s1.
   [ 846, 1086) -> Service a request driving for customer c98 from s1 to s0.
   [1086, 1089) -> It remains parked at station s0, which was charging for charging.
   [1089, 1119) -> Service a request driving for customer c143 from s0 to s1.
   [1119, 1149) -> It remains parked at station s1, which was charging for charging.
   [1149, 1179) -> Service a request driving for customer c109 from s1 to s0.
   [1179, 1207) -> It remains parked at station s0, which was charging for charging.
   [1207, 1267) -> Service a request driving for customer c313 from s0 to s11.
   [1267, 1275) -> It remains parked at station s11, which was charging for charging.
   [1275, 1305) -> Service a request driving for customer c191 from s11 to s8.
   [1305, 1326) -> It remains parked at station s8, which was charging for charging.
   [1326, 1566) -> Service a request driving for customer c249 from s8 to s3.
   [1566, tmax) -> It remains parked at station s3, which was charging for charging.

Schedule for EV v10:
   [   0,  552) -> It remains parked at station s7, which was charging for charging.
   [ 552,  702) -> Service a request driving for customer c85 from s7 to s3.
   [ 702,  786) -> It remains parked at station s3, which was charging for charging.
   [ 786,  906) -> Service a request driving for customer c62 from s3 to s1.
   [ 906,  908) -> It remains parked at station s1, which was charging for charging.
   [ 908, 1208) -> Service a request driving for customer c14 from s1 to s11.
   [1208, 1329) -> It remains parked at station s11, which was charging for charging.
   [1329, 1629) -> Service a request driving for customer c258 from s11 to s8.
   [1629, tmax) -> It remains parked at station s8, which was charging for charging.

Schedule for EV v11:
   [   0,  616) -> It remains parked at station s8, which was charging for charging.
   [ 616,  706) -> Service a request driving for customer c309 from s8 to s0.
   [ 706,  733) -> It remains parked at station s0, which was charging for charging.
   [ 733,  913) -> Service a request driving for customer c18 from s0 to s7.
   [ 913,  914) -> It remains parked at station s7, which was charging for charging.
   [ 914,  944) -> Service a request driving for customer c48 from s7 to s2.
   [ 944,  976) -> It remains parked at station s2, which was charging for charging.
   [ 976, 1216) -> Service a request driving for customer c164 from s2 to s10.
   [1216, 1330) -> It remains parked at station s10, which was charging for charging.
   [1330, 1630) -> Service a request driving for customer c95 from s10 to s1.
   [1630, tmax) -> It remains parked at station s1, which was charging for charging.

Schedule for EV v12:
   [   0,  434) -> It remains parked at station s8, which was charging for charging.
   [ 434,  734) -> Service a request driving for customer c292 from s8 to s1.
   [ 734,  794) -> It remains parked at station s1, which was charging for charging.
   [ 794,  854) -> Service a request driving for customer c117 from s1 to s0.
   [ 854,  909) -> It remains parked at station s0, which was charging for charging.
   [ 909,  969) -> Service a request driving for customer c139 from s0 to s6.
   [ 969,  974) -> It remains parked at station s6, which was charging for charging.
   [ 974, 1154) -> Service a request driving for customer c1 from s6 to s11.
   [1154, 1210) -> It remains parked at station s11, which was charging for charging.
   [1210, 1270) -> Service a request driving for customer c311 from s11 to s4.
   [1270, 1328) -> It remains parked at station s4, which was charging for charging.
   [1328, 1598) -> Service a request driving for customer c162 from s4 to s7.
   [1598, tmax) -> It remains parked at station s7, which was charging for charging.

Schedule for EV v13:
   [   0,  545) -> It remains parked at station s9, which was charging for charging.
   [ 545,  755) -> Service a request driving for customer c279 from s9 to s11.
   [ 755,  792) -> It remains parked at station s11, which was charging for charging.
   [ 792, 1092) -> Service a request driving for customer c43 from s11 to s11.
   [1092, 1096) -> It remains parked at station s11, which was charging for charging.
   [1096, 1456) -> Service a request driving for customer c251 from s11 to s8.
   [1456, tmax) -> It remains parked at station s8, which was charging for charging.

Schedule for EV v14:
   [   0,  366) -> It remains parked at station s10, which was charging for charging.
   [ 366,  456) -> Service a request driving for customer c287 from s10 to s11.
   [ 456,  547) -> It remains parked at station s11, which was charging for charging.
   [ 547,  637) -> Service a request driving for customer c303 from s11 to s1.
   [ 637,  669) -> It remains parked at station s1, which was charging for charging.
   [ 669,  819) -> Service a request driving for customer c111 from s1 to s4.
   [ 819,  846) -> It remains parked at station s4, which was charging for charging.
   [ 846,  906) -> Service a request driving for customer c257 from s4 to s8.
   [ 906, 1236) -> Service a request driving for customer c301 from s8 to s1.
   [1236, 1265) -> It remains parked at station s1, which was charging for charging.
   [1265, 1385) -> Service a request driving for customer c246 from s1 to s0.
   [1385, 1445) -> Service a request driving for customer c188 from s0 to s1.
   [1445, tmax) -> It remains parked at station s1, which was charging for charging.

Set of satisfied customers
   {c0, c1, c5, c14, c18, c20, c28, c39, c43, c45, c48, c49, c53, c58, c60, c62, c68, c70, c71, c75, c83, c85, c89, c90, c95, c98, c102, c103, c109, c111, c112, c115, c117, c118, c119, c124, c130, c139, c140, c143, c150, c151, c153, c156, c162, c164, c165, c168, c174, c186, c188, c189, c191, c196, c202, c204, c206, c218, c224, c225, c233, c242, c244, c245, c246, c249, c251, c257, c258, c267, c279, c287, c292, c301, c303, c304, c308, c309, c311, c313, c314, c320, c322, c332, c336}

