Academic license - for non-commercial use only
Gurobi Optimizer version 9.0.3 build v9.0.3rc0 (linux64)
Optimize a model with 11860 rows, 8221 columns and 113243 nonzeros
Model fingerprint: 0xc0097569
Variable types: 4619 continuous, 3602 integer (3602 binary)
Coefficient statistics:
  Matrix range     [1e+00, 1e+07]
  Objective range  [3e+01, 5e+02]
  Bounds range     [1e+00, 2e+06]
  RHS range        [1e+00, 2e+06]

Loaded user MIP start with objective 1440

Presolve removed 2537 rows and 1180 columns
Presolve time: 0.43s
Presolved: 9323 rows, 7041 columns, 101341 nonzeros
Variable types: 966 continuous, 6075 integer (5417 binary)

Root relaxation: objective 5.415000e+03, 4163 iterations, 0.48 seconds

    Nodes    |    Current Node    |     Objective Bounds      |     Work
 Expl Unexpl |  Obj  Depth IntInf | Incumbent    BestBd   Gap | It/Node Time

     0     0 5415.00000    0  237 1440.00000 5415.00000   276%     -    2s
H    0     0                    5220.0000000 5415.00000  3.74%     -    2s

Cutting planes:
  Gomory: 1

Explored 1 nodes (16470 simplex iterations) in 2.41 seconds
Thread count was 1 (of 40 available processors)

Solution count 2: 5220 1440 

Optimal solution found (tolerance 1.00e-04)
Best objective 5.220000000000e+03, best bound 5.220000000000e+03, gap 0.0000%

----------

Best objective (UB): 5220.000
Best feasible solution (LB): 5220.000
Gap between the lower bound and upper bound: 0.000%

----------

Number of customers served: 28

Schedule for EV v0:
   [   0,  491) -> It remains parked at station s0.
   [ 491,  551) -> Service a request driving for customer c16 from s0 to s8.
   [ 551,  731) -> It remains parked at station s8.
   [ 731,  821) -> Service a request driving for customer c14 from s8 to s0.
   [ 821,  915) -> It remains parked at station s0, which was charging for charging.
   [ 915,  945) -> Service a request driving for customer c4 from s0 to s8.
   [ 945, tmax) -> It remains parked at station s8, which was charging for charging.

Schedule for EV v1:
   [   0, tmax) -> It remains parked at station s0.

Schedule for EV v2:
   [   0, tmax) -> It remains parked at station s0.

Schedule for EV v3:
   [   0,  793) -> It remains parked at station s0.
   [ 793,  853) -> Service a request driving for customer c17 from s0 to s0.
   [ 853, 1091) -> It remains parked at station s0, which was charging for charging.
   [1091, 1151) -> Service a request driving for customer c19 from s0 to s5.
   [1151, tmax) -> It remains parked at station s5, which was charging for charging.

Schedule for EV v4:
   [   0,  976) -> It remains parked at station s1.
   [ 976, 1036) -> Service a request driving for customer c5 from s1 to s0.
   [1036, 1155) -> It remains parked at station s0.
   [1155, 1185) -> Service a request driving for customer c1 from s0 to s11.
   [1185, tmax) -> It remains parked at station s11, which was charging for charging.

Schedule for EV v5:
   [   0, 1093) -> It remains parked at station s1.
   [1093, 1153) -> Service a request driving for customer c5 from s1 to s1.
   [1153, tmax) -> It remains parked at station s1, which was charging for charging.

Schedule for EV v6:
   [   0,  614) -> It remains parked at station s1.
   [ 614,  674) -> Service a request driving for customer c20 from s1 to s9.
   [ 674,  849) -> It remains parked at station s9, which was charging for charging.
   [ 849, 1209) -> Service a request driving for customer c12 from s9 to s2.
   [1209, tmax) -> It remains parked at station s2.

Schedule for EV v7:
   [   0,  966) -> It remains parked at station s1.
   [ 966, 1026) -> Service a request driving for customer c13 from s1 to s6.
   [1026, tmax) -> It remains parked at station s6, which was charging for charging.

Schedule for EV v8:
   [   0,  490) -> It remains parked at station s1.
   [ 490,  520) -> Service a request driving for customer c3 from s1 to s10.
   [ 520, tmax) -> It remains parked at station s10.

Schedule for EV v9:
   [   0, tmax) -> It remains parked at station s2.

Schedule for EV v10:
   [   0, 1215) -> It remains parked at station s2.
   [1215, 1275) -> Service a request driving for customer c22 from s2 to s6.
   [1275, tmax) -> It remains parked at station s6, which was charging for charging.

Schedule for EV v11:
   [   0, tmax) -> It remains parked at station s2.

Schedule for EV v12:
   [   0, tmax) -> It remains parked at station s2.

Schedule for EV v13:
   [   0, 1155) -> It remains parked at station s2.
   [1155, 1275) -> Service a request driving for customer c16 from s2 to s11.
   [1275, 1454) -> It remains parked at station s11, which was charging for charging.
   [1454, 1694) -> Service a request driving for customer c1 from s11 to s2.
   [1694, tmax) -> It remains parked at station s2, which was charging for charging.

Schedule for EV v14:
   [   0, tmax) -> It remains parked at station s2.

Schedule for EV v15:
   [   0, 1086) -> It remains parked at station s2.
   [1086, 1206) -> Service a request driving for customer c20 from s2 to s11.
   [1206, tmax) -> It remains parked at station s11, which was charging for charging.

Schedule for EV v16:
   [   0,  674) -> It remains parked at station s3.
   [ 674,  734) -> Service a request driving for customer c26 from s3 to s1.
   [ 734, tmax) -> It remains parked at station s1.

Schedule for EV v17:
   [   0, tmax) -> It remains parked at station s3.

Schedule for EV v18:
   [   0,  430) -> It remains parked at station s3.
   [ 430,  640) -> Service a request driving for customer c19 from s3 to s1.
   [ 640, tmax) -> It remains parked at station s1.

Schedule for EV v19:
   [   0,  967) -> It remains parked at station s4.
   [ 967,  997) -> Service a request driving for customer c9 from s4 to s3.
   [ 997, 1089) -> It remains parked at station s3, which was charging for charging.
   [1089, 1149) -> Service a request driving for customer c4 from s3 to s1.
   [1149, 1152) -> It remains parked at station s1, which was charging for charging.
   [1152, 1302) -> Service a request driving for customer c19 from s1 to s4.
   [1302, 1395) -> It remains parked at station s4.
   [1395, 1455) -> Service a request driving for customer c12 from s4 to s1.
   [1455, tmax) -> It remains parked at station s1.

Schedule for EV v20:
   [   0,  614) -> It remains parked at station s4.
   [ 614,  674) -> Service a request driving for customer c6 from s4 to s8.
   [ 674, tmax) -> It remains parked at station s8.

Schedule for EV v21:
   [   0,  547) -> It remains parked at station s4.
   [ 547,  697) -> Service a request driving for customer c10 from s4 to s0.
   [ 697, tmax) -> It remains parked at station s0.

Schedule for EV v22:
   [   0, tmax) -> It remains parked at station s4.

Schedule for EV v23:
   [   0, tmax) -> It remains parked at station s4.

Schedule for EV v24:
   [   0, tmax) -> It remains parked at station s4.

Schedule for EV v25:
   [   0, 1086) -> It remains parked at station s4.
   [1086, 1236) -> Service a request driving for customer c25 from s4 to s2.
   [1236, tmax) -> It remains parked at station s2, which was charging for charging.

Schedule for EV v26:
   [   0, 1153) -> It remains parked at station s4.
   [1153, 1243) -> Service a request driving for customer c14 from s4 to s11.
   [1243, tmax) -> It remains parked at station s11.

Schedule for EV v27:
   [   0,  550) -> It remains parked at station s4.
   [ 550,  700) -> Service a request driving for customer c15 from s4 to s9.
   [ 700,  787) -> It remains parked at station s9, which was charging for charging.
   [ 787,  847) -> Service a request driving for customer c2 from s9 to s6.
   [ 847, tmax) -> It remains parked at station s6.

Schedule for EV v28:
   [   0,  728) -> It remains parked at station s4.
   [ 728,  788) -> Service a request driving for customer c18 from s4 to s6.
   [ 788, tmax) -> It remains parked at station s6.

Schedule for EV v29:
   [   0,  669) -> It remains parked at station s4, which was charging for charging.
   [ 669,  759) -> Service a request driving for customer c13 from s4 to s8.
   [ 759,  849) -> It remains parked at station s8.
   [ 849,  879) -> Service a request driving for customer c8 from s8 to s2.
   [ 879, tmax) -> It remains parked at station s2, which was charging for charging.

Schedule for EV v30:
   [   0, 1332) -> It remains parked at station s5.
   [1332, 1422) -> Service a request driving for customer c7 from s5 to s1.
   [1422, tmax) -> It remains parked at station s1.

Schedule for EV v31:
   [   0, tmax) -> It remains parked at station s5.

Schedule for EV v32:
   [   0, tmax) -> It remains parked at station s5.

Schedule for EV v33:
   [   0, tmax) -> It remains parked at station s5.

Schedule for EV v34:
   [   0, tmax) -> It remains parked at station s6.

Schedule for EV v35:
   [   0, tmax) -> It remains parked at station s6.

Schedule for EV v36:
   [   0,  614) -> It remains parked at station s6.
   [ 614,  674) -> Service a request driving for customer c11 from s6 to s0.
   [ 674,  906) -> It remains parked at station s0, which was charging for charging.
   [ 906,  936) -> Service a request driving for customer c6 from s0 to s11.
   [ 936, tmax) -> It remains parked at station s11, which was charging for charging.

Schedule for EV v37:
   [   0, tmax) -> It remains parked at station s7.

Schedule for EV v38:
   [   0, tmax) -> It remains parked at station s7.

Schedule for EV v39:
   [   0, tmax) -> It remains parked at station s7.

Schedule for EV v40:
   [   0, tmax) -> It remains parked at station s7.

Schedule for EV v41:
   [   0, tmax) -> It remains parked at station s7.

Schedule for EV v42:
   [   0, tmax) -> It remains parked at station s7.

Schedule for EV v43:
   [   0, tmax) -> It remains parked at station s7.

Schedule for EV v44:
   [   0, tmax) -> It remains parked at station s7.

Schedule for EV v45:
   [   0,  487) -> It remains parked at station s8.
   [ 487,  607) -> Service a request driving for customer c26 from s8 to s11.
   [ 607,  675) -> It remains parked at station s11, which was charging for charging.
   [ 675,  735) -> Service a request driving for customer c19 from s11 to s11.
   [ 735,  789) -> It remains parked at station s11.
   [ 789,  849) -> Service a request driving for customer c20 from s11 to s8.
   [ 849, tmax) -> It remains parked at station s8.

Schedule for EV v46:
   [   0, tmax) -> It remains parked at station s8.

Schedule for EV v47:
   [   0, tmax) -> It remains parked at station s8.

Schedule for EV v48:
   [   0, tmax) -> It remains parked at station s8.

Schedule for EV v49:
   [   0,  969) -> It remains parked at station s8.
   [ 969, 1209) -> Service a request driving for customer c23 from s8 to s5.
   [1209, tmax) -> It remains parked at station s5.

Schedule for EV v50:
   [   0,  725) -> It remains parked at station s8.
   [ 725,  755) -> Service a request driving for customer c5 from s8 to s8.
   [ 755, tmax) -> It remains parked at station s8, which was charging for charging.

Schedule for EV v51:
   [   0,  666) -> It remains parked at station s8.
   [ 666,  906) -> Service a request driving for customer c22 from s8 to s6.
   [ 906, tmax) -> It remains parked at station s6.

Schedule for EV v52:
   [   0, 1032) -> It remains parked at station s9.
   [1032, 1182) -> Service a request driving for customer c0 from s9 to s5.
   [1182, tmax) -> It remains parked at station s5.

Schedule for EV v53:
   [   0,  793) -> It remains parked at station s9.
   [ 793, 1003) -> Service a request driving for customer c11 from s9 to s4.
   [1003, 1091) -> It remains parked at station s4.
   [1091, 1151) -> Service a request driving for customer c18 from s4 to s1.
   [1151, 1214) -> It remains parked at station s1, which was charging for charging.
   [1214, 1274) -> Service a request driving for customer c3 from s1 to s3.
   [1274, tmax) -> It remains parked at station s3.

Schedule for EV v54:
   [   0,  788) -> It remains parked at station s9.
   [ 788, 1028) -> Service a request driving for customer c29 from s9 to s5.
   [1028, tmax) -> It remains parked at station s5.

Schedule for EV v55:
   [   0, 1269) -> It remains parked at station s9.
   [1269, 1299) -> Service a request driving for customer c24 from s9 to s1.
   [1299, tmax) -> It remains parked at station s1.

Schedule for EV v56:
   [   0, 1033) -> It remains parked at station s10.
   [1033, 1183) -> Service a request driving for customer c9 from s10 to s5.
   [1183, tmax) -> It remains parked at station s5, which was charging for charging.

Schedule for EV v57:
   [   0,  856) -> It remains parked at station s10.
   [ 856, 1006) -> Service a request driving for customer c17 from s10 to s11.
   [1006, tmax) -> It remains parked at station s11.

Schedule for EV v58:
   [   0, tmax) -> It remains parked at station s10.

Schedule for EV v59:
   [   0, tmax) -> It remains parked at station s10.

Schedule for EV v60:
   [   0, tmax) -> It remains parked at station s10.

Schedule for EV v61:
   [   0, tmax) -> It remains parked at station s10.

Schedule for EV v62:
   [   0,  976) -> It remains parked at station s10.
   [ 976, 1006) -> Service a request driving for customer c15 from s10 to s0.
   [1006, 1034) -> It remains parked at station s0.
   [1034, 1304) -> Service a request driving for customer c26 from s0 to s2.
   [1304, tmax) -> It remains parked at station s2.

Schedule for EV v63:
   [   0, tmax) -> It remains parked at station s11.

Schedule for EV v64:
   [   0,  368) -> It remains parked at station s11.
   [ 368,  398) -> Service a request driving for customer c21 from s11 to s1.
   [ 398, tmax) -> It remains parked at station s1.

Schedule for EV v65:
   [   0, tmax) -> It remains parked at station s11.

Schedule for EV v66:
   [   0, tmax) -> It remains parked at station s11.

Schedule for EV v67:
   [   0, tmax) -> It remains parked at station s11.

Schedule for EV v68:
   [   0, tmax) -> It remains parked at station s11.

Set of satisfied customers
   {c0, c1, c2, c3, c4, c5, c6, c7, c8, c9, c10, c11, c12, c13, c14, c15, c16, c17, c18, c19, c20, c21, c22, c23, c24, c25, c26, c29}

