Academic license - for non-commercial use only
Gurobi Optimizer version 9.0.3 build v9.0.3rc0 (linux64)
Optimize a model with 32702 rows, 22609 columns and 485502 nonzeros
Model fingerprint: 0xd77f9b93
Variable types: 12589 continuous, 10020 integer (10020 binary)
Coefficient statistics:
  Matrix range     [1e+00, 9e+06]
  Objective range  [6e+01, 6e+02]
  Bounds range     [1e+00, 2e+06]
  RHS range        [1e+00, 2e+06]

Loaded user MIP start with objective 1530

Presolve removed 4138 rows and 1661 columns
Presolve time: 1.94s
Presolved: 28564 rows, 20948 columns, 451243 nonzeros
Variable types: 4370 continuous, 16578 integer (15733 binary)

Root simplex log...

Iteration    Objective       Primal Inf.    Dual Inf.      Time
    8493    8.7299797e+03   2.313708e+04   0.000000e+00      5s
   16041    8.7299751e+03   5.205044e+05   0.000000e+00     10s
   22100    8.7299721e+03   5.906101e+05   0.000000e+00     15s
   27753    8.7299693e+03   3.433650e+05   0.000000e+00     20s
   32950    8.7299668e+03   4.365718e+04   0.000000e+00     25s
   37932    8.7299643e+03   2.538124e+04   0.000000e+00     30s
   42802    8.7299619e+03   1.012172e+05   0.000000e+00     35s
   47525    8.7299600e+03   6.455356e+04   0.000000e+00     40s
   52208    8.7299576e+03   5.429745e+04   0.000000e+00     45s
   56963    8.7299554e+03   7.502422e+04   0.000000e+00     50s
   61589    8.7299534e+03   2.278835e+04   0.000000e+00     55s
   66196    8.7299509e+03   9.830011e+04   0.000000e+00     60s
   70999    8.7299480e+03   7.362255e+04   0.000000e+00     65s
   75752    8.7299441e+03   5.029020e+04   0.000000e+00     70s
   80454    8.7299404e+03   2.521302e+05   0.000000e+00     75s
   85388    8.7299290e+03   3.683988e+05   0.000000e+00     80s
   89381    8.4599535e+03   4.250806e+07   0.000000e+00     85s
   92761    8.2499484e+03   5.595783e+05   0.000000e+00     90s
   95561    8.1899539e+03   1.162445e+07   0.000000e+00     95s
   97921    8.1899485e+03   9.182079e+05   0.000000e+00    100s
  100181    8.1899460e+03   1.062226e+05   0.000000e+00    105s
  102221    8.1899452e+03   6.062772e+04   0.000000e+00    110s
  103454    8.1900000e+03   0.000000e+00   0.000000e+00    113s
  103454    8.1900000e+03   0.000000e+00   0.000000e+00    113s

Root relaxation: objective 8.190000e+03, 103454 iterations, 111.24 seconds
Total elapsed time = 124.94s
Total elapsed time = 129.87s
Total elapsed time = 132.38s
Total elapsed time = 138.46s

    Nodes    |    Current Node    |     Objective Bounds      |     Work
 Expl Unexpl |  Obj  Depth IntInf | Incumbent    BestBd   Gap | It/Node Time

     0     0 8190.00000    0  239 1530.00000 8190.00000   435%     -  146s
H    0     0                    8190.0000000 8190.00000  0.00%     -  146s
     0     0 8190.00000    0  239 8190.00000 8190.00000  0.00%     -  146s

Explored 1 nodes (177642 simplex iterations) in 146.20 seconds
Thread count was 1 (of 40 available processors)

Solution count 2: 8190 1530 

Optimal solution found (tolerance 1.00e-04)
Best objective 8.190000000000e+03, best bound 8.190000000000e+03, gap 0.0000%

----------

Best objective (UB): 8190.000
Best feasible solution (LB): 8190.000
Gap between the lower bound and upper bound: 0.000%

----------

Number of customers served: 35

Schedule for EV v0:
   [   0, 1212) -> It remains parked at station s0.
   [1212, 1272) -> Service a request driving for customer c13 from s0 to s0.
   [1272, tmax) -> It remains parked at station s0.

Schedule for EV v1:
   [   0, 1092) -> It remains parked at station s0.
   [1092, 1152) -> Service a request driving for customer c33 from s0 to s10.
   [1152, tmax) -> It remains parked at station s10, which was charging for charging.

Schedule for EV v2:
   [   0, tmax) -> It remains parked at station s0.

Schedule for EV v3:
   [   0,  433) -> It remains parked at station s0.
   [ 433,  583) -> Service a request driving for customer c0 from s0 to s2.
   [ 583, 1089) -> It remains parked at station s2, which was charging for charging.
   [1089, 1329) -> Service a request driving for customer c2 from s2 to s11.
   [1329, tmax) -> It remains parked at station s11, which was charging for charging.

Schedule for EV v4:
   [   0, tmax) -> It remains parked at station s0.

Schedule for EV v5:
   [   0,  791) -> It remains parked at station s0.
   [ 791,  851) -> Service a request driving for customer c13 from s0 to s0.
   [ 851, tmax) -> It remains parked at station s0, which was charging for charging.

Schedule for EV v6:
   [   0,  852) -> It remains parked at station s0.
   [ 852, 1092) -> Service a request driving for customer c32 from s0 to s4.
   [1092, tmax) -> It remains parked at station s4, which was charging for charging.

Schedule for EV v7:
   [   0,  546) -> It remains parked at station s0.
   [ 546,  606) -> Service a request driving for customer c24 from s0 to s6.
   [ 606, tmax) -> It remains parked at station s6.

Schedule for EV v8:
   [   0,  848) -> It remains parked at station s0, which was charging for charging.
   [ 848, 1148) -> Service a request driving for customer c27 from s0 to s2.
   [1148, tmax) -> It remains parked at station s2.

Schedule for EV v9:
   [   0, tmax) -> It remains parked at station s1.

Schedule for EV v10:
   [   0, tmax) -> It remains parked at station s1.

Schedule for EV v11:
   [   0,  976) -> It remains parked at station s1.
   [ 976, 1126) -> Service a request driving for customer c1 from s1 to s4.
   [1126, tmax) -> It remains parked at station s4, which was charging for charging.

Schedule for EV v12:
   [   0,  855) -> It remains parked at station s1.
   [ 855,  885) -> Service a request driving for customer c15 from s1 to s3.
   [ 885,  973) -> It remains parked at station s3, which was charging for charging.
   [ 973, 1033) -> Service a request driving for customer c26 from s3 to s9.
   [1033, tmax) -> It remains parked at station s9, which was charging for charging.

Schedule for EV v13:
   [   0, tmax) -> It remains parked at station s1.

Schedule for EV v14:
   [   0,  549) -> It remains parked at station s1.
   [ 549,  639) -> Service a request driving for customer c4 from s1 to s1.
   [ 639, tmax) -> It remains parked at station s1.

Schedule for EV v15:
   [   0,  613) -> It remains parked at station s1.
   [ 613,  763) -> Service a request driving for customer c2 from s1 to s6.
   [ 763,  850) -> It remains parked at station s6.
   [ 850,  910) -> Service a request driving for customer c23 from s6 to s5.
   [ 910, 1274) -> It remains parked at station s5, which was charging for charging.
   [1274, 1334) -> Service a request driving for customer c3 from s5 to s4.
   [1334, tmax) -> It remains parked at station s4.

Schedule for EV v16:
   [   0, tmax) -> It remains parked at station s1.

Schedule for EV v17:
   [   0, tmax) -> It remains parked at station s1.

Schedule for EV v18:
   [   0, tmax) -> It remains parked at station s2.

Schedule for EV v19:
   [   0, tmax) -> It remains parked at station s2.

Schedule for EV v20:
   [   0, tmax) -> It remains parked at station s2.

Schedule for EV v21:
   [   0,  607) -> It remains parked at station s2.
   [ 607,  637) -> Service a request driving for customer c1 from s2 to s3.
   [ 637, tmax) -> It remains parked at station s3, which was charging for charging.

Schedule for EV v22:
   [   0,  912) -> It remains parked at station s2.
   [ 912, 1032) -> Service a request driving for customer c22 from s2 to s3.
   [1032, 1086) -> It remains parked at station s3.
   [1086, 1116) -> Service a request driving for customer c23 from s3 to s0.
   [1116, 1326) -> It remains parked at station s0, which was charging for charging.
   [1326, 1596) -> Service a request driving for customer c4 from s0 to s5.
   [1596, tmax) -> It remains parked at station s5.

Schedule for EV v23:
   [   0,  973) -> It remains parked at station s2.
   [ 973, 1063) -> Service a request driving for customer c10 from s2 to s3.
   [1063, 1209) -> It remains parked at station s3, which was charging for charging.
   [1209, 1299) -> Service a request driving for customer c36 from s3 to s0.
   [1299, tmax) -> It remains parked at station s0, which was charging for charging.

Schedule for EV v24:
   [   0, tmax) -> It remains parked at station s2.

Schedule for EV v25:
   [   0, tmax) -> It remains parked at station s2.

Schedule for EV v26:
   [   0,  790) -> It remains parked at station s3.
   [ 790,  850) -> Service a request driving for customer c20 from s3 to s2.
   [ 850, tmax) -> It remains parked at station s2.

Schedule for EV v27:
   [   0, 1207) -> It remains parked at station s3.
   [1207, 1297) -> Service a request driving for customer c38 from s3 to s9.
   [1297, tmax) -> It remains parked at station s9, which was charging for charging.

Schedule for EV v28:
   [   0,  846) -> It remains parked at station s3.
   [ 846, 1086) -> Service a request driving for customer c11 from s3 to s1.
   [1086, 1090) -> It remains parked at station s1, which was charging for charging.
   [1090, 1150) -> Service a request driving for customer c35 from s1 to s3.
   [1150, tmax) -> It remains parked at station s3.

Schedule for EV v29:
   [   0,  725) -> It remains parked at station s3.
   [ 725,  785) -> Service a request driving for customer c38 from s3 to s1.
   [ 785, tmax) -> It remains parked at station s1, which was charging for charging.

Schedule for EV v30:
   [   0, tmax) -> It remains parked at station s3.

Schedule for EV v31:
   [   0, tmax) -> It remains parked at station s3.

Schedule for EV v32:
   [   0,  675) -> It remains parked at station s4.
   [ 675,  735) -> Service a request driving for customer c23 from s4 to s3.
   [ 735, 1145) -> It remains parked at station s3.
   [1145, 1235) -> Service a request driving for customer c37 from s3 to s6.
   [1235, 1325) -> It remains parked at station s6, which was charging for charging.
   [1325, 1385) -> Service a request driving for customer c23 from s6 to s7.
   [1385, 1394) -> It remains parked at station s7.
   [1394, 1634) -> Service a request driving for customer c2 from s7 to s0.
   [1634, tmax) -> It remains parked at station s0, which was charging for charging.

Schedule for EV v33:
   [   0,  436) -> It remains parked at station s4.
   [ 436,  556) -> Service a request driving for customer c32 from s4 to s1.
   [ 556, tmax) -> It remains parked at station s1.

Schedule for EV v34:
   [   0,  550) -> It remains parked at station s4.
   [ 550,  610) -> Service a request driving for customer c11 from s4 to s7.
   [ 610, tmax) -> It remains parked at station s7.

Schedule for EV v35:
   [   0, 1029) -> It remains parked at station s5.
   [1029, 1089) -> Service a request driving for customer c35 from s5 to s9.
   [1089, tmax) -> It remains parked at station s9, which was charging for charging.

Schedule for EV v36:
   [   0, tmax) -> It remains parked at station s5.

Schedule for EV v37:
   [   0, tmax) -> It remains parked at station s5.

Schedule for EV v38:
   [   0, tmax) -> It remains parked at station s5.

Schedule for EV v39:
   [   0,  729) -> It remains parked at station s5.
   [ 729,  819) -> Service a request driving for customer c8 from s5 to s4.
   [ 819,  908) -> It remains parked at station s4, which was charging for charging.
   [ 908,  968) -> Service a request driving for customer c4 from s4 to s2.
   [ 968, tmax) -> It remains parked at station s2.

Schedule for EV v40:
   [   0, tmax) -> It remains parked at station s5.

Schedule for EV v41:
   [   0,  485) -> It remains parked at station s5.
   [ 485,  575) -> Service a request driving for customer c27 from s5 to s5.
   [ 575, tmax) -> It remains parked at station s5, which was charging for charging.

Schedule for EV v42:
   [   0, tmax) -> It remains parked at station s5.

Schedule for EV v43:
   [   0, tmax) -> It remains parked at station s5.

Schedule for EV v44:
   [   0, 1034) -> It remains parked at station s6.
   [1034, 1154) -> Service a request driving for customer c0 from s6 to s11.
   [1154, tmax) -> It remains parked at station s11.

Schedule for EV v45:
   [   0,  730) -> It remains parked at station s6.
   [ 730,  790) -> Service a request driving for customer c32 from s6 to s2.
   [ 790, tmax) -> It remains parked at station s2, which was charging for charging.

Schedule for EV v46:
   [   0, 1329) -> It remains parked at station s6.
   [1329, 1389) -> Service a request driving for customer c21 from s6 to s7.
   [1389, tmax) -> It remains parked at station s7, which was charging for charging.

Schedule for EV v47:
   [   0,  485) -> It remains parked at station s6.
   [ 485,  695) -> Service a request driving for customer c31 from s6 to s3.
   [ 695,  727) -> It remains parked at station s3.
   [ 727,  847) -> Service a request driving for customer c35 from s3 to s4.
   [ 847,  914) -> It remains parked at station s4, which was charging for charging.
   [ 914, 1244) -> Service a request driving for customer c5 from s4 to s9.
   [1244, 1268) -> It remains parked at station s9, which was charging for charging.
   [1268, 1328) -> Service a request driving for customer c0 from s9 to s7.
   [1328, tmax) -> It remains parked at station s7.

Schedule for EV v48:
   [   0,  847) -> It remains parked at station s7.
   [ 847, 1027) -> Service a request driving for customer c8 from s7 to s11.
   [1027, tmax) -> It remains parked at station s11, which was charging for charging.

Schedule for EV v49:
   [   0,  909) -> It remains parked at station s7.
   [ 909, 1089) -> Service a request driving for customer c18 from s7 to s4.
   [1089, 1096) -> It remains parked at station s4, which was charging for charging.
   [1096, 1336) -> Service a request driving for customer c24 from s4 to s3.
   [1336, tmax) -> It remains parked at station s3.

Schedule for EV v50:
   [   0, tmax) -> It remains parked at station s7.

Schedule for EV v51:
   [   0,  906) -> It remains parked at station s7.
   [ 906, 1056) -> Service a request driving for customer c21 from s7 to s4.
   [1056, tmax) -> It remains parked at station s4.

Schedule for EV v52:
   [   0,  434) -> It remains parked at station s7.
   [ 434,  494) -> Service a request driving for customer c6 from s7 to s3.
   [ 494,  613) -> It remains parked at station s3.
   [ 613,  703) -> Service a request driving for customer c20 from s3 to s8.
   [ 703,  790) -> It remains parked at station s8, which was charging for charging.
   [ 790,  820) -> Service a request driving for customer c27 from s8 to s0.
   [ 820,  967) -> It remains parked at station s0, which was charging for charging.
   [ 967, 1087) -> Service a request driving for customer c30 from s0 to s2.
   [1087, tmax) -> It remains parked at station s2, which was charging for charging.

Schedule for EV v53:
   [   0, tmax) -> It remains parked at station s7.

Schedule for EV v54:
   [   0, 1326) -> It remains parked at station s7.
   [1326, 1356) -> Service a request driving for customer c1 from s7 to s8.
   [1356, tmax) -> It remains parked at station s8.

Schedule for EV v55:
   [   0, tmax) -> It remains parked at station s8.

Schedule for EV v56:
   [   0, tmax) -> It remains parked at station s8.

Schedule for EV v57:
   [   0, 1155) -> It remains parked at station s8.
   [1155, 1245) -> Service a request driving for customer c29 from s8 to s4.
   [1245, tmax) -> It remains parked at station s4.

Schedule for EV v58:
   [   0, 1030) -> It remains parked at station s8.
   [1030, 1090) -> Service a request driving for customer c36 from s8 to s6.
   [1090, 1265) -> It remains parked at station s6, which was charging for charging.
   [1265, 1415) -> Service a request driving for customer c34 from s6 to s0.
   [1415, tmax) -> It remains parked at station s0.

Schedule for EV v59:
   [   0,  906) -> It remains parked at station s8.
   [ 906,  966) -> Service a request driving for customer c37 from s8 to s4.
   [ 966,  967) -> It remains parked at station s4.
   [ 967, 1027) -> Service a request driving for customer c28 from s4 to s9.
   [1027, tmax) -> It remains parked at station s9.

Schedule for EV v60:
   [   0, tmax) -> It remains parked at station s8.

Schedule for EV v61:
   [   0, 1215) -> It remains parked at station s8, which was charging for charging.
   [1215, 1365) -> Service a request driving for customer c22 from s8 to s0.
   [1365, tmax) -> It remains parked at station s0.

Schedule for EV v62:
   [   0, tmax) -> It remains parked at station s8, which was charging for charging.

Schedule for EV v63:
   [   0,  725) -> It remains parked at station s8, which was charging for charging.
   [ 725,  785) -> Service a request driving for customer c28 from s8 to s4.
   [ 785,  796) -> It remains parked at station s4, which was charging for charging.
   [ 796,  946) -> Service a request driving for customer c29 from s4 to s6.
   [ 946, 1146) -> It remains parked at station s6.
   [1146, 1176) -> Service a request driving for customer c18 from s6 to s11.
   [1176, tmax) -> It remains parked at station s11, which was charging for charging.

Schedule for EV v64:
   [   0, tmax) -> It remains parked at station s9.

Schedule for EV v65:
   [   0, 1036) -> It remains parked at station s9.
   [1036, 1066) -> Service a request driving for customer c6 from s9 to s1.
   [1066, 1275) -> It remains parked at station s1, which was charging for charging.
   [1275, 1335) -> Service a request driving for customer c6 from s1 to s0.
   [1335, tmax) -> It remains parked at station s0, which was charging for charging.

Schedule for EV v66:
   [   0, 1270) -> It remains parked at station s9.
   [1270, 1480) -> Service a request driving for customer c19 from s9 to s5.
   [1480, tmax) -> It remains parked at station s5, which was charging for charging.

Schedule for EV v67:
   [   0,  905) -> It remains parked at station s9.
   [ 905,  965) -> Service a request driving for customer c14 from s9 to s7.
   [ 965, 1328) -> It remains parked at station s7, which was charging for charging.
   [1328, 1658) -> Service a request driving for customer c12 from s7 to s10.
   [1658, tmax) -> It remains parked at station s10.

Schedule for EV v68:
   [   0,  733) -> It remains parked at station s10.
   [ 733,  763) -> Service a request driving for customer c0 from s10 to s11.
   [ 763, 1028) -> It remains parked at station s11.
   [1028, 1178) -> Service a request driving for customer c17 from s11 to s1.
   [1178, 1212) -> It remains parked at station s1, which was charging for charging.
   [1212, 1302) -> Service a request driving for customer c31 from s1 to s1.
   [1302, tmax) -> It remains parked at station s1.

Schedule for EV v69:
   [   0, 1146) -> It remains parked at station s10.
   [1146, 1206) -> Service a request driving for customer c4 from s10 to s9.
   [1206, 1211) -> It remains parked at station s9.
   [1211, 1421) -> Service a request driving for customer c15 from s9 to s11.
   [1421, tmax) -> It remains parked at station s11.

Schedule for EV v70:
   [   0, 1271) -> It remains parked at station s10.
   [1271, 1331) -> Service a request driving for customer c20 from s10 to s9.
   [1331, tmax) -> It remains parked at station s9.

Schedule for EV v71:
   [   0, tmax) -> It remains parked at station s10.

Schedule for EV v72:
   [   0, tmax) -> It remains parked at station s11.

Schedule for EV v73:
   [   0, tmax) -> It remains parked at station s11.

Schedule for EV v74:
   [   0, tmax) -> It remains parked at station s11.

Schedule for EV v75:
   [   0,  736) -> It remains parked at station s11.
   [ 736,  796) -> Service a request driving for customer c33 from s11 to s5.
   [ 796,  965) -> It remains parked at station s5, which was charging for charging.
   [ 965, 1025) -> Service a request driving for customer c15 from s5 to s10.
   [1025, tmax) -> It remains parked at station s10, which was charging for charging.

Schedule for EV v76:
   [   0, tmax) -> It remains parked at station s11.

Schedule for EV v77:
   [   0,  916) -> It remains parked at station s11.
   [ 916, 1006) -> Service a request driving for customer c12 from s11 to s11.
   [1006, tmax) -> It remains parked at station s11, which was charging for charging.

Schedule for EV v78:
   [   0, tmax) -> It remains parked at station s11.

Schedule for EV v79:
   [   0, tmax) -> It remains parked at station s11, which was charging for charging.

Schedule for EV v80:
   [   0, tmax) -> It remains parked at station s11, which was charging for charging.

Set of satisfied customers
   {c0, c1, c2, c3, c4, c5, c6, c8, c10, c11, c12, c13, c14, c15, c17, c18, c19, c20, c21, c22, c23, c24, c26, c27, c28, c29, c30, c31, c32, c33, c34, c35, c36, c37, c38}

