Academic license - for non-commercial use only
Gurobi Optimizer version 9.0.3 build v9.0.3rc0 (linux64)
Optimize a model with 57232 rows, 39325 columns and 1110522 nonzeros
Model fingerprint: 0xe5773ec4
Variable types: 21440 continuous, 17885 integer (17885 binary)
Coefficient statistics:
  Matrix range     [1e+00, 6e+06]
  Objective range  [3e+01, 5e+02]
  Bounds range     [1e+00, 2e+06]
  RHS range        [1e+00, 2e+06]

Loaded user MIP start with objective 3210

Presolve removed 5290 rows and 2248 columns
Presolve time: 4.56s
Presolved: 51942 rows, 37077 columns, 1046227 nonzeros
Variable types: 4271 continuous, 32806 integer (28564 binary)

Root simplex log...

Iteration    Objective       Primal Inf.    Dual Inf.      Time
       0    1.2210000e+04   3.336094e+03   0.000000e+00      5s
   10424    1.2209978e+04   1.387668e+03   0.000000e+00     10s
   16145    1.2209975e+04   9.816003e+05   0.000000e+00     15s
   20883    1.2209972e+04   8.533251e+05   0.000000e+00     20s
   25018    1.2209970e+04   3.565130e+04   0.000000e+00     25s
   28881    1.2209968e+04   6.832022e+04   0.000000e+00     30s
   32479    1.2209966e+04   2.836037e+04   0.000000e+00     35s
   35947    1.2209965e+04   2.082920e+04   0.000000e+00     40s
   39159    1.2209963e+04   3.250223e+04   0.000000e+00     45s
   42609    1.2209961e+04   4.823006e+03   0.000000e+00     50s
   45827    1.2209959e+04   1.693899e+04   0.000000e+00     55s
   48764    1.2209958e+04   3.234353e+04   0.000000e+00     60s
   51928    1.2059958e+04   2.251391e+04   0.000000e+00     65s
   54908    1.1969958e+04   7.244121e+04   0.000000e+00     70s
   57851    1.1969957e+04   8.596437e+05   0.000000e+00     75s
   60685    1.1909955e+04   2.684161e+05   0.000000e+00     80s
   63672    1.1909953e+04   1.151553e+04   0.000000e+00     85s
   66533    1.1909952e+04   2.464751e+05   0.000000e+00     90s
   69475    1.1909951e+04   3.547471e+04   0.000000e+00     95s
   72455    1.1909949e+04   4.135005e+04   0.000000e+00    100s
   75087    1.1909946e+04   4.150003e+05   0.000000e+00    105s
   78052    1.1849949e+04   1.076808e+05   0.000000e+00    110s
   80846    1.1849948e+04   9.175380e+03   0.000000e+00    115s
   83585    1.1849947e+04   2.212243e+04   0.000000e+00    120s
   86336    1.1849946e+04   5.177414e+04   0.000000e+00    125s
   89086    1.1834947e+04   1.410672e+05   0.000000e+00    130s
   91784    1.1834946e+04   2.095979e+04   0.000000e+00    135s
   94457    1.1834945e+04   8.375619e+04   0.000000e+00    140s
   96954    1.1834943e+04   1.280144e+05   0.000000e+00    145s
   99544    1.1834942e+04   1.938599e+05   0.000000e+00    150s
  102079    1.1819941e+04   2.181509e+04   0.000000e+00    155s
  104785    1.1789939e+04   8.932981e+04   0.000000e+00    160s
  107628    1.1789938e+04   4.468020e+03   0.000000e+00    165s
  110310    1.1789937e+04   8.976790e+03   0.000000e+00    170s
  112961    1.1789936e+04   9.760654e+03   0.000000e+00    175s
  115563    1.1789935e+04   3.137090e+04   0.000000e+00    180s
  118395    1.1789934e+04   1.911717e+05   0.000000e+00    185s
  121125    1.1789933e+04   1.042547e+05   0.000000e+00    190s
  123586    1.1789932e+04   1.923423e+06   0.000000e+00    195s
  126234    1.1789930e+04   1.878393e+04   0.000000e+00    200s
  128760    1.1789929e+04   2.828107e+05   0.000000e+00    205s
  131076    1.1789928e+04   3.990684e+04   0.000000e+00    210s
  133580    1.1789927e+04   1.620543e+04   0.000000e+00    215s
  136083    1.1789926e+04   2.829077e+05   0.000000e+00    220s
  138582    1.1789925e+04   8.770174e+04   0.000000e+00    225s
  141125    1.1789924e+04   4.065859e+04   0.000000e+00    230s
  143458    1.1789923e+04   3.300879e+04   0.000000e+00    235s
  146044    1.1789922e+04   1.927451e+05   0.000000e+00    240s
  148370    1.1789920e+04   9.460440e+04   0.000000e+00    245s
  150683    1.1789919e+04   1.876187e+04   0.000000e+00    250s
  153028    1.1789918e+04   3.487696e+04   0.000000e+00    255s
  155592    1.1789917e+04   2.389233e+04   0.000000e+00    260s
  157342    1.1789916e+04   3.417557e+07   0.000000e+00    265s
  158772    1.1759921e+04   4.953251e+07   0.000000e+00    270s
  160062    1.1699913e+04   1.176218e+07   0.000000e+00    275s
  161332    1.1669919e+04   1.371078e+07   0.000000e+00    281s
  162542    1.1669915e+04   2.685957e+07   0.000000e+00    285s
  163942    1.1669912e+04   4.606793e+06   0.000000e+00    291s
  164942    1.1459919e+04   7.376440e+08   0.000000e+00    295s
  166112    1.1459913e+04   2.513341e+06   0.000000e+00    300s
  167082    1.1459912e+04   8.236672e+06   0.000000e+00    305s
  168182    1.1459911e+04   1.798062e+06   0.000000e+00    311s
  169152    1.1459910e+04   2.396929e+06   0.000000e+00    316s
  170142    1.1459909e+04   1.815036e+06   0.000000e+00    320s
  171262    1.1459908e+04   1.599227e+06   0.000000e+00    326s
  172202    1.1459907e+04   8.587344e+06   0.000000e+00    331s
  173152    1.1459906e+04   2.890419e+06   0.000000e+00    335s
  174102    1.1459906e+04   7.456577e+06   0.000000e+00    341s
  175092    1.1459905e+04   9.925783e+06   0.000000e+00    346s
  175912    1.1459904e+04   2.510605e+07   0.000000e+00    350s
  176892    1.1459902e+04   1.938670e+07   0.000000e+00    355s
  177902    1.1459894e+04   1.426597e+07   0.000000e+00    360s
  178932    1.1429918e+04   2.560069e+09   0.000000e+00    366s
  179942    1.1429908e+04   1.796039e+06   0.000000e+00    371s
  180772    1.1429907e+04   7.760766e+05   0.000000e+00    375s
  181762    1.1429907e+04   1.045027e+07   0.000000e+00    381s
  182562    1.1429906e+04   1.783636e+06   0.000000e+00    385s
  183562    1.1429906e+04   1.057021e+06   0.000000e+00    390s
  184542    1.1429905e+04   8.637783e+05   0.000000e+00    396s
  185362    1.1429905e+04   1.697800e+06   0.000000e+00    400s
  186362    1.1429905e+04   1.896837e+05   0.000000e+00    406s
  187172    1.1429904e+04   3.612026e+05   0.000000e+00    410s
  188102    1.1429904e+04   6.537324e+05   0.000000e+00    415s
  189042    1.1429904e+04   1.098563e+05   0.000000e+00    420s
  189852    1.1429904e+04   2.923003e+03   0.000000e+00    425s
  190832    1.1429904e+04   2.141901e+02   0.000000e+00    431s
  191356    1.1430000e+04   0.000000e+00   0.000000e+00    433s
  191356    1.1430000e+04   0.000000e+00   0.000000e+00    434s

Root relaxation: objective 1.143000e+04, 191356 iterations, 428.62 seconds
Total elapsed time = 1245.40s
Total elapsed time = 1384.97s
Total elapsed time = 1482.88s
Total elapsed time = 1591.68s

    Nodes    |    Current Node    |     Objective Bounds      |     Work
 Expl Unexpl |  Obj  Depth IntInf | Incumbent    BestBd   Gap | It/Node Time

     0     0 11430.0000    0 2208 3210.00000 11430.0000   256%     - 1624s
H    0     0                    3240.0000000 11430.0000   253%     - 1624s
     0     0 11430.0000    0 3912 3240.00000 11430.0000   253%     - 1697s
     0     0 11430.0000    0 3798 3240.00000 11430.0000   253%     - 1746s
     0     0 11430.0000    0 1816 3240.00000 11430.0000   253%     - 1945s
     0     0 11430.0000    0 2126 3240.00000 11430.0000   253%     - 1973s
     0     0 11430.0000    0 1601 3240.00000 11430.0000   253%     - 2244s
     0     0 11430.0000    0 2338 3240.00000 11430.0000   253%     - 2277s
     0     0 11430.0000    0 1415 3240.00000 11430.0000   253%     - 2534s
     0     0 11430.0000    0 2161 3240.00000 11430.0000   253%     - 2567s
     0     0 11430.0000    0 1811 3240.00000 11430.0000   253%     - 2943s
H    0     0                    3510.0000000 11430.0000   226%     - 2943s
     0     0 11430.0000    0 2600 3510.00000 11430.0000   226%     - 2984s
     0     0 11430.0000    0 1503 3510.00000 11430.0000   226%     - 3475s
     0     0 11430.0000    0 2807 3510.00000 11430.0000   226%     - 3517s
     0     0 11430.0000    0 3572 3510.00000 11430.0000   226%     - 3600s

Cutting planes:
  Gomory: 7
  Implied bound: 258
  MIR: 34
  Zero half: 1
  Mod-K: 5
  RLT: 362
  Relax-and-lift: 30

Explored 1 nodes (1920833 simplex iterations) in 3600.02 seconds
Thread count was 1 (of 40 available processors)

Solution count 3: 3510 3240 3210 

Time limit reached
Best objective 3.510000000000e+03, best bound 1.143000000000e+04, gap 225.6410%

----------

Best objective (UB): 11430.000
Best feasible solution (LB): 3510.000
Gap between the lower bound and upper bound: 225.641%

----------

Number of customers served: 23

Schedule for EV v0:
   [   0, 1276) -> It remains parked at station s0.
   [1276, 1366) -> Service a request driving for customer c21 from s0 to s1.
   [1366, tmax) -> It remains parked at station s1.

Schedule for EV v1:
   [   0, tmax) -> It remains parked at station s0.

Schedule for EV v2:
   [   0, tmax) -> It remains parked at station s0.

Schedule for EV v3:
   [   0, tmax) -> It remains parked at station s0.

Schedule for EV v4:
   [   0, tmax) -> It remains parked at station s0.

Schedule for EV v5:
   [   0, tmax) -> It remains parked at station s0.

Schedule for EV v6:
   [   0, tmax) -> It remains parked at station s0, which was charging for charging.

Schedule for EV v7:
   [   0,  546) -> It remains parked at station s1.
   [ 546,  816) -> Service a request driving for customer c46 from s1 to s0.
   [ 816, tmax) -> It remains parked at station s0, which was charging for charging.

Schedule for EV v8:
   [   0,  547) -> It remains parked at station s1.
   [ 547,  637) -> Service a request driving for customer c36 from s1 to s4.
   [ 637, 1270) -> It remains parked at station s4, which was charging for charging.
   [1270, 1360) -> Service a request driving for customer c36 from s4 to s8.
   [1360, tmax) -> It remains parked at station s8, which was charging for charging.

Schedule for EV v9:
   [   0, 1090) -> It remains parked at station s1.
   [1090, 1150) -> Service a request driving for customer c51 from s1 to s3.
   [1150, tmax) -> It remains parked at station s3.

Schedule for EV v10:
   [   0,  855) -> It remains parked at station s1.
   [ 855,  915) -> Service a request driving for customer c57 from s1 to s11.
   [ 915, tmax) -> It remains parked at station s11.

Schedule for EV v11:
   [   0, tmax) -> It remains parked at station s1.

Schedule for EV v12:
   [   0,  787) -> It remains parked at station s1.
   [ 787,  877) -> Service a request driving for customer c51 from s1 to s1.
   [ 877, tmax) -> It remains parked at station s1.

Schedule for EV v13:
   [   0, tmax) -> It remains parked at station s1.

Schedule for EV v14:
   [   0, tmax) -> It remains parked at station s2.

Schedule for EV v15:
   [   0, tmax) -> It remains parked at station s2.

Schedule for EV v16:
   [   0, 1145) -> It remains parked at station s2.
   [1145, 1175) -> Service a request driving for customer c34 from s2 to s2.
   [1175, tmax) -> It remains parked at station s2.

Schedule for EV v17:
   [   0, tmax) -> It remains parked at station s2.

Schedule for EV v18:
   [   0, tmax) -> It remains parked at station s2.

Schedule for EV v19:
   [   0, tmax) -> It remains parked at station s2.

Schedule for EV v20:
   [   0, tmax) -> It remains parked at station s2.

Schedule for EV v21:
   [   0, tmax) -> It remains parked at station s2.

Schedule for EV v22:
   [   0, tmax) -> It remains parked at station s2.

Schedule for EV v23:
   [   0, tmax) -> It remains parked at station s2.

Schedule for EV v24:
   [   0, tmax) -> It remains parked at station s2.

Schedule for EV v25:
   [   0, tmax) -> It remains parked at station s2.

Schedule for EV v26:
   [   0, tmax) -> It remains parked at station s2.

Schedule for EV v27:
   [   0, tmax) -> It remains parked at station s2.

Schedule for EV v28:
   [   0, tmax) -> It remains parked at station s2.

Schedule for EV v29:
   [   0, 1095) -> It remains parked at station s3.
   [1095, 1305) -> Service a request driving for customer c41 from s3 to s2.
   [1305, tmax) -> It remains parked at station s2, which was charging for charging.

Schedule for EV v30:
   [   0,  494) -> It remains parked at station s3.
   [ 494,  734) -> Service a request driving for customer c50 from s3 to s1.
   [ 734, 1150) -> It remains parked at station s1.
   [1150, 1180) -> Service a request driving for customer c50 from s1 to s5.
   [1180, tmax) -> It remains parked at station s5.

Schedule for EV v31:
   [   0,  906) -> It remains parked at station s3.
   [ 906,  996) -> Service a request driving for customer c6 from s3 to s8.
   [ 996, tmax) -> It remains parked at station s8.

Schedule for EV v32:
   [   0, tmax) -> It remains parked at station s3.

Schedule for EV v33:
   [   0, tmax) -> It remains parked at station s3.

Schedule for EV v34:
   [   0, tmax) -> It remains parked at station s3.

Schedule for EV v35:
   [   0, tmax) -> It remains parked at station s3.

Schedule for EV v36:
   [   0, tmax) -> It remains parked at station s3.

Schedule for EV v37:
   [   0, tmax) -> It remains parked at station s3.

Schedule for EV v38:
   [   0, tmax) -> It remains parked at station s3.

Schedule for EV v39:
   [   0, tmax) -> It remains parked at station s3.

Schedule for EV v40:
   [   0, tmax) -> It remains parked at station s3.

Schedule for EV v41:
   [   0,  733) -> It remains parked at station s4.
   [ 733,  883) -> Service a request driving for customer c45 from s4 to s1.
   [ 883, tmax) -> It remains parked at station s1.

Schedule for EV v42:
   [   0,  852) -> It remains parked at station s4.
   [ 852,  912) -> Service a request driving for customer c44 from s4 to s2.
   [ 912, 1094) -> It remains parked at station s2, which was charging for charging.
   [1094, 1214) -> Service a request driving for customer c44 from s2 to s6.
   [1214, tmax) -> It remains parked at station s6.

Schedule for EV v43:
   [   0,  967) -> It remains parked at station s4.
   [ 967, 1027) -> Service a request driving for customer c2 from s4 to s0.
   [1027, tmax) -> It remains parked at station s0, which was charging for charging.

Schedule for EV v44:
   [   0,  731) -> It remains parked at station s4.
   [ 731,  761) -> Service a request driving for customer c39 from s4 to s6.
   [ 761, tmax) -> It remains parked at station s6, which was charging for charging.

Schedule for EV v45:
   [   0,  434) -> It remains parked at station s4.
   [ 434,  494) -> Service a request driving for customer c54 from s4 to s2.
   [ 494, tmax) -> It remains parked at station s2, which was charging for charging.

Schedule for EV v46:
   [   0, tmax) -> It remains parked at station s4.

Schedule for EV v47:
   [   0, tmax) -> It remains parked at station s4.

Schedule for EV v48:
   [   0, tmax) -> It remains parked at station s4.

Schedule for EV v49:
   [   0, tmax) -> It remains parked at station s5.

Schedule for EV v50:
   [   0, tmax) -> It remains parked at station s5.

Schedule for EV v51:
   [   0, tmax) -> It remains parked at station s5.

Schedule for EV v52:
   [   0, tmax) -> It remains parked at station s5.

Schedule for EV v53:
   [   0, tmax) -> It remains parked at station s5.

Schedule for EV v54:
   [   0, tmax) -> It remains parked at station s5.

Schedule for EV v55:
   [   0, tmax) -> It remains parked at station s5.

Schedule for EV v56:
   [   0, tmax) -> It remains parked at station s5.

Schedule for EV v57:
   [   0, tmax) -> It remains parked at station s5.

Schedule for EV v58:
   [   0, tmax) -> It remains parked at station s5.

Schedule for EV v59:
   [   0, tmax) -> It remains parked at station s5.

Schedule for EV v60:
   [   0,  728) -> It remains parked at station s6.
   [ 728, 1028) -> Service a request driving for customer c23 from s6 to s4.
   [1028, tmax) -> It remains parked at station s4.

Schedule for EV v61:
   [   0,  967) -> It remains parked at station s6.
   [ 967, 1147) -> Service a request driving for customer c52 from s6 to s8.
   [1147, tmax) -> It remains parked at station s8, which was charging for charging.

Schedule for EV v62:
   [   0, tmax) -> It remains parked at station s6.

Schedule for EV v63:
   [   0, tmax) -> It remains parked at station s6.

Schedule for EV v64:
   [   0, tmax) -> It remains parked at station s6.

Schedule for EV v65:
   [   0, tmax) -> It remains parked at station s6.

Schedule for EV v66:
   [   0, tmax) -> It remains parked at station s6.

Schedule for EV v67:
   [   0, tmax) -> It remains parked at station s6.

Schedule for EV v68:
   [   0, tmax) -> It remains parked at station s6.

Schedule for EV v69:
   [   0,  609) -> It remains parked at station s7.
   [ 609,  729) -> Service a request driving for customer c47 from s7 to s2.
   [ 729, tmax) -> It remains parked at station s2, which was charging for charging.

Schedule for EV v70:
   [   0, tmax) -> It remains parked at station s7.

Schedule for EV v71:
   [   0, tmax) -> It remains parked at station s7.

Schedule for EV v72:
   [   0, tmax) -> It remains parked at station s7.

Schedule for EV v73:
   [   0, tmax) -> It remains parked at station s7.

Schedule for EV v74:
   [   0, tmax) -> It remains parked at station s7.

Schedule for EV v75:
   [   0, tmax) -> It remains parked at station s7.

Schedule for EV v76:
   [   0,  728) -> It remains parked at station s7.
   [ 728,  938) -> Service a request driving for customer c54 from s7 to s8.
   [ 938, tmax) -> It remains parked at station s8.

Schedule for EV v77:
   [   0,  606) -> It remains parked at station s8.
   [ 606,  666) -> Service a request driving for customer c10 from s8 to s4.
   [ 666,  972) -> It remains parked at station s4, which was charging for charging.
   [ 972, 1182) -> Service a request driving for customer c10 from s4 to s11.
   [1182, tmax) -> It remains parked at station s11.

Schedule for EV v78:
   [   0,  732) -> It remains parked at station s8.
   [ 732,  762) -> Service a request driving for customer c28 from s8 to s1.
   [ 762,  845) -> It remains parked at station s1.
   [ 845,  905) -> Service a request driving for customer c28 from s1 to s11.
   [ 905, 1153) -> It remains parked at station s11.
   [1153, 1303) -> Service a request driving for customer c28 from s11 to s9.
   [1303, tmax) -> It remains parked at station s9.

Schedule for EV v79:
   [   0,  434) -> It remains parked at station s8.
   [ 434,  494) -> Service a request driving for customer c19 from s8 to s2.
   [ 494,  550) -> It remains parked at station s2, which was charging for charging.
   [ 550,  610) -> Service a request driving for customer c19 from s2 to s0.
   [ 610, 1153) -> It remains parked at station s0, which was charging for charging.
   [1153, 1213) -> Service a request driving for customer c19 from s0 to s4.
   [1213, tmax) -> It remains parked at station s4.

Schedule for EV v80:
   [   0, tmax) -> It remains parked at station s8.

Schedule for EV v81:
   [   0, tmax) -> It remains parked at station s8.

Schedule for EV v82:
   [   0, tmax) -> It remains parked at station s8.

Schedule for EV v83:
   [   0, tmax) -> It remains parked at station s8.

Schedule for EV v84:
   [   0, 1094) -> It remains parked at station s9.
   [1094, 1154) -> Service a request driving for customer c15 from s9 to s3.
   [1154, tmax) -> It remains parked at station s3, which was charging for charging.

Schedule for EV v85:
   [   0,  795) -> It remains parked at station s9.
   [ 795,  825) -> Service a request driving for customer c9 from s9 to s4.
   [ 825, tmax) -> It remains parked at station s4.

Schedule for EV v86:
   [   0,  907) -> It remains parked at station s9.
   [ 907,  937) -> Service a request driving for customer c4 from s9 to s11.
   [ 937, tmax) -> It remains parked at station s11, which was charging for charging.

Schedule for EV v87:
   [   0, tmax) -> It remains parked at station s9.

Schedule for EV v88:
   [   0, tmax) -> It remains parked at station s9.

Schedule for EV v89:
   [   0, tmax) -> It remains parked at station s10.

Schedule for EV v90:
   [   0, tmax) -> It remains parked at station s10.

Schedule for EV v91:
   [   0, 1150) -> It remains parked at station s10.
   [1150, 1210) -> Service a request driving for customer c4 from s10 to s10.
   [1210, tmax) -> It remains parked at station s10.

Schedule for EV v92:
   [   0, tmax) -> It remains parked at station s10.

Schedule for EV v93:
   [   0, tmax) -> It remains parked at station s10.

Schedule for EV v94:
   [   0, tmax) -> It remains parked at station s11.

Schedule for EV v95:
   [   0, tmax) -> It remains parked at station s11.

Schedule for EV v96:
   [   0, tmax) -> It remains parked at station s11.

Schedule for EV v97:
   [   0, tmax) -> It remains parked at station s11.

Schedule for EV v98:
   [   0, tmax) -> It remains parked at station s11.

Set of satisfied customers
   {c2, c4, c6, c9, c10, c15, c19, c21, c23, c28, c34, c36, c39, c41, c44, c45, c46, c47, c50, c51, c52, c54, c57}

