Academic license - for non-commercial use only
Gurobi Optimizer version 9.0.3 build v9.0.3rc0 (linux64)
Optimize a model with 71806 rows, 49206 columns and 1456110 nonzeros
Model fingerprint: 0xb2f54903
Variable types: 26682 continuous, 22524 integer (22524 binary)
Coefficient statistics:
  Matrix range     [1e+00, 7e+06]
  Objective range  [3e+01, 6e+02]
  Bounds range     [1e+00, 2e+06]
  RHS range        [1e+00, 2e+06]

Loaded user MIP start with objective 2940

Presolve removed 4955 rows and 1731 columns (presolve time = 5s) ...
Presolve removed 4950 rows and 1726 columns
Presolve time: 5.70s
Presolved: 66856 rows, 47480 columns, 1413512 nonzeros
Variable types: 5686 continuous, 41794 integer (36478 binary)

Root simplex log...

Iteration    Objective       Primal Inf.    Dual Inf.      Time
       0    1.2600000e+04   3.695547e+03   0.000000e+00      7s
    7894    1.2509986e+04   5.997178e+04   0.000000e+00     10s
   14385    1.2449982e+04   3.903282e+04   0.000000e+00     15s
   18276    1.2449980e+04   2.950646e+06   0.000000e+00     20s
   21271    1.2449979e+04   4.241877e+04   0.000000e+00     25s
   24433    1.2449976e+04   7.884259e+04   0.000000e+00     30s
   27130    1.2449975e+04   1.053545e+06   0.000000e+00     35s
   29721    1.2449974e+04   3.469524e+06   0.000000e+00     40s
   32413    1.2449972e+04   2.850880e+03   0.000000e+00     45s
   34845    1.2449969e+04   6.145202e+06   0.000000e+00     50s
   37311    1.2449968e+04   7.203535e+05   0.000000e+00     55s
   39749    1.2449967e+04   1.614784e+05   0.000000e+00     60s
   42094    1.2449965e+04   1.796594e+04   0.000000e+00     65s
   44321    1.2449965e+04   1.726364e+04   0.000000e+00     70s
   46288    1.2449961e+04   4.050636e+04   0.000000e+00     75s
   48286    1.2449960e+04   2.459641e+04   0.000000e+00     80s
   50248    1.2449960e+04   2.374583e+04   0.000000e+00     85s
   52237    1.2449959e+04   1.090708e+07   0.000000e+00     90s
   54234    1.2449959e+04   4.451789e+04   0.000000e+00     95s
   56078    1.2449958e+04   2.266321e+05   0.000000e+00    100s
   58026    1.2449957e+04   1.528404e+05   0.000000e+00    105s
   59992    1.2449957e+04   3.246975e+04   0.000000e+00    110s
   62101    1.2449955e+04   5.207007e+04   0.000000e+00    115s
   64132    1.2449954e+04   1.334908e+05   0.000000e+00    120s
   66208    1.2449953e+04   3.221283e+04   0.000000e+00    125s
   67968    1.2449953e+04   4.270760e+05   0.000000e+00    130s
   69734    1.2449952e+04   8.338005e+04   0.000000e+00    135s
   71553    1.2449952e+04   1.949743e+05   0.000000e+00    140s
   73418    1.2449951e+04   2.519083e+05   0.000000e+00    145s
   75230    1.2449950e+04   6.406955e+04   0.000000e+00    150s
   76844    1.2449950e+04   2.664473e+04   0.000000e+00    155s
   78462    1.2449949e+04   3.667184e+04   0.000000e+00    160s
   80054    1.2449949e+04   5.754931e+04   0.000000e+00    165s
   81903    1.2449949e+04   8.843213e+04   0.000000e+00    170s
   83594    1.2449948e+04   1.663718e+04   0.000000e+00    175s
   85228    1.2449948e+04   1.029848e+04   0.000000e+00    180s
   86877    1.2449947e+04   7.183929e+03   0.000000e+00    185s
   88558    1.2449947e+04   1.306119e+05   0.000000e+00    190s
   90213    1.2449946e+04   7.338028e+03   0.000000e+00    195s
   91708    1.2449946e+04   6.826063e+04   0.000000e+00    200s
   93361    1.2449945e+04   1.311873e+05   0.000000e+00    205s
   94906    1.2449945e+04   6.156310e+04   0.000000e+00    210s
   96650    1.2449945e+04   1.990283e+04   0.000000e+00    215s
   98150    1.2449944e+04   1.212681e+04   0.000000e+00    220s
   99848    1.2449944e+04   4.952705e+04   0.000000e+00    225s
  101386    1.2449943e+04   6.118598e+04   0.000000e+00    230s
  103225    1.2449942e+04   3.911809e+05   0.000000e+00    235s
  104826    1.2449941e+04   1.364714e+05   0.000000e+00    240s
  106644    1.2449940e+04   1.755504e+03   0.000000e+00    246s
  108198    1.2449940e+04   9.573237e+05   0.000000e+00    250s
  109939    1.2449939e+04   1.474610e+04   0.000000e+00    255s
  111586    1.2449939e+04   3.710882e+04   0.000000e+00    260s
  113153    1.2449938e+04   1.459582e+05   0.000000e+00    265s
  115043    1.2449937e+04   1.119448e+05   0.000000e+00    271s
  116674    1.2449937e+04   3.465478e+04   0.000000e+00    276s
  118326    1.2449936e+04   1.030874e+05   0.000000e+00    281s
  119738    1.2449936e+04   1.377554e+04   0.000000e+00    285s
  121355    1.2449935e+04   1.505383e+04   0.000000e+00    290s
  123003    1.2449935e+04   3.091473e+05   0.000000e+00    295s
  124629    1.2449935e+04   7.913742e+04   0.000000e+00    300s
  126226    1.2449934e+04   6.581262e+06   0.000000e+00    306s
  127627    1.2449933e+04   6.543439e+03   0.000000e+00    310s
  129226    1.2449933e+04   9.952992e+04   0.000000e+00    315s
  130777    1.2449933e+04   3.987207e+04   0.000000e+00    320s
  132373    1.2449932e+04   1.119362e+05   0.000000e+00    326s
  133718    1.2449932e+04   8.882976e+05   0.000000e+00    330s
  135356    1.2449931e+04   1.483207e+04   0.000000e+00    336s
  136734    1.2449931e+04   4.581715e+04   0.000000e+00    340s
  138368    1.2449931e+04   2.291607e+04   0.000000e+00    345s
  139995    1.2449930e+04   4.759501e+04   0.000000e+00    350s
  141648    1.2449930e+04   2.210713e+04   0.000000e+00    356s
  143237    1.2449929e+04   3.190206e+04   0.000000e+00    361s
  144638    1.2449929e+04   2.192679e+04   0.000000e+00    365s
  146228    1.2449929e+04   1.078852e+04   0.000000e+00    371s
  147590    1.2449929e+04   8.406996e+04   0.000000e+00    375s
  149199    1.2449928e+04   8.493255e+04   0.000000e+00    381s
  150569    1.2449928e+04   1.392228e+05   0.000000e+00    385s
  152171    1.2449927e+04   6.069138e+04   0.000000e+00    390s
  153781    1.2449927e+04   4.398884e+05   0.000000e+00    396s
  155201    1.2449926e+04   4.797123e+04   0.000000e+00    400s
  156883    1.2449926e+04   2.185483e+04   0.000000e+00    406s
  158273    1.2449926e+04   1.103809e+05   0.000000e+00    410s
  159853    1.2449925e+04   1.103238e+04   0.000000e+00    415s
  161469    1.2449925e+04   2.124537e+04   0.000000e+00    421s
  162897    1.2449923e+04   5.932883e+04   0.000000e+00    425s
  164287    1.2449923e+04   3.741022e+04   0.000000e+00    430s
  165687    1.2449922e+04   1.567670e+04   0.000000e+00    435s
  167297    1.2449922e+04   4.716089e+04   0.000000e+00    440s
  168917    1.2449921e+04   6.562227e+03   0.000000e+00    445s
  170297    1.2449921e+04   6.933311e+04   0.000000e+00    450s
  171877    1.2449921e+04   1.159454e+06   0.000000e+00    455s
  173437    1.2449921e+04   3.729977e+05   0.000000e+00    461s
  174767    1.2449920e+04   4.571821e+03   0.000000e+00    465s
  176317    1.2449920e+04   7.699145e+05   0.000000e+00    471s
  177627    1.2449920e+04   7.008389e+03   0.000000e+00    475s
  179167    1.2449920e+04   2.122437e+04   0.000000e+00    481s
  180497    1.2449919e+04   1.856252e+04   0.000000e+00    485s
  182077    1.2449919e+04   1.858390e+04   0.000000e+00    491s
  183457    1.2449918e+04   8.564348e+03   0.000000e+00    495s
  185057    1.2449918e+04   1.878803e+04   0.000000e+00    501s
  186417    1.2449917e+04   2.740907e+04   0.000000e+00    505s
  188017    1.2449917e+04   6.007026e+04   0.000000e+00    511s
  189357    1.2449917e+04   3.201539e+04   0.000000e+00    515s
  190697    1.2449917e+04   5.593525e+04   0.000000e+00    520s
  192277    1.2449916e+04   5.146093e+04   0.000000e+00    526s
  193637    1.2449916e+04   2.179318e+05   0.000000e+00    530s
  195197    1.2449916e+04   5.351440e+04   0.000000e+00    536s
  196587    1.2449915e+04   1.544351e+04   0.000000e+00    540s
  197927    1.2449915e+04   6.880922e+03   0.000000e+00    545s
  199277    1.2449915e+04   5.630364e+03   0.000000e+00    550s
  200757    1.2449915e+04   3.138687e+03   0.000000e+00    556s
  201637    1.2449915e+04   4.713188e+05   0.000000e+00    560s
  202527    1.2449914e+04   8.707273e+06   0.000000e+00    566s
  203297    1.2449914e+04   4.106531e+05   0.000000e+00    571s
  204077    1.2449913e+04   2.185572e+06   0.000000e+00    575s
  204887    1.2449913e+04   1.243836e+07   0.000000e+00    580s
  205647    1.2449912e+04   3.110908e+06   0.000000e+00    585s
  206407    1.2449912e+04   2.560041e+06   0.000000e+00    591s
  207037    1.2449912e+04   4.998278e+05   0.000000e+00    595s
  207827    1.2449911e+04   1.195148e+07   0.000000e+00    601s
  208477    1.2449911e+04   3.518409e+07   0.000000e+00    606s
  209117    1.2449910e+04   2.879740e+07   0.000000e+00    610s
  209897    1.2329909e+04   6.536083e+06   0.000000e+00    616s
  210507    1.2329909e+04   3.313352e+06   0.000000e+00    621s
  211127    1.2329908e+04   5.583794e+06   0.000000e+00    625s
  211767    1.2329908e+04   2.960884e+06   0.000000e+00    630s
  212597    1.2269911e+04   3.073768e+06   0.000000e+00    636s
  213237    1.2269910e+04   3.752076e+06   0.000000e+00    641s
  213877    1.2269910e+04   3.423790e+06   0.000000e+00    646s
  214507    1.2269910e+04   1.152367e+06   0.000000e+00    651s
  215127    1.2269910e+04   2.514082e+06   0.000000e+00    656s
  215767    1.2269909e+04   6.599171e+05   0.000000e+00    661s
  216417    1.2269909e+04   5.884775e+05   0.000000e+00    666s
  217067    1.2269909e+04   2.285482e+06   0.000000e+00    671s
  217697    1.2269908e+04   1.382409e+07   0.000000e+00    676s
  218337    1.2269908e+04   6.086404e+05   0.000000e+00    681s
  218987    1.2269908e+04   3.090054e+06   0.000000e+00    686s
  219627    1.2269908e+04   1.386028e+06   0.000000e+00    691s
  220107    1.2269908e+04   2.080189e+06   0.000000e+00    695s
  220747    1.2269908e+04   1.242980e+06   0.000000e+00    700s
  221387    1.2269907e+04   1.546958e+06   0.000000e+00    706s
  222027    1.2269907e+04   3.114432e+05   0.000000e+00    711s
  222667    1.2269907e+04   5.579269e+05   0.000000e+00    716s
  223157    1.2269907e+04   9.082374e+04   0.000000e+00    720s
  223797    1.2269907e+04   2.083938e+05   0.000000e+00    726s
  224447    1.2269907e+04   1.068054e+05   0.000000e+00    731s
  224917    1.2269907e+04   1.430917e+05   0.000000e+00    735s
  225567    1.2269907e+04   4.131158e+05   0.000000e+00    741s
  226217    1.2269907e+04   2.003012e+05   0.000000e+00    746s
  226697    1.2269907e+04   2.995977e+04   0.000000e+00    750s
  227337    1.2269907e+04   8.464366e+04   0.000000e+00    756s
  227997    1.2269907e+04   1.336205e+05   0.000000e+00    761s
  228487    1.2269907e+04   2.171690e+07   0.000000e+00    765s
  229117    1.2269907e+04   1.894684e+03   0.000000e+00    770s
  229787    1.2269907e+04   2.655433e+02   0.000000e+00    776s
  230307    1.2269907e+04   3.900581e-03   0.000000e+00    780s
  230334    1.2270000e+04   0.000000e+00   0.000000e+00    781s
  230334    1.2270000e+04   0.000000e+00   0.000000e+00    781s

Root relaxation: objective 1.227000e+04, 230334 iterations, 774.77 seconds
Total elapsed time = 1307.65s
Total elapsed time = 1486.19s
Total elapsed time = 1533.86s
Total elapsed time = 1578.14s

    Nodes    |    Current Node    |     Objective Bounds      |     Work
 Expl Unexpl |  Obj  Depth IntInf | Incumbent    BestBd   Gap | It/Node Time

     0     0 12270.0000    0 2942 2940.00000 12270.0000   317%     - 1592s
     0     0 12270.0000    0 5942 2940.00000 12270.0000   317%     - 1787s
     0     0 12270.0000    0 6086 2940.00000 12270.0000   317%     - 1921s
     0     0 12270.0000    0 2362 2940.00000 12270.0000   317%     - 2995s
     0     0 12270.0000    0 3805 2940.00000 12270.0000   317%     - 3091s
     0     0 12270.0000    0 5472 2940.00000 12270.0000   317%     - 3600s

Cutting planes:
  Gomory: 8
  Implied bound: 357
  MIR: 32
  Mod-K: 11
  RLT: 359
  Relax-and-lift: 31

Explored 1 nodes (1314555 simplex iterations) in 3600.04 seconds
Thread count was 1 (of 40 available processors)

Solution count 1: 2940 

Time limit reached
Best objective 2.940000000000e+03, best bound 1.227000000000e+04, gap 317.3469%

----------

Best objective (UB): 12270.000
Best feasible solution (LB): 2940.000
Gap between the lower bound and upper bound: 317.347%

----------

Number of customers served: 28

Schedule for EV v0:
   [   0, 1085) -> It remains parked at station s0.
   [1085, 1235) -> Service a request driving for customer c12 from s0 to s0.
   [1235, tmax) -> It remains parked at station s0.

Schedule for EV v1:
   [   0,  914) -> It remains parked at station s0.
   [ 914, 1034) -> Service a request driving for customer c11 from s0 to s8.
   [1034, tmax) -> It remains parked at station s8.

Schedule for EV v2:
   [   0,  905) -> It remains parked at station s0.
   [ 905,  965) -> Service a request driving for customer c15 from s0 to s8.
   [ 965, tmax) -> It remains parked at station s8, which was charging for charging.

Schedule for EV v3:
   [   0, tmax) -> It remains parked at station s0.

Schedule for EV v4:
   [   0, 1090) -> It remains parked at station s1.
   [1090, 1330) -> Service a request driving for customer c49 from s1 to s11.
   [1330, tmax) -> It remains parked at station s11.

Schedule for EV v5:
   [   0, 1150) -> It remains parked at station s1.
   [1150, 1270) -> Service a request driving for customer c55 from s1 to s8.
   [1270, tmax) -> It remains parked at station s8.

Schedule for EV v6:
   [   0, tmax) -> It remains parked at station s1.

Schedule for EV v7:
   [   0, tmax) -> It remains parked at station s1.

Schedule for EV v8:
   [   0, tmax) -> It remains parked at station s1.

Schedule for EV v9:
   [   0, tmax) -> It remains parked at station s1.

Schedule for EV v10:
   [   0, tmax) -> It remains parked at station s1.

Schedule for EV v11:
   [   0,  669) -> It remains parked at station s2.
   [ 669,  819) -> Service a request driving for customer c51 from s2 to s11.
   [ 819,  852) -> It remains parked at station s11.
   [ 852,  912) -> Service a request driving for customer c22 from s11 to s5.
   [ 912, tmax) -> It remains parked at station s5, which was charging for charging.

Schedule for EV v12:
   [   0,  847) -> It remains parked at station s2.
   [ 847,  937) -> Service a request driving for customer c20 from s2 to s2.
   [ 937, tmax) -> It remains parked at station s2.

Schedule for EV v13:
   [   0, tmax) -> It remains parked at station s2.

Schedule for EV v14:
   [   0, tmax) -> It remains parked at station s2.

Schedule for EV v15:
   [   0, 1274) -> It remains parked at station s3.
   [1274, 1394) -> Service a request driving for customer c28 from s3 to s0.
   [1394, tmax) -> It remains parked at station s0.

Schedule for EV v16:
   [   0,  734) -> It remains parked at station s3.
   [ 734,  794) -> Service a request driving for customer c10 from s3 to s11.
   [ 794, tmax) -> It remains parked at station s11.

Schedule for EV v17:
   [   0, tmax) -> It remains parked at station s3.

Schedule for EV v18:
   [   0, tmax) -> It remains parked at station s3.

Schedule for EV v19:
   [   0, tmax) -> It remains parked at station s3.

Schedule for EV v20:
   [   0, tmax) -> It remains parked at station s3.

Schedule for EV v21:
   [   0, tmax) -> It remains parked at station s3.

Schedule for EV v22:
   [   0, tmax) -> It remains parked at station s3.

Schedule for EV v23:
   [   0, 1095) -> It remains parked at station s4.
   [1095, 1245) -> Service a request driving for customer c66 from s4 to s1.
   [1245, tmax) -> It remains parked at station s1.

Schedule for EV v24:
   [   0, 1265) -> It remains parked at station s4.
   [1265, 1385) -> Service a request driving for customer c14 from s4 to s0.
   [1385, tmax) -> It remains parked at station s0.

Schedule for EV v25:
   [   0,  855) -> It remains parked at station s4.
   [ 855,  945) -> Service a request driving for customer c19 from s4 to s6.
   [ 945, tmax) -> It remains parked at station s6.

Schedule for EV v26:
   [   0,  493) -> It remains parked at station s4.
   [ 493,  583) -> Service a request driving for customer c25 from s4 to s5.
   [ 583, tmax) -> It remains parked at station s5, which was charging for charging.

Schedule for EV v27:
   [   0, 1025) -> It remains parked at station s4.
   [1025, 1085) -> Service a request driving for customer c44 from s4 to s6.
   [1085, 1151) -> It remains parked at station s6.
   [1151, 1181) -> Service a request driving for customer c32 from s6 to s2.
   [1181, tmax) -> It remains parked at station s2.

Schedule for EV v28:
   [   0,  736) -> It remains parked at station s5.
   [ 736,  766) -> Service a request driving for customer c38 from s5 to s3.
   [ 766, tmax) -> It remains parked at station s3.

Schedule for EV v29:
   [   0, tmax) -> It remains parked at station s5.

Schedule for EV v30:
   [   0, tmax) -> It remains parked at station s5.

Schedule for EV v31:
   [   0, tmax) -> It remains parked at station s5.

Schedule for EV v32:
   [   0, tmax) -> It remains parked at station s5.

Schedule for EV v33:
   [   0, tmax) -> It remains parked at station s5.

Schedule for EV v34:
   [   0, tmax) -> It remains parked at station s5.

Schedule for EV v35:
   [   0, tmax) -> It remains parked at station s5.

Schedule for EV v36:
   [   0, tmax) -> It remains parked at station s5.

Schedule for EV v37:
   [   0, tmax) -> It remains parked at station s5.

Schedule for EV v38:
   [   0, tmax) -> It remains parked at station s5.

Schedule for EV v39:
   [   0, tmax) -> It remains parked at station s5.

Schedule for EV v40:
   [   0, tmax) -> It remains parked at station s5.

Schedule for EV v41:
   [   0, 1449) -> It remains parked at station s6.
   [1449, 1599) -> Service a request driving for customer c46 from s6 to s3.
   [1599, tmax) -> It remains parked at station s3.

Schedule for EV v42:
   [   0, 1148) -> It remains parked at station s6.
   [1148, 1208) -> Service a request driving for customer c13 from s6 to s1.
   [1208, tmax) -> It remains parked at station s1.

Schedule for EV v43:
   [   0,  669) -> It remains parked at station s6.
   [ 669,  729) -> Service a request driving for customer c40 from s6 to s10.
   [ 729, tmax) -> It remains parked at station s10.

Schedule for EV v44:
   [   0, tmax) -> It remains parked at station s6.

Schedule for EV v45:
   [   0, tmax) -> It remains parked at station s6.

Schedule for EV v46:
   [   0, tmax) -> It remains parked at station s6.

Schedule for EV v47:
   [   0, 1155) -> It remains parked at station s7.
   [1155, 1275) -> Service a request driving for customer c7 from s7 to s11.
   [1275, tmax) -> It remains parked at station s11.

Schedule for EV v48:
   [   0, tmax) -> It remains parked at station s7.

Schedule for EV v49:
   [   0, tmax) -> It remains parked at station s7.

Schedule for EV v50:
   [   0, tmax) -> It remains parked at station s7.

Schedule for EV v51:
   [   0, tmax) -> It remains parked at station s7.

Schedule for EV v52:
   [   0, tmax) -> It remains parked at station s7.

Schedule for EV v53:
   [   0, tmax) -> It remains parked at station s7.

Schedule for EV v54:
   [   0, tmax) -> It remains parked at station s7.

Schedule for EV v55:
   [   0, tmax) -> It remains parked at station s7.

Schedule for EV v56:
   [   0, tmax) -> It remains parked at station s7.

Schedule for EV v57:
   [   0, tmax) -> It remains parked at station s7.

Schedule for EV v58:
   [   0, 1153) -> It remains parked at station s8.
   [1153, 1213) -> Service a request driving for customer c31 from s8 to s4.
   [1213, tmax) -> It remains parked at station s4.

Schedule for EV v59:
   [   0,  610) -> It remains parked at station s8.
   [ 610,  670) -> Service a request driving for customer c56 from s8 to s1.
   [ 670, tmax) -> It remains parked at station s1.

Schedule for EV v60:
   [   0, tmax) -> It remains parked at station s8.

Schedule for EV v61:
   [   0, tmax) -> It remains parked at station s8.

Schedule for EV v62:
   [   0, tmax) -> It remains parked at station s8.

Schedule for EV v63:
   [   0, tmax) -> It remains parked at station s8.

Schedule for EV v64:
   [   0, tmax) -> It remains parked at station s8.

Schedule for EV v65:
   [   0, tmax) -> It remains parked at station s8.

Schedule for EV v66:
   [   0, tmax) -> It remains parked at station s8.

Schedule for EV v67:
   [   0, tmax) -> It remains parked at station s8.

Schedule for EV v68:
   [   0, tmax) -> It remains parked at station s8.

Schedule for EV v69:
   [   0,  496) -> It remains parked at station s9.
   [ 496,  616) -> Service a request driving for customer c37 from s9 to s0.
   [ 616, tmax) -> It remains parked at station s0.

Schedule for EV v70:
   [   0,  555) -> It remains parked at station s9.
   [ 555,  645) -> Service a request driving for customer c52 from s9 to s1.
   [ 645, tmax) -> It remains parked at station s1.

Schedule for EV v71:
   [   0,  611) -> It remains parked at station s9.
   [ 611,  671) -> Service a request driving for customer c41 from s9 to s1.
   [ 671, tmax) -> It remains parked at station s1.

Schedule for EV v72:
   [   0, tmax) -> It remains parked at station s9.

Schedule for EV v73:
   [   0, tmax) -> It remains parked at station s9.

Schedule for EV v74:
   [   0, tmax) -> It remains parked at station s9.

Schedule for EV v75:
   [   0, tmax) -> It remains parked at station s9.

Schedule for EV v76:
   [   0, tmax) -> It remains parked at station s9.

Schedule for EV v77:
   [   0, tmax) -> It remains parked at station s10.

Schedule for EV v78:
   [   0, tmax) -> It remains parked at station s10.

Schedule for EV v79:
   [   0, tmax) -> It remains parked at station s10.

Schedule for EV v80:
   [   0, tmax) -> It remains parked at station s10.

Schedule for EV v81:
   [   0, tmax) -> It remains parked at station s10.

Schedule for EV v82:
   [   0, tmax) -> It remains parked at station s10.

Schedule for EV v83:
   [   0, tmax) -> It remains parked at station s10.

Schedule for EV v84:
   [   0, tmax) -> It remains parked at station s10.

Schedule for EV v85:
   [   0, 1393) -> It remains parked at station s11.
   [1393, 1633) -> Service a request driving for customer c24 from s11 to s0.
   [1633, tmax) -> It remains parked at station s0.

Schedule for EV v86:
   [   0,  665) -> It remains parked at station s11.
   [ 665,  845) -> Service a request driving for customer c6 from s11 to s1.
   [ 845, tmax) -> It remains parked at station s1.

Schedule for EV v87:
   [   0, tmax) -> It remains parked at station s11.

Schedule for EV v88:
   [   0, tmax) -> It remains parked at station s11.

Schedule for EV v89:
   [   0, tmax) -> It remains parked at station s11.

Schedule for EV v90:
   [   0, tmax) -> It remains parked at station s11.

Schedule for EV v91:
   [   0, tmax) -> It remains parked at station s11.

Schedule for EV v92:
   [   0, tmax) -> It remains parked at station s11.

Schedule for EV v93:
   [   0, tmax) -> It remains parked at station s11.

Set of satisfied customers
   {c6, c7, c10, c11, c12, c13, c14, c15, c19, c20, c22, c24, c25, c28, c31, c32, c37, c38, c40, c41, c44, c46, c49, c51, c52, c55, c56, c66}

