Academic license - for non-commercial use only
Gurobi Optimizer version 9.0.3 build v9.0.3rc0 (linux64)
Optimize a model with 18671 rows, 12983 columns and 235378 nonzeros
Model fingerprint: 0xe02b75c5
Variable types: 7342 continuous, 5641 integer (5641 binary)
Coefficient statistics:
  Matrix range     [1e+00, 8e+06]
  Objective range  [3e+01, 5e+02]
  Bounds range     [1e+00, 2e+06]
  RHS range        [1e+00, 2e+06]

Loaded user MIP start with objective 1650

Presolve removed 5338 rows and 1745 columns
Presolve time: 0.49s
Presolved: 13333 rows, 11238 columns, 119723 nonzeros
Variable types: 1697 continuous, 9541 integer (8441 binary)

Root relaxation: objective 6.840000e+03, 6740 iterations, 1.95 seconds

    Nodes    |    Current Node    |     Objective Bounds      |     Work
 Expl Unexpl |  Obj  Depth IntInf | Incumbent    BestBd   Gap | It/Node Time

     0     0 6840.00000    0  287 1650.00000 6840.00000   315%     -    4s
H    0     0                    6840.0000000 6840.00000  0.00%     -    4s
     0     0 6840.00000    0  287 6840.00000 6840.00000  0.00%     -    4s

Explored 1 nodes (22794 simplex iterations) in 4.42 seconds
Thread count was 1 (of 40 available processors)

Solution count 2: 6840 1650 

Optimal solution found (tolerance 1.00e-04)
Best objective 6.840000000000e+03, best bound 6.840000000000e+03, gap 0.0000%

----------

Best objective (UB): 6840.000
Best feasible solution (LB): 6840.000
Gap between the lower bound and upper bound: 0.000%

----------

Number of customers served: 38

Schedule for EV v0:
   [   0,  733) -> It remains parked at station s0.
   [ 733,  763) -> Service a request driving for customer c12 from s0 to s7.
   [ 763,  846) -> It remains parked at station s7, which was charging for charging.
   [ 846,  876) -> Service a request driving for customer c1 from s7 to s5.
   [ 876,  910) -> It remains parked at station s5, which was charging for charging.
   [ 910,  970) -> Service a request driving for customer c0 from s5 to s4.
   [ 970, tmax) -> It remains parked at station s4, which was charging for charging.

Schedule for EV v1:
   [   0, tmax) -> It remains parked at station s0.

Schedule for EV v2:
   [   0, tmax) -> It remains parked at station s0.

Schedule for EV v3:
   [   0,  550) -> It remains parked at station s0.
   [ 550,  610) -> Service a request driving for customer c32 from s0 to s3.
   [ 610,  788) -> It remains parked at station s3, which was charging for charging.
   [ 788, 1028) -> Service a request driving for customer c7 from s3 to s6.
   [1028, tmax) -> It remains parked at station s6, which was charging for charging.

Schedule for EV v4:
   [   0, tmax) -> It remains parked at station s0.

Schedule for EV v5:
   [   0, tmax) -> It remains parked at station s0.

Schedule for EV v6:
   [   0,  551) -> It remains parked at station s0.
   [ 551,  611) -> Service a request driving for customer c26 from s0 to s0.
   [ 611, tmax) -> It remains parked at station s0.

Schedule for EV v7:
   [   0, tmax) -> It remains parked at station s0.

Schedule for EV v8:
   [   0,  729) -> It remains parked at station s1.
   [ 729,  969) -> Service a request driving for customer c17 from s1 to s0.
   [ 969, 1151) -> It remains parked at station s0, which was charging for charging.
   [1151, 1211) -> Service a request driving for customer c36 from s0 to s8.
   [1211, tmax) -> It remains parked at station s8, which was charging for charging.

Schedule for EV v9:
   [   0,  671) -> It remains parked at station s1.
   [ 671,  821) -> Service a request driving for customer c5 from s1 to s1.
   [ 821,  973) -> It remains parked at station s1, which was charging for charging.
   [ 973, 1243) -> Service a request driving for customer c15 from s1 to s4.
   [1243, 1387) -> It remains parked at station s4, which was charging for charging.
   [1387, 1417) -> Service a request driving for customer c21 from s4 to s8.
   [1417, tmax) -> It remains parked at station s8, which was charging for charging.

Schedule for EV v10:
   [   0, tmax) -> It remains parked at station s1.

Schedule for EV v11:
   [   0,  490) -> It remains parked at station s1.
   [ 490,  550) -> Service a request driving for customer c19 from s1 to s6.
   [ 550, tmax) -> It remains parked at station s6.

Schedule for EV v12:
   [   0, 1031) -> It remains parked at station s1.
   [1031, 1091) -> Service a request driving for customer c30 from s1 to s1.
   [1091, 1147) -> It remains parked at station s1, which was charging for charging.
   [1147, 1237) -> Service a request driving for customer c10 from s1 to s0.
   [1237, tmax) -> It remains parked at station s0, which was charging for charging.

Schedule for EV v13:
   [   0,  795) -> It remains parked at station s1.
   [ 795,  825) -> Service a request driving for customer c13 from s1 to s0.
   [ 825, tmax) -> It remains parked at station s0, which was charging for charging.

Schedule for EV v14:
   [   0,  430) -> It remains parked at station s2.
   [ 430,  580) -> Service a request driving for customer c14 from s2 to s3.
   [ 580, 1265) -> It remains parked at station s3, which was charging for charging.
   [1265, 1325) -> Service a request driving for customer c20 from s3 to s6.
   [1325, tmax) -> It remains parked at station s6, which was charging for charging.

Schedule for EV v15:
   [   0,  553) -> It remains parked at station s2.
   [ 553,  673) -> Service a request driving for customer c35 from s2 to s10.
   [ 673, tmax) -> It remains parked at station s10.

Schedule for EV v16:
   [   0, 1092) -> It remains parked at station s2.
   [1092, 1152) -> Service a request driving for customer c11 from s2 to s11.
   [1152, tmax) -> It remains parked at station s11, which was charging for charging.

Schedule for EV v17:
   [   0,  665) -> It remains parked at station s2.
   [ 665,  695) -> Service a request driving for customer c6 from s2 to s1.
   [ 695,  850) -> It remains parked at station s1.
   [ 850,  970) -> Service a request driving for customer c20 from s1 to s11.
   [ 970, tmax) -> It remains parked at station s11, which was charging for charging.

Schedule for EV v18:
   [   0, tmax) -> It remains parked at station s2.

Schedule for EV v19:
   [   0,  670) -> It remains parked at station s3.
   [ 670,  760) -> Service a request driving for customer c32 from s3 to s5.
   [ 760, tmax) -> It remains parked at station s5.

Schedule for EV v20:
   [   0,  725) -> It remains parked at station s3.
   [ 725,  785) -> Service a request driving for customer c35 from s3 to s0.
   [ 785, 1329) -> It remains parked at station s0, which was charging for charging.
   [1329, 1449) -> Service a request driving for customer c35 from s0 to s3.
   [1449, tmax) -> It remains parked at station s3, which was charging for charging.

Schedule for EV v21:
   [   0,  976) -> It remains parked at station s3.
   [ 976, 1126) -> Service a request driving for customer c20 from s3 to s6.
   [1126, tmax) -> It remains parked at station s6.

Schedule for EV v22:
   [   0,  730) -> It remains parked at station s4.
   [ 730,  850) -> Service a request driving for customer c39 from s4 to s7.
   [ 850, tmax) -> It remains parked at station s7.

Schedule for EV v23:
   [   0,  909) -> It remains parked at station s4.
   [ 909, 1029) -> Service a request driving for customer c14 from s4 to s5.
   [1029, tmax) -> It remains parked at station s5.

Schedule for EV v24:
   [   0,  795) -> It remains parked at station s4.
   [ 795,  855) -> Service a request driving for customer c32 from s4 to s4.
   [ 855,  912) -> It remains parked at station s4.
   [ 912,  972) -> Service a request driving for customer c8 from s4 to s11.
   [ 972, 1456) -> It remains parked at station s11, which was charging for charging.
   [1456, 1546) -> Service a request driving for customer c39 from s11 to s0.
   [1546, tmax) -> It remains parked at station s0, which was charging for charging.

Schedule for EV v25:
   [   0,  974) -> It remains parked at station s4.
   [ 974, 1034) -> Service a request driving for customer c38 from s4 to s4.
   [1034, 1148) -> It remains parked at station s4.
   [1148, 1298) -> Service a request driving for customer c0 from s4 to s8.
   [1298, tmax) -> It remains parked at station s8.

Schedule for EV v26:
   [   0, tmax) -> It remains parked at station s4.

Schedule for EV v27:
   [   0,  669) -> It remains parked at station s4.
   [ 669,  819) -> Service a request driving for customer c31 from s4 to s10.
   [ 819, tmax) -> It remains parked at station s10, which was charging for charging.

Schedule for EV v28:
   [   0,  545) -> It remains parked at station s4.
   [ 545,  605) -> Service a request driving for customer c25 from s4 to s11.
   [ 605, tmax) -> It remains parked at station s11.

Schedule for EV v29:
   [   0,  612) -> It remains parked at station s5.
   [ 612,  672) -> Service a request driving for customer c38 from s5 to s11.
   [ 672, 1087) -> It remains parked at station s11, which was charging for charging.
   [1087, 1147) -> Service a request driving for customer c27 from s11 to s1.
   [1147, 1325) -> It remains parked at station s1, which was charging for charging.
   [1325, 1505) -> Service a request driving for customer c10 from s1 to s11.
   [1505, tmax) -> It remains parked at station s11, which was charging for charging.

Schedule for EV v30:
   [   0, tmax) -> It remains parked at station s5.

Schedule for EV v31:
   [   0, tmax) -> It remains parked at station s5.

Schedule for EV v32:
   [   0, tmax) -> It remains parked at station s5.

Schedule for EV v33:
   [   0,  736) -> It remains parked at station s5.
   [ 736,  916) -> Service a request driving for customer c37 from s5 to s4.
   [ 916,  975) -> It remains parked at station s4, which was charging for charging.
   [ 975, 1125) -> Service a request driving for customer c26 from s4 to s1.
   [1125, 1389) -> It remains parked at station s1, which was charging for charging.
   [1389, 1509) -> Service a request driving for customer c22 from s1 to s8.
   [1509, tmax) -> It remains parked at station s8, which was charging for charging.

Schedule for EV v34:
   [   0,  734) -> It remains parked at station s5.
   [ 734,  854) -> Service a request driving for customer c27 from s5 to s0.
   [ 854, tmax) -> It remains parked at station s0, which was charging for charging.

Schedule for EV v35:
   [   0, tmax) -> It remains parked at station s5.

Schedule for EV v36:
   [   0, tmax) -> It remains parked at station s5.

Schedule for EV v37:
   [   0, tmax) -> It remains parked at station s5.

Schedule for EV v38:
   [   0, tmax) -> It remains parked at station s5.

Schedule for EV v39:
   [   0, tmax) -> It remains parked at station s5.

Schedule for EV v40:
   [   0, 1095) -> It remains parked at station s5.
   [1095, 1335) -> Service a request driving for customer c17 from s5 to s4.
   [1335, tmax) -> It remains parked at station s4, which was charging for charging.

Schedule for EV v41:
   [   0, 1453) -> It remains parked at station s5.
   [1453, 1543) -> Service a request driving for customer c31 from s5 to s3.
   [1543, tmax) -> It remains parked at station s3.

Schedule for EV v42:
   [   0, tmax) -> It remains parked at station s6.

Schedule for EV v43:
   [   0,  850) -> It remains parked at station s6.
   [ 850,  910) -> Service a request driving for customer c34 from s6 to s8.
   [ 910, tmax) -> It remains parked at station s8, which was charging for charging.

Schedule for EV v44:
   [   0, tmax) -> It remains parked at station s6.

Schedule for EV v45:
   [   0,  796) -> It remains parked at station s6.
   [ 796,  856) -> Service a request driving for customer c11 from s6 to s0.
   [ 856, tmax) -> It remains parked at station s0.

Schedule for EV v46:
   [   0, tmax) -> It remains parked at station s6.

Schedule for EV v47:
   [   0, tmax) -> It remains parked at station s6.

Schedule for EV v48:
   [   0, 1026) -> It remains parked at station s6.
   [1026, 1086) -> Service a request driving for customer c35 from s6 to s7.
   [1086, tmax) -> It remains parked at station s7.

Schedule for EV v49:
   [   0,  555) -> It remains parked at station s6.
   [ 555,  615) -> Service a request driving for customer c3 from s6 to s5.
   [ 615, tmax) -> It remains parked at station s5, which was charging for charging.

Schedule for EV v50:
   [   0, 1036) -> It remains parked at station s7.
   [1036, 1156) -> Service a request driving for customer c21 from s7 to s11.
   [1156, tmax) -> It remains parked at station s11.

Schedule for EV v51:
   [   0,  613) -> It remains parked at station s7.
   [ 613,  643) -> Service a request driving for customer c18 from s7 to s6.
   [ 643,  976) -> It remains parked at station s6.
   [ 976, 1066) -> Service a request driving for customer c2 from s6 to s1.
   [1066, 1154) -> It remains parked at station s1, which was charging for charging.
   [1154, 1214) -> Service a request driving for customer c19 from s1 to s3.
   [1214, 1269) -> It remains parked at station s3, which was charging for charging.
   [1269, 1359) -> Service a request driving for customer c28 from s3 to s1.
   [1359, tmax) -> It remains parked at station s1, which was charging for charging.

Schedule for EV v52:
   [   0, tmax) -> It remains parked at station s7.

Schedule for EV v53:
   [   0, tmax) -> It remains parked at station s7.

Schedule for EV v54:
   [   0, tmax) -> It remains parked at station s7.

Schedule for EV v55:
   [   0, 1085) -> It remains parked at station s7.
   [1085, 1235) -> Service a request driving for customer c6 from s7 to s7.
   [1235, tmax) -> It remains parked at station s7.

Schedule for EV v56:
   [   0, tmax) -> It remains parked at station s7.

Schedule for EV v57:
   [   0,  553) -> It remains parked at station s7.
   [ 553,  673) -> Service a request driving for customer c19 from s7 to s2.
   [ 673, tmax) -> It remains parked at station s2, which was charging for charging.

Schedule for EV v58:
   [   0,  848) -> It remains parked at station s8.
   [ 848, 1088) -> Service a request driving for customer c16 from s8 to s9.
   [1088, 1090) -> It remains parked at station s9.
   [1090, 1210) -> Service a request driving for customer c29 from s9 to s8.
   [1210, tmax) -> It remains parked at station s8.

Schedule for EV v59:
   [   0, tmax) -> It remains parked at station s8.

Schedule for EV v60:
   [   0, tmax) -> It remains parked at station s8.

Schedule for EV v61:
   [   0, tmax) -> It remains parked at station s8.

Schedule for EV v62:
   [   0, tmax) -> It remains parked at station s8.

Schedule for EV v63:
   [   0, tmax) -> It remains parked at station s8.

Schedule for EV v64:
   [   0, tmax) -> It remains parked at station s8.

Schedule for EV v65:
   [   0, tmax) -> It remains parked at station s8.

Schedule for EV v66:
   [   0,  605) -> It remains parked at station s9.
   [ 605,  815) -> Service a request driving for customer c23 from s9 to s3.
   [ 815,  914) -> It remains parked at station s3, which was charging for charging.
   [ 914,  944) -> Service a request driving for customer c33 from s3 to s3.
   [ 944,  974) -> It remains parked at station s3.
   [ 974, 1034) -> Service a request driving for customer c18 from s3 to s10.
   [1034, 1336) -> It remains parked at station s10, which was charging for charging.
   [1336, 1366) -> Service a request driving for customer c6 from s10 to s4.
   [1366, tmax) -> It remains parked at station s4.

Schedule for EV v67:
   [   0, 1266) -> It remains parked at station s9.
   [1266, 1356) -> Service a request driving for customer c34 from s9 to s11.
   [1356, tmax) -> It remains parked at station s11, which was charging for charging.

Schedule for EV v68:
   [   0,  733) -> It remains parked at station s9.
   [ 733,  793) -> Service a request driving for customer c29 from s9 to s2.
   [ 793, tmax) -> It remains parked at station s2.

Schedule for EV v69:
   [   0, 1032) -> It remains parked at station s10.
   [1032, 1092) -> Service a request driving for customer c24 from s10 to s6.
   [1092, tmax) -> It remains parked at station s6.

Schedule for EV v70:
   [   0, tmax) -> It remains parked at station s10.

Schedule for EV v71:
   [   0, tmax) -> It remains parked at station s10.

Schedule for EV v72:
   [   0, tmax) -> It remains parked at station s10.

Schedule for EV v73:
   [   0,  672) -> It remains parked at station s10.
   [ 672,  762) -> Service a request driving for customer c30 from s10 to s4.
   [ 762,  916) -> It remains parked at station s4.
   [ 916, 1126) -> Service a request driving for customer c5 from s4 to s4.
   [1126, 1329) -> It remains parked at station s4, which was charging for charging.
   [1329, 1419) -> Service a request driving for customer c16 from s4 to s5.
   [1419, tmax) -> It remains parked at station s5.

Schedule for EV v74:
   [   0,  605) -> It remains parked at station s11.
   [ 605,  695) -> Service a request driving for customer c36 from s11 to s11.
   [ 695, 1036) -> It remains parked at station s11, which was charging for charging.
   [1036, 1096) -> Service a request driving for customer c7 from s11 to s7.
   [1096, tmax) -> It remains parked at station s7.

Schedule for EV v75:
   [   0, tmax) -> It remains parked at station s11.

Schedule for EV v76:
   [   0, tmax) -> It remains parked at station s11.

Set of satisfied customers
   {c0, c1, c2, c3, c5, c6, c7, c8, c10, c11, c12, c13, c14, c15, c16, c17, c18, c19, c20, c21, c22, c23, c24, c25, c26, c27, c28, c29, c30, c31, c32, c33, c34, c35, c36, c37, c38, c39}

