Academic license - for non-commercial use only
Gurobi Optimizer version 9.0.3 build v9.0.3rc0 (linux64)
Optimize a model with 39756 rows, 27499 columns and 668283 nonzeros
Model fingerprint: 0xf5da92d4
Variable types: 15296 continuous, 12203 integer (12203 binary)
Coefficient statistics:
  Matrix range     [1e+00, 1e+07]
  Objective range  [3e+01, 5e+02]
  Bounds range     [1e+00, 2e+06]
  RHS range        [1e+00, 2e+06]

Loaded user MIP start with objective 2460

Presolve removed 9225 rows and 2419 columns
Presolve time: 1.87s
Presolved: 30531 rows, 25080 columns, 341989 nonzeros
Variable types: 3809 continuous, 21271 integer (18881 binary)

Root simplex log...

Iteration    Objective       Primal Inf.    Dual Inf.      Time
    8984    9.3899912e+03   1.841794e+04   0.000000e+00      5s
   14969    9.3899896e+03   9.309386e+04   0.000000e+00     10s
   19799    9.3899888e+03   1.195760e+04   0.000000e+00     15s
   24209    9.3899883e+03   7.484560e+03   0.000000e+00     20s
   28409    9.3899879e+03   1.720159e+03   0.000000e+00     25s
   32504    9.3899877e+03   5.358087e+00   0.000000e+00     30s
   33674    9.3900000e+03   0.000000e+00   0.000000e+00     32s
   33674    9.3900000e+03   0.000000e+00   0.000000e+00     32s

Root relaxation: objective 9.390000e+03, 33674 iterations, 29.55 seconds
Total elapsed time = 43.66s
Total elapsed time = 58.60s
Total elapsed time = 64.85s
Total elapsed time = 70.30s

    Nodes    |    Current Node    |     Objective Bounds      |     Work
 Expl Unexpl |  Obj  Depth IntInf | Incumbent    BestBd   Gap | It/Node Time

     0     0 9390.00000    0 1227 2460.00000 9390.00000   282%     -   76s
H    0     0                    4140.0000000 9390.00000   127%     -   77s
     0     0 9390.00000    0 2139 4140.00000 9390.00000   127%     -   88s
H    0     0                    4290.0000000 9390.00000   119%     -   89s
     0     0 9390.00000    0 2224 4290.00000 9390.00000   119%     -   94s
     0     0 9390.00000    0  871 4290.00000 9390.00000   119%     -  150s
H    0     0                    9390.0000000 9390.00000  0.00%     -  150s
     0     0 9390.00000    0  869 9390.00000 9390.00000  0.00%     -  150s

Cutting planes:
  Gomory: 2
  Implied bound: 15
  MIR: 25
  Mod-K: 5
  RLT: 88
  Relax-and-lift: 7

Explored 1 nodes (246626 simplex iterations) in 150.21 seconds
Thread count was 1 (of 40 available processors)

Solution count 4: 9390 4290 4140 2460 

Optimal solution found (tolerance 1.00e-04)
Best objective 9.390000000000e+03, best bound 9.390000000000e+03, gap 0.0000%

----------

Best objective (UB): 9390.000
Best feasible solution (LB): 9390.000
Gap between the lower bound and upper bound: 0.000%

----------

Number of customers served: 50

Schedule for EV v0:
   [   0,  975) -> It remains parked at station s0.
   [ 975, 1035) -> Service a request driving for customer c46 from s0 to s0.
   [1035, 1268) -> It remains parked at station s0, which was charging for charging.
   [1268, 1298) -> Service a request driving for customer c13 from s0 to s5.
   [1298, tmax) -> It remains parked at station s5, which was charging for charging.

Schedule for EV v1:
   [   0,  974) -> It remains parked at station s0.
   [ 974, 1034) -> Service a request driving for customer c1 from s0 to s3.
   [1034, 1089) -> It remains parked at station s3, which was charging for charging.
   [1089, 1149) -> Service a request driving for customer c34 from s3 to s4.
   [1149, tmax) -> It remains parked at station s4.

Schedule for EV v2:
   [   0, 1152) -> It remains parked at station s0.
   [1152, 1362) -> Service a request driving for customer c4 from s0 to s2.
   [1362, tmax) -> It remains parked at station s2.

Schedule for EV v3:
   [   0,  730) -> It remains parked at station s0.
   [ 730,  820) -> Service a request driving for customer c10 from s0 to s3.
   [ 820,  916) -> It remains parked at station s3.
   [ 916,  946) -> Service a request driving for customer c21 from s3 to s1.
   [ 946, 1030) -> It remains parked at station s1.
   [1030, 1270) -> Service a request driving for customer c39 from s1 to s9.
   [1270, tmax) -> It remains parked at station s9, which was charging for charging.

Schedule for EV v4:
   [   0, tmax) -> It remains parked at station s0.

Schedule for EV v5:
   [   0, 1208) -> It remains parked at station s0.
   [1208, 1238) -> Service a request driving for customer c7 from s0 to s4.
   [1238, tmax) -> It remains parked at station s4.

Schedule for EV v6:
   [   0, tmax) -> It remains parked at station s0.

Schedule for EV v7:
   [   0, tmax) -> It remains parked at station s0.

Schedule for EV v8:
   [   0,  556) -> It remains parked at station s1.
   [ 556,  706) -> Service a request driving for customer c4 from s1 to s0.
   [ 706, tmax) -> It remains parked at station s0.

Schedule for EV v9:
   [   0, 1033) -> It remains parked at station s1.
   [1033, 1303) -> Service a request driving for customer c37 from s1 to s0.
   [1303, tmax) -> It remains parked at station s0.

Schedule for EV v10:
   [   0,  434) -> It remains parked at station s1.
   [ 434,  494) -> Service a request driving for customer c14 from s1 to s8.
   [ 494,  549) -> It remains parked at station s8.
   [ 549,  579) -> Service a request driving for customer c22 from s8 to s0.
   [ 579,  735) -> It remains parked at station s0, which was charging for charging.
   [ 735,  795) -> Service a request driving for customer c49 from s0 to s11.
   [ 795, tmax) -> It remains parked at station s11.

Schedule for EV v11:
   [   0,  610) -> It remains parked at station s1.
   [ 610,  820) -> Service a request driving for customer c35 from s1 to s0.
   [ 820, tmax) -> It remains parked at station s0.

Schedule for EV v12:
   [   0,  725) -> It remains parked at station s1.
   [ 725,  785) -> Service a request driving for customer c4 from s1 to s6.
   [ 785, tmax) -> It remains parked at station s6.

Schedule for EV v13:
   [   0,  674) -> It remains parked at station s1.
   [ 674,  734) -> Service a request driving for customer c16 from s1 to s11.
   [ 734, 1092) -> It remains parked at station s11, which was charging for charging.
   [1092, 1242) -> Service a request driving for customer c46 from s11 to s11.
   [1242, tmax) -> It remains parked at station s11.

Schedule for EV v14:
   [   0, tmax) -> It remains parked at station s1.

Schedule for EV v15:
   [   0,  611) -> It remains parked at station s1.
   [ 611,  731) -> Service a request driving for customer c48 from s1 to s6.
   [ 731,  734) -> It remains parked at station s6.
   [ 734,  884) -> Service a request driving for customer c28 from s6 to s1.
   [ 884, tmax) -> It remains parked at station s1.

Schedule for EV v16:
   [   0,  976) -> It remains parked at station s2.
   [ 976, 1126) -> Service a request driving for customer c15 from s2 to s3.
   [1126, tmax) -> It remains parked at station s3.

Schedule for EV v17:
   [   0, tmax) -> It remains parked at station s2.

Schedule for EV v18:
   [   0,  674) -> It remains parked at station s2.
   [ 674,  764) -> Service a request driving for customer c18 from s2 to s0.
   [ 764, tmax) -> It remains parked at station s0.

Schedule for EV v19:
   [   0, 1276) -> It remains parked at station s2.
   [1276, 1366) -> Service a request driving for customer c26 from s2 to s11.
   [1366, tmax) -> It remains parked at station s11.

Schedule for EV v20:
   [   0, tmax) -> It remains parked at station s2.

Schedule for EV v21:
   [   0, tmax) -> It remains parked at station s2.

Schedule for EV v22:
   [   0, tmax) -> It remains parked at station s2.

Schedule for EV v23:
   [   0, tmax) -> It remains parked at station s2.

Schedule for EV v24:
   [   0,  493) -> It remains parked at station s2.
   [ 493,  523) -> Service a request driving for customer c44 from s2 to s8.
   [ 523,  736) -> It remains parked at station s8, which was charging for charging.
   [ 736,  796) -> Service a request driving for customer c32 from s8 to s3.
   [ 796, tmax) -> It remains parked at station s3.

Schedule for EV v25:
   [   0, tmax) -> It remains parked at station s2.

Schedule for EV v26:
   [   0, 1267) -> It remains parked at station s3.
   [1267, 1447) -> Service a request driving for customer c21 from s3 to s2.
   [1447, tmax) -> It remains parked at station s2, which was charging for charging.

Schedule for EV v27:
   [   0, 1155) -> It remains parked at station s3.
   [1155, 1215) -> Service a request driving for customer c32 from s3 to s1.
   [1215, tmax) -> It remains parked at station s1.

Schedule for EV v28:
   [   0,  733) -> It remains parked at station s3.
   [ 733,  763) -> Service a request driving for customer c8 from s3 to s0.
   [ 763, 1208) -> It remains parked at station s0.
   [1208, 1328) -> Service a request driving for customer c2 from s0 to s3.
   [1328, tmax) -> It remains parked at station s3.

Schedule for EV v29:
   [   0, 1087) -> It remains parked at station s3.
   [1087, 1327) -> Service a request driving for customer c23 from s3 to s1.
   [1327, tmax) -> It remains parked at station s1.

Schedule for EV v30:
   [   0, 1027) -> It remains parked at station s3.
   [1027, 1087) -> Service a request driving for customer c4 from s3 to s0.
   [1087, 1153) -> It remains parked at station s0.
   [1153, 1333) -> Service a request driving for customer c27 from s0 to s9.
   [1333, tmax) -> It remains parked at station s9.

Schedule for EV v31:
   [   0, 1269) -> It remains parked at station s3.
   [1269, 1299) -> Service a request driving for customer c22 from s3 to s2.
   [1299, tmax) -> It remains parked at station s2.

Schedule for EV v32:
   [   0,  976) -> It remains parked at station s3.
   [ 976, 1096) -> Service a request driving for customer c26 from s3 to s6.
   [1096, 1215) -> It remains parked at station s6.
   [1215, 1275) -> Service a request driving for customer c5 from s6 to s4.
   [1275, tmax) -> It remains parked at station s4.

Schedule for EV v33:
   [   0,  850) -> It remains parked at station s4.
   [ 850,  940) -> Service a request driving for customer c20 from s4 to s4.
   [ 940, tmax) -> It remains parked at station s4.

Schedule for EV v34:
   [   0,  728) -> It remains parked at station s4.
   [ 728,  908) -> Service a request driving for customer c7 from s4 to s8.
   [ 908, 1330) -> It remains parked at station s8.
   [1330, 1420) -> Service a request driving for customer c47 from s8 to s2.
   [1420, tmax) -> It remains parked at station s2.

Schedule for EV v35:
   [   0,  545) -> It remains parked at station s4.
   [ 545,  695) -> Service a request driving for customer c30 from s4 to s3.
   [ 695, 1087) -> It remains parked at station s3.
   [1087, 1237) -> Service a request driving for customer c20 from s3 to s1.
   [1237, 1327) -> It remains parked at station s1, which was charging for charging.
   [1327, 1417) -> Service a request driving for customer c41 from s1 to s11.
   [1417, tmax) -> It remains parked at station s11.

Schedule for EV v36:
   [   0,  734) -> It remains parked at station s4.
   [ 734,  824) -> Service a request driving for customer c0 from s4 to s5.
   [ 824, 1096) -> It remains parked at station s5, which was charging for charging.
   [1096, 1276) -> Service a request driving for customer c11 from s5 to s5.
   [1276, tmax) -> It remains parked at station s5, which was charging for charging.

Schedule for EV v37:
   [   0,  494) -> It remains parked at station s4.
   [ 494,  734) -> Service a request driving for customer c25 from s4 to s11.
   [ 734,  847) -> It remains parked at station s11.
   [ 847,  997) -> Service a request driving for customer c43 from s11 to s5.
   [ 997, tmax) -> It remains parked at station s5, which was charging for charging.

Schedule for EV v38:
   [   0,  668) -> It remains parked at station s4.
   [ 668,  848) -> Service a request driving for customer c46 from s4 to s1.
   [ 848, 1088) -> It remains parked at station s1.
   [1088, 1148) -> Service a request driving for customer c17 from s1 to s2.
   [1148, tmax) -> It remains parked at station s2, which was charging for charging.

Schedule for EV v39:
   [   0,  366) -> It remains parked at station s4.
   [ 366,  396) -> Service a request driving for customer c16 from s4 to s0.
   [ 396, 1095) -> It remains parked at station s0.
   [1095, 1125) -> Service a request driving for customer c42 from s0 to s5.
   [1125, tmax) -> It remains parked at station s5, which was charging for charging.

Schedule for EV v40:
   [   0, tmax) -> It remains parked at station s5.

Schedule for EV v41:
   [   0, tmax) -> It remains parked at station s5.

Schedule for EV v42:
   [   0, tmax) -> It remains parked at station s5.

Schedule for EV v43:
   [   0,  915) -> It remains parked at station s5.
   [ 915,  975) -> Service a request driving for customer c16 from s5 to s4.
   [ 975, tmax) -> It remains parked at station s4.

Schedule for EV v44:
   [   0,  611) -> It remains parked at station s5.
   [ 611,  641) -> Service a request driving for customer c45 from s5 to s11.
   [ 641, tmax) -> It remains parked at station s11.

Schedule for EV v45:
   [   0, tmax) -> It remains parked at station s5.

Schedule for EV v46:
   [   0,  791) -> It remains parked at station s5.
   [ 791,  911) -> Service a request driving for customer c17 from s5 to s3.
   [ 911, 1029) -> It remains parked at station s3.
   [1029, 1239) -> Service a request driving for customer c35 from s3 to s7.
   [1239, tmax) -> It remains parked at station s7.

Schedule for EV v47:
   [   0,  730) -> It remains parked at station s5.
   [ 730,  820) -> Service a request driving for customer c20 from s5 to s10.
   [ 820, tmax) -> It remains parked at station s10.

Schedule for EV v48:
   [   0,  910) -> It remains parked at station s5.
   [ 910,  970) -> Service a request driving for customer c26 from s5 to s3.
   [ 970, 1031) -> It remains parked at station s3, which was charging for charging.
   [1031, 1091) -> Service a request driving for customer c9 from s3 to s11.
   [1091, tmax) -> It remains parked at station s11, which was charging for charging.

Schedule for EV v49:
   [   0, tmax) -> It remains parked at station s5.

Schedule for EV v50:
   [   0,  905) -> It remains parked at station s5.
   [ 905,  935) -> Service a request driving for customer c25 from s5 to s9.
   [ 935, tmax) -> It remains parked at station s9.

Schedule for EV v51:
   [   0, tmax) -> It remains parked at station s5.

Schedule for EV v52:
   [   0,  555) -> It remains parked at station s6.
   [ 555,  615) -> Service a request driving for customer c33 from s6 to s10.
   [ 615, tmax) -> It remains parked at station s10, which was charging for charging.

Schedule for EV v53:
   [   0,  552) -> It remains parked at station s6.
   [ 552,  582) -> Service a request driving for customer c27 from s6 to s7.
   [ 582, tmax) -> It remains parked at station s7, which was charging for charging.

Schedule for EV v54:
   [   0,  666) -> It remains parked at station s6.
   [ 666,  876) -> Service a request driving for customer c40 from s6 to s0.
   [ 876, tmax) -> It remains parked at station s0.

Schedule for EV v55:
   [   0, 1088) -> It remains parked at station s6.
   [1088, 1148) -> Service a request driving for customer c19 from s6 to s8.
   [1148, tmax) -> It remains parked at station s8.

Schedule for EV v56:
   [   0,  913) -> It remains parked at station s6.
   [ 913, 1003) -> Service a request driving for customer c38 from s6 to s1.
   [1003, tmax) -> It remains parked at station s1.

Schedule for EV v57:
   [   0, tmax) -> It remains parked at station s6.

Schedule for EV v58:
   [   0, tmax) -> It remains parked at station s6.

Schedule for EV v59:
   [   0, tmax) -> It remains parked at station s7.

Schedule for EV v60:
   [   0, tmax) -> It remains parked at station s7.

Schedule for EV v61:
   [   0, tmax) -> It remains parked at station s7.

Schedule for EV v62:
   [   0,  974) -> It remains parked at station s7.
   [ 974, 1064) -> Service a request driving for customer c5 from s7 to s6.
   [1064, 1446) -> It remains parked at station s6.
   [1446, 1536) -> Service a request driving for customer c23 from s6 to s11.
   [1536, tmax) -> It remains parked at station s11.

Schedule for EV v63:
   [   0,  846) -> It remains parked at station s7.
   [ 846,  936) -> Service a request driving for customer c34 from s7 to s4.
   [ 936, 1094) -> It remains parked at station s4.
   [1094, 1184) -> Service a request driving for customer c48 from s4 to s11.
   [1184, tmax) -> It remains parked at station s11.

Schedule for EV v64:
   [   0, tmax) -> It remains parked at station s7.

Schedule for EV v65:
   [   0, 1090) -> It remains parked at station s7.
   [1090, 1420) -> Service a request driving for customer c29 from s7 to s10.
   [1420, tmax) -> It remains parked at station s10.

Schedule for EV v66:
   [   0, tmax) -> It remains parked at station s7.

Schedule for EV v67:
   [   0, tmax) -> It remains parked at station s7.

Schedule for EV v68:
   [   0, tmax) -> It remains parked at station s7.

Schedule for EV v69:
   [   0,  667) -> It remains parked at station s8.
   [ 667,  727) -> Service a request driving for customer c28 from s8 to s11.
   [ 727,  910) -> It remains parked at station s11, which was charging for charging.
   [ 910, 1030) -> Service a request driving for customer c18 from s11 to s4.
   [1030, tmax) -> It remains parked at station s4, which was charging for charging.

Schedule for EV v70:
   [   0, tmax) -> It remains parked at station s8.

Schedule for EV v71:
   [   0,  486) -> It remains parked at station s8.
   [ 486,  546) -> Service a request driving for customer c12 from s8 to s0.
   [ 546, 1090) -> It remains parked at station s0, which was charging for charging.
   [1090, 1120) -> Service a request driving for customer c28 from s0 to s1.
   [1120, 1211) -> It remains parked at station s1.
   [1211, 1391) -> Service a request driving for customer c43 from s1 to s3.
   [1391, tmax) -> It remains parked at station s3.

Schedule for EV v72:
   [   0,  735) -> It remains parked at station s8.
   [ 735,  765) -> Service a request driving for customer c36 from s8 to s9.
   [ 765, tmax) -> It remains parked at station s9, which was charging for charging.

Schedule for EV v73:
   [   0, 1273) -> It remains parked at station s9.
   [1273, 1393) -> Service a request driving for customer c38 from s9 to s0.
   [1393, tmax) -> It remains parked at station s0.

Schedule for EV v74:
   [   0, tmax) -> It remains parked at station s9.

Schedule for EV v75:
   [   0, 1093) -> It remains parked at station s9.
   [1093, 1153) -> Service a request driving for customer c10 from s9 to s4.
   [1153, tmax) -> It remains parked at station s4.

Schedule for EV v76:
   [   0, tmax) -> It remains parked at station s9.

Schedule for EV v77:
   [   0, tmax) -> It remains parked at station s9.

Schedule for EV v78:
   [   0, 1026) -> It remains parked at station s9.
   [1026, 1356) -> Service a request driving for customer c24 from s9 to s10.
   [1356, tmax) -> It remains parked at station s10.

Schedule for EV v79:
   [   0,  913) -> It remains parked at station s10.
   [ 913,  943) -> Service a request driving for customer c24 from s10 to s11.
   [ 943,  971) -> It remains parked at station s11, which was charging for charging.
   [ 971, 1061) -> Service a request driving for customer c33 from s11 to s10.
   [1061, tmax) -> It remains parked at station s10.

Schedule for EV v80:
   [   0,  789) -> It remains parked at station s10.
   [ 789,  849) -> Service a request driving for customer c25 from s10 to s4.
   [ 849,  853) -> It remains parked at station s4.
   [ 853,  913) -> Service a request driving for customer c12 from s4 to s9.
   [ 913, tmax) -> It remains parked at station s9.

Schedule for EV v81:
   [   0, 1211) -> It remains parked at station s10.
   [1211, 1541) -> Service a request driving for customer c3 from s10 to s1.
   [1541, tmax) -> It remains parked at station s1.

Schedule for EV v82:
   [   0, tmax) -> It remains parked at station s10.

Schedule for EV v83:
   [   0, tmax) -> It remains parked at station s10.

Schedule for EV v84:
   [   0, tmax) -> It remains parked at station s10.

Schedule for EV v85:
   [   0, tmax) -> It remains parked at station s10.

Schedule for EV v86:
   [   0, tmax) -> It remains parked at station s10.

Schedule for EV v87:
   [   0,  606) -> It remains parked at station s10.
   [ 606,  726) -> Service a request driving for customer c44 from s10 to s4.
   [ 726, tmax) -> It remains parked at station s4.

Schedule for EV v88:
   [   0, tmax) -> It remains parked at station s11.

Schedule for EV v89:
   [   0, tmax) -> It remains parked at station s11.

Schedule for EV v90:
   [   0,  734) -> It remains parked at station s11.
   [ 734,  854) -> Service a request driving for customer c9 from s11 to s11.
   [ 854, tmax) -> It remains parked at station s11.

Schedule for EV v91:
   [   0, tmax) -> It remains parked at station s11.

Schedule for EV v92:
   [   0, tmax) -> It remains parked at station s11.

Schedule for EV v93:
   [   0, tmax) -> It remains parked at station s11.

Schedule for EV v94:
   [   0, tmax) -> It remains parked at station s11.

Schedule for EV v95:
   [   0, tmax) -> It remains parked at station s11.

Schedule for EV v96:
   [   0, tmax) -> It remains parked at station s11.

Schedule for EV v97:
   [   0, 1030) -> It remains parked at station s11.
   [1030, 1060) -> Service a request driving for customer c6 from s11 to s8.
   [1060, 1092) -> It remains parked at station s8.
   [1092, 1152) -> Service a request driving for customer c7 from s8 to s6.
   [1152, 1212) -> It remains parked at station s6.
   [1212, 1332) -> Service a request driving for customer c42 from s6 to s8.
   [1332, 1335) -> It remains parked at station s8, which was charging for charging.
   [1335, 1365) -> Service a request driving for customer c31 from s8 to s1.
   [1365, 1448) -> It remains parked at station s1, which was charging for charging.
   [1448, 1568) -> Service a request driving for customer c29 from s1 to s0.
   [1568, tmax) -> It remains parked at station s0.

Schedule for EV v98:
   [   0, 1034) -> It remains parked at station s11.
   [1034, 1064) -> Service a request driving for customer c0 from s11 to s3.
   [1064, 1090) -> It remains parked at station s3, which was charging for charging.
   [1090, 1150) -> Service a request driving for customer c14 from s3 to s11.
   [1150, tmax) -> It remains parked at station s11, which was charging for charging.

Set of satisfied customers
   {c0, c1, c2, c3, c4, c5, c6, c7, c8, c9, c10, c11, c12, c13, c14, c15, c16, c17, c18, c19, c20, c21, c22, c23, c24, c25, c26, c27, c28, c29, c30, c31, c32, c33, c34, c35, c36, c37, c38, c39, c40, c41, c42, c43, c44, c45, c46, c47, c48, c49}

