Academic license - for non-commercial use only
Gurobi Optimizer version 9.0.3 build v9.0.3rc0 (linux64)
Optimize a model with 69198 rows, 47337 columns and 1351968 nonzeros
Model fingerprint: 0x1c9ad5be
Variable types: 25482 continuous, 21855 integer (21855 binary)
Coefficient statistics:
  Matrix range     [1e+00, 7e+06]
  Objective range  [3e+01, 7e+02]
  Bounds range     [1e+00, 2e+06]
  RHS range        [1e+00, 2e+06]

Loaded user MIP start with objective 2760

Presolve removed 12258 rows and 2069 columns
Presolve time: 3.51s
Presolved: 56940 rows, 45268 columns, 723053 nonzeros
Variable types: 3329 continuous, 41939 integer (35207 binary)

Root simplex log...

Iteration    Objective       Primal Inf.    Dual Inf.      Time
    5941    1.2599985e+04   5.827589e+04   0.000000e+00      5s
   12515    1.2599978e+04   6.876813e+07   0.000000e+00     10s
   16517    1.2599975e+04   1.758738e+05   0.000000e+00     15s
   19691    1.2599974e+04   4.183007e+04   0.000000e+00     20s
   22727    1.2599972e+04   2.276182e+05   0.000000e+00     25s
   25625    1.2599970e+04   1.075664e+05   0.000000e+00     30s
   28247    1.2599969e+04   6.211814e+06   0.000000e+00     35s
   30455    1.2599968e+04   1.361364e+05   0.000000e+00     40s
   32387    1.2599967e+04   8.844175e+04   0.000000e+00     45s
   34043    1.2599967e+04   5.544924e+05   0.000000e+00     50s
   35699    1.2599966e+04   4.987980e+04   0.000000e+00     55s
   37355    1.2599965e+04   1.370852e+06   0.000000e+00     60s
   39287    1.2599964e+04   1.067976e+05   0.000000e+00     65s
   41219    1.2599963e+04   3.575194e+03   0.000000e+00     70s
   43151    1.2599963e+04   7.554740e+04   0.000000e+00     75s
   44945    1.2599963e+04   1.959924e+04   0.000000e+00     80s
   46739    1.2599962e+04   5.920637e+04   0.000000e+00     85s
   48671    1.2599962e+04   3.249637e+05   0.000000e+00     90s
   50327    1.2599961e+04   2.105098e+04   0.000000e+00     95s
   52121    1.2599961e+04   1.071432e+05   0.000000e+00    100s
   53777    1.2599960e+04   2.894823e+06   0.000000e+00    105s
   55571    1.2599959e+04   5.153401e+04   0.000000e+00    110s
   57365    1.2599959e+04   2.195387e+06   0.000000e+00    115s
   59021    1.2599959e+04   4.493085e+03   0.000000e+00    120s
   60539    1.2599958e+04   5.566351e+04   0.000000e+00    125s
   62195    1.2599958e+04   7.293588e+05   0.000000e+00    130s
   63851    1.2599957e+04   5.101355e+05   0.000000e+00    135s
   65507    1.2599956e+04   1.096842e+05   0.000000e+00    140s
   67163    1.2599956e+04   1.375960e+05   0.000000e+00    145s
   68681    1.2599956e+04   4.309801e+05   0.000000e+00    150s
   70337    1.2599955e+04   4.108042e+05   0.000000e+00    155s
   71855    1.2599955e+04   1.122344e+04   0.000000e+00    160s
   73373    1.2599954e+04   2.353847e+04   0.000000e+00    165s
   74891    1.2599954e+04   2.953207e+04   0.000000e+00    170s
   76409    1.2599953e+04   7.215021e+04   0.000000e+00    175s
   78065    1.2599953e+04   5.498792e+05   0.000000e+00    180s
   79721    1.2599952e+04   3.037162e+04   0.000000e+00    185s
   81239    1.2599952e+04   1.210954e+05   0.000000e+00    190s
   82757    1.2599951e+04   1.174742e+05   0.000000e+00    195s
   84413    1.2599951e+04   1.418114e+06   0.000000e+00    200s
   86069    1.2599951e+04   1.716092e+04   0.000000e+00    205s
   87587    1.2599946e+04   4.668338e+05   0.000000e+00    210s
   89243    1.2599944e+04   1.427830e+04   0.000000e+00    215s
   90899    1.2599943e+04   5.638854e+05   0.000000e+00    220s
   92417    1.2599941e+04   1.931929e+05   0.000000e+00    225s
   94073    1.2599940e+04   1.892663e+05   0.000000e+00    230s
   95591    1.2599939e+04   4.056657e+04   0.000000e+00    235s
   97247    1.2599938e+04   1.103951e+05   0.000000e+00    240s
   98765    1.2599937e+04   3.087964e+05   0.000000e+00    245s
  100283    1.2599936e+04   2.319299e+04   0.000000e+00    250s
  101801    1.2599936e+04   1.478197e+04   0.000000e+00    255s
  103319    1.2599935e+04   2.156131e+04   0.000000e+00    260s
  104837    1.2599934e+04   1.017109e+04   0.000000e+00    265s
  106217    1.2599933e+04   2.292084e+05   0.000000e+00    270s
  107735    1.2599933e+04   1.666325e+05   0.000000e+00    275s
  109253    1.2599932e+04   1.162623e+05   0.000000e+00    280s
  110633    1.2599932e+04   4.013274e+04   0.000000e+00    285s
  112013    1.2599931e+04   5.457626e+05   0.000000e+00    290s
  113531    1.2599930e+04   8.487939e+03   0.000000e+00    295s
  114911    1.2599930e+04   1.537572e+04   0.000000e+00    300s
  116291    1.2599929e+04   2.744010e+04   0.000000e+00    305s
  117671    1.2599929e+04   1.800246e+04   0.000000e+00    310s
  119051    1.2599929e+04   2.344286e+04   0.000000e+00    315s
  120293    1.2599928e+04   1.032507e+04   0.000000e+00    320s
  121673    1.2599928e+04   3.871837e+04   0.000000e+00    325s
  123053    1.2599927e+04   5.777495e+04   0.000000e+00    330s
  124433    1.2599927e+04   2.158464e+04   0.000000e+00    335s
  125951    1.2599926e+04   1.459164e+05   0.000000e+00    340s
  127193    1.2599926e+04   1.124385e+05   0.000000e+00    345s
  128573    1.2599926e+04   3.087153e+03   0.000000e+00    350s
  129815    1.2599925e+04   2.500747e+05   0.000000e+00    355s
  131195    1.2599925e+04   5.520456e+04   0.000000e+00    360s
  132575    1.2599925e+04   2.018701e+05   0.000000e+00    366s
  133817    1.2599924e+04   3.672363e+05   0.000000e+00    370s
  135197    1.2599923e+04   1.158832e+05   0.000000e+00    375s
  136439    1.2599923e+04   1.346367e+04   0.000000e+00    380s
  137681    1.2599922e+04   1.793461e+07   0.000000e+00    385s
  139061    1.2599922e+04   1.380618e+05   0.000000e+00    390s
  140303    1.2599921e+04   2.762429e+03   0.000000e+00    395s
  141683    1.2599921e+04   3.984291e+04   0.000000e+00    400s
  142925    1.2599921e+04   2.080040e+05   0.000000e+00    405s
  144167    1.2599921e+04   1.774530e+04   0.000000e+00    410s
  145547    1.2599920e+04   1.754047e+04   0.000000e+00    415s
  146789    1.2599920e+04   1.227857e+04   0.000000e+00    420s
  148031    1.2599919e+04   5.952675e+03   0.000000e+00    425s
  149411    1.2599919e+04   2.148065e+04   0.000000e+00    430s
  150653    1.2599919e+04   1.241226e+05   0.000000e+00    435s
  151895    1.2599918e+04   9.659400e+03   0.000000e+00    440s
  153137    1.2599918e+04   1.060882e+04   0.000000e+00    445s
  154379    1.2599918e+04   2.945905e+04   0.000000e+00    450s
  155621    1.2599917e+04   1.240088e+04   0.000000e+00    455s
  156863    1.2599917e+04   8.910690e+03   0.000000e+00    460s
  158105    1.2599917e+04   3.558316e+04   0.000000e+00    465s
  159347    1.2599916e+04   1.317618e+04   0.000000e+00    470s
  160589    1.2599916e+04   1.465169e+05   0.000000e+00    475s
  161969    1.2599916e+04   3.220970e+04   0.000000e+00    481s
  163211    1.2599915e+04   1.399620e+04   0.000000e+00    485s
  164453    1.2599915e+04   1.304739e+05   0.000000e+00    491s
  165557    1.2599914e+04   2.067172e+04   0.000000e+00    495s
  166799    1.2599914e+04   2.250103e+03   0.000000e+00    500s
  168041    1.2599914e+04   1.571984e+05   0.000000e+00    505s
  169283    1.2599914e+04   4.971646e+05   0.000000e+00    510s
  170663    1.2599913e+04   7.141560e+03   0.000000e+00    516s
  171661    1.2599913e+04   3.886749e+06   0.000000e+00    520s
  172585    1.2599910e+04   5.352949e+06   0.000000e+00    525s
  173665    1.2554914e+04   8.100784e+07   0.000000e+00    530s
  174591    1.2554912e+04   1.660710e+06   0.000000e+00    535s
  175525    1.2554911e+04   2.021444e+06   0.000000e+00    540s
  176451    1.2554909e+04   3.910114e+06   0.000000e+00    546s
  177229    1.2554908e+04   1.940362e+06   0.000000e+00    550s
  178145    1.2554907e+04   8.818363e+05   0.000000e+00    555s
  178905    1.2554906e+04   9.504289e+05   0.000000e+00    560s
  179803    1.2554905e+04   4.269025e+06   0.000000e+00    566s
  180563    1.2554904e+04   1.080300e+05   0.000000e+00    571s
  181359    1.2554903e+04   2.359858e+05   0.000000e+00    576s
  182119    1.2554902e+04   1.286103e+06   0.000000e+00    581s
  182869    1.2554902e+04   6.521570e+05   0.000000e+00    586s
  183499    1.2554901e+04   9.513304e+05   0.000000e+00    590s
  184249    1.2554901e+04   3.214233e+06   0.000000e+00    595s
  185027    1.2554900e+04   5.349511e+05   0.000000e+00    601s
  185685    1.2554900e+04   9.949946e+05   0.000000e+00    605s
  186325    1.2554900e+04   7.574496e+05   0.000000e+00    610s
  187105    1.2554899e+04   6.035437e+05   0.000000e+00    616s
  187745    1.2554899e+04   8.707955e+05   0.000000e+00    620s
  188403    1.2554899e+04   1.026329e+06   0.000000e+00    625s
  189199    1.2554899e+04   3.818566e+05   0.000000e+00    631s
  189849    1.2554899e+04   6.277326e+06   0.000000e+00    635s
  190629    1.2554898e+04   1.949372e+06   0.000000e+00    641s
  191279    1.2554898e+04   1.510824e+05   0.000000e+00    646s
  191937    1.2554898e+04   4.276727e+05   0.000000e+00    650s
  192577    1.2554898e+04   4.608946e+04   0.000000e+00    655s
  193363    1.2554898e+04   4.669528e+04   0.000000e+00    661s
  194021    1.2554898e+04   1.046904e+03   0.000000e+00    665s
  194841    1.2554898e+04   5.483304e-01   0.000000e+00    671s
  194910    1.2555000e+04   0.000000e+00   0.000000e+00    671s
  194910    1.2555000e+04   0.000000e+00   0.000000e+00    672s

Root relaxation: objective 1.255500e+04, 194910 iterations, 667.65 seconds
Total elapsed time = 783.23s
Total elapsed time = 1076.24s
Total elapsed time = 1165.71s
Total elapsed time = 1260.41s

    Nodes    |    Current Node    |     Objective Bounds      |     Work
 Expl Unexpl |  Obj  Depth IntInf | Incumbent    BestBd   Gap | It/Node Time

     0     0 12555.0000    0 3592 2760.00000 12555.0000   355%     - 1313s
     0     0 12540.0000    0 6654 2760.00000 12540.0000   354%     - 1462s
     0     0 12540.0000    0 6528 2760.00000 12540.0000   354%     - 1584s
     0     0 12540.0000    0 7392 2760.00000 12540.0000   354%     - 1697s
     0     0 12540.0000    0 7092 2760.00000 12540.0000   354%     - 1775s
     0     0 12540.0000    0 3622 2760.00000 12540.0000   354%     - 2415s
H    0     0                    3240.0000000 12540.0000   287%     - 2415s
     0     0 12540.0000    0 5209 3240.00000 12540.0000   287%     - 2516s
     0     0 12540.0000    0 3802 3240.00000 12540.0000   287%     - 3213s
H    0     0                    3330.0000000 12540.0000   277%     - 3213s
     0     0 12540.0000    0 4791 3330.00000 12540.0000   277%     - 3294s
     0     0 12540.0000    0 6506 3330.00000 12540.0000   277%     - 3600s

Cutting planes:
  Gomory: 7
  Implied bound: 1547
  MIR: 57
  Mod-K: 11
  RLT: 674
  Relax-and-lift: 405

Explored 1 nodes (1372540 simplex iterations) in 3600.05 seconds
Thread count was 1 (of 40 available processors)

Solution count 3: 3330 3240 2760 

Time limit reached
Best objective 3.330000000000e+03, best bound 1.254000000000e+04, gap 276.5766%

----------

Best objective (UB): 12540.000
Best feasible solution (LB): 3330.000
Gap between the lower bound and upper bound: 276.577%

----------

Number of customers served: 31

Schedule for EV v0:
   [   0,  725) -> It remains parked at station s0.
   [ 725,  755) -> Service a request driving for customer c25 from s0 to s1.
   [ 755, tmax) -> It remains parked at station s1.

Schedule for EV v1:
   [   0, 1033) -> It remains parked at station s0.
   [1033, 1063) -> Service a request driving for customer c52 from s0 to s7.
   [1063, tmax) -> It remains parked at station s7.

Schedule for EV v2:
   [   0, tmax) -> It remains parked at station s0.

Schedule for EV v3:
   [   0, tmax) -> It remains parked at station s0.

Schedule for EV v4:
   [   0,  668) -> It remains parked at station s1.
   [ 668,  818) -> Service a request driving for customer c7 from s1 to s6.
   [ 818, tmax) -> It remains parked at station s6.

Schedule for EV v5:
   [   0,  556) -> It remains parked at station s1.
   [ 556,  706) -> Service a request driving for customer c45 from s1 to s3.
   [ 706, tmax) -> It remains parked at station s3.

Schedule for EV v6:
   [   0,  607) -> It remains parked at station s1.
   [ 607,  697) -> Service a request driving for customer c46 from s1 to s7.
   [ 697, tmax) -> It remains parked at station s7.

Schedule for EV v7:
   [   0, tmax) -> It remains parked at station s1.

Schedule for EV v8:
   [   0, tmax) -> It remains parked at station s1.

Schedule for EV v9:
   [   0,  905) -> It remains parked at station s2.
   [ 905,  965) -> Service a request driving for customer c65 from s2 to s3.
   [ 965, tmax) -> It remains parked at station s3.

Schedule for EV v10:
   [   0,  911) -> It remains parked at station s2.
   [ 911,  941) -> Service a request driving for customer c3 from s2 to s11.
   [ 941, 1153) -> It remains parked at station s11.
   [1153, 1213) -> Service a request driving for customer c3 from s11 to s4.
   [1213, tmax) -> It remains parked at station s4.

Schedule for EV v11:
   [   0, tmax) -> It remains parked at station s2.

Schedule for EV v12:
   [   0, 1031) -> It remains parked at station s3.
   [1031, 1121) -> Service a request driving for customer c4 from s3 to s4.
   [1121, tmax) -> It remains parked at station s4.

Schedule for EV v13:
   [   0, tmax) -> It remains parked at station s3.

Schedule for EV v14:
   [   0, tmax) -> It remains parked at station s3.

Schedule for EV v15:
   [   0, tmax) -> It remains parked at station s3.

Schedule for EV v16:
   [   0,  972) -> It remains parked at station s3.
   [ 972, 1032) -> Service a request driving for customer c60 from s3 to s4.
   [1032, tmax) -> It remains parked at station s4.

Schedule for EV v17:
   [   0,  676) -> It remains parked at station s3.
   [ 676,  736) -> Service a request driving for customer c23 from s3 to s1.
   [ 736, tmax) -> It remains parked at station s1, which was charging for charging.

Schedule for EV v18:
   [   0, tmax) -> It remains parked at station s3.

Schedule for EV v19:
   [   0, 1455) -> It remains parked at station s4.
   [1455, 1515) -> Service a request driving for customer c34 from s4 to s2.
   [1515, tmax) -> It remains parked at station s2.

Schedule for EV v20:
   [   0, tmax) -> It remains parked at station s4.

Schedule for EV v21:
   [   0, tmax) -> It remains parked at station s4.

Schedule for EV v22:
   [   0, tmax) -> It remains parked at station s4.

Schedule for EV v23:
   [   0, 1156) -> It remains parked at station s5.
   [1156, 1366) -> Service a request driving for customer c55 from s5 to s11.
   [1366, tmax) -> It remains parked at station s11.

Schedule for EV v24:
   [   0, tmax) -> It remains parked at station s5.

Schedule for EV v25:
   [   0, tmax) -> It remains parked at station s5.

Schedule for EV v26:
   [   0, 1093) -> It remains parked at station s5.
   [1093, 1153) -> Service a request driving for customer c48 from s5 to s9.
   [1153, tmax) -> It remains parked at station s9.

Schedule for EV v27:
   [   0, tmax) -> It remains parked at station s5.

Schedule for EV v28:
   [   0, tmax) -> It remains parked at station s5.

Schedule for EV v29:
   [   0,  966) -> It remains parked at station s6.
   [ 966, 1116) -> Service a request driving for customer c49 from s6 to s1.
   [1116, tmax) -> It remains parked at station s1.

Schedule for EV v30:
   [   0, 1212) -> It remains parked at station s6.
   [1212, 1332) -> Service a request driving for customer c28 from s6 to s11.
   [1332, tmax) -> It remains parked at station s11.

Schedule for EV v31:
   [   0,  436) -> It remains parked at station s6.
   [ 436,  526) -> Service a request driving for customer c56 from s6 to s2.
   [ 526, tmax) -> It remains parked at station s2.

Schedule for EV v32:
   [   0,  730) -> It remains parked at station s6.
   [ 730,  790) -> Service a request driving for customer c66 from s6 to s0.
   [ 790, tmax) -> It remains parked at station s0.

Schedule for EV v33:
   [   0, tmax) -> It remains parked at station s6.

Schedule for EV v34:
   [   0, tmax) -> It remains parked at station s6.

Schedule for EV v35:
   [   0, tmax) -> It remains parked at station s6.

Schedule for EV v36:
   [   0, tmax) -> It remains parked at station s6.

Schedule for EV v37:
   [   0, 1270) -> It remains parked at station s6.
   [1270, 1300) -> Service a request driving for customer c36 from s6 to s11.
   [1300, tmax) -> It remains parked at station s11.

Schedule for EV v38:
   [   0, tmax) -> It remains parked at station s6.

Schedule for EV v39:
   [   0, tmax) -> It remains parked at station s6.

Schedule for EV v40:
   [   0, tmax) -> It remains parked at station s6.

Schedule for EV v41:
   [   0,  552) -> It remains parked at station s7.
   [ 552,  822) -> Service a request driving for customer c15 from s7 to s6.
   [ 822, 1146) -> It remains parked at station s6.
   [1146, 1206) -> Service a request driving for customer c15 from s6 to s1.
   [1206, tmax) -> It remains parked at station s1.

Schedule for EV v42:
   [   0, tmax) -> It remains parked at station s7.

Schedule for EV v43:
   [   0,  913) -> It remains parked at station s7.
   [ 913, 1003) -> Service a request driving for customer c18 from s7 to s4.
   [1003, tmax) -> It remains parked at station s4.

Schedule for EV v44:
   [   0, tmax) -> It remains parked at station s7.

Schedule for EV v45:
   [   0, tmax) -> It remains parked at station s7.

Schedule for EV v46:
   [   0,  972) -> It remains parked at station s7.
   [ 972, 1092) -> Service a request driving for customer c64 from s7 to s11.
   [1092, tmax) -> It remains parked at station s11.

Schedule for EV v47:
   [   0, tmax) -> It remains parked at station s7.

Schedule for EV v48:
   [   0, tmax) -> It remains parked at station s7.

Schedule for EV v49:
   [   0,  907) -> It remains parked at station s7.
   [ 907,  967) -> Service a request driving for customer c39 from s7 to s11.
   [ 967, tmax) -> It remains parked at station s11.

Schedule for EV v50:
   [   0,  968) -> It remains parked at station s8.
   [ 968, 1028) -> Service a request driving for customer c48 from s8 to s11.
   [1028, tmax) -> It remains parked at station s11.

Schedule for EV v51:
   [   0,  668) -> It remains parked at station s8.
   [ 668,  758) -> Service a request driving for customer c44 from s8 to s3.
   [ 758, tmax) -> It remains parked at station s3.

Schedule for EV v52:
   [   0,  607) -> It remains parked at station s8.
   [ 607,  667) -> Service a request driving for customer c27 from s8 to s1.
   [ 667, tmax) -> It remains parked at station s1.

Schedule for EV v53:
   [   0, tmax) -> It remains parked at station s8.

Schedule for EV v54:
   [   0, 1029) -> It remains parked at station s8.
   [1029, 1089) -> Service a request driving for customer c53 from s8 to s11.
   [1089, tmax) -> It remains parked at station s11.

Schedule for EV v55:
   [   0, tmax) -> It remains parked at station s8.

Schedule for EV v56:
   [   0,  965) -> It remains parked at station s8.
   [ 965, 1025) -> Service a request driving for customer c23 from s8 to s2.
   [1025, tmax) -> It remains parked at station s2, which was charging for charging.

Schedule for EV v57:
   [   0, tmax) -> It remains parked at station s8.

Schedule for EV v58:
   [   0, 1332) -> It remains parked at station s8.
   [1332, 1422) -> Service a request driving for customer c22 from s8 to s1.
   [1422, tmax) -> It remains parked at station s1.

Schedule for EV v59:
   [   0, tmax) -> It remains parked at station s8.

Schedule for EV v60:
   [   0, tmax) -> It remains parked at station s8.

Schedule for EV v61:
   [   0, 1148) -> It remains parked at station s8.
   [1148, 1208) -> Service a request driving for customer c39 from s8 to s6.
   [1208, tmax) -> It remains parked at station s6, which was charging for charging.

Schedule for EV v62:
   [   0, tmax) -> It remains parked at station s8.

Schedule for EV v63:
   [   0, tmax) -> It remains parked at station s8.

Schedule for EV v64:
   [   0, tmax) -> It remains parked at station s9.

Schedule for EV v65:
   [   0, tmax) -> It remains parked at station s9.

Schedule for EV v66:
   [   0, tmax) -> It remains parked at station s9.

Schedule for EV v67:
   [   0, tmax) -> It remains parked at station s9.

Schedule for EV v68:
   [   0, tmax) -> It remains parked at station s9.

Schedule for EV v69:
   [   0, tmax) -> It remains parked at station s9.

Schedule for EV v70:
   [   0, tmax) -> It remains parked at station s9.

Schedule for EV v71:
   [   0, tmax) -> It remains parked at station s9.

Schedule for EV v72:
   [   0, 1089) -> It remains parked at station s9.
   [1089, 1149) -> Service a request driving for customer c60 from s9 to s0.
   [1149, tmax) -> It remains parked at station s0, which was charging for charging.

Schedule for EV v73:
   [   0,  611) -> It remains parked at station s10.
   [ 611,  701) -> Service a request driving for customer c10 from s10 to s1.
   [ 701, tmax) -> It remains parked at station s1.

Schedule for EV v74:
   [   0, tmax) -> It remains parked at station s10.

Schedule for EV v75:
   [   0, tmax) -> It remains parked at station s10.

Schedule for EV v76:
   [   0, tmax) -> It remains parked at station s10.

Schedule for EV v77:
   [   0, tmax) -> It remains parked at station s10.

Schedule for EV v78:
   [   0, tmax) -> It remains parked at station s10.

Schedule for EV v79:
   [   0, tmax) -> It remains parked at station s10.

Schedule for EV v80:
   [   0, tmax) -> It remains parked at station s10.

Schedule for EV v81:
   [   0, tmax) -> It remains parked at station s10.

Schedule for EV v82:
   [   0, tmax) -> It remains parked at station s10.

Schedule for EV v83:
   [   0, tmax) -> It remains parked at station s10.

Schedule for EV v84:
   [   0,  556) -> It remains parked at station s11.
   [ 556,  586) -> Service a request driving for customer c53 from s11 to s11.
   [ 586, 1336) -> It remains parked at station s11.
   [1336, 1576) -> Service a request driving for customer c12 from s11 to s6.
   [1576, tmax) -> It remains parked at station s6.

Schedule for EV v85:
   [   0, 1214) -> It remains parked at station s11.
   [1214, 1334) -> Service a request driving for customer c17 from s11 to s5.
   [1334, tmax) -> It remains parked at station s5.

Schedule for EV v86:
   [   0,  729) -> It remains parked at station s11.
   [ 729,  789) -> Service a request driving for customer c26 from s11 to s7.
   [ 789, tmax) -> It remains parked at station s7.

Schedule for EV v87:
   [   0,  614) -> It remains parked at station s11.
   [ 614,  674) -> Service a request driving for customer c30 from s11 to s1.
   [ 674, tmax) -> It remains parked at station s1.

Schedule for EV v88:
   [   0, tmax) -> It remains parked at station s11.

Schedule for EV v89:
   [   0, tmax) -> It remains parked at station s11.

Schedule for EV v90:
   [   0, tmax) -> It remains parked at station s11.

Schedule for EV v91:
   [   0, tmax) -> It remains parked at station s11.

Schedule for EV v92:
   [   0, tmax) -> It remains parked at station s11.

Set of satisfied customers
   {c3, c4, c7, c10, c12, c15, c17, c18, c22, c23, c25, c26, c27, c28, c30, c34, c36, c39, c44, c45, c46, c48, c49, c52, c53, c55, c56, c60, c64, c65, c66}

