Academic license - for non-commercial use only
Gurobi Optimizer version 9.0.3 build v9.0.3rc0 (linux64)
Optimize a model with 86532 rows, 59117 columns and 1851977 nonzeros
Model fingerprint: 0xf37ed2a8
Variable types: 31825 continuous, 27292 integer (27292 binary)
Coefficient statistics:
  Matrix range     [1e+00, 7e+06]
  Objective range  [3e+01, 7e+02]
  Bounds range     [1e+00, 2e+06]
  RHS range        [1e+00, 2e+06]

Loaded user MIP start with objective 3600

Presolve removed 14654 rows and 2405 columns (presolve time = 5s) ...
Presolve removed 14637 rows and 2388 columns
Presolve time: 5.25s
Presolved: 71895 rows, 56729 columns, 994209 nonzeros
Variable types: 3900 continuous, 52829 integer (44016 binary)

Root simplex log...

Iteration    Objective       Primal Inf.    Dual Inf.      Time
       0    1.7370000e+04   1.472059e+04   0.000000e+00      6s
   11579    1.7249984e+04   1.225391e+05   0.000000e+00     10s
   15737    1.7249982e+04   4.002392e+06   0.000000e+00     15s
   18663    1.7249981e+04   1.958372e+04   0.000000e+00     20s
   21281    1.7249980e+04   1.092944e+05   0.000000e+00     25s
   23745    1.7249980e+04   3.234052e+05   0.000000e+00     30s
   26055    1.7249979e+04   5.109387e+05   0.000000e+00     35s
   28211    1.7249978e+04   1.163427e+05   0.000000e+00     40s
   30213    1.7249978e+04   5.590037e+04   0.000000e+00     45s
   32061    1.7249977e+04   4.599772e+04   0.000000e+00     50s
   33755    1.7249977e+04   6.678334e+05   0.000000e+00     55s
   35757    1.7249976e+04   5.961215e+05   0.000000e+00     60s
   37605    1.7249976e+04   1.341497e+06   0.000000e+00     65s
   39299    1.7249975e+04   1.778693e+05   0.000000e+00     70s
   40993    1.7249974e+04   1.523819e+05   0.000000e+00     75s
   42533    1.7249974e+04   1.239451e+05   0.000000e+00     80s
   44227    1.7249974e+04   9.183612e+05   0.000000e+00     85s
   45921    1.7249973e+04   1.587934e+04   0.000000e+00     90s
   47461    1.7249973e+04   1.284692e+05   0.000000e+00     95s
   48847    1.7249973e+04   1.101099e+05   0.000000e+00    100s
   50541    1.7249972e+04   1.617754e+05   0.000000e+00    105s
   52081    1.7249972e+04   9.522517e+04   0.000000e+00    111s
   53467    1.7249972e+04   4.025346e+04   0.000000e+00    115s
   54853    1.7219972e+04   4.075632e+04   0.000000e+00    120s
   56393    1.7219971e+04   1.899203e+05   0.000000e+00    125s
   57779    1.7219971e+04   7.191921e+04   0.000000e+00    130s
   59319    1.7219971e+04   1.267821e+05   0.000000e+00    135s
   60705    1.7219970e+04   7.079091e+04   0.000000e+00    140s
   62091    1.7219970e+04   1.222078e+05   0.000000e+00    145s
   63477    1.7219970e+04   1.654207e+07   0.000000e+00    150s
   64863    1.7099970e+04   7.896013e+04   0.000000e+00    155s
   66249    1.7084970e+04   1.002960e+05   0.000000e+00    160s
   67635    1.7084969e+04   2.064981e+04   0.000000e+00    166s
   68867    1.7084969e+04   2.948201e+04   0.000000e+00    170s
   70099    1.7084969e+04   1.285229e+05   0.000000e+00    175s
   71485    1.7084969e+04   1.771955e+04   0.000000e+00    180s
   72717    1.7084969e+04   1.000638e+05   0.000000e+00    185s
   74103    1.7084968e+04   1.735307e+04   0.000000e+00    190s
   75335    1.7084968e+04   1.467692e+05   0.000000e+00    195s
   76721    1.7084968e+04   4.436072e+05   0.000000e+00    201s
   77953    1.7084967e+04   3.371063e+05   0.000000e+00    206s
   79185    1.7084967e+04   3.791611e+05   0.000000e+00    210s
   80571    1.7084967e+04   7.243987e+05   0.000000e+00    215s
   81803    1.7084966e+04   3.770353e+04   0.000000e+00    220s
   83189    1.7084966e+04   7.977317e+04   0.000000e+00    226s
   84421    1.7084966e+04   1.339306e+04   0.000000e+00    230s
   85807    1.7084966e+04   1.053079e+05   0.000000e+00    236s
   87039    1.7084965e+04   4.786271e+04   0.000000e+00    240s
   88271    1.7084965e+04   3.838980e+05   0.000000e+00    245s
   89657    1.7084965e+04   4.073675e+04   0.000000e+00    250s
   90889    1.7009965e+04   3.611595e+05   0.000000e+00    255s
   92275    1.7009965e+04   6.451870e+04   0.000000e+00    260s
   93507    1.7009964e+04   8.792011e+04   0.000000e+00    265s
   94893    1.7009964e+04   5.068440e+04   0.000000e+00    270s
   96125    1.7009964e+04   6.126633e+04   0.000000e+00    275s
   97511    1.7009964e+04   5.812894e+04   0.000000e+00    281s
   98743    1.7009964e+04   6.164045e+04   0.000000e+00    285s
   99975    1.7009963e+04   2.653860e+05   0.000000e+00    290s
  101207    1.7009963e+04   9.577302e+05   0.000000e+00    295s
  102593    1.7009963e+04   6.058888e+04   0.000000e+00    300s
  103825    1.7009963e+04   1.029424e+05   0.000000e+00    305s
  105057    1.7009962e+04   4.860924e+05   0.000000e+00    310s
  106289    1.7009962e+04   8.493777e+04   0.000000e+00    315s
  107521    1.7009962e+04   2.759216e+05   0.000000e+00    320s
  108753    1.7009962e+04   2.609789e+04   0.000000e+00    325s
  110139    1.7009962e+04   1.950009e+05   0.000000e+00    331s
  111217    1.7009962e+04   2.978527e+04   0.000000e+00    335s
  112449    1.7009961e+04   3.580054e+04   0.000000e+00    340s
  113681    1.7009961e+04   9.485182e+04   0.000000e+00    346s
  114913    1.7009961e+04   1.893672e+05   0.000000e+00    351s
  116145    1.7009961e+04   2.692978e+05   0.000000e+00    355s
  117377    1.7009961e+04   1.784119e+05   0.000000e+00    360s
  118609    1.7009961e+04   1.362259e+05   0.000000e+00    365s
  119841    1.7009961e+04   1.362315e+04   0.000000e+00    370s
  121073    1.7009960e+04   2.188408e+05   0.000000e+00    375s
  122305    1.7009960e+04   7.084535e+04   0.000000e+00    380s
  123691    1.7009960e+04   6.572335e+05   0.000000e+00    385s
  124923    1.7009960e+04   1.310831e+05   0.000000e+00    390s
  126309    1.7009960e+04   3.448010e+04   0.000000e+00    396s
  127541    1.7009959e+04   1.471577e+04   0.000000e+00    400s
  128619    1.7009959e+04   4.793249e+05   0.000000e+00    405s
  129851    1.7009959e+04   6.171216e+04   0.000000e+00    410s
  131083    1.7009959e+04   1.151799e+04   0.000000e+00    415s
  132315    1.7009959e+04   1.203356e+05   0.000000e+00    421s
  133393    1.7009959e+04   1.136295e+04   0.000000e+00    425s
  134625    1.7009959e+04   6.174994e+04   0.000000e+00    431s
  135703    1.7009959e+04   9.232496e+06   0.000000e+00    435s
  136935    1.7009959e+04   6.201577e+05   0.000000e+00    440s
  138167    1.7009958e+04   5.802381e+04   0.000000e+00    445s
  139399    1.7009958e+04   2.406980e+04   0.000000e+00    451s
  140477    1.7009958e+04   2.366813e+04   0.000000e+00    455s
  141709    1.7009958e+04   1.173860e+05   0.000000e+00    460s
  143095    1.7009958e+04   7.215851e+04   0.000000e+00    465s
  144481    1.7009958e+04   9.818046e+04   0.000000e+00    471s
  145713    1.7009958e+04   8.800452e+04   0.000000e+00    475s
  146945    1.7009957e+04   3.404437e+04   0.000000e+00    480s
  148177    1.7009957e+04   1.736963e+05   0.000000e+00    486s
  149409    1.7009957e+04   1.405215e+04   0.000000e+00    491s
  150641    1.7009957e+04   4.270213e+04   0.000000e+00    496s
  151719    1.7009957e+04   1.548896e+05   0.000000e+00    500s
  152951    1.7009957e+04   1.596257e+04   0.000000e+00    505s
  154029    1.7009957e+04   6.151755e+05   0.000000e+00    510s
  155261    1.7009957e+04   6.475757e+05   0.000000e+00    516s
  156339    1.7009956e+04   1.522951e+04   0.000000e+00    520s
  157571    1.7009956e+04   3.931174e+04   0.000000e+00    526s
  158649    1.7009956e+04   4.719579e+04   0.000000e+00    530s
  159881    1.7009956e+04   1.312193e+06   0.000000e+00    535s
  161113    1.7009955e+04   2.620553e+04   0.000000e+00    540s
  162345    1.7009954e+04   5.154968e+04   0.000000e+00    545s
  163577    1.7009954e+04   2.780620e+04   0.000000e+00    550s
  164809    1.7009953e+04   4.226869e+04   0.000000e+00    555s
  166041    1.7009953e+04   5.167419e+04   0.000000e+00    560s
  167273    1.7009953e+04   2.849604e+05   0.000000e+00    565s
  168505    1.7009952e+04   3.256131e+04   0.000000e+00    570s
  169737    1.7009952e+04   1.940377e+04   0.000000e+00    575s
  170815    1.7009951e+04   4.273566e+05   0.000000e+00    580s
  172047    1.7009951e+04   2.036294e+04   0.000000e+00    585s
  173279    1.7009951e+04   9.816116e+05   0.000000e+00    590s
  174357    1.7009951e+04   7.300767e+03   0.000000e+00    595s
  175589    1.7009950e+04   1.185394e+04   0.000000e+00    601s
  176667    1.7009950e+04   8.110089e+04   0.000000e+00    606s
  177745    1.7009950e+04   1.416301e+05   0.000000e+00    611s
  178823    1.7009949e+04   3.482955e+04   0.000000e+00    615s
  179901    1.7009949e+04   1.155579e+06   0.000000e+00    620s
  180979    1.7009949e+04   5.027910e+05   0.000000e+00    625s
  182211    1.7009948e+04   4.742129e+04   0.000000e+00    630s
  183289    1.7009948e+04   6.852842e+03   0.000000e+00    635s
  184367    1.7009948e+04   1.669831e+05   0.000000e+00    640s
  185445    1.7009948e+04   1.087169e+04   0.000000e+00    645s
  186523    1.7009948e+04   1.432150e+05   0.000000e+00    650s
  187755    1.7009947e+04   7.862300e+04   0.000000e+00    656s
  188679    1.7009947e+04   3.224545e+04   0.000000e+00    660s
  189757    1.7009947e+04   3.020261e+04   0.000000e+00    665s
  190835    1.7009946e+04   1.678979e+04   0.000000e+00    670s
  191913    1.7009946e+04   8.380951e+03   0.000000e+00    675s
  192991    1.7009946e+04   3.442852e+05   0.000000e+00    680s
  194069    1.7009945e+04   2.685192e+04   0.000000e+00    686s
  195147    1.7009945e+04   1.410270e+05   0.000000e+00    691s
  196225    1.7009945e+04   6.953623e+04   0.000000e+00    696s
  197149    1.7009945e+04   1.612596e+04   0.000000e+00    700s
  198227    1.7009945e+04   1.007765e+05   0.000000e+00    706s
  199151    1.7009945e+04   3.303039e+05   0.000000e+00    710s
  200229    1.7009944e+04   6.948280e+03   0.000000e+00    715s
  201307    1.7009944e+04   5.556929e+04   0.000000e+00    720s
  202385    1.7009944e+04   6.585058e+04   0.000000e+00    725s
  203463    1.7009944e+04   1.565141e+04   0.000000e+00    730s
  204541    1.7009943e+04   1.856034e+05   0.000000e+00    736s
  205465    1.7009943e+04   3.696586e+04   0.000000e+00    740s
  206543    1.7009943e+04   7.183358e+04   0.000000e+00    745s
  207621    1.7009943e+04   6.073294e+04   0.000000e+00    751s
  208545    1.7009943e+04   1.417296e+05   0.000000e+00    755s
  209623    1.7009943e+04   3.804928e+04   0.000000e+00    761s
  210547    1.7009943e+04   4.231962e+04   0.000000e+00    765s
  211625    1.7009942e+04   3.727610e+04   0.000000e+00    771s
  212549    1.7009942e+04   5.207244e+05   0.000000e+00    775s
  213627    1.7009942e+04   3.313175e+04   0.000000e+00    781s
  214551    1.7009942e+04   1.216987e+04   0.000000e+00    785s
  215629    1.7009941e+04   2.827145e+05   0.000000e+00    790s
  216369    1.7009941e+04   1.654574e+05   0.000000e+00    795s
  217119    1.7009941e+04   2.063852e+07   0.000000e+00    800s
  217959    1.7009939e+04   1.081333e+06   0.000000e+00    805s
  218799    1.7009939e+04   1.700227e+06   0.000000e+00    811s
  219639    1.7009938e+04   7.245189e+05   0.000000e+00    816s
  220359    1.7009937e+04   1.832917e+06   0.000000e+00    820s
  221089    1.7009936e+04   6.759192e+06   0.000000e+00    825s
  221943    1.7009935e+04   2.911411e+06   0.000000e+00    831s
  222667    1.7009934e+04   4.037456e+05   0.000000e+00    835s
  223391    1.7009934e+04   4.492298e+06   0.000000e+00    840s
  224091    1.7009933e+04   4.498351e+06   0.000000e+00    845s
  224781    1.7009933e+04   7.990298e+05   0.000000e+00    850s
  225495    1.7009932e+04   2.019481e+06   0.000000e+00    855s
  226155    1.7009932e+04   2.680647e+05   0.000000e+00    860s
  227009    1.7009931e+04   1.287989e+06   0.000000e+00    866s
  227529    1.7009930e+04   2.365814e+06   0.000000e+00    870s
  228179    1.7009930e+04   3.469490e+05   0.000000e+00    875s
  228839    1.7009930e+04   1.675380e+06   0.000000e+00    881s
  229369    1.7009929e+04   5.005697e+05   0.000000e+00    885s
  230039    1.7009929e+04   7.768313e+06   0.000000e+00    890s
  230719    1.7009929e+04   6.814261e+06   0.000000e+00    896s
  231239    1.7009928e+04   6.106946e+06   0.000000e+00    900s
  231889    1.7009928e+04   1.687846e+06   0.000000e+00    906s
  232429    1.7009928e+04   2.221381e+06   0.000000e+00    910s
  233109    1.7009927e+04   1.644459e+06   0.000000e+00    916s
  233659    1.7009927e+04   1.590296e+07   0.000000e+00    920s
  234329    1.7009927e+04   7.519622e+05   0.000000e+00    926s
  234869    1.7009926e+04   4.523161e+05   0.000000e+00    931s
  235519    1.7009926e+04   5.566462e+05   0.000000e+00    936s
  236049    1.7009926e+04   2.436346e+06   0.000000e+00    941s
  236569    1.7009926e+04   4.671506e+05   0.000000e+00    945s
  237259    1.7009925e+04   1.570067e+06   0.000000e+00    951s
  237789    1.7009925e+04   3.508358e+06   0.000000e+00    956s
  238319    1.7009925e+04   6.904295e+05   0.000000e+00    961s
  238869    1.7009925e+04   2.059580e+05   0.000000e+00    965s
  239399    1.7009924e+04   6.308221e+05   0.000000e+00    970s
  240059    1.7009924e+04   1.098144e+05   0.000000e+00    976s
  240579    1.7009924e+04   3.031799e+06   0.000000e+00    981s
  241099    1.7009924e+04   4.611718e+05   0.000000e+00    986s
  241619    1.7009924e+04   3.717235e+06   0.000000e+00    991s
  242139    1.7009924e+04   3.538387e+05   0.000000e+00    996s
  242679    1.7009923e+04   3.565369e+05   0.000000e+00   1001s
  243199    1.7009923e+04   5.379563e+05   0.000000e+00   1005s
  243739    1.7009923e+04   1.075247e+05   0.000000e+00   1010s
  244289    1.7009923e+04   1.378416e+07   0.000000e+00   1016s
  244819    1.7009923e+04   1.870002e+06   0.000000e+00   1020s
  245349    1.7009923e+04   3.282539e+05   0.000000e+00   1026s
  245869    1.7009923e+04   1.383740e+05   0.000000e+00   1030s
  246419    1.7009922e+04   5.231266e+05   0.000000e+00   1035s
  246939    1.7009922e+04   5.293756e+05   0.000000e+00   1040s
  247489    1.7009922e+04   1.282305e+05   0.000000e+00   1046s
  248039    1.7009922e+04   1.717132e+05   0.000000e+00   1051s
  248579    1.7009922e+04   1.678840e+05   0.000000e+00   1056s
  249129    1.7009922e+04   3.205811e+05   0.000000e+00   1061s
  249539    1.7009922e+04   4.305121e+05   0.000000e+00   1065s
  250099    1.7009922e+04   3.676384e+05   0.000000e+00   1071s
  250649    1.7009922e+04   4.024527e+05   0.000000e+00   1076s
  251199    1.7009922e+04   1.071277e+05   0.000000e+00   1081s
  251609    1.7009922e+04   2.462711e+04   0.000000e+00   1085s
  252169    1.7009921e+04   2.271791e+05   0.000000e+00   1091s
  252709    1.7009921e+04   1.293724e+05   0.000000e+00   1096s
  253129    1.7009921e+04   3.272624e+06   0.000000e+00   1100s
  253689    1.7009921e+04   4.676831e+03   0.000000e+00   1105s
  254249    1.7009921e+04   2.832905e+04   0.000000e+00   1111s
  254809    1.7009921e+04   1.791251e+04   0.000000e+00   1116s
  255249    1.7009921e+04   7.061695e+04   0.000000e+00   1120s
  255849    1.7009921e+04   1.126638e+05   0.000000e+00   1126s
  256344    1.7010000e+04   0.000000e+00   0.000000e+00   1131s
  256344    1.7010000e+04   0.000000e+00   0.000000e+00   1131s

Root relaxation: objective 1.701000e+04, 256344 iterations, 1124.99 seconds
Total elapsed time = 1692.89s
Total elapsed time = 2314.73s

    Nodes    |    Current Node    |     Objective Bounds      |     Work
 Expl Unexpl |  Obj  Depth IntInf | Incumbent    BestBd   Gap | It/Node Time

     0     0 17010.0000    0 5790 3600.00000 17010.0000   372%     - 2507s
     0     0 17010.0000    0 8810 3600.00000 17010.0000   372%     - 2779s
     0     0 17010.0000    0 8745 3600.00000 17010.0000   372%     - 2938s
     0     0 17010.0000    0 9604 3600.00000 17010.0000   372%     - 3600s

Cutting planes:
  Gomory: 5
  Implied bound: 1250
  MIR: 35
  StrongCG: 1
  Mod-K: 5
  RLT: 542
  Relax-and-lift: 277

Explored 1 nodes (984173 simplex iterations) in 3600.08 seconds
Thread count was 1 (of 40 available processors)

Solution count 1: 3600 

Time limit reached
Best objective 3.600000000000e+03, best bound 1.701000000000e+04, gap 372.5000%

----------

Best objective (UB): 17010.000
Best feasible solution (LB): 3600.000
Gap between the lower bound and upper bound: 372.500%

----------

Number of customers served: 26

Schedule for EV v0:
   [   0,  727) -> It remains parked at station s0.
   [ 727,  907) -> Service a request driving for customer c31 from s0 to s4.
   [ 907, tmax) -> It remains parked at station s4.

Schedule for EV v1:
   [   0,  493) -> It remains parked at station s0.
   [ 493,  523) -> Service a request driving for customer c55 from s0 to s2.
   [ 523, tmax) -> It remains parked at station s2.

Schedule for EV v2:
   [   0, tmax) -> It remains parked at station s0.

Schedule for EV v3:
   [   0, tmax) -> It remains parked at station s0.

Schedule for EV v4:
   [   0, tmax) -> It remains parked at station s0.

Schedule for EV v5:
   [   0, tmax) -> It remains parked at station s0.

Schedule for EV v6:
   [   0, tmax) -> It remains parked at station s0.

Schedule for EV v7:
   [   0, tmax) -> It remains parked at station s0.

Schedule for EV v8:
   [   0,  972) -> It remains parked at station s1.
   [ 972, 1182) -> Service a request driving for customer c54 from s1 to s11.
   [1182, tmax) -> It remains parked at station s11.

Schedule for EV v9:
   [   0,  733) -> It remains parked at station s1.
   [ 733,  943) -> Service a request driving for customer c62 from s1 to s0.
   [ 943, tmax) -> It remains parked at station s0.

Schedule for EV v10:
   [   0,  548) -> It remains parked at station s1.
   [ 548,  578) -> Service a request driving for customer c57 from s1 to s4.
   [ 578, tmax) -> It remains parked at station s4.

Schedule for EV v11:
   [   0, tmax) -> It remains parked at station s1.

Schedule for EV v12:
   [   0, tmax) -> It remains parked at station s1.

Schedule for EV v13:
   [   0, tmax) -> It remains parked at station s1.

Schedule for EV v14:
   [   0, tmax) -> It remains parked at station s1.

Schedule for EV v15:
   [   0, tmax) -> It remains parked at station s1.

Schedule for EV v16:
   [   0, tmax) -> It remains parked at station s1.

Schedule for EV v17:
   [   0, tmax) -> It remains parked at station s1.

Schedule for EV v18:
   [   0,  556) -> It remains parked at station s2.
   [ 556,  616) -> Service a request driving for customer c2 from s2 to s4.
   [ 616, tmax) -> It remains parked at station s4.

Schedule for EV v19:
   [   0, tmax) -> It remains parked at station s2.

Schedule for EV v20:
   [   0, tmax) -> It remains parked at station s2.

Schedule for EV v21:
   [   0, tmax) -> It remains parked at station s2.

Schedule for EV v22:
   [   0, tmax) -> It remains parked at station s2.

Schedule for EV v23:
   [   0, tmax) -> It remains parked at station s2.

Schedule for EV v24:
   [   0, tmax) -> It remains parked at station s2.

Schedule for EV v25:
   [   0, tmax) -> It remains parked at station s2.

Schedule for EV v26:
   [   0, tmax) -> It remains parked at station s2.

Schedule for EV v27:
   [   0,  550) -> It remains parked at station s3.
   [ 550,  580) -> Service a request driving for customer c78 from s3 to s4.
   [ 580, tmax) -> It remains parked at station s4.

Schedule for EV v28:
   [   0, tmax) -> It remains parked at station s3.

Schedule for EV v29:
   [   0, tmax) -> It remains parked at station s3.

Schedule for EV v30:
   [   0, tmax) -> It remains parked at station s3.

Schedule for EV v31:
   [   0, tmax) -> It remains parked at station s3.

Schedule for EV v32:
   [   0, tmax) -> It remains parked at station s3.

Schedule for EV v33:
   [   0,  606) -> It remains parked at station s4.
   [ 606,  846) -> Service a request driving for customer c23 from s4 to s4.
   [ 846, tmax) -> It remains parked at station s4.

Schedule for EV v34:
   [   0, tmax) -> It remains parked at station s4.

Schedule for EV v35:
   [   0, tmax) -> It remains parked at station s4.

Schedule for EV v36:
   [   0, tmax) -> It remains parked at station s4.

Schedule for EV v37:
   [   0, tmax) -> It remains parked at station s4.

Schedule for EV v38:
   [   0, tmax) -> It remains parked at station s4.

Schedule for EV v39:
   [   0, tmax) -> It remains parked at station s4.

Schedule for EV v40:
   [   0, tmax) -> It remains parked at station s4.

Schedule for EV v41:
   [   0, tmax) -> It remains parked at station s4.

Schedule for EV v42:
   [   0, tmax) -> It remains parked at station s5.

Schedule for EV v43:
   [   0, tmax) -> It remains parked at station s5.

Schedule for EV v44:
   [   0, tmax) -> It remains parked at station s5.

Schedule for EV v45:
   [   0, tmax) -> It remains parked at station s5.

Schedule for EV v46:
   [   0, tmax) -> It remains parked at station s5.

Schedule for EV v47:
   [   0, tmax) -> It remains parked at station s5.

Schedule for EV v48:
   [   0, tmax) -> It remains parked at station s6.

Schedule for EV v49:
   [   0, tmax) -> It remains parked at station s6.

Schedule for EV v50:
   [   0, tmax) -> It remains parked at station s6.

Schedule for EV v51:
   [   0, tmax) -> It remains parked at station s6.

Schedule for EV v52:
   [   0, tmax) -> It remains parked at station s6.

Schedule for EV v53:
   [   0, tmax) -> It remains parked at station s6.

Schedule for EV v54:
   [   0, tmax) -> It remains parked at station s6.

Schedule for EV v55:
   [   0, 1027) -> It remains parked at station s7.
   [1027, 1267) -> Service a request driving for customer c36 from s7 to s11.
   [1267, tmax) -> It remains parked at station s11.

Schedule for EV v56:
   [   0,  552) -> It remains parked at station s7.
   [ 552,  612) -> Service a request driving for customer c6 from s7 to s0.
   [ 612, 1152) -> It remains parked at station s0.
   [1152, 1332) -> Service a request driving for customer c6 from s0 to s1.
   [1332, tmax) -> It remains parked at station s1.

Schedule for EV v57:
   [   0,  789) -> It remains parked at station s7.
   [ 789,  879) -> Service a request driving for customer c35 from s7 to s1.
   [ 879, 1090) -> It remains parked at station s1.
   [1090, 1150) -> Service a request driving for customer c35 from s1 to s0.
   [1150, tmax) -> It remains parked at station s0.

Schedule for EV v58:
   [   0,  674) -> It remains parked at station s7.
   [ 674,  734) -> Service a request driving for customer c74 from s7 to s4.
   [ 734,  975) -> It remains parked at station s4.
   [ 975, 1005) -> Service a request driving for customer c74 from s4 to s8.
   [1005, tmax) -> It remains parked at station s8.

Schedule for EV v59:
   [   0, tmax) -> It remains parked at station s7.

Schedule for EV v60:
   [   0, tmax) -> It remains parked at station s7.

Schedule for EV v61:
   [   0, tmax) -> It remains parked at station s7.

Schedule for EV v62:
   [   0, tmax) -> It remains parked at station s7.

Schedule for EV v63:
   [   0, tmax) -> It remains parked at station s7.

Schedule for EV v64:
   [   0, tmax) -> It remains parked at station s7.

Schedule for EV v65:
   [   0,  910) -> It remains parked at station s8.
   [ 910, 1210) -> Service a request driving for customer c47 from s8 to s11.
   [1210, tmax) -> It remains parked at station s11.

Schedule for EV v66:
   [   0, 1446) -> It remains parked at station s8.
   [1446, 1536) -> Service a request driving for customer c63 from s8 to s11.
   [1536, tmax) -> It remains parked at station s11.

Schedule for EV v67:
   [   0,  911) -> It remains parked at station s8.
   [ 911,  971) -> Service a request driving for customer c22 from s8 to s3.
   [ 971, tmax) -> It remains parked at station s3.

Schedule for EV v68:
   [   0,  908) -> It remains parked at station s8.
   [ 908,  968) -> Service a request driving for customer c60 from s8 to s1.
   [ 968, tmax) -> It remains parked at station s1.

Schedule for EV v69:
   [   0, tmax) -> It remains parked at station s8.

Schedule for EV v70:
   [   0, tmax) -> It remains parked at station s8.

Schedule for EV v71:
   [   0, tmax) -> It remains parked at station s8.

Schedule for EV v72:
   [   0, tmax) -> It remains parked at station s8.

Schedule for EV v73:
   [   0, tmax) -> It remains parked at station s8.

Schedule for EV v74:
   [   0, tmax) -> It remains parked at station s8.

Schedule for EV v75:
   [   0, tmax) -> It remains parked at station s8.

Schedule for EV v76:
   [   0, tmax) -> It remains parked at station s8.

Schedule for EV v77:
   [   0, tmax) -> It remains parked at station s8.

Schedule for EV v78:
   [   0, tmax) -> It remains parked at station s8.

Schedule for EV v79:
   [   0, 1086) -> It remains parked at station s9.
   [1086, 1386) -> Service a request driving for customer c24 from s9 to s9.
   [1386, tmax) -> It remains parked at station s9.

Schedule for EV v80:
   [   0, 1085) -> It remains parked at station s9.
   [1085, 1235) -> Service a request driving for customer c43 from s9 to s6.
   [1235, tmax) -> It remains parked at station s6.

Schedule for EV v81:
   [   0,  616) -> It remains parked at station s9.
   [ 616,  706) -> Service a request driving for customer c32 from s9 to s10.
   [ 706, tmax) -> It remains parked at station s10.

Schedule for EV v82:
   [   0, 1268) -> It remains parked at station s9.
   [1268, 1328) -> Service a request driving for customer c39 from s9 to s4.
   [1328, tmax) -> It remains parked at station s4.

Schedule for EV v83:
   [   0,  853) -> It remains parked at station s9.
   [ 853,  883) -> Service a request driving for customer c58 from s9 to s7.
   [ 883, tmax) -> It remains parked at station s7.

Schedule for EV v84:
   [   0,  787) -> It remains parked at station s10.
   [ 787,  847) -> Service a request driving for customer c46 from s10 to s3.
   [ 847,  912) -> It remains parked at station s3.
   [ 912, 1272) -> Service a request driving for customer c46 from s3 to s0.
   [1272, tmax) -> It remains parked at station s0.

Schedule for EV v85:
   [   0,  731) -> It remains parked at station s10.
   [ 731,  821) -> Service a request driving for customer c67 from s10 to s2.
   [ 821, tmax) -> It remains parked at station s2.

Schedule for EV v86:
   [   0,  610) -> It remains parked at station s10.
   [ 610,  670) -> Service a request driving for customer c42 from s10 to s11.
   [ 670, tmax) -> It remains parked at station s11.

Schedule for EV v87:
   [   0,  669) -> It remains parked at station s10.
   [ 669,  729) -> Service a request driving for customer c76 from s10 to s1.
   [ 729, tmax) -> It remains parked at station s1.

Schedule for EV v88:
   [   0, tmax) -> It remains parked at station s10.

Schedule for EV v89:
   [   0, tmax) -> It remains parked at station s10.

Schedule for EV v90:
   [   0, tmax) -> It remains parked at station s10.

Schedule for EV v91:
   [   0, tmax) -> It remains parked at station s10.

Schedule for EV v92:
   [   0, 1330) -> It remains parked at station s11.
   [1330, 1450) -> Service a request driving for customer c29 from s11 to s1.
   [1450, tmax) -> It remains parked at station s1.

Schedule for EV v93:
   [   0, tmax) -> It remains parked at station s11.

Schedule for EV v94:
   [   0, tmax) -> It remains parked at station s11.

Schedule for EV v95:
   [   0, tmax) -> It remains parked at station s11.

Schedule for EV v96:
   [   0, tmax) -> It remains parked at station s11.

Schedule for EV v97:
   [   0, tmax) -> It remains parked at station s11.

Schedule for EV v98:
   [   0, tmax) -> It remains parked at station s11.

Schedule for EV v99:
   [   0, tmax) -> It remains parked at station s11.

Set of satisfied customers
   {c2, c6, c22, c23, c24, c29, c31, c32, c35, c36, c39, c42, c43, c46, c47, c54, c55, c57, c58, c60, c62, c63, c67, c74, c76, c78}

