Academic license - for non-commercial use only
Gurobi Optimizer version 9.0.3 build v9.0.3rc0 (linux64)
Optimize a model with 87493 rows, 59880 columns and 2011049 nonzeros
Model fingerprint: 0xac9a8209
Variable types: 32011 continuous, 27869 integer (27869 binary)
Coefficient statistics:
  Matrix range     [1e+00, 7e+06]
  Objective range  [3e+01, 5e+02]
  Bounds range     [1e+00, 2e+06]
  RHS range        [1e+00, 2e+06]

Loaded user MIP start with objective 5190

Presolve removed 14932 rows and 2350 columns (presolve time = 5s) ...
Presolve removed 14919 rows and 2337 columns
Presolve time: 5.42s
Presolved: 72574 rows, 57543 columns, 1065946 nonzeros
Variable types: 4773 continuous, 52770 integer (45000 binary)

Root simplex log...

Iteration    Objective       Primal Inf.    Dual Inf.      Time
       0    1.5960000e+04   1.315713e+04   0.000000e+00      6s
   11083    1.5959976e+04   1.281068e+05   0.000000e+00     10s
   15549    1.5959973e+04   1.100050e+04   0.000000e+00     15s
   19399    1.5959971e+04   5.631192e+04   0.000000e+00     20s
   22479    1.5959970e+04   2.222822e+05   0.000000e+00     25s
   25559    1.5959968e+04   1.610509e+05   0.000000e+00     30s
   28177    1.5959967e+04   3.484055e+06   0.000000e+00     35s
   30795    1.5959966e+04   2.200964e+05   0.000000e+00     40s
   33413    1.5959964e+04   1.002556e+07   0.000000e+00     45s
   35723    1.5959963e+04   9.388158e+05   0.000000e+00     50s
   38187    1.5959962e+04   1.575246e+05   0.000000e+00     55s
   40497    1.5959961e+04   1.948369e+05   0.000000e+00     60s
   42807    1.5959959e+04   1.692546e+05   0.000000e+00     65s
   45117    1.5959958e+04   5.786112e+04   0.000000e+00     70s
   47273    1.5959957e+04   7.464323e+04   0.000000e+00     75s
   49275    1.5959956e+04   3.424945e+06   0.000000e+00     80s
   51123    1.5959955e+04   2.360514e+05   0.000000e+00     85s
   52971    1.5959955e+04   5.910253e+04   0.000000e+00     90s
   54665    1.5959954e+04   4.191735e+05   0.000000e+00     95s
   56513    1.5959953e+04   3.011736e+04   0.000000e+00    100s
   58207    1.5959953e+04   1.692928e+04   0.000000e+00    105s
   59901    1.5959952e+04   1.271625e+05   0.000000e+00    110s
   61595    1.5959951e+04   2.103932e+05   0.000000e+00    115s
   63443    1.5869951e+04   2.033109e+05   0.000000e+00    120s
   65291    1.5869950e+04   1.545512e+05   0.000000e+00    125s
   66831    1.5869949e+04   9.433132e+05   0.000000e+00    130s
   68525    1.5629951e+04   7.382467e+05   0.000000e+00    135s
   70065    1.5629951e+04   1.730953e+06   0.000000e+00    140s
   71913    1.5629950e+04   6.129922e+04   0.000000e+00    145s
   73607    1.5629949e+04   2.957173e+06   0.000000e+00    150s
   75455    1.5599948e+04   2.540144e+05   0.000000e+00    155s
   77303    1.5569948e+04   7.270311e+05   0.000000e+00    160s
   78843    1.5569947e+04   1.311934e+05   0.000000e+00    165s
   80537    1.5569947e+04   1.824817e+05   0.000000e+00    170s
   82231    1.5569946e+04   5.539736e+04   0.000000e+00    175s
   84079    1.5479946e+04   1.205732e+06   0.000000e+00    180s
   85927    1.5479944e+04   9.785406e+04   0.000000e+00    185s
   87775    1.5449944e+04   2.439690e+05   0.000000e+00    190s
   89469    1.5449943e+04   3.071514e+04   0.000000e+00    195s
   91163    1.5449943e+04   7.917565e+04   0.000000e+00    200s
   92703    1.5449942e+04   2.491534e+05   0.000000e+00    205s
   94397    1.5449941e+04   1.372812e+05   0.000000e+00    210s
   96091    1.5449940e+04   5.215920e+04   0.000000e+00    215s
   97631    1.5449940e+04   2.256891e+05   0.000000e+00    220s
   99325    1.5449939e+04   1.423295e+06   0.000000e+00    225s
  101019    1.5449938e+04   1.381266e+05   0.000000e+00    230s
  102713    1.5449938e+04   1.923005e+06   0.000000e+00    235s
  104407    1.5449937e+04   1.577623e+05   0.000000e+00    240s
  105947    1.5449936e+04   6.877071e+06   0.000000e+00    245s
  107487    1.5449936e+04   1.946275e+05   0.000000e+00    250s
  109027    1.5449935e+04   1.163633e+05   0.000000e+00    255s
  110567    1.5449935e+04   1.243191e+05   0.000000e+00    260s
  112107    1.5449934e+04   5.282658e+06   0.000000e+00    265s
  113647    1.5449934e+04   1.582034e+05   0.000000e+00    270s
  115187    1.5449933e+04   7.343904e+04   0.000000e+00    275s
  116727    1.5449933e+04   1.710257e+05   0.000000e+00    281s
  118113    1.5449932e+04   7.673669e+04   0.000000e+00    285s
  119653    1.5449932e+04   1.931709e+06   0.000000e+00    290s
  121193    1.5449931e+04   5.821663e+05   0.000000e+00    295s
  122733    1.5449930e+04   1.573429e+05   0.000000e+00    300s
  124273    1.5449929e+04   1.282617e+06   0.000000e+00    305s
  125813    1.5449928e+04   2.154042e+06   0.000000e+00    310s
  127353    1.5359930e+04   2.134030e+05   0.000000e+00    315s
  128893    1.5359929e+04   4.411473e+06   0.000000e+00    320s
  130587    1.5329931e+04   3.624871e+05   0.000000e+00    325s
  132281    1.5299930e+04   5.478467e+05   0.000000e+00    330s
  133821    1.5299929e+04   9.020393e+04   0.000000e+00    335s
  135361    1.5299928e+04   1.087461e+06   0.000000e+00    340s
  136747    1.5239933e+04   8.199659e+05   0.000000e+00    345s
  138287    1.5239929e+04   1.405037e+05   0.000000e+00    350s
  139827    1.5239929e+04   4.267947e+04   0.000000e+00    355s
  141367    1.5239928e+04   4.463720e+05   0.000000e+00    360s
  143061    1.5239927e+04   2.526305e+05   0.000000e+00    365s
  144447    1.5239927e+04   7.163945e+04   0.000000e+00    370s
  145987    1.5239926e+04   2.008824e+04   0.000000e+00    375s
  147527    1.5239926e+04   3.935954e+06   0.000000e+00    380s
  149221    1.5239926e+04   4.786925e+04   0.000000e+00    385s
  150761    1.5239925e+04   2.250149e+04   0.000000e+00    390s
  152147    1.5239925e+04   4.770521e+04   0.000000e+00    396s
  153071    1.5239924e+04   1.412538e+05   0.000000e+00    401s
  153995    1.5239923e+04   6.419497e+05   0.000000e+00    405s
  155073    1.5239923e+04   8.864513e+03   0.000000e+00    411s
  155997    1.5239922e+04   8.962617e+04   0.000000e+00    415s
  157075    1.5239919e+04   1.122576e+05   0.000000e+00    420s
  158307    1.5239918e+04   7.356721e+04   0.000000e+00    425s
  159693    1.5239918e+04   8.719731e+05   0.000000e+00    430s
  161079    1.5239916e+04   1.471764e+07   0.000000e+00    435s
  162619    1.5149920e+04   6.419245e+05   0.000000e+00    440s
  164005    1.5149919e+04   9.074779e+05   0.000000e+00    445s
  165391    1.5149918e+04   1.519781e+04   0.000000e+00    450s
  166777    1.5149917e+04   6.831558e+04   0.000000e+00    455s
  168163    1.5149917e+04   2.129964e+05   0.000000e+00    460s
  169395    1.5149917e+04   2.835306e+04   0.000000e+00    465s
  170781    1.5149916e+04   1.845784e+05   0.000000e+00    470s
  172013    1.5149916e+04   4.911630e+04   0.000000e+00    475s
  173399    1.5149915e+04   2.887988e+04   0.000000e+00    480s
  174631    1.5149915e+04   9.885900e+04   0.000000e+00    485s
  176017    1.5149915e+04   9.299178e+04   0.000000e+00    491s
  177249    1.5149914e+04   1.713820e+04   0.000000e+00    495s
  178481    1.5149914e+04   9.370230e+04   0.000000e+00    500s
  179713    1.5149914e+04   1.357459e+05   0.000000e+00    505s
  180945    1.5149914e+04   2.458972e+03   0.000000e+00    510s
  182177    1.5149914e+04   1.379836e+05   0.000000e+00    515s
  183409    1.5149913e+04   1.575357e+04   0.000000e+00    520s
  184641    1.5149913e+04   8.958091e+05   0.000000e+00    525s
  185873    1.5149913e+04   3.380148e+04   0.000000e+00    530s
  187105    1.5149913e+04   1.104952e+05   0.000000e+00    535s
  188337    1.5149912e+04   1.434392e+04   0.000000e+00    540s
  189569    1.5149912e+04   2.626121e+05   0.000000e+00    545s
  190801    1.5149912e+04   1.915735e+05   0.000000e+00    550s
  192033    1.5149912e+04   1.171561e+05   0.000000e+00    555s
  193265    1.5149912e+04   1.575057e+05   0.000000e+00    561s
  194343    1.5149911e+04   1.648778e+05   0.000000e+00    565s
  195729    1.5149911e+04   1.496741e+05   0.000000e+00    571s
  196961    1.5149910e+04   8.608057e+06   0.000000e+00    575s
  198347    1.5149910e+04   2.454869e+06   0.000000e+00    580s
  199733    1.5149910e+04   1.695728e+04   0.000000e+00    585s
  200965    1.5149909e+04   2.692492e+04   0.000000e+00    590s
  202351    1.5149909e+04   2.090510e+04   0.000000e+00    596s
  203583    1.5149908e+04   1.783464e+05   0.000000e+00    600s
  204815    1.5149908e+04   2.058126e+05   0.000000e+00    605s
  206201    1.5149908e+04   8.375679e+04   0.000000e+00    611s
  207433    1.5149907e+04   2.375383e+04   0.000000e+00    615s
  208665    1.5149907e+04   1.432872e+04   0.000000e+00    620s
  209897    1.5149907e+04   8.071566e+03   0.000000e+00    625s
  211129    1.5149907e+04   8.881141e+03   0.000000e+00    630s
  212361    1.5149907e+04   1.453889e+04   0.000000e+00    636s
  213593    1.5149906e+04   2.769372e+05   0.000000e+00    640s
  214825    1.5149906e+04   3.930787e+04   0.000000e+00    645s
  216057    1.5149905e+04   1.096276e+05   0.000000e+00    650s
  217289    1.5149905e+04   4.308627e+04   0.000000e+00    655s
  218401    1.5149905e+04   1.469259e+06   0.000000e+00    661s
  219379    1.5149904e+04   1.478033e+06   0.000000e+00    666s
  220377    1.5149904e+04   4.376304e+07   0.000000e+00    670s
  221365    1.5119903e+04   1.974187e+06   0.000000e+00    676s
  222419    1.4969905e+04   4.934525e+06   0.000000e+00    680s
  223229    1.4969904e+04   2.739529e+07   0.000000e+00    685s
  224087    1.4969903e+04   6.871782e+07   0.000000e+00    691s
  224777    1.4969902e+04   3.120509e+06   0.000000e+00    695s
  225467    1.4969902e+04   7.919528e+07   0.000000e+00    700s
  226344    1.4969901e+04   5.590945e+06   0.000000e+00    705s
  227051    1.4969901e+04   6.987254e+06   0.000000e+00    710s
  227871    1.4969900e+04   2.711760e+06   0.000000e+00    716s
  228531    1.4969900e+04   1.311565e+06   0.000000e+00    721s
  229201    1.4969900e+04   9.902296e+05   0.000000e+00    726s
  230134    1.4819901e+04   6.929571e+06   0.000000e+00    730s
  230814    1.4819900e+04   1.768066e+06   0.000000e+00    736s
  231484    1.4819900e+04   1.619079e+06   0.000000e+00    741s
  232014    1.4819899e+04   2.962664e+07   0.000000e+00    745s
  232715    1.4819899e+04   6.773310e+06   0.000000e+00    750s
  233375    1.4819899e+04   6.182760e+05   0.000000e+00    756s
  234059    1.4819899e+04   2.184788e+06   0.000000e+00    761s
  234579    1.4819898e+04   2.108404e+06   0.000000e+00    765s
  235259    1.4819898e+04   3.660458e+06   0.000000e+00    771s
  235813    1.4819898e+04   1.038460e+06   0.000000e+00    775s
  236483    1.4819898e+04   1.404455e+06   0.000000e+00    781s
  237013    1.4819898e+04   2.544447e+06   0.000000e+00    786s
  237543    1.4819897e+04   1.209795e+07   0.000000e+00    790s
  238253    1.4819897e+04   7.704774e+06   0.000000e+00    796s
  238783    1.4819897e+04   2.685760e+05   0.000000e+00    801s
  239333    1.4819897e+04   6.907471e+05   0.000000e+00    806s
  239883    1.4819897e+04   7.745844e+05   0.000000e+00    811s
  240403    1.4819897e+04   4.270212e+07   0.000000e+00    815s
  241093    1.4819897e+04   3.113985e+06   0.000000e+00    821s
  241623    1.4819896e+04   1.689960e+06   0.000000e+00    826s
  242153    1.4819896e+04   7.444361e+06   0.000000e+00    831s
  242703    1.4819896e+04   4.359136e+05   0.000000e+00    835s
  243223    1.4819896e+04   1.048096e+06   0.000000e+00    840s
  243883    1.4819896e+04   7.518667e+06   0.000000e+00    846s
  244403    1.4819896e+04   5.575013e+06   0.000000e+00    851s
  244923    1.4819896e+04   1.920464e+05   0.000000e+00    856s
  245443    1.4819896e+04   1.345442e+07   0.000000e+00    860s
  245973    1.4819895e+04   5.099695e+05   0.000000e+00    865s
  246493    1.4819895e+04   3.255220e+06   0.000000e+00    870s
  247143    1.4819895e+04   1.831110e+05   0.000000e+00    876s
  247663    1.4819895e+04   1.283034e+06   0.000000e+00    881s
  248203    1.4819895e+04   6.134473e+06   0.000000e+00    886s
  248723    1.4819895e+04   6.593032e+06   0.000000e+00    891s
  249263    1.4819895e+04   1.392705e+06   0.000000e+00    896s
  249803    1.4819895e+04   2.052945e+05   0.000000e+00    901s
  250323    1.4819895e+04   1.055868e+05   0.000000e+00    906s
  250843    1.4819895e+04   1.245700e+06   0.000000e+00    911s
  251363    1.4819895e+04   6.143701e+05   0.000000e+00    916s
  251893    1.4819895e+04   1.674916e+04   0.000000e+00    921s
  252413    1.4819895e+04   2.297984e+05   0.000000e+00    926s
  252823    1.4819895e+04   3.319436e+06   0.000000e+00    930s
  253353    1.4819895e+04   1.795362e+05   0.000000e+00    935s
  253893    1.4819895e+04   4.987936e+04   0.000000e+00    940s
  254423    1.4819895e+04   2.820812e+05   0.000000e+00    945s
  254963    1.4819895e+04   1.073811e+05   0.000000e+00    950s
  255523    1.4819895e+04   2.483326e+04   0.000000e+00    956s
  256063    1.4819895e+04   1.553908e+03   0.000000e+00    961s
  256633    1.4819895e+04   4.668660e-01   0.000000e+00    966s
  256804    1.4820000e+04   0.000000e+00   0.000000e+00    967s
  256804    1.4820000e+04   0.000000e+00   0.000000e+00    968s

Root relaxation: objective 1.482000e+04, 256804 iterations, 961.78 seconds
Total elapsed time = 1269.68s
Total elapsed time = 1457.48s
Total elapsed time = 1504.95s
Total elapsed time = 1523.78s

    Nodes    |    Current Node    |     Objective Bounds      |     Work
 Expl Unexpl |  Obj  Depth IntInf | Incumbent    BestBd   Gap | It/Node Time

     0     0 14820.0000    0 3929 5190.00000 14820.0000   186%     - 1533s
     0     0 14820.0000    0 7214 5190.00000 14820.0000   186%     - 1709s
     0     0 14820.0000    0 6730 5190.00000 14820.0000   186%     - 1797s
     0     0 14820.0000    0 3959 5190.00000 14820.0000   186%     - 2750s
     0     0 14820.0000    0 4944 5190.00000 14820.0000   186%     - 2878s
     0     0 14820.0000    0 4178 5190.00000 14820.0000   186%     - 3600s

Cutting planes:
  Gomory: 2
  Implied bound: 473
  MIR: 32
  Zero half: 1
  Mod-K: 8
  RLT: 533
  Relax-and-lift: 130

Explored 1 nodes (1267542 simplex iterations) in 3600.03 seconds
Thread count was 1 (of 40 available processors)

Solution count 1: 5190 

Time limit reached
Best objective 5.190000000000e+03, best bound 1.482000000000e+04, gap 185.5491%

----------

Best objective (UB): 14820.000
Best feasible solution (LB): 5190.000
Gap between the lower bound and upper bound: 185.549%

----------

Number of customers served: 36

Schedule for EV v0:
   [   0,  672) -> It remains parked at station s0.
   [ 672,  972) -> Service a request driving for customer c62 from s0 to s11.
   [ 972, tmax) -> It remains parked at station s11.

Schedule for EV v1:
   [   0,  913) -> It remains parked at station s0.
   [ 913, 1003) -> Service a request driving for customer c37 from s0 to s2.
   [1003, 1394) -> It remains parked at station s2.
   [1394, 1424) -> Service a request driving for customer c31 from s2 to s3.
   [1424, tmax) -> It remains parked at station s3.

Schedule for EV v2:
   [   0,  968) -> It remains parked at station s0.
   [ 968, 1058) -> Service a request driving for customer c71 from s0 to s9.
   [1058, tmax) -> It remains parked at station s9.

Schedule for EV v3:
   [   0,  969) -> It remains parked at station s0.
   [ 969,  999) -> Service a request driving for customer c38 from s0 to s10.
   [ 999, tmax) -> It remains parked at station s10.

Schedule for EV v4:
   [   0, tmax) -> It remains parked at station s0.

Schedule for EV v5:
   [   0, tmax) -> It remains parked at station s0.

Schedule for EV v6:
   [   0, tmax) -> It remains parked at station s0.

Schedule for EV v7:
   [   0, tmax) -> It remains parked at station s0.

Schedule for EV v8:
   [   0, tmax) -> It remains parked at station s0.

Schedule for EV v9:
   [   0, tmax) -> It remains parked at station s0.

Schedule for EV v10:
   [   0,  789) -> It remains parked at station s1.
   [ 789, 1089) -> Service a request driving for customer c30 from s1 to s8.
   [1089, tmax) -> It remains parked at station s8.

Schedule for EV v11:
   [   0,  916) -> It remains parked at station s1.
   [ 916, 1036) -> Service a request driving for customer c29 from s1 to s9.
   [1036, tmax) -> It remains parked at station s9.

Schedule for EV v12:
   [   0, tmax) -> It remains parked at station s1.

Schedule for EV v13:
   [   0, tmax) -> It remains parked at station s1.

Schedule for EV v14:
   [   0, tmax) -> It remains parked at station s1.

Schedule for EV v15:
   [   0, tmax) -> It remains parked at station s1.

Schedule for EV v16:
   [   0, tmax) -> It remains parked at station s1.

Schedule for EV v17:
   [   0, tmax) -> It remains parked at station s1.

Schedule for EV v18:
   [   0, tmax) -> It remains parked at station s1.

Schedule for EV v19:
   [   0, tmax) -> It remains parked at station s1.

Schedule for EV v20:
   [   0, 1326) -> It remains parked at station s2.
   [1326, 1596) -> Service a request driving for customer c41 from s2 to s3.
   [1596, tmax) -> It remains parked at station s3.

Schedule for EV v21:
   [   0,  732) -> It remains parked at station s2.
   [ 732,  942) -> Service a request driving for customer c64 from s2 to s11.
   [ 942, tmax) -> It remains parked at station s11.

Schedule for EV v22:
   [   0, 1452) -> It remains parked at station s2.
   [1452, 1482) -> Service a request driving for customer c72 from s2 to s0.
   [1482, tmax) -> It remains parked at station s0.

Schedule for EV v23:
   [   0,  673) -> It remains parked at station s3.
   [ 673,  793) -> Service a request driving for customer c67 from s3 to s2.
   [ 793,  974) -> It remains parked at station s2.
   [ 974, 1064) -> Service a request driving for customer c18 from s2 to s10.
   [1064, tmax) -> It remains parked at station s10.

Schedule for EV v24:
   [   0,  727) -> It remains parked at station s3.
   [ 727,  817) -> Service a request driving for customer c69 from s3 to s1.
   [ 817, tmax) -> It remains parked at station s1.

Schedule for EV v25:
   [   0, tmax) -> It remains parked at station s3.

Schedule for EV v26:
   [   0, tmax) -> It remains parked at station s3.

Schedule for EV v27:
   [   0, tmax) -> It remains parked at station s3.

Schedule for EV v28:
   [   0, tmax) -> It remains parked at station s3.

Schedule for EV v29:
   [   0, tmax) -> It remains parked at station s3.

Schedule for EV v30:
   [   0, tmax) -> It remains parked at station s3.

Schedule for EV v31:
   [   0, tmax) -> It remains parked at station s3.

Schedule for EV v32:
   [   0,  845) -> It remains parked at station s4.
   [ 845,  935) -> Service a request driving for customer c0 from s4 to s0.
   [ 935, 1152) -> It remains parked at station s0.
   [1152, 1482) -> Service a request driving for customer c0 from s0 to s3.
   [1482, tmax) -> It remains parked at station s3.

Schedule for EV v33:
   [   0,  606) -> It remains parked at station s4.
   [ 606,  846) -> Service a request driving for customer c40 from s4 to s11.
   [ 846, 1028) -> It remains parked at station s11.
   [1028, 1088) -> Service a request driving for customer c40 from s11 to s7.
   [1088, 1387) -> It remains parked at station s7.
   [1387, 1447) -> Service a request driving for customer c44 from s7 to s3.
   [1447, tmax) -> It remains parked at station s3.

Schedule for EV v34:
   [   0, 1090) -> It remains parked at station s4.
   [1090, 1210) -> Service a request driving for customer c46 from s4 to s0.
   [1210, 1274) -> It remains parked at station s0.
   [1274, 1454) -> Service a request driving for customer c46 from s0 to s2.
   [1454, tmax) -> It remains parked at station s2.

Schedule for EV v35:
   [   0,  975) -> It remains parked at station s4.
   [ 975, 1095) -> Service a request driving for customer c2 from s4 to s3.
   [1095, tmax) -> It remains parked at station s3.

Schedule for EV v36:
   [   0,  555) -> It remains parked at station s4.
   [ 555,  645) -> Service a request driving for customer c66 from s4 to s6.
   [ 645,  728) -> It remains parked at station s6.
   [ 728,  788) -> Service a request driving for customer c35 from s6 to s1.
   [ 788, tmax) -> It remains parked at station s1.

Schedule for EV v37:
   [   0, tmax) -> It remains parked at station s4.

Schedule for EV v38:
   [   0, tmax) -> It remains parked at station s4.

Schedule for EV v39:
   [   0, tmax) -> It remains parked at station s4.

Schedule for EV v40:
   [   0, tmax) -> It remains parked at station s4.

Schedule for EV v41:
   [   0, tmax) -> It remains parked at station s4.

Schedule for EV v42:
   [   0, tmax) -> It remains parked at station s4.

Schedule for EV v43:
   [   0, tmax) -> It remains parked at station s4.

Schedule for EV v44:
   [   0, tmax) -> It remains parked at station s4.

Schedule for EV v45:
   [   0, tmax) -> It remains parked at station s4.

Schedule for EV v46:
   [   0,  673) -> It remains parked at station s5.
   [ 673,  733) -> Service a request driving for customer c13 from s5 to s8.
   [ 733, tmax) -> It remains parked at station s8.

Schedule for EV v47:
   [   0, 1212) -> It remains parked at station s5.
   [1212, 1272) -> Service a request driving for customer c47 from s5 to s3.
   [1272, tmax) -> It remains parked at station s3.

Schedule for EV v48:
   [   0, tmax) -> It remains parked at station s5.

Schedule for EV v49:
   [   0, tmax) -> It remains parked at station s5.

Schedule for EV v50:
   [   0, tmax) -> It remains parked at station s5.

Schedule for EV v51:
   [   0, tmax) -> It remains parked at station s5.

Schedule for EV v52:
   [   0, tmax) -> It remains parked at station s5.

Schedule for EV v53:
   [   0, tmax) -> It remains parked at station s5.

Schedule for EV v54:
   [   0,  545) -> It remains parked at station s6.
   [ 545,  575) -> Service a request driving for customer c48 from s6 to s0.
   [ 575,  789) -> It remains parked at station s0.
   [ 789, 1149) -> Service a request driving for customer c48 from s0 to s11.
   [1149, tmax) -> It remains parked at station s11.

Schedule for EV v55:
   [   0, tmax) -> It remains parked at station s6.

Schedule for EV v56:
   [   0, tmax) -> It remains parked at station s6.

Schedule for EV v57:
   [   0, tmax) -> It remains parked at station s6.

Schedule for EV v58:
   [   0, tmax) -> It remains parked at station s6.

Schedule for EV v59:
   [   0, tmax) -> It remains parked at station s6.

Schedule for EV v60:
   [   0, tmax) -> It remains parked at station s6.

Schedule for EV v61:
   [   0, tmax) -> It remains parked at station s6.

Schedule for EV v62:
   [   0, tmax) -> It remains parked at station s6.

Schedule for EV v63:
   [   0, tmax) -> It remains parked at station s6.

Schedule for EV v64:
   [   0, tmax) -> It remains parked at station s6.

Schedule for EV v65:
   [   0,  669) -> It remains parked at station s7.
   [ 669,  909) -> Service a request driving for customer c20 from s7 to s4.
   [ 909,  973) -> It remains parked at station s4.
   [ 973, 1213) -> Service a request driving for customer c20 from s4 to s8.
   [1213, tmax) -> It remains parked at station s8.

Schedule for EV v66:
   [   0,  909) -> It remains parked at station s7.
   [ 909, 1089) -> Service a request driving for customer c49 from s7 to s1.
   [1089, tmax) -> It remains parked at station s1.

Schedule for EV v67:
   [   0, 1328) -> It remains parked at station s7.
   [1328, 1358) -> Service a request driving for customer c7 from s7 to s0.
   [1358, tmax) -> It remains parked at station s0.

Schedule for EV v68:
   [   0,  607) -> It remains parked at station s7.
   [ 607,  637) -> Service a request driving for customer c45 from s7 to s1.
   [ 637, tmax) -> It remains parked at station s1.

Schedule for EV v69:
   [   0, tmax) -> It remains parked at station s7.

Schedule for EV v70:
   [   0, tmax) -> It remains parked at station s7.

Schedule for EV v71:
   [   0, tmax) -> It remains parked at station s7.

Schedule for EV v72:
   [   0,  907) -> It remains parked at station s8.
   [ 907, 1087) -> Service a request driving for customer c42 from s8 to s1.
   [1087, 1092) -> It remains parked at station s1.
   [1092, 1122) -> Service a request driving for customer c51 from s1 to s4.
   [1122, tmax) -> It remains parked at station s4.

Schedule for EV v73:
   [   0,  845) -> It remains parked at station s8.
   [ 845,  995) -> Service a request driving for customer c12 from s8 to s3.
   [ 995, tmax) -> It remains parked at station s3.

Schedule for EV v74:
   [   0, tmax) -> It remains parked at station s8.

Schedule for EV v75:
   [   0, tmax) -> It remains parked at station s8.

Schedule for EV v76:
   [   0, tmax) -> It remains parked at station s8.

Schedule for EV v77:
   [   0, tmax) -> It remains parked at station s8.

Schedule for EV v78:
   [   0, tmax) -> It remains parked at station s8.

Schedule for EV v79:
   [   0, tmax) -> It remains parked at station s8.

Schedule for EV v80:
   [   0, tmax) -> It remains parked at station s8.

Schedule for EV v81:
   [   0,  546) -> It remains parked at station s9.
   [ 546,  606) -> Service a request driving for customer c32 from s9 to s0.
   [ 606, tmax) -> It remains parked at station s0.

Schedule for EV v82:
   [   0, tmax) -> It remains parked at station s9.

Schedule for EV v83:
   [   0, tmax) -> It remains parked at station s9.

Schedule for EV v84:
   [   0, tmax) -> It remains parked at station s9.

Schedule for EV v85:
   [   0, tmax) -> It remains parked at station s9.

Schedule for EV v86:
   [   0, tmax) -> It remains parked at station s9.

Schedule for EV v87:
   [   0, tmax) -> It remains parked at station s9.

Schedule for EV v88:
   [   0, tmax) -> It remains parked at station s9.

Schedule for EV v89:
   [   0, tmax) -> It remains parked at station s9.

Schedule for EV v90:
   [   0, tmax) -> It remains parked at station s9.

Schedule for EV v91:
   [   0, tmax) -> It remains parked at station s9.

Schedule for EV v92:
   [   0, tmax) -> It remains parked at station s9.

Schedule for EV v93:
   [   0, tmax) -> It remains parked at station s9.

Schedule for EV v94:
   [   0, 1273) -> It remains parked at station s10.
   [1273, 1453) -> Service a request driving for customer c58 from s10 to s11.
   [1453, tmax) -> It remains parked at station s11.

Schedule for EV v95:
   [   0, 1145) -> It remains parked at station s10.
   [1145, 1235) -> Service a request driving for customer c23 from s10 to s0.
   [1235, tmax) -> It remains parked at station s0.

Schedule for EV v96:
   [   0, 1336) -> It remains parked at station s10.
   [1336, 1396) -> Service a request driving for customer c78 from s10 to s0.
   [1396, tmax) -> It remains parked at station s0.

Schedule for EV v97:
   [   0, tmax) -> It remains parked at station s10.

Schedule for EV v98:
   [   0, tmax) -> It remains parked at station s10.

Schedule for EV v99:
   [   0,  615) -> It remains parked at station s11.
   [ 615,  675) -> Service a request driving for customer c21 from s11 to s3.
   [ 675, tmax) -> It remains parked at station s3.

Schedule for EV v100:
   [   0, 1093) -> It remains parked at station s11.
   [1093, 1123) -> Service a request driving for customer c65 from s11 to s10.
   [1123, tmax) -> It remains parked at station s10.

Schedule for EV v101:
   [   0, tmax) -> It remains parked at station s11.

Schedule for EV v102:
   [   0, tmax) -> It remains parked at station s11.

Schedule for EV v103:
   [   0, tmax) -> It remains parked at station s11.

Schedule for EV v104:
   [   0, tmax) -> It remains parked at station s11.

Schedule for EV v105:
   [   0, tmax) -> It remains parked at station s11.

Schedule for EV v106:
   [   0, tmax) -> It remains parked at station s11.

Schedule for EV v107:
   [   0, tmax) -> It remains parked at station s11.

Schedule for EV v108:
   [   0, tmax) -> It remains parked at station s11.

Schedule for EV v109:
   [   0, tmax) -> It remains parked at station s11.

Set of satisfied customers
   {c0, c2, c7, c12, c13, c18, c20, c21, c23, c29, c30, c31, c32, c35, c37, c38, c40, c41, c42, c44, c45, c46, c47, c48, c49, c51, c58, c62, c64, c65, c66, c67, c69, c71, c72, c78}

