Academic license - for non-commercial use only
Gurobi Optimizer version 9.0.3 build v9.0.3rc0 (linux64)
Optimize a model with 101618 rows, 69232 columns and 1983694 nonzeros
Model fingerprint: 0x53344279
Variable types: 36566 continuous, 32666 integer (32666 binary)
Coefficient statistics:
  Matrix range     [1e+00, 6e+06]
  Objective range  [3e+01, 7e+02]
  Bounds range     [1e+00, 2e+06]
  RHS range        [1e+00, 2e+06]

Loaded user MIP start with objective 5190

Presolve removed 15301 rows and 1715 columns
Presolve time: 4.08s
Presolved: 86317 rows, 67517 columns, 1094638 nonzeros
Variable types: 2982 continuous, 64535 integer (53265 binary)

Root simplex log...

Iteration    Objective       Primal Inf.    Dual Inf.      Time
       0    2.2600588e+04   9.991213e+03   0.000000e+00      5s
   15386    1.9439990e+04   3.200654e+05   0.000000e+00     10s
   18559    1.9439988e+04   3.293235e+05   0.000000e+00     15s
   21064    1.9439988e+04   5.377909e+05   0.000000e+00     20s
   23569    1.9439986e+04   1.133315e+05   0.000000e+00     25s
   25740    1.9259987e+04   1.361156e+05   0.000000e+00     30s
   28078    1.9259986e+04   5.608521e+05   0.000000e+00     35s
   30249    1.9259985e+04   4.839077e+04   0.000000e+00     40s
   32253    1.9259984e+04   2.329235e+05   0.000000e+00     45s
   34090    1.9229984e+04   5.321307e+05   0.000000e+00     50s
   35927    1.9049985e+04   4.088068e+05   0.000000e+00     55s
   37764    1.9049985e+04   9.420810e+04   0.000000e+00     60s
   39434    1.9049985e+04   4.812248e+06   0.000000e+00     65s
   41104    1.9049984e+04   3.352086e+05   0.000000e+00     70s
   42607    1.9049984e+04   2.665512e+05   0.000000e+00     75s
   44110    1.9049984e+04   9.221746e+04   0.000000e+00     81s
   45446    1.9049983e+04   1.716467e+05   0.000000e+00     85s
   46782    1.9049983e+04   9.759184e+05   0.000000e+00     90s
   48118    1.9049983e+04   1.535364e+06   0.000000e+00     95s
   49454    1.9049982e+04   5.295263e+06   0.000000e+00    100s
   51124    1.9049982e+04   4.962469e+04   0.000000e+00    106s
   52460    1.9049981e+04   1.460538e+05   0.000000e+00    110s
   53796    1.9049981e+04   1.798083e+05   0.000000e+00    115s
   55132    1.9049979e+04   1.760486e+05   0.000000e+00    120s
   56468    1.9049978e+04   3.919004e+05   0.000000e+00    125s
   57804    1.9049978e+04   4.598916e+05   0.000000e+00    130s
   58973    1.9049977e+04   3.140325e+06   0.000000e+00    135s
   60309    1.9049977e+04   3.204294e+05   0.000000e+00    140s
   61478    1.9049976e+04   6.793950e+04   0.000000e+00    145s
   62647    1.9049975e+04   4.384853e+04   0.000000e+00    150s
   63816    1.9049975e+04   7.840650e+04   0.000000e+00    155s
   64985    1.9049974e+04   8.949358e+04   0.000000e+00    160s
   66154    1.9049974e+04   5.001815e+05   0.000000e+00    165s
   67323    1.9049974e+04   1.455779e+05   0.000000e+00    170s
   68492    1.9049973e+04   4.965392e+04   0.000000e+00    176s
   69494    1.9049973e+04   1.148128e+05   0.000000e+00    180s
   70663    1.9049972e+04   4.127095e+04   0.000000e+00    185s
   71832    1.9049972e+04   5.238857e+04   0.000000e+00    191s
   72834    1.9049972e+04   2.734809e+05   0.000000e+00    195s
   73836    1.9049971e+04   1.280323e+06   0.000000e+00    200s
   75005    1.9049971e+04   4.818665e+04   0.000000e+00    206s
   76007    1.9049970e+04   2.035517e+05   0.000000e+00    210s
   77009    1.9049970e+04   1.674954e+05   0.000000e+00    215s
   78178    1.9049969e+04   2.886837e+05   0.000000e+00    221s
   79180    1.9049969e+04   1.093186e+05   0.000000e+00    225s
   80182    1.9049969e+04   5.823380e+05   0.000000e+00    230s
   81351    1.9049968e+04   3.712886e+04   0.000000e+00    236s
   82353    1.9049968e+04   4.332625e+05   0.000000e+00    240s
   83522    1.9049968e+04   1.556519e+05   0.000000e+00    246s
   84524    1.9049967e+04   5.511739e+04   0.000000e+00    250s
   85693    1.9049967e+04   1.039746e+05   0.000000e+00    255s
   86862    1.8869968e+04   5.907108e+04   0.000000e+00    260s
   88031    1.8869967e+04   8.271306e+04   0.000000e+00    265s
   89200    1.8749967e+04   1.259787e+05   0.000000e+00    270s
   90369    1.8629965e+04   1.717669e+06   0.000000e+00    276s
   91371    1.8629965e+04   8.164508e+04   0.000000e+00    280s
   92540    1.8629964e+04   1.303652e+05   0.000000e+00    286s
   93542    1.8629964e+04   2.598883e+05   0.000000e+00    290s
   94544    1.8629964e+04   3.370276e+05   0.000000e+00    295s
   95713    1.8629963e+04   2.494046e+05   0.000000e+00    301s
   96715    1.8629963e+04   6.412058e+04   0.000000e+00    306s
   97717    1.8629963e+04   1.454796e+05   0.000000e+00    310s
   98719    1.8629963e+04   7.261742e+04   0.000000e+00    315s
   99721    1.8629962e+04   1.465089e+05   0.000000e+00    320s
  100723    1.8629962e+04   1.652062e+05   0.000000e+00    325s
  101725    1.8629962e+04   1.691450e+05   0.000000e+00    330s
  102727    1.8629961e+04   6.466258e+04   0.000000e+00    335s
  103729    1.8629961e+04   4.392955e+04   0.000000e+00    340s
  104898    1.8629961e+04   7.732333e+04   0.000000e+00    346s
  105733    1.8629961e+04   1.650538e+05   0.000000e+00    350s
  106735    1.8629960e+04   6.916964e+04   0.000000e+00    355s
  107737    1.8629960e+04   2.168626e+05   0.000000e+00    360s
  108739    1.8629960e+04   5.631345e+04   0.000000e+00    365s
  109741    1.8629960e+04   2.061036e+05   0.000000e+00    371s
  110576    1.8629959e+04   5.994426e+06   0.000000e+00    375s
  111578    1.8629959e+04   8.745636e+04   0.000000e+00    380s
  112580    1.8629959e+04   7.934849e+05   0.000000e+00    385s
  113582    1.8629959e+04   2.717716e+05   0.000000e+00    391s
  114417    1.8629958e+04   3.023475e+05   0.000000e+00    395s
  115419    1.8629958e+04   2.313853e+04   0.000000e+00    400s
  116421    1.8629958e+04   7.343061e+04   0.000000e+00    406s
  117423    1.8629958e+04   6.693043e+04   0.000000e+00    411s
  118258    1.8629958e+04   5.999522e+04   0.000000e+00    415s
  119260    1.8629957e+04   1.436506e+05   0.000000e+00    421s
  120262    1.8629957e+04   2.200288e+04   0.000000e+00    426s
  121097    1.8629957e+04   6.631934e+04   0.000000e+00    430s
  122099    1.8629957e+04   1.075475e+05   0.000000e+00    436s
  122934    1.8629956e+04   5.209656e+04   0.000000e+00    440s
  123936    1.8629956e+04   2.246625e+05   0.000000e+00    445s
  124938    1.8629956e+04   7.084592e+05   0.000000e+00    451s
  125773    1.8629956e+04   4.936220e+04   0.000000e+00    455s
  126775    1.8629955e+04   2.833775e+05   0.000000e+00    461s
  127610    1.8629955e+04   4.883423e+04   0.000000e+00    465s
  128612    1.8629955e+04   3.453738e+05   0.000000e+00    471s
  129447    1.8629955e+04   3.620307e+05   0.000000e+00    475s
  130449    1.8629955e+04   4.838842e+04   0.000000e+00    481s
  131284    1.8629955e+04   2.673318e+04   0.000000e+00    485s
  132119    1.8629954e+04   2.558559e+04   0.000000e+00    490s
  133121    1.8629954e+04   4.769606e+04   0.000000e+00    496s
  133956    1.8629954e+04   7.217933e+04   0.000000e+00    500s
  134791    1.8629954e+04   4.697168e+05   0.000000e+00    505s
  135793    1.8629954e+04   2.779798e+04   0.000000e+00    510s
  136795    1.8629954e+04   1.328063e+05   0.000000e+00    516s
  137630    1.8629953e+04   9.462511e+04   0.000000e+00    521s
  138465    1.8629953e+04   6.385729e+04   0.000000e+00    525s
  139300    1.8629953e+04   2.788137e+04   0.000000e+00    530s
  140302    1.8629953e+04   1.450026e+06   0.000000e+00    535s
  141137    1.8629953e+04   1.179179e+04   0.000000e+00    540s
  142139    1.8629952e+04   6.220545e+04   0.000000e+00    546s
  142974    1.8629952e+04   9.590994e+04   0.000000e+00    550s
  143809    1.8629952e+04   2.138353e+05   0.000000e+00    555s
  144811    1.8629952e+04   6.453741e+04   0.000000e+00    561s
  145646    1.8629952e+04   2.121293e+05   0.000000e+00    565s
  146648    1.8629952e+04   5.561512e+04   0.000000e+00    571s
  147483    1.8629951e+04   2.239185e+05   0.000000e+00    576s
  148318    1.8629951e+04   1.931855e+04   0.000000e+00    580s
  149153    1.8629951e+04   1.428394e+06   0.000000e+00    585s
  150155    1.8629951e+04   4.410635e+04   0.000000e+00    591s
  150990    1.8629951e+04   8.549968e+03   0.000000e+00    595s
  151825    1.8629950e+04   4.965650e+04   0.000000e+00    600s
  152827    1.8629950e+04   9.278630e+05   0.000000e+00    606s
  153662    1.8629950e+04   3.284058e+05   0.000000e+00    611s
  154497    1.8629950e+04   2.154855e+05   0.000000e+00    615s
  155332    1.8629950e+04   4.248750e+04   0.000000e+00    620s
  156167    1.8629949e+04   1.061398e+05   0.000000e+00    625s
  157169    1.8629949e+04   3.128414e+04   0.000000e+00    631s
  158004    1.8629949e+04   6.165513e+06   0.000000e+00    636s
  158839    1.8629949e+04   6.313780e+04   0.000000e+00    641s
  159674    1.8629949e+04   4.882067e+05   0.000000e+00    645s
  160509    1.8629948e+04   5.053715e+04   0.000000e+00    650s
  161344    1.8629948e+04   2.884576e+05   0.000000e+00    655s
  162179    1.8629948e+04   2.285451e+05   0.000000e+00    660s
  163181    1.8629948e+04   4.565850e+04   0.000000e+00    666s
  164016    1.8629948e+04   2.535836e+04   0.000000e+00    671s
  164851    1.8629948e+04   3.465251e+04   0.000000e+00    675s
  165686    1.8629947e+04   2.077785e+06   0.000000e+00    680s
  166521    1.8629947e+04   7.172568e+04   0.000000e+00    685s
  167523    1.8629947e+04   8.096684e+04   0.000000e+00    691s
  168358    1.8629947e+04   2.581717e+04   0.000000e+00    696s
  169193    1.8629947e+04   4.660261e+05   0.000000e+00    700s
  170195    1.8629946e+04   9.140779e+04   0.000000e+00    706s
  171030    1.8629946e+04   1.446234e+06   0.000000e+00    711s
  171865    1.8629946e+04   1.176600e+04   0.000000e+00    715s
  172700    1.8629946e+04   6.366024e+04   0.000000e+00    720s
  173702    1.8629945e+04   2.493914e+05   0.000000e+00    726s
  174537    1.8629945e+04   5.237811e+04   0.000000e+00    731s
  175372    1.8629945e+04   2.497472e+06   0.000000e+00    736s
  176207    1.8629945e+04   3.312683e+04   0.000000e+00    741s
  176875    1.8629945e+04   1.226469e+05   0.000000e+00    745s
  177710    1.8629945e+04   3.633400e+04   0.000000e+00    750s
  178545    1.8629945e+04   3.660130e+04   0.000000e+00    756s
  179380    1.8629944e+04   4.754635e+05   0.000000e+00    761s
  180048    1.8629944e+04   3.104857e+05   0.000000e+00    765s
  180883    1.8629944e+04   8.912892e+04   0.000000e+00    771s
  181551    1.8629944e+04   4.615302e+04   0.000000e+00    775s
  182386    1.8629944e+04   8.512359e+04   0.000000e+00    780s
  183221    1.8629944e+04   2.741369e+05   0.000000e+00    785s
  184056    1.8629943e+04   9.612652e+04   0.000000e+00    791s
  184724    1.8629943e+04   1.669123e+05   0.000000e+00    795s
  185559    1.8629943e+04   6.828781e+04   0.000000e+00    800s
  186394    1.8629943e+04   7.216194e+04   0.000000e+00    805s
  187229    1.8629943e+04   1.950610e+05   0.000000e+00    810s
  188064    1.8629943e+04   6.191467e+04   0.000000e+00    816s
  188899    1.8629942e+04   9.325834e+04   0.000000e+00    821s
  189567    1.8629942e+04   6.991503e+04   0.000000e+00    825s
  190402    1.8629942e+04   7.499767e+04   0.000000e+00    830s
  191237    1.8629942e+04   3.736955e+04   0.000000e+00    836s
  192072    1.8629942e+04   3.536158e+05   0.000000e+00    841s
  192740    1.8629942e+04   2.419055e+04   0.000000e+00    845s
  193575    1.8629942e+04   1.038004e+05   0.000000e+00    851s
  194410    1.8629941e+04   7.052346e+04   0.000000e+00    856s
  195078    1.8629941e+04   3.929849e+04   0.000000e+00    860s
  195913    1.8629941e+04   1.408282e+05   0.000000e+00    866s
  196748    1.8629941e+04   3.504995e+05   0.000000e+00    871s
  197416    1.8629941e+04   1.326285e+05   0.000000e+00    875s
  198251    1.8629941e+04   9.635670e+04   0.000000e+00    880s
  199086    1.8629940e+04   7.560782e+05   0.000000e+00    886s
  199921    1.8629940e+04   9.364477e+04   0.000000e+00    891s
  200589    1.8629940e+04   3.517030e+05   0.000000e+00    895s
  201424    1.8629940e+04   3.714299e+04   0.000000e+00    901s
  202259    1.8629940e+04   3.274494e+07   0.000000e+00    906s
  202927    1.8629940e+04   6.211627e+05   0.000000e+00    910s
  203762    1.8629939e+04   6.565800e+04   0.000000e+00    915s
  204597    1.8629939e+04   1.043374e+05   0.000000e+00    921s
  205432    1.8629939e+04   1.013864e+05   0.000000e+00    926s
  206267    1.8629939e+04   1.813056e+05   0.000000e+00    931s
  206935    1.8629939e+04   2.518366e+04   0.000000e+00    935s
  207770    1.8629938e+04   6.041389e+04   0.000000e+00    941s
  208605    1.8629938e+04   1.341332e+05   0.000000e+00    946s
  209440    1.8629938e+04   6.112776e+04   0.000000e+00    951s
  210108    1.8629938e+04   2.434746e+04   0.000000e+00    955s
  210943    1.8629938e+04   1.109669e+06   0.000000e+00    960s
  211778    1.8629938e+04   1.798411e+04   0.000000e+00    965s
  212613    1.8629938e+04   4.756178e+04   0.000000e+00    970s
  213448    1.8629937e+04   1.093977e+05   0.000000e+00    975s
  214283    1.8629936e+04   5.651108e+05   0.000000e+00    980s
  215118    1.8629936e+04   2.635425e+04   0.000000e+00    985s
  215953    1.8629935e+04   4.282346e+05   0.000000e+00    990s
  216788    1.8629934e+04   2.855584e+05   0.000000e+00    996s
  217623    1.8629934e+04   1.090017e+05   0.000000e+00   1001s
  218458    1.8629933e+04   3.470631e+04   0.000000e+00   1006s
  219293    1.8629933e+04   3.927959e+05   0.000000e+00   1011s
  220128    1.8599943e+04   4.611254e+06   0.000000e+00   1015s
  220963    1.8584939e+04   2.773750e+05   0.000000e+00   1020s
  221798    1.8584939e+04   1.016956e+06   0.000000e+00   1025s
  222633    1.8584938e+04   6.275459e+04   0.000000e+00   1030s
  223468    1.8584938e+04   1.129794e+05   0.000000e+00   1035s
  224303    1.8584938e+04   1.248830e+05   0.000000e+00   1040s
  225138    1.8584938e+04   1.112237e+05   0.000000e+00   1045s
  225973    1.8584937e+04   4.311384e+05   0.000000e+00   1050s
  226808    1.8584937e+04   6.481118e+04   0.000000e+00   1055s
  227643    1.8584937e+04   1.991207e+05   0.000000e+00   1060s
  228478    1.8584937e+04   1.011225e+06   0.000000e+00   1065s
  229313    1.8584936e+04   3.997380e+04   0.000000e+00   1070s
  230315    1.8584936e+04   1.449767e+05   0.000000e+00   1076s
  231150    1.8584933e+04   2.461206e+05   0.000000e+00   1081s
  231985    1.8539938e+04   9.979797e+07   0.000000e+00   1086s
  232820    1.8539938e+04   2.152520e+05   0.000000e+00   1091s
  233655    1.8539937e+04   1.688906e+06   0.000000e+00   1095s
  234490    1.8539937e+04   4.957999e+05   0.000000e+00   1100s
  235325    1.8539937e+04   3.505249e+04   0.000000e+00   1106s
  236160    1.8539937e+04   7.170083e+04   0.000000e+00   1111s
  236995    1.8539936e+04   3.636887e+04   0.000000e+00   1116s
  237830    1.8539936e+04   5.845517e+04   0.000000e+00   1121s
  238665    1.8539936e+04   2.821033e+05   0.000000e+00   1126s
  239333    1.8539936e+04   2.880127e+04   0.000000e+00   1130s
  240168    1.8539936e+04   5.872515e+04   0.000000e+00   1135s
  241003    1.8539935e+04   1.317422e+05   0.000000e+00   1140s
  241838    1.8539935e+04   1.076464e+05   0.000000e+00   1145s
  242673    1.8539935e+04   1.229563e+06   0.000000e+00   1150s
  243508    1.8539935e+04   8.970429e+04   0.000000e+00   1155s
  244343    1.8539934e+04   1.267193e+05   0.000000e+00   1161s
  245178    1.8539934e+04   5.812000e+04   0.000000e+00   1166s
  246013    1.8539934e+04   2.894070e+04   0.000000e+00   1171s
  246681    1.8539933e+04   1.407121e+05   0.000000e+00   1175s
  247516    1.8539932e+04   2.051141e+05   0.000000e+00   1180s
  248351    1.8479935e+04   2.893609e+06   0.000000e+00   1185s
  249186    1.8479934e+04   1.982259e+05   0.000000e+00   1190s
  250021    1.8479934e+04   3.976977e+05   0.000000e+00   1195s
  250856    1.8479934e+04   2.541746e+04   0.000000e+00   1201s
  251691    1.8479934e+04   9.462745e+04   0.000000e+00   1206s
  252526    1.8479933e+04   5.482475e+04   0.000000e+00   1211s
  253361    1.8479933e+04   1.004210e+05   0.000000e+00   1216s
  254196    1.8479933e+04   7.788389e+04   0.000000e+00   1221s
  254864    1.8479933e+04   1.896120e+04   0.000000e+00   1225s
  255699    1.8479932e+04   4.882384e+05   0.000000e+00   1230s
  256534    1.8479932e+04   5.563720e+04   0.000000e+00   1236s
  257369    1.8479932e+04   4.633711e+04   0.000000e+00   1241s
  258204    1.8479932e+04   1.268251e+05   0.000000e+00   1246s
  258872    1.8479932e+04   1.033314e+05   0.000000e+00   1250s
  259602    1.8479932e+04   6.627679e+04   0.000000e+00   1256s
  260212    1.8479931e+04   1.936424e+06   0.000000e+00   1260s
  260842    1.8479931e+04   9.478393e+06   0.000000e+00   1265s
  261572    1.8479929e+04   5.974778e+07   0.000000e+00   1270s
  262332    1.8479928e+04   6.199808e+06   0.000000e+00   1276s
Warning: Markowitz tolerance tightened to 0.0625
  263042    1.8479926e+04   8.636238e+06   0.000000e+00   1281s
  263632    1.8479926e+04   1.334083e+07   0.000000e+00   1285s
  264392    1.8479925e+04   1.740060e+07   0.000000e+00   1290s
  265132    1.8479924e+04   1.552455e+07   0.000000e+00   1296s
  265739    1.8479923e+04   1.011299e+07   0.000000e+00   1301s
  266336    1.8479922e+04   4.129775e+07   0.000000e+00   1305s
  267066    1.8479920e+04   2.962252e+07   0.000000e+00   1311s
  267626    1.8479920e+04   1.837405e+07   0.000000e+00   1315s
  268213    1.8479918e+04   5.730845e+07   0.000000e+00   1320s
  268940    1.8479915e+04   1.843512e+08   0.000000e+00   1326s
  269510    1.8479914e+04   6.580187e+07   0.000000e+00   1330s
  270070    1.8479912e+04   3.405039e+08   0.000000e+00   1335s
  270780    1.8479909e+04   2.442476e+07   0.000000e+00   1341s
  271360    1.8479908e+04   1.526111e+07   0.000000e+00   1346s
  271940    1.8479907e+04   5.644268e+07   0.000000e+00   1350s
  272500    1.8479906e+04   4.042571e+07   0.000000e+00   1355s
  273210    1.8479905e+04   8.739452e+07   0.000000e+00   1361s
  273780    1.8479899e+04   5.425453e+07   0.000000e+00   1366s
  274320    1.8389925e+04   3.611122e+07   0.000000e+00   1371s
  274880    1.8389925e+04   6.669569e+06   0.000000e+00   1376s
  275490    1.8389924e+04   3.945630e+07   0.000000e+00   1381s
  276060    1.8389923e+04   1.063827e+08   0.000000e+00   1386s
  276674    1.8389909e+04   1.964558e+07   0.000000e+00   1391s
  277261    1.8329923e+04   6.729262e+07   0.000000e+00   1396s
  277831    1.8329921e+04   2.924337e+07   0.000000e+00   1401s
  278421    1.8329920e+04   2.114959e+08   0.000000e+00   1406s
  278991    1.8329919e+04   1.331834e+07   0.000000e+00   1411s
  279411    1.8329919e+04   7.302309e+06   0.000000e+00   1415s
  279961    1.8329918e+04   7.452402e+06   0.000000e+00   1420s
  280511    1.8329918e+04   3.940816e+06   0.000000e+00   1426s
  281071    1.8329917e+04   3.026695e+06   0.000000e+00   1431s
  281481    1.8329917e+04   1.757261e+07   0.000000e+00   1435s
  282031    1.8329917e+04   7.236438e+05   0.000000e+00   1441s
  282601    1.8329916e+04   3.139153e+06   0.000000e+00   1446s
  283001    1.8329916e+04   2.005791e+07   0.000000e+00   1450s
  283541    1.8329916e+04   1.896224e+06   0.000000e+00   1456s
  284071    1.8329915e+04   4.798289e+06   0.000000e+00   1461s
  284461    1.8329915e+04   6.630479e+06   0.000000e+00   1466s
  285051    1.8329915e+04   1.200286e+07   0.000000e+00   1471s
  285441    1.8329914e+04   4.201722e+06   0.000000e+00   1476s
  285991    1.8329914e+04   2.936833e+06   0.000000e+00   1481s
  286381    1.8329914e+04   9.992702e+06   0.000000e+00   1486s
  286811    1.8329913e+04   2.830480e+06   0.000000e+00   1490s
  287351    1.8329913e+04   1.049854e+07   0.000000e+00   1496s
  287771    1.8329913e+04   8.282761e+05   0.000000e+00   1500s
  288331    1.8329912e+04   8.177618e+06   0.000000e+00   1506s
  288731    1.8329912e+04   9.817455e+06   0.000000e+00   1511s
  289131    1.8329912e+04   1.780076e+07   0.000000e+00   1515s
  289661    1.8329911e+04   9.560475e+06   0.000000e+00   1521s
  290091    1.8329911e+04   1.033821e+07   0.000000e+00   1525s
  290661    1.8329911e+04   1.845679e+07   0.000000e+00   1531s
  291081    1.8329910e+04   7.200058e+06   0.000000e+00   1536s
  291481    1.8329910e+04   1.133540e+06   0.000000e+00   1540s
  292031    1.8329909e+04   1.866222e+07   0.000000e+00   1546s
  292461    1.8329909e+04   2.685833e+07   0.000000e+00   1551s
  292901    1.8329909e+04   4.068342e+06   0.000000e+00   1556s
  293311    1.8329908e+04   1.347799e+07   0.000000e+00   1560s
  293851    1.8329908e+04   9.505305e+05   0.000000e+00   1566s
  294271    1.8329908e+04   5.083647e+06   0.000000e+00   1571s
  294681    1.8329908e+04   2.062004e+07   0.000000e+00   1575s
  295231    1.8329907e+04   1.914679e+06   0.000000e+00   1581s
  295621    1.8329907e+04   3.280016e+07   0.000000e+00   1586s
  296041    1.8329907e+04   1.179402e+07   0.000000e+00   1590s
  296591    1.8329906e+04   1.160166e+07   0.000000e+00   1596s
  297021    1.8329906e+04   1.120849e+07   0.000000e+00   1601s
  297421    1.8329906e+04   2.094238e+06   0.000000e+00   1606s
  297851    1.8329905e+04   1.210884e+06   0.000000e+00   1610s
  298291    1.8329905e+04   3.387916e+06   0.000000e+00   1615s
  298871    1.8329904e+04   1.369722e+07   0.000000e+00   1622s
  299301    1.8329903e+04   5.909027e+07   0.000000e+00   1626s
  299771    1.8299908e+04   3.512101e+06   0.000000e+00   1631s
  300171    1.8299908e+04   1.802512e+07   0.000000e+00   1635s
  300581    1.8299908e+04   1.892512e+06   0.000000e+00   1640s
  301111    1.8299907e+04   4.007850e+07   0.000000e+00   1646s
  301511    1.8299907e+04   4.917093e+06   0.000000e+00   1651s
  301901    1.8299907e+04   4.644584e+06   0.000000e+00   1655s
  302451    1.8299906e+04   2.658958e+06   0.000000e+00   1662s
  302841    1.8299906e+04   8.425783e+06   0.000000e+00   1666s
  303241    1.8299906e+04   2.787089e+06   0.000000e+00   1671s
  303651    1.8299906e+04   2.129954e+07   0.000000e+00   1675s
  304061    1.8299905e+04   1.009580e+08   0.000000e+00   1680s
  304601    1.8299905e+04   2.756048e+07   0.000000e+00   1686s
  305031    1.8299905e+04   1.672789e+06   0.000000e+00   1691s
  305441    1.8299904e+04   3.451816e+06   0.000000e+00   1696s
  305841    1.8299904e+04   5.043413e+06   0.000000e+00   1701s
  306231    1.8299904e+04   7.925501e+06   0.000000e+00   1706s
  306511    1.8299904e+04   6.784932e+06   0.000000e+00   1710s
  306901    1.8299903e+04   3.487618e+06   0.000000e+00   1717s
  307191    1.8299903e+04   1.082078e+07   0.000000e+00   1721s
  307611    1.8299903e+04   1.763621e+06   0.000000e+00   1727s
  307891    1.8299902e+04   1.319093e+07   0.000000e+00   1731s
  308311    1.8299902e+04   1.048363e+08   0.000000e+00   1736s
  308731    1.8299902e+04   1.778486e+07   0.000000e+00   1741s
  309121    1.8299902e+04   1.551503e+06   0.000000e+00   1746s
  309531    1.8299901e+04   2.675428e+07   0.000000e+00   1751s
  309931    1.8299901e+04   8.160532e+05   0.000000e+00   1756s
  310351    1.8299901e+04   1.560264e+06   0.000000e+00   1760s
  310751    1.8299900e+04   4.875404e+06   0.000000e+00   1765s
  311171    1.8299900e+04   1.232239e+07   0.000000e+00   1770s
  311751    1.8299900e+04   8.697701e+06   0.000000e+00   1777s
  312161    1.8299900e+04   1.364783e+06   0.000000e+00   1782s
  312591    1.8299899e+04   4.505428e+06   0.000000e+00   1787s
  313011    1.8299899e+04   5.662137e+06   0.000000e+00   1792s
  313411    1.8299899e+04   1.097128e+07   0.000000e+00   1796s
  313801    1.8299899e+04   1.803516e+06   0.000000e+00   1801s
  314221    1.8299899e+04   1.357520e+07   0.000000e+00   1806s
  314631    1.8299898e+04   8.276223e+05   0.000000e+00   1811s
  315051    1.8299898e+04   1.249900e+07   0.000000e+00   1816s
  315461    1.8299898e+04   1.150326e+06   0.000000e+00   1821s
  315861    1.8299898e+04   1.188001e+06   0.000000e+00   1826s
  316251    1.8299897e+04   1.172348e+07   0.000000e+00   1831s
  316651    1.8299897e+04   1.268436e+06   0.000000e+00   1837s
  316911    1.8299897e+04   1.532474e+06   0.000000e+00   1840s
  317431    1.8299897e+04   3.677890e+06   0.000000e+00   1847s
  317821    1.8299897e+04   7.003674e+06   0.000000e+00   1852s
  318101    1.8299897e+04   1.107328e+07   0.000000e+00   1855s
  318511    1.8299896e+04   1.000603e+06   0.000000e+00   1860s
  318931    1.8299896e+04   1.318410e+07   0.000000e+00   1865s
  319371    1.8299896e+04   1.994649e+06   0.000000e+00   1871s
  319781    1.8299896e+04   2.840416e+06   0.000000e+00   1876s
  320181    1.8299895e+04   8.642854e+05   0.000000e+00   1880s
  320591    1.8299895e+04   7.011914e+06   0.000000e+00   1886s
  321011    1.8299895e+04   4.742062e+07   0.000000e+00   1891s
  321441    1.8299895e+04   5.369305e+06   0.000000e+00   1896s
  321861    1.8299895e+04   2.023760e+07   0.000000e+00   1902s
  322141    1.8299895e+04   5.182106e+06   0.000000e+00   1905s
  322531    1.8299894e+04   9.682971e+06   0.000000e+00   1910s
  322951    1.8299894e+04   2.019243e+06   0.000000e+00   1916s
  323371    1.8299894e+04   6.719874e+06   0.000000e+00   1921s
  323781    1.8299894e+04   3.625681e+06   0.000000e+00   1926s
  324191    1.8299894e+04   8.030718e+06   0.000000e+00   1931s
  324601    1.8299894e+04   1.186432e+07   0.000000e+00   1937s
  324881    1.8299893e+04   5.658242e+05   0.000000e+00   1940s
  325301    1.8299893e+04   2.000679e+07   0.000000e+00   1946s
  325741    1.8299893e+04   1.598740e+06   0.000000e+00   1951s
  326151    1.8299893e+04   4.914902e+06   0.000000e+00   1956s
  326561    1.8299893e+04   2.285144e+07   0.000000e+00   1961s
  326961    1.8299893e+04   7.861802e+06   0.000000e+00   1966s
  327381    1.8299892e+04   1.632656e+08   0.000000e+00   1972s
  327651    1.8299892e+04   4.395999e+07   0.000000e+00   1975s
  328061    1.8299892e+04   1.898550e+06   0.000000e+00   1981s
  328451    1.8299892e+04   5.720930e+06   0.000000e+00   1986s
  328881    1.8299892e+04   2.265696e+06   0.000000e+00   1991s
  329311    1.8269917e+04   1.519135e+07   0.000000e+00   1996s
  329758    1.8269902e+04   5.379860e+07   0.000000e+00   2001s
  330168    1.8269901e+04   2.362016e+06   0.000000e+00   2006s
  330598    1.8269901e+04   1.670364e+06   0.000000e+00   2012s
  330878    1.8269901e+04   6.305416e+07   0.000000e+00   2015s
  331308    1.8269900e+04   1.082401e+08   0.000000e+00   2021s
  331718    1.8269900e+04   2.609416e+06   0.000000e+00   2026s
  332118    1.8269900e+04   6.624959e+06   0.000000e+00   2031s
  332518    1.8269900e+04   6.730214e+05   0.000000e+00   2036s
  332918    1.8269899e+04   4.517715e+06   0.000000e+00   2042s
  333178    1.8269899e+04   2.842024e+06   0.000000e+00   2045s
  333578    1.8269899e+04   3.588452e+06   0.000000e+00   2050s
  333968    1.8269899e+04   8.396091e+06   0.000000e+00   2056s
  334378    1.8269899e+04   4.195024e+06   0.000000e+00   2061s
  334768    1.8269899e+04   5.164049e+06   0.000000e+00   2066s
  335158    1.8269899e+04   1.148372e+06   0.000000e+00   2071s
  335428    1.8269898e+04   4.327647e+06   0.000000e+00   2075s
  335858    1.8269898e+04   1.940778e+06   0.000000e+00   2081s
  336288    1.8269898e+04   1.375660e+06   0.000000e+00   2086s
  336708    1.8269898e+04   6.823424e+07   0.000000e+00   2092s
  336988    1.8269898e+04   1.147148e+06   0.000000e+00   2095s
  337428    1.8269898e+04   8.897337e+06   0.000000e+00   2101s
  337848    1.8269898e+04   2.245666e+06   0.000000e+00   2106s
  338258    1.8269898e+04   6.539589e+05   0.000000e+00   2112s
  338538    1.8269897e+04   7.628954e+06   0.000000e+00   2115s
  338958    1.8269897e+04   3.701873e+05   0.000000e+00   2121s
  339388    1.8269897e+04   5.779131e+06   0.000000e+00   2127s
  339668    1.8269897e+04   6.393482e+06   0.000000e+00   2130s
  340088    1.8269897e+04   2.303835e+06   0.000000e+00   2136s
  340508    1.8269897e+04   1.340109e+06   0.000000e+00   2141s
  340788    1.8269897e+04   1.022988e+06   0.000000e+00   2145s
  341218    1.8269897e+04   1.916906e+06   0.000000e+00   2151s
  341648    1.8269897e+04   9.279008e+06   0.000000e+00   2156s
  341928    1.8269896e+04   1.059255e+06   0.000000e+00   2160s
  342348    1.8269896e+04   1.941223e+06   0.000000e+00   2166s
  342778    1.8269896e+04   8.081120e+05   0.000000e+00   2172s
  343068    1.8269896e+04   4.048410e+05   0.000000e+00   2175s
  343488    1.8269896e+04   7.552792e+06   0.000000e+00   2181s
  343908    1.8269896e+04   4.238502e+06   0.000000e+00   2187s
  344188    1.8269896e+04   1.519713e+05   0.000000e+00   2190s
  344608    1.8269896e+04   1.660364e+06   0.000000e+00   2196s
  344888    1.8269896e+04   3.643217e+05   0.000000e+00   2200s
  345308    1.8269896e+04   2.294688e+06   0.000000e+00   2206s
  345728    1.8269896e+04   6.140824e+05   0.000000e+00   2212s
  346008    1.8269896e+04   3.077887e+05   0.000000e+00   2215s
  346465    1.8269895e+04   2.745494e+06   0.000000e+00   2220s
  346875    1.8269895e+04   6.942781e+06   0.000000e+00   2226s
  347295    1.8269895e+04   1.596659e+07   0.000000e+00   2232s
  347565    1.8269895e+04   1.408443e+06   0.000000e+00   2235s
  347985    1.8269895e+04   3.056096e+06   0.000000e+00   2241s
  348405    1.8269895e+04   4.340773e+05   0.000000e+00   2247s
  348685    1.8269895e+04   4.836191e+05   0.000000e+00   2251s
  349105    1.8269895e+04   2.155777e+06   0.000000e+00   2256s
  349375    1.8269895e+04   3.336257e+05   0.000000e+00   2260s
  349765    1.8269895e+04   8.895219e+05   0.000000e+00   2266s
  350155    1.8269895e+04   5.885109e+05   0.000000e+00   2271s
  350565    1.8269895e+04   6.931915e+06   0.000000e+00   2276s
  350845    1.8269895e+04   9.682615e+05   0.000000e+00   2280s
  351255    1.8269895e+04   1.013018e+06   0.000000e+00   2286s
  351685    1.8269894e+04   6.303285e+05   0.000000e+00   2292s
  351965    1.8269894e+04   2.911758e+06   0.000000e+00   2295s
  352385    1.8269894e+04   9.174336e+05   0.000000e+00   2301s
  352805    1.8269894e+04   7.873788e+05   0.000000e+00   2307s
  353085    1.8269894e+04   3.718601e+05   0.000000e+00   2311s
  353485    1.8269894e+04   4.392184e+05   0.000000e+00   2316s
  353875    1.8269894e+04   3.037634e+06   0.000000e+00   2322s
  354135    1.8269894e+04   1.808702e+05   0.000000e+00   2325s
  354555    1.8269894e+04   6.547014e+05   0.000000e+00   2331s
  354835    1.8269894e+04   5.655586e+05   0.000000e+00   2335s
  355235    1.8269894e+04   4.175527e+05   0.000000e+00   2341s
  355635    1.8269894e+04   1.502790e+06   0.000000e+00   2346s
  356055    1.8269894e+04   1.661624e+05   0.000000e+00   2352s
  356335    1.8269894e+04   2.510777e+05   0.000000e+00   2355s
  356755    1.8269894e+04   1.616383e+05   0.000000e+00   2361s
  357165    1.8269894e+04   4.166072e+05   0.000000e+00   2366s
  357585    1.8269894e+04   3.612772e+06   0.000000e+00   2372s
  357875    1.8269894e+04   4.385531e+05   0.000000e+00   2375s
  358265    1.8269894e+04   8.703581e+04   0.000000e+00   2381s
  358685    1.8269894e+04   1.535493e+05   0.000000e+00   2386s
  359105    1.8269894e+04   2.410738e+05   0.000000e+00   2392s
  359385    1.8269894e+04   3.772049e+05   0.000000e+00   2395s
  359805    1.8269894e+04   1.002731e+05   0.000000e+00   2401s
  360225    1.8269894e+04   2.414732e+05   0.000000e+00   2406s
  360645    1.8269894e+04   3.504018e+06   0.000000e+00   2412s
  360925    1.8269894e+04   2.354837e+05   0.000000e+00   2416s
  361345    1.8269894e+04   1.706938e+05   0.000000e+00   2421s
  361755    1.8269894e+04   8.723348e+04   0.000000e+00   2426s
  362035    1.8269894e+04   2.156340e+05   0.000000e+00   2430s
  362445    1.8269894e+04   3.106056e+04   0.000000e+00   2435s
  362865    1.8269894e+04   1.055010e+05   0.000000e+00   2441s
  363275    1.8269894e+04   3.212821e+04   0.000000e+00   2446s
  363695    1.8269894e+04   1.101169e+04   0.000000e+00   2451s
  363975    1.8269894e+04   4.163028e+04   0.000000e+00   2455s
  364405    1.8269893e+04   3.673811e+04   0.000000e+00   2461s
  364835    1.8269893e+04   2.042507e+04   0.000000e+00   2466s
  365275    1.8269893e+04   9.364041e+03   0.000000e+00   2472s
  365555    1.8269893e+04   2.591428e+04   0.000000e+00   2475s
  366005    1.8269893e+04   3.416115e+04   0.000000e+00   2481s
  366435    1.8269893e+04   8.420987e+05   0.000000e+00   2487s
  366725    1.8269893e+04   4.155445e+02   0.000000e+00   2490s
  367165    1.8269893e+04   1.836598e+02   0.000000e+00   2496s
  367449    1.8270000e+04   0.000000e+00   0.000000e+00   2500s
  367449    1.8270000e+04   0.000000e+00   0.000000e+00   2500s

Root relaxation: objective 1.827000e+04, 367449 iterations, 2495.79 seconds
Total elapsed time = 3388.48s
Total elapsed time = 3590.96s

    Nodes    |    Current Node    |     Objective Bounds      |     Work
 Expl Unexpl |  Obj  Depth IntInf | Incumbent    BestBd   Gap | It/Node Time

     0     0 18270.0000    0 11020 5190.00000 18270.0000   252%     - 3600s

Explored 0 nodes (647561 simplex iterations) in 3600.03 seconds
Thread count was 1 (of 40 available processors)

Solution count 1: 5190 

Time limit reached
Best objective 5.190000000000e+03, best bound 1.827000000000e+04, gap 252.0231%

----------

Best objective (UB): 18270.000
Best feasible solution (LB): 5190.000
Gap between the lower bound and upper bound: 252.023%

----------

Number of customers served: 41

Schedule for EV v0:
   [   0,  552) -> It remains parked at station s0.
   [ 552,  822) -> Service a request driving for customer c74 from s0 to s4.
   [ 822, tmax) -> It remains parked at station s4.

Schedule for EV v1:
   [   0, 1033) -> It remains parked at station s0.
   [1033, 1243) -> Service a request driving for customer c8 from s0 to s3.
   [1243, tmax) -> It remains parked at station s3.

Schedule for EV v2:
   [   0, 1029) -> It remains parked at station s0.
   [1029, 1209) -> Service a request driving for customer c28 from s0 to s11.
   [1209, tmax) -> It remains parked at station s11.

Schedule for EV v3:
   [   0,  852) -> It remains parked at station s0.
   [ 852,  942) -> Service a request driving for customer c94 from s0 to s3.
   [ 942, tmax) -> It remains parked at station s3.

Schedule for EV v4:
   [   0,  974) -> It remains parked at station s0.
   [ 974, 1034) -> Service a request driving for customer c16 from s0 to s4.
   [1034, tmax) -> It remains parked at station s4.

Schedule for EV v5:
   [   0, tmax) -> It remains parked at station s0.

Schedule for EV v6:
   [   0,  665) -> It remains parked at station s1.
   [ 665,  815) -> Service a request driving for customer c36 from s1 to s1.
   [ 815,  914) -> It remains parked at station s1.
   [ 914, 1064) -> Service a request driving for customer c84 from s1 to s0.
   [1064, 1391) -> It remains parked at station s0.
   [1391, 1481) -> Service a request driving for customer c84 from s0 to s0.
   [1481, tmax) -> It remains parked at station s0.

Schedule for EV v7:
   [   0,  495) -> It remains parked at station s1.
   [ 495,  525) -> Service a request driving for customer c5 from s1 to s1.
   [ 525, 1088) -> It remains parked at station s1.
   [1088, 1118) -> Service a request driving for customer c12 from s1 to s4.
   [1118, tmax) -> It remains parked at station s4.

Schedule for EV v8:
   [   0, tmax) -> It remains parked at station s1.

Schedule for EV v9:
   [   0, 1091) -> It remains parked at station s2.
   [1091, 1181) -> Service a request driving for customer c46 from s2 to s11.
   [1181, 1330) -> It remains parked at station s11.
   [1330, 1600) -> Service a request driving for customer c46 from s11 to s7.
   [1600, tmax) -> It remains parked at station s7.

Schedule for EV v10:
   [   0,  734) -> It remains parked at station s2.
   [ 734,  794) -> Service a request driving for customer c10 from s2 to s0.
   [ 794, tmax) -> It remains parked at station s0.

Schedule for EV v11:
   [   0,  970) -> It remains parked at station s2.
   [ 970, 1000) -> Service a request driving for customer c15 from s2 to s1.
   [1000, tmax) -> It remains parked at station s1.

Schedule for EV v12:
   [   0, tmax) -> It remains parked at station s2.

Schedule for EV v13:
   [   0, tmax) -> It remains parked at station s2.

Schedule for EV v14:
   [   0, tmax) -> It remains parked at station s2.

Schedule for EV v15:
   [   0, 1027) -> It remains parked at station s3.
   [1027, 1087) -> Service a request driving for customer c87 from s3 to s8.
   [1087, 1094) -> It remains parked at station s8.
   [1094, 1124) -> Service a request driving for customer c91 from s8 to s5.
   [1124, tmax) -> It remains parked at station s5.

Schedule for EV v16:
   [   0, tmax) -> It remains parked at station s3.

Schedule for EV v17:
   [   0, tmax) -> It remains parked at station s3.

Schedule for EV v18:
   [   0,  730) -> It remains parked at station s4.
   [ 730,  970) -> Service a request driving for customer c30 from s4 to s1.
   [ 970, tmax) -> It remains parked at station s1.

Schedule for EV v19:
   [   0,  728) -> It remains parked at station s4.
   [ 728,  968) -> Service a request driving for customer c43 from s4 to s3.
   [ 968, 1086) -> It remains parked at station s3.
   [1086, 1146) -> Service a request driving for customer c43 from s3 to s0.
   [1146, 1274) -> It remains parked at station s0.
   [1274, 1334) -> Service a request driving for customer c34 from s0 to s6.
   [1334, tmax) -> It remains parked at station s6.

Schedule for EV v20:
   [   0, 1156) -> It remains parked at station s4.
   [1156, 1216) -> Service a request driving for customer c69 from s4 to s6.
   [1216, 1274) -> It remains parked at station s6.
   [1274, 1514) -> Service a request driving for customer c69 from s6 to s11.
   [1514, tmax) -> It remains parked at station s11.

Schedule for EV v21:
   [   0,  975) -> It remains parked at station s4.
   [ 975, 1035) -> Service a request driving for customer c31 from s4 to s6.
   [1035, tmax) -> It remains parked at station s6.

Schedule for EV v22:
   [   0,  492) -> It remains parked at station s4.
   [ 492,  552) -> Service a request driving for customer c33 from s4 to s8.
   [ 552, tmax) -> It remains parked at station s8.

Schedule for EV v23:
   [   0, 1087) -> It remains parked at station s4.
   [1087, 1117) -> Service a request driving for customer c73 from s4 to s1.
   [1117, tmax) -> It remains parked at station s1.

Schedule for EV v24:
   [   0, tmax) -> It remains parked at station s4.

Schedule for EV v25:
   [   0, tmax) -> It remains parked at station s4.

Schedule for EV v26:
   [   0,  853) -> It remains parked at station s5.
   [ 853, 1003) -> Service a request driving for customer c60 from s5 to s11.
   [1003, 1268) -> It remains parked at station s11.
   [1268, 1328) -> Service a request driving for customer c60 from s11 to s8.
   [1328, tmax) -> It remains parked at station s8.

Schedule for EV v27:
   [   0, 1149) -> It remains parked at station s5.
   [1149, 1239) -> Service a request driving for customer c72 from s5 to s4.
   [1239, 1269) -> It remains parked at station s4.
   [1269, 1419) -> Service a request driving for customer c72 from s4 to s1.
   [1419, 1454) -> It remains parked at station s1.
   [1454, 1484) -> Service a request driving for customer c72 from s1 to s0.
   [1484, tmax) -> It remains parked at station s0.

Schedule for EV v28:
   [   0, 1033) -> It remains parked at station s5.
   [1033, 1123) -> Service a request driving for customer c86 from s5 to s11.
   [1123, 1212) -> It remains parked at station s11.
   [1212, 1242) -> Service a request driving for customer c23 from s11 to s10.
   [1242, tmax) -> It remains parked at station s10.

Schedule for EV v29:
   [   0, tmax) -> It remains parked at station s5.

Schedule for EV v30:
   [   0, tmax) -> It remains parked at station s5.

Schedule for EV v31:
   [   0,  616) -> It remains parked at station s6.
   [ 616,  946) -> Service a request driving for customer c62 from s6 to s6.
   [ 946, 1213) -> It remains parked at station s6.
   [1213, 1363) -> Service a request driving for customer c65 from s6 to s8.
   [1363, tmax) -> It remains parked at station s8.

Schedule for EV v32:
   [   0,  545) -> It remains parked at station s6.
   [ 545,  635) -> Service a request driving for customer c21 from s6 to s6.
   [ 635, 1094) -> It remains parked at station s6.
   [1094, 1124) -> Service a request driving for customer c3 from s6 to s7.
   [1124, tmax) -> It remains parked at station s7.

Schedule for EV v33:
   [   0, tmax) -> It remains parked at station s6.

Schedule for EV v34:
   [   0, tmax) -> It remains parked at station s6.

Schedule for EV v35:
   [   0, 1094) -> It remains parked at station s7.
   [1094, 1154) -> Service a request driving for customer c66 from s7 to s0.
   [1154, tmax) -> It remains parked at station s0.

Schedule for EV v36:
   [   0, tmax) -> It remains parked at station s7.

Schedule for EV v37:
   [   0, tmax) -> It remains parked at station s7.

Schedule for EV v38:
   [   0, tmax) -> It remains parked at station s7.

Schedule for EV v39:
   [   0, tmax) -> It remains parked at station s7.

Schedule for EV v40:
   [   0, tmax) -> It remains parked at station s7.

Schedule for EV v41:
   [   0, tmax) -> It remains parked at station s7.

Schedule for EV v42:
   [   0, tmax) -> It remains parked at station s7.

Schedule for EV v43:
   [   0, tmax) -> It remains parked at station s7.

Schedule for EV v44:
   [   0, tmax) -> It remains parked at station s7.

Schedule for EV v45:
   [   0,  606) -> It remains parked at station s8.
   [ 606,  696) -> Service a request driving for customer c4 from s8 to s1.
   [ 696, 1150) -> It remains parked at station s1.
   [1150, 1180) -> Service a request driving for customer c4 from s1 to s3.
   [1180, tmax) -> It remains parked at station s3.

Schedule for EV v46:
   [   0, 1027) -> It remains parked at station s8.
   [1027, 1087) -> Service a request driving for customer c25 from s8 to s9.
   [1087, tmax) -> It remains parked at station s9.

Schedule for EV v47:
   [   0, tmax) -> It remains parked at station s8.

Schedule for EV v48:
   [   0, tmax) -> It remains parked at station s8.

Schedule for EV v49:
   [   0, tmax) -> It remains parked at station s8.

Schedule for EV v50:
   [   0, tmax) -> It remains parked at station s8.

Schedule for EV v51:
   [   0, tmax) -> It remains parked at station s8.

Schedule for EV v52:
   [   0, tmax) -> It remains parked at station s8.

Schedule for EV v53:
   [   0, tmax) -> It remains parked at station s8.

Schedule for EV v54:
   [   0, tmax) -> It remains parked at station s8.

Schedule for EV v55:
   [   0, tmax) -> It remains parked at station s8.

Schedule for EV v56:
   [   0, tmax) -> It remains parked at station s9.

Schedule for EV v57:
   [   0, tmax) -> It remains parked at station s9.

Schedule for EV v58:
   [   0, tmax) -> It remains parked at station s9.

Schedule for EV v59:
   [   0, tmax) -> It remains parked at station s9.

Schedule for EV v60:
   [   0, tmax) -> It remains parked at station s9.

Schedule for EV v61:
   [   0, tmax) -> It remains parked at station s9.

Schedule for EV v62:
   [   0, tmax) -> It remains parked at station s9.

Schedule for EV v63:
   [   0,  968) -> It remains parked at station s10.
   [ 968, 1058) -> Service a request driving for customer c18 from s10 to s1.
   [1058, 1092) -> It remains parked at station s1.
   [1092, 1182) -> Service a request driving for customer c83 from s1 to s1.
   [1182, 1392) -> It remains parked at station s1.
   [1392, 1452) -> Service a request driving for customer c2 from s1 to s11.
   [1452, tmax) -> It remains parked at station s11.

Schedule for EV v64:
   [   0, tmax) -> It remains parked at station s10.

Schedule for EV v65:
   [   0, tmax) -> It remains parked at station s10.

Schedule for EV v66:
   [   0, tmax) -> It remains parked at station s10.

Schedule for EV v67:
   [   0, tmax) -> It remains parked at station s10.

Schedule for EV v68:
   [   0, tmax) -> It remains parked at station s10.

Schedule for EV v69:
   [   0, tmax) -> It remains parked at station s10.

Schedule for EV v70:
   [   0, tmax) -> It remains parked at station s10.

Schedule for EV v71:
   [   0, tmax) -> It remains parked at station s10.

Schedule for EV v72:
   [   0, tmax) -> It remains parked at station s10.

Schedule for EV v73:
   [   0, tmax) -> It remains parked at station s10.

Schedule for EV v74:
   [   0, tmax) -> It remains parked at station s10.

Schedule for EV v75:
   [   0, tmax) -> It remains parked at station s10.

Schedule for EV v76:
   [   0, 1336) -> It remains parked at station s11.
   [1336, 1516) -> Service a request driving for customer c92 from s11 to s9.
   [1516, tmax) -> It remains parked at station s9.

Schedule for EV v77:
   [   0, 1335) -> It remains parked at station s11.
   [1335, 1485) -> Service a request driving for customer c35 from s11 to s11.
   [1485, tmax) -> It remains parked at station s11.

Schedule for EV v78:
   [   0,  555) -> It remains parked at station s11.
   [ 555,  675) -> Service a request driving for customer c9 from s11 to s2.
   [ 675,  848) -> It remains parked at station s2.
   [ 848,  908) -> Service a request driving for customer c9 from s2 to s4.
   [ 908, 1035) -> It remains parked at station s4.
   [1035, 1095) -> Service a request driving for customer c17 from s4 to s5.
   [1095, 1156) -> It remains parked at station s5.
   [1156, 1186) -> Service a request driving for customer c89 from s5 to s0.
   [1186, tmax) -> It remains parked at station s0.

Schedule for EV v79:
   [   0,  725) -> It remains parked at station s11.
   [ 725,  785) -> Service a request driving for customer c24 from s11 to s9.
   [ 785, tmax) -> It remains parked at station s9.

Schedule for EV v80:
   [   0, tmax) -> It remains parked at station s11.

Schedule for EV v81:
   [   0, tmax) -> It remains parked at station s11.

Schedule for EV v82:
   [   0, tmax) -> It remains parked at station s11.

Schedule for EV v83:
   [   0, tmax) -> It remains parked at station s11.

Set of satisfied customers
   {c2, c3, c4, c5, c8, c9, c10, c12, c15, c16, c17, c18, c21, c23, c24, c25, c28, c30, c31, c33, c34, c35, c36, c43, c46, c60, c62, c65, c66, c69, c72, c73, c74, c83, c84, c86, c87, c89, c91, c92, c94}

