Academic license - for non-commercial use only
Gurobi Optimizer version 9.0.3 build v9.0.3rc0 (linux64)
Optimize a model with 98819 rows, 67189 columns and 2074507 nonzeros
Model fingerprint: 0x30e380f8
Variable types: 34937 continuous, 32252 integer (32252 binary)
Coefficient statistics:
  Matrix range     [1e+00, 7e+06]
  Objective range  [3e+01, 4e+02]
  Bounds range     [1e+00, 2e+06]
  RHS range        [1e+00, 2e+06]

Loaded user MIP start with objective 5610

Presolve removed 15991 rows and 2247 columns (presolve time = 5s) ...
Presolve removed 15969 rows and 2225 columns
Presolve time: 6.02s
Presolved: 82850 rows, 64964 columns, 1121301 nonzeros
Variable types: 5050 continuous, 59914 integer (52277 binary)

Root simplex log...

Iteration    Objective       Primal Inf.    Dual Inf.      Time
       0    1.7520000e+04   8.547375e+03   0.000000e+00      7s
   10973    1.7519976e+04   8.338372e+05   0.000000e+00     10s
   15237    1.7519972e+04   2.472018e+05   0.000000e+00     15s
   18353    1.7519970e+04   2.617725e+04   0.000000e+00     20s
   20977    1.7519968e+04   1.889517e+06   0.000000e+00     25s
   23109    1.7519966e+04   3.884409e+05   0.000000e+00     30s
   25405    1.7519965e+04   3.268132e+06   0.000000e+00     35s
   27537    1.7519964e+04   4.355077e+06   0.000000e+00     40s
   29505    1.7519963e+04   1.606736e+05   0.000000e+00     45s
   31309    1.7519962e+04   9.549736e+05   0.000000e+00     50s
   32949    1.7519961e+04   2.926457e+04   0.000000e+00     55s
   34753    1.7519960e+04   2.203764e+05   0.000000e+00     60s
   36393    1.7519960e+04   2.548205e+05   0.000000e+00     65s
   38033    1.7519959e+04   5.682761e+04   0.000000e+00     70s
   39673    1.7519958e+04   2.246823e+04   0.000000e+00     75s
   41313    1.7519957e+04   1.106717e+06   0.000000e+00     80s
   42953    1.7519956e+04   1.351048e+05   0.000000e+00     86s
   44429    1.7519956e+04   2.124996e+06   0.000000e+00     91s
   45741    1.7519955e+04   4.199008e+04   0.000000e+00     95s
   47217    1.7519955e+04   3.276063e+05   0.000000e+00    100s
   48693    1.7519954e+04   4.491265e+04   0.000000e+00    105s
   50005    1.7519954e+04   2.811489e+06   0.000000e+00    110s
   51481    1.7519953e+04   5.596216e+05   0.000000e+00    115s
   52793    1.7519953e+04   1.029596e+05   0.000000e+00    120s
   54269    1.7519952e+04   7.250353e+04   0.000000e+00    125s
   55581    1.7519949e+04   4.583408e+04   0.000000e+00    130s
   57057    1.7519944e+04   1.343496e+06   0.000000e+00    135s
   58533    1.7519942e+04   1.140165e+05   0.000000e+00    140s
   59845    1.7519941e+04   3.357529e+04   0.000000e+00    145s
   61321    1.7519939e+04   1.563739e+05   0.000000e+00    151s
   62633    1.7519937e+04   4.278806e+04   0.000000e+00    155s
   63945    1.7519936e+04   2.445601e+05   0.000000e+00    160s
   65421    1.7519934e+04   2.350150e+05   0.000000e+00    166s
   66733    1.7519933e+04   5.100225e+05   0.000000e+00    171s
   67881    1.7519932e+04   2.017528e+05   0.000000e+00    175s
   69193    1.7519930e+04   4.480468e+04   0.000000e+00    181s
   70341    1.7519929e+04   2.653126e+05   0.000000e+00    185s
   71489    1.7519928e+04   3.419169e+05   0.000000e+00    190s
   72637    1.7519927e+04   2.076488e+05   0.000000e+00    195s
   73785    1.7519925e+04   9.027037e+04   0.000000e+00    200s
   74933    1.7519925e+04   2.745799e+04   0.000000e+00    205s
   76081    1.7519924e+04   2.357415e+05   0.000000e+00    210s
   77229    1.7519922e+04   4.213786e+04   0.000000e+00    215s
   78377    1.7519921e+04   9.933446e+04   0.000000e+00    220s
   79525    1.7519921e+04   1.712718e+07   0.000000e+00    226s
   80509    1.7519920e+04   2.189482e+05   0.000000e+00    230s
   81657    1.7519919e+04   2.747058e+05   0.000000e+00    235s
   82805    1.7519918e+04   1.577379e+05   0.000000e+00    241s
   83953    1.7519916e+04   3.411471e+04   0.000000e+00    246s
   84937    1.7519915e+04   1.678179e+05   0.000000e+00    250s
   86085    1.7519914e+04   6.871649e+04   0.000000e+00    256s
   87069    1.7519914e+04   7.236968e+04   0.000000e+00    260s
   88217    1.7519913e+04   3.197672e+06   0.000000e+00    266s
   89201    1.7519912e+04   1.024568e+05   0.000000e+00    270s
   90185    1.7519911e+04   2.412854e+06   0.000000e+00    275s
   91333    1.7519910e+04   5.757736e+05   0.000000e+00    281s
   92317    1.7519909e+04   6.112063e+04   0.000000e+00    285s
   93301    1.7519909e+04   6.794132e+04   0.000000e+00    290s
   94285    1.7519908e+04   6.226004e+05   0.000000e+00    295s
   95269    1.7519907e+04   9.767819e+04   0.000000e+00    300s
   96417    1.7519906e+04   3.557084e+05   0.000000e+00    305s
   97401    1.7519906e+04   1.165540e+05   0.000000e+00    310s
   98385    1.7519906e+04   2.744906e+05   0.000000e+00    315s
   99533    1.7519905e+04   1.964173e+04   0.000000e+00    321s
  100517    1.7519905e+04   1.624660e+06   0.000000e+00    326s
  101501    1.7519904e+04   1.096308e+06   0.000000e+00    331s
  102485    1.7519904e+04   2.647650e+05   0.000000e+00    336s
  103469    1.7519903e+04   2.638467e+05   0.000000e+00    341s
  104453    1.7519902e+04   3.573550e+05   0.000000e+00    346s
  105273    1.7519902e+04   5.472227e+06   0.000000e+00    350s
  106257    1.7519901e+04   3.871815e+05   0.000000e+00    355s
  107241    1.7519901e+04   1.454199e+05   0.000000e+00    360s
  108225    1.7519900e+04   3.097470e+05   0.000000e+00    366s
  109209    1.7519900e+04   5.090516e+04   0.000000e+00    371s
  110029    1.7519900e+04   1.290488e+05   0.000000e+00    375s
  111013    1.7519899e+04   8.019394e+04   0.000000e+00    380s
  111997    1.7519899e+04   1.432591e+05   0.000000e+00    386s
  112981    1.7519898e+04   6.269256e+05   0.000000e+00    391s
  113801    1.7519898e+04   2.766847e+05   0.000000e+00    395s
  114785    1.7519897e+04   2.317536e+04   0.000000e+00    400s
  115769    1.7519896e+04   4.707540e+04   0.000000e+00    406s
  116589    1.7519896e+04   1.975795e+05   0.000000e+00    410s
  117573    1.7519895e+04   1.762280e+05   0.000000e+00    415s
  118557    1.7519895e+04   7.226445e+04   0.000000e+00    420s
  119541    1.7519894e+04   2.699891e+05   0.000000e+00    426s
  120361    1.7519894e+04   2.466955e+04   0.000000e+00    430s
  121345    1.7519894e+04   7.270827e+05   0.000000e+00    435s
  122329    1.7519893e+04   5.200682e+04   0.000000e+00    441s
  123149    1.7519893e+04   4.815636e+04   0.000000e+00    445s
  124133    1.7519892e+04   2.396421e+05   0.000000e+00    450s
  125117    1.7519892e+04   3.325054e+05   0.000000e+00    455s
  126101    1.7519891e+04   6.543566e+05   0.000000e+00    460s
  127085    1.7519891e+04   4.886584e+04   0.000000e+00    466s
  128069    1.7519890e+04   1.694150e+04   0.000000e+00    471s
  129053    1.7519890e+04   6.976799e+04   0.000000e+00    476s
  130037    1.7519890e+04   5.882405e+04   0.000000e+00    481s
  130857    1.7519889e+04   2.004591e+05   0.000000e+00    485s
  131841    1.7519889e+04   4.841803e+03   0.000000e+00    490s
  132825    1.7519888e+04   9.751351e+04   0.000000e+00    495s
  133809    1.7519887e+04   1.884474e+05   0.000000e+00    500s
  134793    1.7519887e+04   6.954372e+04   0.000000e+00    505s
  135777    1.7519887e+04   7.452425e+04   0.000000e+00    511s
  136761    1.7519886e+04   4.736250e+04   0.000000e+00    516s
  137745    1.7519885e+04   1.291533e+05   0.000000e+00    521s
  138565    1.7519885e+04   7.363523e+04   0.000000e+00    525s
  139549    1.7519884e+04   1.474768e+06   0.000000e+00    530s
  140533    1.7519884e+04   1.929011e+06   0.000000e+00    535s
  141517    1.7519884e+04   4.039210e+04   0.000000e+00    540s
  142501    1.7519883e+04   1.404271e+04   0.000000e+00    546s
  143485    1.7519883e+04   8.916753e+04   0.000000e+00    551s
  144469    1.7519882e+04   1.125544e+05   0.000000e+00    556s
  145453    1.7519882e+04   2.265257e+04   0.000000e+00    561s
  146273    1.7519882e+04   4.761188e+04   0.000000e+00    565s
  147257    1.7519881e+04   5.391624e+04   0.000000e+00    570s
  148241    1.7519881e+04   3.422485e+04   0.000000e+00    575s
  149225    1.7519881e+04   2.947560e+05   0.000000e+00    581s
  150209    1.7519880e+04   8.856175e+04   0.000000e+00    586s
  151193    1.7519880e+04   2.358221e+05   0.000000e+00    591s
  152177    1.7519880e+04   6.515100e+04   0.000000e+00    596s
  153161    1.7519879e+04   1.430626e+05   0.000000e+00    601s
  153981    1.7519879e+04   1.015248e+05   0.000000e+00    605s
  154965    1.7519879e+04   1.555345e+05   0.000000e+00    610s
  155949    1.7519878e+04   5.190130e+04   0.000000e+00    615s
  156933    1.7519878e+04   3.520696e+04   0.000000e+00    621s
  157917    1.7519878e+04   2.514039e+04   0.000000e+00    626s
  158901    1.7519877e+04   7.615838e+04   0.000000e+00    631s
  159721    1.7519877e+04   8.781747e+03   0.000000e+00    635s
  160705    1.7519877e+04   1.946949e+05   0.000000e+00    640s
  161689    1.7519876e+04   2.236336e+05   0.000000e+00    645s
  162673    1.7519876e+04   1.602702e+05   0.000000e+00    651s
  163657    1.7519876e+04   2.358043e+04   0.000000e+00    656s
  164477    1.7519876e+04   4.771484e+05   0.000000e+00    660s
  165461    1.7519875e+04   9.703265e+04   0.000000e+00    666s
  166445    1.7519875e+04   7.981593e+06   0.000000e+00    671s
  167265    1.7519875e+04   2.446729e+04   0.000000e+00    675s
  168249    1.7519875e+04   4.716252e+06   0.000000e+00    681s
  169233    1.7519874e+04   4.595535e+04   0.000000e+00    686s
  170053    1.7519874e+04   7.332362e+05   0.000000e+00    690s
  171037    1.7519874e+04   2.110213e+04   0.000000e+00    696s
  172021    1.7519873e+04   5.223270e+04   0.000000e+00    701s
  172841    1.7519873e+04   2.702567e+05   0.000000e+00    705s
  173825    1.7519873e+04   8.329967e+04   0.000000e+00    711s
  174645    1.7519873e+04   1.250466e+05   0.000000e+00    715s
  175629    1.7519872e+04   5.039065e+04   0.000000e+00    721s
  176449    1.7519872e+04   4.086307e+04   0.000000e+00    725s
  177433    1.7519872e+04   4.466672e+04   0.000000e+00    731s
  178253    1.7519871e+04   1.104451e+05   0.000000e+00    735s
  179237    1.7519871e+04   6.161344e+04   0.000000e+00    741s
  180057    1.7519871e+04   3.989714e+05   0.000000e+00    745s
  181041    1.7519871e+04   1.266329e+04   0.000000e+00    751s
  181861    1.7519870e+04   1.577058e+05   0.000000e+00    755s
  182845    1.7519870e+04   3.421063e+04   0.000000e+00    761s
  183665    1.7519870e+04   2.789644e+05   0.000000e+00    765s
  184649    1.7519869e+04   2.105063e+04   0.000000e+00    771s
  185633    1.7519869e+04   3.385653e+04   0.000000e+00    776s
  186453    1.7519869e+04   1.150723e+05   0.000000e+00    780s
  187437    1.7519869e+04   8.384610e+04   0.000000e+00    786s
  188257    1.7519868e+04   4.314002e+04   0.000000e+00    790s
  189241    1.7519868e+04   2.370077e+05   0.000000e+00    796s
  190061    1.7519868e+04   8.026904e+04   0.000000e+00    800s
  191045    1.7519868e+04   1.085645e+05   0.000000e+00    806s
  191865    1.7519867e+04   1.242035e+05   0.000000e+00    810s
  192849    1.7519867e+04   6.193818e+04   0.000000e+00    816s
  193669    1.7519867e+04   4.181860e+04   0.000000e+00    820s
  194653    1.7519866e+04   2.190339e+05   0.000000e+00    826s
  195473    1.7519866e+04   7.583178e+04   0.000000e+00    830s
  196457    1.7519866e+04   2.196511e+04   0.000000e+00    835s
  197441    1.7519865e+04   2.239104e+05   0.000000e+00    841s
  198261    1.7519865e+04   6.706961e+04   0.000000e+00    845s
  199245    1.7519865e+04   3.555311e+04   0.000000e+00    851s
  200065    1.7519864e+04   4.257861e+04   0.000000e+00    855s
  201049    1.7519864e+04   1.673764e+05   0.000000e+00    861s
  201869    1.7519864e+04   1.443869e+04   0.000000e+00    865s
  202853    1.7519863e+04   1.390018e+05   0.000000e+00    871s
  203673    1.7519862e+04   3.919248e+04   0.000000e+00    875s
  204657    1.7519862e+04   2.058466e+06   0.000000e+00    881s
  205477    1.7519862e+04   7.647061e+04   0.000000e+00    885s
  206461    1.7519861e+04   1.467182e+05   0.000000e+00    891s
  207281    1.7519861e+04   1.914845e+05   0.000000e+00    895s
  208265    1.7519861e+04   1.859272e+04   0.000000e+00    901s
  209085    1.7519861e+04   1.513445e+05   0.000000e+00    905s
  210069    1.7519860e+04   1.049596e+06   0.000000e+00    911s
  210889    1.7519860e+04   1.094781e+05   0.000000e+00    915s
  211873    1.7519860e+04   6.050446e+04   0.000000e+00    921s
  212693    1.7519860e+04   3.131360e+04   0.000000e+00    925s
  213677    1.7519859e+04   7.436099e+03   0.000000e+00    931s
  214497    1.7519859e+04   7.406512e+05   0.000000e+00    935s
  215481    1.7519858e+04   1.333287e+05   0.000000e+00    941s
  216301    1.7519858e+04   1.590487e+06   0.000000e+00    945s
  217121    1.7519858e+04   1.900812e+04   0.000000e+00    950s
  218105    1.7519858e+04   1.042596e+05   0.000000e+00    956s
  218925    1.7519857e+04   1.816101e+06   0.000000e+00    960s
  219745    1.7519857e+04   3.359031e+05   0.000000e+00    965s
  220729    1.7519857e+04   1.382958e+05   0.000000e+00    971s
  221549    1.7519856e+04   5.420047e+03   0.000000e+00    975s
  222533    1.7519856e+04   1.081704e+04   0.000000e+00    981s
  223353    1.7519856e+04   9.921502e+04   0.000000e+00    985s
  224173    1.7519856e+04   1.258474e+05   0.000000e+00    990s
  225157    1.7519855e+04   1.618264e+05   0.000000e+00    996s
  225977    1.7519855e+04   1.105028e+05   0.000000e+00   1000s
  226961    1.7519855e+04   2.814423e+04   0.000000e+00   1006s
  227781    1.7519854e+04   2.657552e+04   0.000000e+00   1011s
  228601    1.7519854e+04   6.097390e+05   0.000000e+00   1015s
  229421    1.7519854e+04   3.883542e+04   0.000000e+00   1020s
  230405    1.7519854e+04   3.403141e+04   0.000000e+00   1026s
  231225    1.7519853e+04   1.361570e+05   0.000000e+00   1030s
  232209    1.7519853e+04   2.184101e+05   0.000000e+00   1036s
  233029    1.7519852e+04   3.491073e+04   0.000000e+00   1040s
  234013    1.7519852e+04   2.615571e+04   0.000000e+00   1046s
  234833    1.7519852e+04   2.112682e+04   0.000000e+00   1051s
  235653    1.7519851e+04   1.224501e+06   0.000000e+00   1056s
  236473    1.7519851e+04   5.218229e+04   0.000000e+00   1060s
  237293    1.7519851e+04   2.927729e+05   0.000000e+00   1065s
  238277    1.7519850e+04   1.756745e+06   0.000000e+00   1071s
  239097    1.7519850e+04   6.728040e+04   0.000000e+00   1075s
  239917    1.7519850e+04   1.573668e+06   0.000000e+00   1080s
  240901    1.7519849e+04   2.788237e+05   0.000000e+00   1086s
  241721    1.7519849e+04   1.038248e+05   0.000000e+00   1090s
  242705    1.7519848e+04   8.061495e+04   0.000000e+00   1096s
  243525    1.7519848e+04   1.812294e+05   0.000000e+00   1101s
  244345    1.7519848e+04   1.606975e+04   0.000000e+00   1105s
  245329    1.7519848e+04   3.502351e+05   0.000000e+00   1111s
  246149    1.7519847e+04   5.441113e+04   0.000000e+00   1115s
  247133    1.7519847e+04   1.204015e+05   0.000000e+00   1121s
  247953    1.7519847e+04   4.542346e+06   0.000000e+00   1125s
  248825    1.7519846e+04   2.646452e+04   0.000000e+00   1131s
  249455    1.7519846e+04   5.493289e+07   0.000000e+00   1135s
  250365    1.7519834e+04   4.628101e+06   0.000000e+00   1141s
  251095    1.7519831e+04   3.862561e+07   0.000000e+00   1145s
  251975    1.7519826e+04   1.175349e+08   0.000000e+00   1151s
  252705    1.7519823e+04   1.090386e+07   0.000000e+00   1156s
  253415    1.7519820e+04   1.346341e+07   0.000000e+00   1161s
  254135    1.7519818e+04   1.174761e+07   0.000000e+00   1166s
  254815    1.7519816e+04   3.166641e+07   0.000000e+00   1171s
  255545    1.7519812e+04   1.183195e+08   0.000000e+00   1176s
  256125    1.7519809e+04   6.393203e+06   0.000000e+00   1180s
  256845    1.7519807e+04   2.034866e+07   0.000000e+00   1185s
  257545    1.7519804e+04   2.352566e+07   0.000000e+00   1190s
  258275    1.7519802e+04   7.662976e+07   0.000000e+00   1196s
  258865    1.7519798e+04   2.989916e+08   0.000000e+00   1200s
  259615    1.7519790e+04   2.434753e+08   0.000000e+00   1206s
  260359    1.7279814e+04   2.391280e+07   0.000000e+00   1211s
  260929    1.7279812e+04   1.470727e+07   0.000000e+00   1215s
  261659    1.7279810e+04   7.504064e+07   0.000000e+00   1221s
  262209    1.7279808e+04   7.668382e+06   0.000000e+00   1225s
  262909    1.7279806e+04   1.481916e+08   0.000000e+00   1231s
  263499    1.7279803e+04   5.602133e+07   0.000000e+00   1235s
  264239    1.7279799e+04   4.826682e+07   0.000000e+00   1241s
  264843    1.7219839e+04   2.625303e+07   0.000000e+00   1245s
  265573    1.7219830e+04   4.029369e+07   0.000000e+00   1251s
  266173    1.7219828e+04   4.582406e+07   0.000000e+00   1256s
  266743    1.7219827e+04   3.059368e+08   0.000000e+00   1260s
  267283    1.7219825e+04   5.789564e+06   0.000000e+00   1265s
  267853    1.7219824e+04   7.429008e+06   0.000000e+00   1270s
  268423    1.7219823e+04   5.452275e+06   0.000000e+00   1275s
  268993    1.7219821e+04   1.199167e+07   0.000000e+00   1280s
  269553    1.7219820e+04   1.065347e+07   0.000000e+00   1285s
  270113    1.7219819e+04   4.189620e+07   0.000000e+00   1290s
  270673    1.7219818e+04   3.104857e+06   0.000000e+00   1295s
  271263    1.7219817e+04   4.790081e+07   0.000000e+00   1301s
  271843    1.7219816e+04   4.499973e+06   0.000000e+00   1306s
  272383    1.7219815e+04   2.833223e+07   0.000000e+00   1311s
  272953    1.7219814e+04   1.601595e+07   0.000000e+00   1316s
  273363    1.7219813e+04   6.665074e+06   0.000000e+00   1320s
  273933    1.7219812e+04   4.263823e+06   0.000000e+00   1326s
  274523    1.7219811e+04   4.956329e+07   0.000000e+00   1331s
  275093    1.7219810e+04   3.404686e+06   0.000000e+00   1336s
  275493    1.7219809e+04   4.690970e+06   0.000000e+00   1340s
  276063    1.7219808e+04   6.903215e+07   0.000000e+00   1346s
  276603    1.7219807e+04   8.215656e+06   0.000000e+00   1351s
  277043    1.7219807e+04   3.653767e+07   0.000000e+00   1355s
  277583    1.7219806e+04   1.350817e+07   0.000000e+00   1361s
  278003    1.7219805e+04   7.648503e+06   0.000000e+00   1365s
  278573    1.7219804e+04   1.585691e+07   0.000000e+00   1371s
  279013    1.7219803e+04   1.467720e+07   0.000000e+00   1375s
  279593    1.7219802e+04   1.383503e+07   0.000000e+00   1381s
  280033    1.7219802e+04   1.719541e+06   0.000000e+00   1385s
  280613    1.7219801e+04   2.045613e+07   0.000000e+00   1391s
  281043    1.7219800e+04   1.458966e+08   0.000000e+00   1395s
  281603    1.7219800e+04   6.196736e+07   0.000000e+00   1401s
  282013    1.7219799e+04   6.424310e+06   0.000000e+00   1405s
  282533    1.7219798e+04   1.465606e+07   0.000000e+00   1411s
  282953    1.7219798e+04   4.308005e+06   0.000000e+00   1416s
  283493    1.7219797e+04   2.472494e+07   0.000000e+00   1422s
  283923    1.7219796e+04   2.275420e+07   0.000000e+00   1426s
  284343    1.7219796e+04   1.531099e+07   0.000000e+00   1430s
  284913    1.7219795e+04   2.495830e+06   0.000000e+00   1436s
  285343    1.7219794e+04   1.033110e+07   0.000000e+00   1441s
  285933    1.7219793e+04   1.925946e+07   0.000000e+00   1446s
  286353    1.7219793e+04   3.134438e+06   0.000000e+00   1451s
  286753    1.7219792e+04   2.316009e+07   0.000000e+00   1455s
  287303    1.7219791e+04   7.169131e+06   0.000000e+00   1461s
  287713    1.7219791e+04   1.774631e+07   0.000000e+00   1466s
  288123    1.7219790e+04   1.764064e+07   0.000000e+00   1470s
  288543    1.7219790e+04   9.930537e+06   0.000000e+00   1475s
  289093    1.7219789e+04   7.396177e+06   0.000000e+00   1481s
  289523    1.7219789e+04   6.247944e+06   0.000000e+00   1486s
  289943    1.7219788e+04   2.893492e+08   0.000000e+00   1491s
  290333    1.7219788e+04   7.057979e+06   0.000000e+00   1495s
  290863    1.7219788e+04   5.170513e+06   0.000000e+00   1501s
  291253    1.7219787e+04   5.738038e+06   0.000000e+00   1506s
  291643    1.7219787e+04   2.192096e+07   0.000000e+00   1510s
  292063    1.7219786e+04   1.196238e+06   0.000000e+00   1515s
  292483    1.7219786e+04   8.956739e+07   0.000000e+00   1520s
  292913    1.7219785e+04   4.998956e+06   0.000000e+00   1525s
  293443    1.7219785e+04   2.004481e+07   0.000000e+00   1531s
  293863    1.7219784e+04   5.923806e+06   0.000000e+00   1536s
  294253    1.7219784e+04   4.618657e+07   0.000000e+00   1541s
  294653    1.7219784e+04   5.859949e+06   0.000000e+00   1545s
  295193    1.7219783e+04   2.818851e+06   0.000000e+00   1552s
  295603    1.7219783e+04   3.883205e+07   0.000000e+00   1556s
  296013    1.7219782e+04   8.093942e+05   0.000000e+00   1561s
  296433    1.7219782e+04   3.203806e+06   0.000000e+00   1566s
  296823    1.7219782e+04   4.288991e+07   0.000000e+00   1570s
  297213    1.7219781e+04   1.438111e+07   0.000000e+00   1575s
  297763    1.7219781e+04   1.601501e+06   0.000000e+00   1581s
  298163    1.7219781e+04   1.251633e+06   0.000000e+00   1586s
  298553    1.7219780e+04   2.797263e+06   0.000000e+00   1590s
  299083    1.7219780e+04   4.805369e+06   0.000000e+00   1596s
  299473    1.7219779e+04   2.224386e+07   0.000000e+00   1601s
  299863    1.7219779e+04   1.475351e+07   0.000000e+00   1605s
  300393    1.7219779e+04   5.790596e+06   0.000000e+00   1611s
  300783    1.7219778e+04   1.607299e+07   0.000000e+00   1616s
  301213    1.7219778e+04   4.926547e+06   0.000000e+00   1621s
  301603    1.7219778e+04   1.537210e+06   0.000000e+00   1625s
  302023    1.7219777e+04   3.427725e+07   0.000000e+00   1630s
  302593    1.7189779e+04   1.694248e+07   0.000000e+00   1636s
  303003    1.7189779e+04   1.180300e+06   0.000000e+00   1641s
  303393    1.7189779e+04   2.414960e+06   0.000000e+00   1646s
  303783    1.7189778e+04   3.971723e+06   0.000000e+00   1650s
  304173    1.7189778e+04   4.159884e+07   0.000000e+00   1655s
  304703    1.7189777e+04   1.298960e+06   0.000000e+00   1661s
  305093    1.7189777e+04   2.977107e+07   0.000000e+00   1666s
  305483    1.7189777e+04   8.089645e+06   0.000000e+00   1671s
  305883    1.7189777e+04   2.931231e+06   0.000000e+00   1676s
  306283    1.7189776e+04   5.408223e+06   0.000000e+00   1681s
  306683    1.7189776e+04   2.151121e+06   0.000000e+00   1685s
  307203    1.7189776e+04   9.273693e+05   0.000000e+00   1691s
  307593    1.7189776e+04   5.757404e+07   0.000000e+00   1696s
  307993    1.7189775e+04   9.600452e+05   0.000000e+00   1701s
  308403    1.7189775e+04   2.718275e+06   0.000000e+00   1706s
  308823    1.7189775e+04   1.200468e+06   0.000000e+00   1711s
  309243    1.7189775e+04   1.836758e+08   0.000000e+00   1716s
  309673    1.7189775e+04   9.675702e+05   0.000000e+00   1721s
  310093    1.7189774e+04   4.286390e+06   0.000000e+00   1727s
  310513    1.7189774e+04   1.087483e+06   0.000000e+00   1732s
  310793    1.7189774e+04   3.612368e+06   0.000000e+00   1735s
  311233    1.7189774e+04   6.274835e+06   0.000000e+00   1740s
  311643    1.7189774e+04   2.024073e+06   0.000000e+00   1746s
  312053    1.7189774e+04   4.669347e+07   0.000000e+00   1751s
  312473    1.7189773e+04   2.100107e+06   0.000000e+00   1756s
  312903    1.7189773e+04   1.306140e+06   0.000000e+00   1762s
  313183    1.7189773e+04   1.267489e+05   0.000000e+00   1765s
  313613    1.7189773e+04   3.666813e+06   0.000000e+00   1770s
  314053    1.7189773e+04   1.614260e+05   0.000000e+00   1776s
  314463    1.7189773e+04   1.011584e+06   0.000000e+00   1781s
  314893    1.7189773e+04   3.906025e+05   0.000000e+00   1786s
  315313    1.7189773e+04   1.162978e+06   0.000000e+00   1791s
  315733    1.7189773e+04   5.944608e+05   0.000000e+00   1797s
  316023    1.7189772e+04   6.445228e+05   0.000000e+00   1800s
  316443    1.7189772e+04   9.261964e+05   0.000000e+00   1806s
  316863    1.7189772e+04   1.787631e+05   0.000000e+00   1811s
  317303    1.7189772e+04   1.700878e+06   0.000000e+00   1816s
  317733    1.7189772e+04   5.269984e+05   0.000000e+00   1822s
  318013    1.7189772e+04   1.760284e+05   0.000000e+00   1825s
  318443    1.7189772e+04   5.400301e+05   0.000000e+00   1831s
  318863    1.7189772e+04   3.050086e+05   0.000000e+00   1836s
  319283    1.7189772e+04   3.626936e+05   0.000000e+00   1841s
  319703    1.7189772e+04   1.408812e+06   0.000000e+00   1846s
  319983    1.7189772e+04   1.277348e+05   0.000000e+00   1850s
  320403    1.7189772e+04   4.293619e+05   0.000000e+00   1855s
  320823    1.7189772e+04   1.380585e+05   0.000000e+00   1861s
  321253    1.7189772e+04   2.586466e+05   0.000000e+00   1866s
  321683    1.7189772e+04   3.538799e+05   0.000000e+00   1871s
  322123    1.7189772e+04   3.630719e+05   0.000000e+00   1877s
  322413    1.7189772e+04   4.777310e+04   0.000000e+00   1880s
  322843    1.7189772e+04   1.326099e+04   0.000000e+00   1885s
  323283    1.7189772e+04   1.239435e+04   0.000000e+00   1891s
  323703    1.7189772e+04   6.207210e+04   0.000000e+00   1896s
  324133    1.7189771e+04   4.702281e+04   0.000000e+00   1901s
  324553    1.7189771e+04   1.341605e+04   0.000000e+00   1906s
  325003    1.7189771e+04   1.521403e+03   0.000000e+00   1912s
  325293    1.7189771e+04   7.445817e+01   0.000000e+00   1915s
  325718    1.7189771e+04   0.000000e+00   0.000000e+00   1921s
  325719    1.7190000e+04   0.000000e+00   0.000000e+00   1921s
  325719    1.7190000e+04   0.000000e+00   0.000000e+00   1921s

Root relaxation: objective 1.719000e+04, 325719 iterations, 1914.43 seconds
Total elapsed time = 2892.52s

    Nodes    |    Current Node    |     Objective Bounds      |     Work
 Expl Unexpl |  Obj  Depth IntInf | Incumbent    BestBd   Gap | It/Node Time

     0     0 17190.0000    0 9307 5610.00000 17190.0000   206%     - 3600s

Explored 0 nodes (726069 simplex iterations) in 3600.06 seconds
Thread count was 1 (of 40 available processors)

Solution count 1: 5610 

Time limit reached
Best objective 5.610000000000e+03, best bound 1.719000000000e+04, gap 206.4171%

----------

Best objective (UB): 17190.000
Best feasible solution (LB): 5610.000
Gap between the lower bound and upper bound: 206.417%

----------

Number of customers served: 47

Schedule for EV v0:
   [   0,  671) -> It remains parked at station s0.
   [ 671,  791) -> Service a request driving for customer c69 from s0 to s1.
   [ 791,  911) -> It remains parked at station s1.
   [ 911,  941) -> Service a request driving for customer c63 from s1 to s8.
   [ 941, tmax) -> It remains parked at station s8.

Schedule for EV v1:
   [   0,  847) -> It remains parked at station s0.
   [ 847,  907) -> Service a request driving for customer c7 from s0 to s8.
   [ 907, tmax) -> It remains parked at station s8.

Schedule for EV v2:
   [   0, 1150) -> It remains parked at station s0.
   [1150, 1210) -> Service a request driving for customer c46 from s0 to s2.
   [1210, tmax) -> It remains parked at station s2.

Schedule for EV v3:
   [   0,  856) -> It remains parked at station s0.
   [ 856,  916) -> Service a request driving for customer c91 from s0 to s0.
   [ 916, tmax) -> It remains parked at station s0.

Schedule for EV v4:
   [   0, tmax) -> It remains parked at station s0.

Schedule for EV v5:
   [   0, tmax) -> It remains parked at station s0.

Schedule for EV v6:
   [   0, tmax) -> It remains parked at station s0.

Schedule for EV v7:
   [   0,  676) -> It remains parked at station s1.
   [ 676,  886) -> Service a request driving for customer c37 from s1 to s1.
   [ 886, 1094) -> It remains parked at station s1.
   [1094, 1244) -> Service a request driving for customer c40 from s1 to s11.
   [1244, tmax) -> It remains parked at station s11.

Schedule for EV v8:
   [   0,  906) -> It remains parked at station s1.
   [ 906, 1026) -> Service a request driving for customer c45 from s1 to s1.
   [1026, tmax) -> It remains parked at station s1.

Schedule for EV v9:
   [   0,  847) -> It remains parked at station s1.
   [ 847,  967) -> Service a request driving for customer c60 from s1 to s0.
   [ 967, tmax) -> It remains parked at station s0.

Schedule for EV v10:
   [   0,  853) -> It remains parked at station s1.
   [ 853,  943) -> Service a request driving for customer c68 from s1 to s9.
   [ 943, 1149) -> It remains parked at station s9.
   [1149, 1209) -> Service a request driving for customer c24 from s9 to s7.
   [1209, tmax) -> It remains parked at station s7.

Schedule for EV v11:
   [   0, 1026) -> It remains parked at station s1.
   [1026, 1116) -> Service a request driving for customer c74 from s1 to s11.
   [1116, tmax) -> It remains parked at station s11.

Schedule for EV v12:
   [   0,  907) -> It remains parked at station s1.
   [ 907,  967) -> Service a request driving for customer c79 from s1 to s11.
   [ 967, tmax) -> It remains parked at station s11.

Schedule for EV v13:
   [   0,  552) -> It remains parked at station s1.
   [ 552,  612) -> Service a request driving for customer c66 from s1 to s6.
   [ 612, 1210) -> It remains parked at station s6.
   [1210, 1240) -> Service a request driving for customer c66 from s6 to s3.
   [1240, tmax) -> It remains parked at station s3.

Schedule for EV v14:
   [   0,  610) -> It remains parked at station s2.
   [ 610,  850) -> Service a request driving for customer c50 from s2 to s6.
   [ 850, tmax) -> It remains parked at station s6.

Schedule for EV v15:
   [   0,  731) -> It remains parked at station s2.
   [ 731,  791) -> Service a request driving for customer c61 from s2 to s3.
   [ 791, tmax) -> It remains parked at station s3.

Schedule for EV v16:
   [   0, tmax) -> It remains parked at station s2.

Schedule for EV v17:
   [   0, tmax) -> It remains parked at station s2.

Schedule for EV v18:
   [   0, tmax) -> It remains parked at station s2.

Schedule for EV v19:
   [   0, tmax) -> It remains parked at station s2.

Schedule for EV v20:
   [   0, tmax) -> It remains parked at station s2.

Schedule for EV v21:
   [   0, tmax) -> It remains parked at station s2.

Schedule for EV v22:
   [   0, tmax) -> It remains parked at station s2.

Schedule for EV v23:
   [   0, tmax) -> It remains parked at station s2.

Schedule for EV v24:
   [   0, tmax) -> It remains parked at station s2.

Schedule for EV v25:
   [   0,  608) -> It remains parked at station s3.
   [ 608,  968) -> Service a request driving for customer c52 from s3 to s6.
   [ 968, tmax) -> It remains parked at station s6.

Schedule for EV v26:
   [   0,  552) -> It remains parked at station s3.
   [ 552,  762) -> Service a request driving for customer c42 from s3 to s8.
   [ 762, tmax) -> It remains parked at station s8.

Schedule for EV v27:
   [   0,  853) -> It remains parked at station s3.
   [ 853,  943) -> Service a request driving for customer c93 from s3 to s9.
   [ 943, 1335) -> It remains parked at station s9.
   [1335, 1455) -> Service a request driving for customer c93 from s9 to s7.
   [1455, tmax) -> It remains parked at station s7.

Schedule for EV v28:
   [   0,  669) -> It remains parked at station s3.
   [ 669,  759) -> Service a request driving for customer c38 from s3 to s4.
   [ 759, tmax) -> It remains parked at station s4.

Schedule for EV v29:
   [   0,  968) -> It remains parked at station s3.
   [ 968, 1028) -> Service a request driving for customer c21 from s3 to s9.
   [1028, tmax) -> It remains parked at station s9.

Schedule for EV v30:
   [   0, 1207) -> It remains parked at station s3.
   [1207, 1267) -> Service a request driving for customer c31 from s3 to s6.
   [1267, tmax) -> It remains parked at station s6.

Schedule for EV v31:
   [   0,  969) -> It remains parked at station s3.
   [ 969, 1029) -> Service a request driving for customer c56 from s3 to s7.
   [1029, tmax) -> It remains parked at station s7.

Schedule for EV v32:
   [   0, tmax) -> It remains parked at station s3.

Schedule for EV v33:
   [   0, tmax) -> It remains parked at station s3.

Schedule for EV v34:
   [   0,  975) -> It remains parked at station s4.
   [ 975, 1065) -> Service a request driving for customer c25 from s4 to s4.
   [1065, 1269) -> It remains parked at station s4.
   [1269, 1299) -> Service a request driving for customer c67 from s4 to s6.
   [1299, tmax) -> It remains parked at station s6.

Schedule for EV v35:
   [   0,  974) -> It remains parked at station s4.
   [ 974, 1064) -> Service a request driving for customer c94 from s4 to s1.
   [1064, tmax) -> It remains parked at station s1.

Schedule for EV v36:
   [   0,  426) -> It remains parked at station s4.
   [ 426,  486) -> Service a request driving for customer c92 from s4 to s1.
   [ 486, tmax) -> It remains parked at station s1.

Schedule for EV v37:
   [   0,  855) -> It remains parked at station s4.
   [ 855,  885) -> Service a request driving for customer c10 from s4 to s4.
   [ 885, tmax) -> It remains parked at station s4.

Schedule for EV v38:
   [   0,  611) -> It remains parked at station s5.
   [ 611,  761) -> Service a request driving for customer c71 from s5 to s11.
   [ 761, tmax) -> It remains parked at station s11.

Schedule for EV v39:
   [   0,  852) -> It remains parked at station s5.
   [ 852,  972) -> Service a request driving for customer c87 from s5 to s5.
   [ 972, 1156) -> It remains parked at station s5.
   [1156, 1216) -> Service a request driving for customer c16 from s5 to s11.
   [1216, 1333) -> It remains parked at station s11.
   [1333, 1423) -> Service a request driving for customer c16 from s11 to s7.
   [1423, tmax) -> It remains parked at station s7.

Schedule for EV v40:
   [   0, tmax) -> It remains parked at station s5.

Schedule for EV v41:
   [   0, tmax) -> It remains parked at station s5.

Schedule for EV v42:
   [   0, tmax) -> It remains parked at station s5.

Schedule for EV v43:
   [   0, tmax) -> It remains parked at station s5.

Schedule for EV v44:
   [   0, tmax) -> It remains parked at station s5.

Schedule for EV v45:
   [   0, tmax) -> It remains parked at station s5.

Schedule for EV v46:
   [   0, tmax) -> It remains parked at station s5.

Schedule for EV v47:
   [   0, tmax) -> It remains parked at station s5.

Schedule for EV v48:
   [   0,  493) -> It remains parked at station s6.
   [ 493,  643) -> Service a request driving for customer c33 from s6 to s10.
   [ 643, tmax) -> It remains parked at station s10.

Schedule for EV v49:
   [   0,  673) -> It remains parked at station s6.
   [ 673,  763) -> Service a request driving for customer c82 from s6 to s6.
   [ 763, tmax) -> It remains parked at station s6.

Schedule for EV v50:
   [   0, tmax) -> It remains parked at station s6.

Schedule for EV v51:
   [   0, tmax) -> It remains parked at station s6.

Schedule for EV v52:
   [   0, tmax) -> It remains parked at station s6.

Schedule for EV v53:
   [   0, tmax) -> It remains parked at station s6.

Schedule for EV v54:
   [   0, tmax) -> It remains parked at station s6.

Schedule for EV v55:
   [   0, tmax) -> It remains parked at station s6.

Schedule for EV v56:
   [   0, tmax) -> It remains parked at station s6.

Schedule for EV v57:
   [   0, tmax) -> It remains parked at station s6.

Schedule for EV v58:
   [   0, tmax) -> It remains parked at station s6.

Schedule for EV v59:
   [   0,  672) -> It remains parked at station s7.
   [ 672,  972) -> Service a request driving for customer c73 from s7 to s10.
   [ 972, tmax) -> It remains parked at station s10.

Schedule for EV v60:
   [   0,  675) -> It remains parked at station s7.
   [ 675,  855) -> Service a request driving for customer c80 from s7 to s3.
   [ 855, 1153) -> It remains parked at station s3.
   [1153, 1423) -> Service a request driving for customer c80 from s3 to s1.
   [1423, tmax) -> It remains parked at station s1.

Schedule for EV v61:
   [   0,  547) -> It remains parked at station s7.
   [ 547,  697) -> Service a request driving for customer c9 from s7 to s2.
   [ 697,  968) -> It remains parked at station s2.
   [ 968, 1028) -> Service a request driving for customer c9 from s2 to s2.
   [1028, tmax) -> It remains parked at station s2.

Schedule for EV v62:
   [   0,  913) -> It remains parked at station s7.
   [ 913,  973) -> Service a request driving for customer c12 from s7 to s8.
   [ 973, tmax) -> It remains parked at station s8.

Schedule for EV v63:
   [   0, tmax) -> It remains parked at station s7.

Schedule for EV v64:
   [   0, tmax) -> It remains parked at station s7.

Schedule for EV v65:
   [   0, tmax) -> It remains parked at station s7.

Schedule for EV v66:
   [   0, tmax) -> It remains parked at station s7.

Schedule for EV v67:
   [   0,  965) -> It remains parked at station s8.
   [ 965, 1145) -> Service a request driving for customer c86 from s8 to s0.
   [1145, tmax) -> It remains parked at station s0.

Schedule for EV v68:
   [   0, 1091) -> It remains parked at station s8.
   [1091, 1181) -> Service a request driving for customer c53 from s8 to s0.
   [1181, tmax) -> It remains parked at station s0.

Schedule for EV v69:
   [   0, 1149) -> It remains parked at station s8.
   [1149, 1239) -> Service a request driving for customer c58 from s8 to s1.
   [1239, tmax) -> It remains parked at station s1.

Schedule for EV v70:
   [   0,  725) -> It remains parked at station s8.
   [ 725,  755) -> Service a request driving for customer c78 from s8 to s1.
   [ 755, tmax) -> It remains parked at station s1.

Schedule for EV v71:
   [   0, tmax) -> It remains parked at station s8.

Schedule for EV v72:
   [   0, tmax) -> It remains parked at station s8.

Schedule for EV v73:
   [   0, tmax) -> It remains parked at station s8.

Schedule for EV v74:
   [   0, tmax) -> It remains parked at station s8.

Schedule for EV v75:
   [   0,  668) -> It remains parked at station s9.
   [ 668,  758) -> Service a request driving for customer c11 from s9 to s1.
   [ 758, tmax) -> It remains parked at station s1.

Schedule for EV v76:
   [   0, 1271) -> It remains parked at station s9.
   [1271, 1331) -> Service a request driving for customer c48 from s9 to s4.
   [1331, tmax) -> It remains parked at station s4.

Schedule for EV v77:
   [   0,  667) -> It remains parked at station s9.
   [ 667,  727) -> Service a request driving for customer c84 from s9 to s1.
   [ 727, tmax) -> It remains parked at station s1.

Schedule for EV v78:
   [   0, tmax) -> It remains parked at station s9.

Schedule for EV v79:
   [   0, tmax) -> It remains parked at station s9.

Schedule for EV v80:
   [   0,  734) -> It remains parked at station s10.
   [ 734,  914) -> Service a request driving for customer c85 from s10 to s6.
   [ 914, tmax) -> It remains parked at station s6.

Schedule for EV v81:
   [   0, 1086) -> It remains parked at station s10.
   [1086, 1206) -> Service a request driving for customer c23 from s10 to s1.
   [1206, tmax) -> It remains parked at station s1.

Schedule for EV v82:
   [   0, 1095) -> It remains parked at station s10.
   [1095, 1155) -> Service a request driving for customer c49 from s10 to s1.
   [1155, tmax) -> It remains parked at station s1.

Schedule for EV v83:
   [   0, tmax) -> It remains parked at station s10.

Schedule for EV v84:
   [   0, tmax) -> It remains parked at station s10.

Schedule for EV v85:
   [   0, tmax) -> It remains parked at station s10.

Schedule for EV v86:
   [   0, tmax) -> It remains parked at station s10.

Schedule for EV v87:
   [   0, tmax) -> It remains parked at station s10.

Schedule for EV v88:
   [   0, tmax) -> It remains parked at station s10.

Schedule for EV v89:
   [   0, tmax) -> It remains parked at station s10.

Schedule for EV v90:
   [   0, tmax) -> It remains parked at station s11.

Schedule for EV v91:
   [   0, tmax) -> It remains parked at station s11.

Schedule for EV v92:
   [   0, tmax) -> It remains parked at station s11.

Schedule for EV v93:
   [   0, tmax) -> It remains parked at station s11.

Schedule for EV v94:
   [   0, tmax) -> It remains parked at station s11.

Schedule for EV v95:
   [   0, tmax) -> It remains parked at station s11.

Schedule for EV v96:
   [   0, tmax) -> It remains parked at station s11.

Schedule for EV v97:
   [   0, tmax) -> It remains parked at station s11.

Schedule for EV v98:
   [   0, tmax) -> It remains parked at station s11.

Schedule for EV v99:
   [   0, tmax) -> It remains parked at station s11.

Schedule for EV v100:
   [   0, tmax) -> It remains parked at station s11.

Schedule for EV v101:
   [   0, tmax) -> It remains parked at station s11.

Set of satisfied customers
   {c7, c9, c10, c11, c12, c16, c21, c23, c24, c25, c31, c33, c37, c38, c40, c42, c45, c46, c48, c49, c50, c52, c53, c56, c58, c60, c61, c63, c66, c67, c68, c69, c71, c73, c74, c78, c79, c80, c82, c84, c85, c86, c87, c91, c92, c93, c94}

