Academic license - for non-commercial use only
Gurobi Optimizer version 9.0.3 build v9.0.3rc0 (linux64)
Optimize a model with 139704 rows, 94270 columns and 2971064 nonzeros
Model fingerprint: 0x79b8e024
Variable types: 48204 continuous, 46066 integer (46066 binary)
Coefficient statistics:
  Matrix range     [1e+00, 6e+06]
  Objective range  [3e+01, 6e+02]
  Bounds range     [1e+00, 2e+06]
  RHS range        [1e+00, 2e+06]

Loaded user MIP start with objective 4680

Presolve removed 20473 rows and 2131 columns (presolve time = 6s) ...
Presolve removed 20457 rows and 2115 columns
Presolve time: 6.47s
Presolved: 119247 rows, 92155 columns, 1632509 nonzeros
Variable types: 3688 continuous, 88467 integer (75112 binary)

Root simplex log...

Iteration    Objective       Primal Inf.    Dual Inf.      Time
       0    2.6100000e+04   1.836754e+04   0.000000e+00      8s
    9399    2.6099986e+04   4.496051e+05   0.000000e+00     10s
   17851    2.6099977e+04   1.228482e+06   0.000000e+00     15s
   20939    2.6099974e+04   1.319362e+05   0.000000e+00     20s
   23448    2.6099973e+04   4.264819e+04   0.000000e+00     25s
   25957    2.6099971e+04   1.085075e+06   0.000000e+00     30s
   28080    2.6099969e+04   7.888467e+05   0.000000e+00     35s
   30010    2.6099968e+04   1.320973e+06   0.000000e+00     40s
   31940    2.6099967e+04   2.361232e+05   0.000000e+00     45s
   33677    2.6099966e+04   8.411897e+05   0.000000e+00     50s
   35414    2.6099965e+04   4.281529e+05   0.000000e+00     56s
   36958    2.6099964e+04   3.071819e+05   0.000000e+00     60s
   38502    2.6099963e+04   9.697248e+04   0.000000e+00     65s
   40046    2.6099962e+04   7.632260e+07   0.000000e+00     70s
   41590    2.6099961e+04   1.341951e+05   0.000000e+00     75s
   43134    2.6099961e+04   2.869215e+05   0.000000e+00     80s
   44485    2.6099960e+04   1.464905e+05   0.000000e+00     85s
   46029    2.6099958e+04   1.251535e+05   0.000000e+00     91s
   47573    2.6099951e+04   8.719914e+05   0.000000e+00     95s
   49117    2.6099947e+04   3.460351e+04   0.000000e+00    100s
   50468    2.6099944e+04   8.081568e+04   0.000000e+00    105s
   52012    2.6099941e+04   5.398094e+04   0.000000e+00    111s
   53170    2.6099939e+04   1.763433e+05   0.000000e+00    115s
   54521    2.6099936e+04   1.974800e+06   0.000000e+00    120s
   55872    2.6099933e+04   6.668288e+05   0.000000e+00    125s
   57223    2.6099931e+04   1.878857e+05   0.000000e+00    130s
   58381    2.6099930e+04   1.082338e+05   0.000000e+00    135s
   59539    2.6099928e+04   1.685052e+05   0.000000e+00    140s
   60697    2.6099927e+04   2.154323e+06   0.000000e+00    145s
   61855    2.6099926e+04   4.199520e+05   0.000000e+00    150s
   63013    2.6099925e+04   9.751220e+04   0.000000e+00    156s
   64171    2.6099924e+04   4.956202e+05   0.000000e+00    161s
   65136    2.6099923e+04   3.725064e+05   0.000000e+00    165s
   66294    2.6099922e+04   1.540065e+05   0.000000e+00    171s
   67452    2.6099921e+04   9.612380e+05   0.000000e+00    176s
   68417    2.6099920e+04   2.804063e+05   0.000000e+00    180s
   69382    2.6099919e+04   5.263946e+06   0.000000e+00    185s
   70540    2.6099917e+04   1.312556e+06   0.000000e+00    191s
   71505    2.6099916e+04   1.127597e+06   0.000000e+00    195s
   72663    2.6099915e+04   9.303206e+06   0.000000e+00    201s
   73628    2.6099914e+04   9.866214e+05   0.000000e+00    206s
   74593    2.6099913e+04   7.546145e+05   0.000000e+00    211s
   75558    2.6099913e+04   1.335053e+05   0.000000e+00    216s
   76523    2.6099912e+04   1.197489e+05   0.000000e+00    221s
   77295    2.6099911e+04   5.200653e+05   0.000000e+00    225s
   78260    2.6099911e+04   2.547977e+05   0.000000e+00    231s
   79032    2.6099910e+04   3.617143e+06   0.000000e+00    235s
   79997    2.6099909e+04   1.551671e+05   0.000000e+00    241s
   80962    2.6099907e+04   1.107603e+06   0.000000e+00    245s
   81927    2.6099906e+04   4.973180e+04   0.000000e+00    251s
   82892    2.6099905e+04   5.009697e+06   0.000000e+00    256s
   83664    2.6099905e+04   1.430396e+05   0.000000e+00    260s
   84629    2.6099904e+04   1.797791e+05   0.000000e+00    266s
   85401    2.6099904e+04   2.266628e+05   0.000000e+00    270s
   86366    2.6099903e+04   1.453765e+05   0.000000e+00    276s
   87138    2.6099902e+04   1.102925e+06   0.000000e+00    280s
   88103    2.6099902e+04   5.575734e+05   0.000000e+00    285s
   89068    2.6099901e+04   2.125096e+06   0.000000e+00    291s
   89840    2.6099901e+04   2.495404e+06   0.000000e+00    295s
   90612    2.6099900e+04   7.732100e+05   0.000000e+00    300s
   91577    2.6099899e+04   4.616362e+04   0.000000e+00    306s
   92349    2.6099899e+04   1.371336e+05   0.000000e+00    310s
   93314    2.6099898e+04   2.913817e+05   0.000000e+00    316s
   94086    2.6099897e+04   3.118343e+05   0.000000e+00    320s
   95051    2.6099897e+04   8.372100e+04   0.000000e+00    326s
   95823    2.6099896e+04   8.706473e+05   0.000000e+00    331s
   96595    2.6099896e+04   4.208369e+05   0.000000e+00    336s
   97367    2.6099896e+04   4.255922e+05   0.000000e+00    341s
   98139    2.6099895e+04   4.274430e+07   0.000000e+00    345s
   99104    2.6099894e+04   2.333496e+06   0.000000e+00    351s
   99876    2.6099894e+04   8.016018e+04   0.000000e+00    356s
  100648    2.6099894e+04   2.068294e+05   0.000000e+00    361s
  101420    2.6099893e+04   1.838193e+05   0.000000e+00    366s
  101999    2.6099893e+04   1.169962e+05   0.000000e+00    370s
  102771    2.6099892e+04   8.331763e+05   0.000000e+00    375s
  103543    2.6099892e+04   1.751091e+06   0.000000e+00    380s
  104315    2.6099892e+04   4.993912e+05   0.000000e+00    385s
  105087    2.6099891e+04   2.771749e+05   0.000000e+00    390s
  105859    2.6099891e+04   7.614677e+05   0.000000e+00    395s
  106631    2.6099890e+04   1.020617e+06   0.000000e+00    401s
  107403    2.6099890e+04   1.113915e+05   0.000000e+00    406s
  108175    2.6099889e+04   1.317035e+05   0.000000e+00    411s
  108947    2.6099889e+04   3.428227e+04   0.000000e+00    416s
  109719    2.6099889e+04   5.354573e+04   0.000000e+00    421s
  110491    2.6099888e+04   5.322709e+05   0.000000e+00    426s
  111263    2.6099888e+04   9.300548e+04   0.000000e+00    431s
  112035    2.6099887e+04   2.369526e+06   0.000000e+00    435s
  112807    2.6099887e+04   3.596404e+05   0.000000e+00    440s
  113772    2.6099886e+04   1.788590e+05   0.000000e+00    446s
  114544    2.6099885e+04   5.067016e+05   0.000000e+00    451s
  115316    2.6099885e+04   4.104890e+05   0.000000e+00    455s
  116088    2.6099885e+04   1.808161e+05   0.000000e+00    460s
  116860    2.6099884e+04   1.453128e+05   0.000000e+00    465s
  117632    2.6099884e+04   7.006026e+06   0.000000e+00    470s
  118404    2.6099884e+04   9.875173e+04   0.000000e+00    475s
  119176    2.6099883e+04   7.036940e+04   0.000000e+00    480s
  119948    2.6099883e+04   2.983420e+04   0.000000e+00    486s
  120720    2.6099883e+04   8.334199e+05   0.000000e+00    491s
  121492    2.6099883e+04   7.186918e+06   0.000000e+00    496s
  122264    2.6099882e+04   4.780432e+05   0.000000e+00    501s
  123036    2.6099882e+04   1.920683e+06   0.000000e+00    506s
  123615    2.6099882e+04   3.229457e+04   0.000000e+00    510s
  124580    2.6099881e+04   3.427034e+04   0.000000e+00    516s
  125159    2.6099881e+04   5.227216e+05   0.000000e+00    520s
  125931    2.6099880e+04   2.555370e+05   0.000000e+00    526s
  126703    2.6099880e+04   2.130801e+05   0.000000e+00    531s
  127475    2.6099879e+04   6.591396e+04   0.000000e+00    536s
  128054    2.6099879e+04   2.334378e+05   0.000000e+00    540s
  128826    2.6099879e+04   5.964208e+04   0.000000e+00    546s
  129598    2.6099878e+04   9.989517e+05   0.000000e+00    551s
  130370    2.6099878e+04   4.291861e+05   0.000000e+00    556s
  130949    2.6099878e+04   2.833718e+05   0.000000e+00    560s
  131721    2.6099877e+04   2.200098e+05   0.000000e+00    565s
  132493    2.6099877e+04   3.854673e+04   0.000000e+00    570s
  133265    2.6099877e+04   1.481984e+06   0.000000e+00    576s
  134037    2.6099876e+04   4.257430e+05   0.000000e+00    581s
  134809    2.6099876e+04   6.184488e+05   0.000000e+00    586s
  135581    2.6099875e+04   5.089282e+05   0.000000e+00    591s
  136160    2.6099875e+04   3.461459e+05   0.000000e+00    595s
  136932    2.6099875e+04   3.523470e+05   0.000000e+00    601s
  137704    2.6099875e+04   3.832226e+05   0.000000e+00    606s
  138283    2.6099875e+04   7.039301e+05   0.000000e+00    610s
  139055    2.6099874e+04   4.970482e+04   0.000000e+00    615s
  139827    2.6099873e+04   5.207486e+06   0.000000e+00    621s
  140599    2.6099873e+04   1.217639e+07   0.000000e+00    626s
  141371    2.6099873e+04   1.540783e+05   0.000000e+00    631s
  141950    2.6099873e+04   1.202115e+05   0.000000e+00    635s
  142722    2.6099872e+04   1.623226e+05   0.000000e+00    641s
  143494    2.6099872e+04   2.093293e+05   0.000000e+00    646s
  144073    2.6099871e+04   1.646285e+05   0.000000e+00    650s
  144845    2.6099871e+04   3.309450e+05   0.000000e+00    656s
  145617    2.6099871e+04   3.635643e+05   0.000000e+00    661s
  146196    2.6099870e+04   4.754191e+05   0.000000e+00    665s
  146968    2.6099870e+04   8.145027e+05   0.000000e+00    671s
  147740    2.6099869e+04   5.686011e+06   0.000000e+00    676s
  148319    2.6099869e+04   1.516701e+05   0.000000e+00    680s
  149091    2.6099868e+04   1.288261e+05   0.000000e+00    686s
  149670    2.6099868e+04   5.917620e+04   0.000000e+00    690s
  150442    2.6099868e+04   5.632292e+04   0.000000e+00    696s
  151214    2.6099867e+04   1.768578e+06   0.000000e+00    701s
  151986    2.6099867e+04   2.306908e+06   0.000000e+00    706s
  152565    2.6099866e+04   1.341159e+05   0.000000e+00    710s
  153337    2.6099866e+04   2.217054e+05   0.000000e+00    716s
  154109    2.6099866e+04   6.119962e+04   0.000000e+00    721s
  154688    2.6099865e+04   3.568644e+05   0.000000e+00    725s
  155460    2.6099865e+04   3.648799e+04   0.000000e+00    731s
  156039    2.6099865e+04   1.323093e+05   0.000000e+00    735s
  156811    2.6099865e+04   3.459942e+04   0.000000e+00    741s
  157390    2.6099865e+04   1.760998e+07   0.000000e+00    745s
  158162    2.6099864e+04   9.007944e+04   0.000000e+00    751s
  158934    2.6099864e+04   7.603207e+05   0.000000e+00    756s
  159513    2.6099864e+04   4.290985e+04   0.000000e+00    761s
  160285    2.6099863e+04   1.947000e+05   0.000000e+00    766s
  161057    2.6099863e+04   7.147140e+05   0.000000e+00    771s
  161636    2.6099863e+04   2.794702e+05   0.000000e+00    775s
  162408    2.6099862e+04   8.709874e+05   0.000000e+00    781s
  162987    2.6099862e+04   2.095785e+05   0.000000e+00    785s
  163759    2.6099862e+04   5.862372e+04   0.000000e+00    791s
  164531    2.6099862e+04   4.465178e+04   0.000000e+00    796s
  165110    2.6099861e+04   4.777141e+04   0.000000e+00    800s
  165882    2.6099861e+04   3.627540e+05   0.000000e+00    806s
  166461    2.6099861e+04   7.621919e+04   0.000000e+00    810s
  167233    2.6099861e+04   1.309547e+05   0.000000e+00    816s
  168005    2.6099860e+04   1.198017e+06   0.000000e+00    821s
  168584    2.6099860e+04   1.340689e+06   0.000000e+00    825s
  169356    2.6099859e+04   5.757172e+04   0.000000e+00    831s
  169935    2.6099859e+04   4.561146e+04   0.000000e+00    835s
  170707    2.6099859e+04   4.061635e+05   0.000000e+00    841s
  171286    2.6099858e+04   2.490374e+05   0.000000e+00    846s
  172058    2.6099858e+04   1.113130e+06   0.000000e+00    851s
  172637    2.6099858e+04   1.570076e+05   0.000000e+00    856s
  173216    2.6099857e+04   2.335325e+05   0.000000e+00    860s
  173988    2.6099857e+04   1.945339e+05   0.000000e+00    866s
  174567    2.6099857e+04   1.172406e+05   0.000000e+00    870s
  175339    2.6099856e+04   4.110155e+05   0.000000e+00    876s
  175918    2.6099856e+04   2.470669e+05   0.000000e+00    881s
  176497    2.6099856e+04   4.599968e+05   0.000000e+00    885s
  177269    2.6099856e+04   1.494739e+05   0.000000e+00    891s
  177845    2.6099855e+04   4.400694e+05   0.000000e+00    895s
  178617    2.6099855e+04   3.172214e+05   0.000000e+00    901s
  179196    2.6099855e+04   1.685916e+05   0.000000e+00    905s
  179968    2.6099855e+04   5.686425e+04   0.000000e+00    911s
  180547    2.6099854e+04   8.445723e+04   0.000000e+00    915s
  181319    2.6099854e+04   1.656423e+05   0.000000e+00    921s
  181898    2.6099854e+04   1.442518e+05   0.000000e+00    925s
  182670    2.6099853e+04   3.095164e+05   0.000000e+00    931s
  183442    2.6099853e+04   5.784617e+05   0.000000e+00    936s
  184021    2.6099853e+04   1.038267e+06   0.000000e+00    941s
  184793    2.6099852e+04   3.874109e+05   0.000000e+00    946s
  185366    2.6099852e+04   3.603219e+05   0.000000e+00    950s
  186132    2.6099852e+04   2.643065e+04   0.000000e+00    956s
  186895    2.6099852e+04   1.122089e+05   0.000000e+00    961s
  187468    2.6099851e+04   1.100802e+05   0.000000e+00    965s
  188231    2.6099851e+04   1.482047e+06   0.000000e+00    971s
  188991    2.6099851e+04   2.309444e+04   0.000000e+00    976s
  189561    2.6099851e+04   7.052960e+04   0.000000e+00    980s
  190321    2.6099851e+04   1.943762e+05   0.000000e+00    986s
  190897    2.6099850e+04   1.810328e+06   0.000000e+00    990s
  191660    2.6099850e+04   6.224337e+05   0.000000e+00    996s
  192236    2.6099850e+04   1.586356e+05   0.000000e+00   1000s
  193005    2.6099850e+04   9.646167e+04   0.000000e+00   1006s
  193768    2.6099849e+04   3.274779e+05   0.000000e+00   1011s
  194341    2.6099849e+04   6.498356e+04   0.000000e+00   1016s
  195107    2.6099849e+04   6.655726e+04   0.000000e+00   1021s
  195680    2.6099849e+04   1.303703e+06   0.000000e+00   1025s
  196446    2.6099848e+04   2.981289e+06   0.000000e+00   1031s
  197206    2.6099848e+04   1.902767e+05   0.000000e+00   1036s
  197776    2.6099848e+04   5.801941e+05   0.000000e+00   1040s
  198539    2.6099847e+04   1.826077e+06   0.000000e+00   1045s
  199311    2.6099847e+04   4.449635e+04   0.000000e+00   1051s
  200074    2.6099847e+04   1.714897e+05   0.000000e+00   1056s
  200644    2.6099847e+04   8.489750e+04   0.000000e+00   1060s
  201416    2.6099846e+04   4.606292e+05   0.000000e+00   1066s
  201989    2.6099846e+04   1.255329e+05   0.000000e+00   1070s
  202752    2.6099846e+04   2.341973e+05   0.000000e+00   1075s
  203515    2.6099846e+04   1.405717e+05   0.000000e+00   1081s
  204281    2.6099845e+04   8.542246e+04   0.000000e+00   1086s
  204854    2.6099845e+04   1.456166e+05   0.000000e+00   1090s
  205617    2.6099845e+04   7.893631e+04   0.000000e+00   1096s
  206386    2.6099844e+04   9.995536e+04   0.000000e+00   1101s
  206956    2.6099844e+04   5.801590e+04   0.000000e+00   1105s
  207719    2.6099844e+04   1.005847e+06   0.000000e+00   1111s
  208482    2.6099844e+04   2.794399e+05   0.000000e+00   1116s
  209254    2.6099843e+04   9.993504e+05   0.000000e+00   1121s
  209827    2.6099843e+04   6.071326e+07   0.000000e+00   1125s
  210587    2.6099843e+04   3.853019e+04   0.000000e+00   1131s
  211350    2.6099842e+04   2.552172e+05   0.000000e+00   1136s
  211923    2.6099842e+04   7.744365e+05   0.000000e+00   1140s
  212686    2.6099842e+04   8.988861e+04   0.000000e+00   1146s
  213446    2.6099841e+04   7.628229e+06   0.000000e+00   1151s
  214019    2.6099841e+04   6.867709e+04   0.000000e+00   1155s
  214782    2.6099841e+04   6.085807e+06   0.000000e+00   1161s
  215542    2.6099840e+04   4.032131e+06   0.000000e+00   1166s
  216115    2.6099840e+04   1.554977e+06   0.000000e+00   1170s
  216855    2.6099839e+04   1.427902e+05   0.000000e+00   1176s
  217615    2.6099839e+04   2.242841e+05   0.000000e+00   1181s
  218185    2.6099839e+04   4.019560e+04   0.000000e+00   1186s
  218935    2.6099839e+04   1.780407e+05   0.000000e+00   1191s
  219485    2.6099839e+04   7.993676e+04   0.000000e+00   1195s
  220228    2.6099838e+04   1.765601e+05   0.000000e+00   1201s
  220768    2.6099838e+04   3.053722e+05   0.000000e+00   1205s
  221518    2.6099838e+04   5.227622e+05   0.000000e+00   1211s
  222268    2.6099837e+04   1.436135e+05   0.000000e+00   1216s
  222828    2.6099837e+04   2.075288e+05   0.000000e+00   1220s
  223588    2.6099837e+04   1.003778e+05   0.000000e+00   1226s
  224158    2.6099837e+04   3.286702e+05   0.000000e+00   1231s
  224918    2.6099836e+04   9.857992e+04   0.000000e+00   1236s
  225491    2.6099836e+04   1.972006e+06   0.000000e+00   1240s
  226234    2.6099836e+04   7.672387e+04   0.000000e+00   1246s
  226807    2.6099835e+04   2.252734e+05   0.000000e+00   1250s
  227570    2.6099835e+04   3.652184e+07   0.000000e+00   1256s
  228300    2.6099835e+04   2.026823e+05   0.000000e+00   1261s
  228860    2.6099835e+04   1.271650e+05   0.000000e+00   1266s
  229590    2.6099834e+04   2.140482e+05   0.000000e+00   1271s
  230163    2.6099834e+04   6.829178e+04   0.000000e+00   1276s
  230923    2.6099834e+04   2.326622e+05   0.000000e+00   1281s
  231493    2.6099834e+04   2.888402e+05   0.000000e+00   1286s
  232063    2.6099834e+04   1.825124e+05   0.000000e+00   1290s
  232813    2.6099833e+04   2.306568e+05   0.000000e+00   1296s
  233383    2.6099833e+04   2.912444e+05   0.000000e+00   1301s
  233953    2.6099833e+04   1.481271e+05   0.000000e+00   1305s
  234713    2.6099833e+04   7.242861e+04   0.000000e+00   1311s
  235286    2.6099833e+04   1.016825e+06   0.000000e+00   1315s
  236049    2.6099832e+04   4.590756e+04   0.000000e+00   1321s
  236799    2.6099832e+04   4.536600e+05   0.000000e+00   1326s
  237349    2.6099832e+04   2.347863e+05   0.000000e+00   1331s
  238109    2.6099832e+04   1.953579e+05   0.000000e+00   1336s
  238669    2.6099832e+04   2.763954e+05   0.000000e+00   1341s
  239239    2.6099831e+04   2.114280e+05   0.000000e+00   1345s
  240005    2.6099831e+04   5.164194e+05   0.000000e+00   1351s
  240578    2.6099831e+04   1.275079e+05   0.000000e+00   1355s
  241341    2.6099830e+04   7.093210e+05   0.000000e+00   1361s
  241901    2.6099830e+04   6.044346e+05   0.000000e+00   1366s
  242461    2.6099830e+04   1.535896e+05   0.000000e+00   1370s
  243221    2.6099830e+04   8.827113e+04   0.000000e+00   1376s
  243794    2.6099829e+04   1.064278e+05   0.000000e+00   1380s
  244557    2.6099829e+04   1.533772e+05   0.000000e+00   1386s
  245127    2.6099829e+04   6.886621e+04   0.000000e+00   1391s
  245687    2.6099829e+04   9.145395e+04   0.000000e+00   1395s
  246450    2.6099828e+04   2.269186e+05   0.000000e+00   1401s
  247000    2.6099828e+04   2.630221e+04   0.000000e+00   1405s
  247750    2.6099828e+04   3.000132e+05   0.000000e+00   1411s
  248323    2.6099827e+04   4.518299e+06   0.000000e+00   1415s
  249066    2.6099827e+04   8.462368e+06   0.000000e+00   1421s
  249639    2.6099827e+04   1.357865e+06   0.000000e+00   1425s
  250399    2.6099827e+04   2.092915e+05   0.000000e+00   1431s
  250959    2.6099826e+04   1.976016e+05   0.000000e+00   1436s
  251709    2.6099826e+04   3.282336e+04   0.000000e+00   1441s
  252249    2.6099826e+04   3.294130e+06   0.000000e+00   1446s
  252825    2.6099826e+04   1.631496e+06   0.000000e+00   1450s
  253565    2.6099825e+04   4.028687e+05   0.000000e+00   1456s
  254105    2.6099825e+04   2.668240e+05   0.000000e+00   1460s
  254855    2.6099824e+04   1.051108e+05   0.000000e+00   1466s
  255415    2.6099824e+04   5.019860e+04   0.000000e+00   1471s
  255988    2.6099824e+04   2.315819e+05   0.000000e+00   1475s
  256738    2.6099824e+04   4.355228e+04   0.000000e+00   1481s
  257308    2.6099824e+04   1.638878e+05   0.000000e+00   1486s
  257878    2.6099823e+04   2.506913e+05   0.000000e+00   1491s
  258428    2.6099823e+04   1.346642e+05   0.000000e+00   1495s
  259148    2.6099823e+04   3.725031e+05   0.000000e+00   1501s
  259708    2.6099823e+04   1.740902e+05   0.000000e+00   1505s
  260438    2.6099823e+04   8.700663e+04   0.000000e+00   1511s
  260988    2.6099823e+04   1.830727e+05   0.000000e+00   1516s
  261728    2.6099822e+04   6.969702e+05   0.000000e+00   1521s
  262268    2.6099822e+04   3.125109e+04   0.000000e+00   1526s
  263008    2.6099822e+04   1.180073e+05   0.000000e+00   1531s
  263558    2.6099822e+04   8.041242e+04   0.000000e+00   1536s
  264098    2.6099822e+04   4.257467e+04   0.000000e+00   1540s
  264858    2.6099822e+04   3.141315e+04   0.000000e+00   1546s
  265408    2.6099822e+04   6.484373e+04   0.000000e+00   1551s
  265968    2.6099821e+04   1.965070e+06   0.000000e+00   1555s
  266718    2.6099821e+04   7.829158e+05   0.000000e+00   1561s
  267258    2.6099821e+04   3.647380e+05   0.000000e+00   1565s
  267998    2.6099820e+04   1.139748e+05   0.000000e+00   1571s
  268548    2.6099820e+04   2.930750e+05   0.000000e+00   1575s
  269308    2.6099820e+04   4.511783e+05   0.000000e+00   1581s
  269858    2.6099820e+04   1.468034e+05   0.000000e+00   1586s
  270398    2.6099820e+04   5.384843e+04   0.000000e+00   1590s
  271128    2.6099819e+04   7.313560e+04   0.000000e+00   1596s
  271691    2.6099819e+04   3.244033e+05   0.000000e+00   1600s
  272431    2.6099819e+04   6.899610e+04   0.000000e+00   1607s
  273001    2.6099819e+04   2.053698e+05   0.000000e+00   1611s
  273551    2.6099818e+04   8.600625e+05   0.000000e+00   1616s
  274111    2.6099818e+04   1.847908e+05   0.000000e+00   1620s
  274831    2.6099818e+04   1.338802e+05   0.000000e+00   1626s
  275361    2.6099817e+04   1.462709e+05   0.000000e+00   1631s
  275901    2.6099816e+04   7.196468e+04   0.000000e+00   1635s
  276621    2.6099815e+04   1.944421e+05   0.000000e+00   1641s
  277184    2.6099812e+04   4.427780e+04   0.000000e+00   1646s
  277734    2.6099812e+04   1.326584e+05   0.000000e+00   1650s
  278494    2.6099811e+04   1.329147e+06   0.000000e+00   1656s
  279054    2.6099810e+04   5.708586e+04   0.000000e+00   1661s
  279604    2.6099809e+04   2.064810e+05   0.000000e+00   1666s
  280174    2.6099809e+04   2.092280e+05   0.000000e+00   1670s
  280914    2.6099808e+04   1.532036e+05   0.000000e+00   1677s
  281454    2.6099807e+04   6.261212e+04   0.000000e+00   1681s
  282004    2.6099806e+04   3.087837e+05   0.000000e+00   1686s
  282564    2.6099806e+04   1.808540e+05   0.000000e+00   1690s
  283304    2.6099804e+04   2.075547e+05   0.000000e+00   1696s
  283874    2.6099804e+04   3.312137e+05   0.000000e+00   1701s
  284414    2.6099803e+04   2.654937e+05   0.000000e+00   1706s
  284974    2.6099803e+04   4.114214e+05   0.000000e+00   1710s
  285704    2.6099801e+04   6.947206e+05   0.000000e+00   1716s
  286244    2.6099800e+04   1.412298e+05   0.000000e+00   1721s
  286804    2.6099799e+04   1.021236e+05   0.000000e+00   1726s
  287374    2.6099799e+04   7.028917e+04   0.000000e+00   1730s
  287947    2.6099798e+04   4.133705e+04   0.000000e+00   1735s
  288697    2.6099797e+04   8.156031e+05   0.000000e+00   1741s
  289247    2.6099796e+04   3.839209e+05   0.000000e+00   1746s
  289797    2.6099795e+04   2.811188e+05   0.000000e+00   1750s
  290547    2.6099794e+04   1.544528e+05   0.000000e+00   1756s
  291117    2.6099794e+04   1.936979e+05   0.000000e+00   1761s
  291687    2.6099793e+04   6.107677e+04   0.000000e+00   1766s
  292247    2.6099793e+04   7.892389e+04   0.000000e+00   1770s
  292987    2.6099792e+04   4.304330e+05   0.000000e+00   1776s
  293547    2.6099791e+04   3.632605e+05   0.000000e+00   1781s
  294110    2.6099791e+04   3.119827e+05   0.000000e+00   1786s
  294670    2.6099790e+04   9.009797e+05   0.000000e+00   1790s
  295410    2.6099789e+04   2.877001e+05   0.000000e+00   1796s
  295960    2.6099788e+04   1.890802e+05   0.000000e+00   1801s
  296530    2.6099787e+04   9.526440e+05   0.000000e+00   1806s
  297090    2.6099787e+04   9.359475e+06   0.000000e+00   1810s
  297850    2.6099786e+04   8.730234e+05   0.000000e+00   1816s
  298420    2.6099786e+04   7.955838e+04   0.000000e+00   1821s
  298990    2.6099785e+04   7.876531e+04   0.000000e+00   1826s
  299566    2.6099785e+04   9.610930e+04   0.000000e+00   1830s
  300332    2.6099784e+04   1.324377e+05   0.000000e+00   1837s
  300902    2.6099783e+04   3.322279e+05   0.000000e+00   1841s
  301475    2.6099782e+04   1.551581e+06   0.000000e+00   1846s
  302035    2.6099781e+04   7.570505e+04   0.000000e+00   1850s
  302605    2.6099781e+04   1.375241e+05   0.000000e+00   1855s
  303365    2.6099780e+04   1.026792e+05   0.000000e+00   1861s
  303938    2.6099780e+04   2.567579e+05   0.000000e+00   1866s
  304498    2.6099779e+04   2.300261e+05   0.000000e+00   1871s
  305068    2.6099778e+04   3.645143e+07   0.000000e+00   1875s
  305628    2.6099777e+04   3.592335e+05   0.000000e+00   1880s
  306388    2.6099776e+04   6.028891e+05   0.000000e+00   1886s
  306938    2.6099775e+04   9.771881e+04   0.000000e+00   1891s
  307508    2.6099774e+04   2.082693e+05   0.000000e+00   1895s
  308268    2.6099774e+04   5.511787e+05   0.000000e+00   1901s
  308838    2.6099772e+04   1.528927e+05   0.000000e+00   1906s
  309408    2.6099771e+04   3.269257e+05   0.000000e+00   1911s
  309981    2.6099770e+04   8.905561e+05   0.000000e+00   1915s
  310741    2.6099769e+04   3.567400e+05   0.000000e+00   1921s
  311317    2.6099769e+04   6.713430e+04   0.000000e+00   1926s
  311887    2.6099768e+04   4.007755e+05   0.000000e+00   1930s
  312647    2.6099768e+04   2.075136e+05   0.000000e+00   1936s
  313207    2.6099767e+04   1.086542e+06   0.000000e+00   1941s
  313777    2.6099767e+04   1.140612e+05   0.000000e+00   1945s
  314350    2.6099766e+04   2.312213e+06   0.000000e+00   1950s
  315110    2.6099765e+04   2.041274e+06   0.000000e+00   1956s
  315680    2.6099764e+04   1.406158e+05   0.000000e+00   1961s
  316440    2.6099764e+04   8.105625e+04   0.000000e+00   1966s
  317013    2.6099763e+04   6.509346e+04   0.000000e+00   1971s
  317583    2.6099763e+04   7.604345e+05   0.000000e+00   1975s
  318153    2.6099762e+04   6.613394e+05   0.000000e+00   1980s
  318916    2.6099762e+04   7.218707e+06   0.000000e+00   1986s
  319489    2.6099761e+04   3.054615e+05   0.000000e+00   1991s
  320059    2.6099761e+04   1.923407e+05   0.000000e+00   1995s
  320629    2.6099760e+04   4.056005e+05   0.000000e+00   2000s
  321389    2.6099759e+04   7.725355e+05   0.000000e+00   2006s
  321959    2.6099759e+04   1.111798e+05   0.000000e+00   2011s
  322529    2.6099758e+04   2.108330e+05   0.000000e+00   2015s
  323259    2.6099758e+04   4.383590e+05   0.000000e+00   2021s
  323819    2.6099757e+04   6.071339e+05   0.000000e+00   2026s
  324389    2.6099757e+04   1.719886e+05   0.000000e+00   2030s
  325139    2.6099756e+04   1.636643e+04   0.000000e+00   2036s
  325689    2.6099756e+04   2.392605e+06   0.000000e+00   2041s
  326249    2.6099755e+04   2.660395e+04   0.000000e+00   2045s
  326999    2.6099754e+04   2.464275e+05   0.000000e+00   2051s
  327569    2.6099754e+04   1.875225e+05   0.000000e+00   2056s
  328139    2.6099753e+04   1.890635e+05   0.000000e+00   2060s
  328709    2.6099753e+04   8.730832e+04   0.000000e+00   2065s
  329459    2.6099752e+04   1.881541e+06   0.000000e+00   2071s
  330029    2.6099751e+04   1.090095e+06   0.000000e+00   2076s
  330599    2.6099751e+04   8.203174e+05   0.000000e+00   2080s
  331349    2.6099750e+04   1.242633e+05   0.000000e+00   2086s
  331909    2.6099750e+04   2.977804e+05   0.000000e+00   2091s
  332469    2.6099749e+04   5.648426e+05   0.000000e+00   2095s
  333219    2.6099748e+04   3.031893e+05   0.000000e+00   2101s
  333779    2.6099748e+04   2.446841e+05   0.000000e+00   2106s
  334349    2.6099747e+04   3.915483e+05   0.000000e+00   2110s
  335089    2.6099746e+04   1.226096e+05   0.000000e+00   2116s
  335659    2.6099746e+04   1.063826e+05   0.000000e+00   2121s
  336229    2.6099746e+04   3.050122e+05   0.000000e+00   2125s
  336989    2.6099745e+04   1.269922e+05   0.000000e+00   2131s
  337559    2.6099745e+04   1.859249e+06   0.000000e+00   2136s
  338129    2.6099744e+04   8.327930e+04   0.000000e+00   2140s
  338872    2.6099744e+04   5.898274e+05   0.000000e+00   2146s
  339422    2.6099743e+04   5.812335e+05   0.000000e+00   2151s
  339982    2.6099743e+04   8.420306e+05   0.000000e+00   2156s
  340552    2.6099743e+04   2.085962e+05   0.000000e+00   2160s
  341312    2.6099742e+04   3.703945e+04   0.000000e+00   2166s
  341872    2.6099742e+04   9.505017e+05   0.000000e+00   2171s
  342432    2.6099741e+04   2.481484e+05   0.000000e+00   2176s
  342992    2.6099741e+04   7.688335e+04   0.000000e+00   2181s
  343562    2.6099741e+04   1.054939e+05   0.000000e+00   2187s
  343942    2.6099740e+04   3.176178e+05   0.000000e+00   2191s
  344322    2.6099740e+04   5.397881e+04   0.000000e+00   2196s
  344892    2.6099740e+04   1.045276e+05   0.000000e+00   2202s
  345272    2.6099739e+04   1.992151e+05   0.000000e+00   2206s
  345642    2.6099739e+04   2.359680e+05   0.000000e+00   2210s
  346192    2.6099738e+04   3.521749e+06   0.000000e+00   2216s
  346762    2.6099737e+04   3.224057e+05   0.000000e+00   2220s
  347512    2.6099736e+04   5.506543e+05   0.000000e+00   2226s
  348062    2.6099736e+04   4.008768e+05   0.000000e+00   2231s
  348625    2.6099733e+04   1.110079e+05   0.000000e+00   2236s
  349165    2.6099732e+04   5.255825e+05   0.000000e+00   2240s
  349895    2.6099731e+04   1.593855e+05   0.000000e+00   2246s
  350455    2.6099731e+04   1.815431e+05   0.000000e+00   2251s
  351025    2.6099730e+04   2.899467e+05   0.000000e+00   2256s
  351595    2.6099730e+04   2.280134e+04   0.000000e+00   2260s
  352165    2.6099729e+04   3.480454e+06   0.000000e+00   2265s
  352925    2.6099729e+04   4.435117e+04   0.000000e+00   2271s
  353495    2.6099729e+04   4.982350e+04   0.000000e+00   2276s
  354065    2.6099728e+04   6.078727e+04   0.000000e+00   2281s
  354635    2.6099728e+04   6.927686e+05   0.000000e+00   2285s
  355205    2.6099727e+04   1.911146e+05   0.000000e+00   2290s
  355965    2.6099727e+04   3.504974e+05   0.000000e+00   2296s
  356525    2.6099727e+04   1.350722e+05   0.000000e+00   2301s
  357095    2.6099726e+04   4.755670e+04   0.000000e+00   2306s
  357655    2.6099726e+04   4.717371e+05   0.000000e+00   2310s
  358195    2.6099726e+04   1.560248e+06   0.000000e+00   2315s
  358865    2.6099712e+04   1.511406e+08   0.000000e+00   2321s
  359558    2.5859761e+04   5.158957e+06   0.000000e+00   2326s
  360018    2.5859758e+04   2.666741e+06   0.000000e+00   2331s
  360618    2.5859754e+04   1.860632e+07   0.000000e+00   2336s
  361088    2.5859750e+04   1.664508e+07   0.000000e+00   2341s
  361678    2.5859746e+04   1.090370e+08   0.000000e+00   2346s
  362201    2.5739755e+04   6.486948e+06   0.000000e+00   2350s
  362811    2.5739751e+04   8.515013e+07   0.000000e+00   2356s
  363271    2.5739746e+04   7.505015e+07   0.000000e+00   2361s
  363701    2.5739743e+04   3.884018e+07   0.000000e+00   2365s
  364281    2.5739739e+04   1.024309e+07   0.000000e+00   2371s
  364741    2.5739736e+04   3.399180e+07   0.000000e+00   2376s
  365191    2.5739734e+04   5.444511e+06   0.000000e+00   2381s
  365651    2.5739731e+04   2.431397e+06   0.000000e+00   2386s
  366131    2.5739728e+04   1.372478e+07   0.000000e+00   2391s
  366591    2.5739725e+04   2.131228e+08   0.000000e+00   2395s
  367051    2.5739721e+04   3.048080e+06   0.000000e+00   2400s
  367481    2.5739720e+04   2.806548e+07   0.000000e+00   2405s
  367941    2.5739717e+04   1.096196e+08   0.000000e+00   2410s
  368431    2.5739714e+04   1.976380e+06   0.000000e+00   2415s
  368871    2.5739711e+04   5.158767e+06   0.000000e+00   2420s
  369351    2.5739707e+04   5.879817e+06   0.000000e+00   2425s
  369801    2.5739705e+04   5.151209e+07   0.000000e+00   2430s
  370251    2.5739703e+04   3.826708e+07   0.000000e+00   2435s
  370671    2.5739701e+04   6.322425e+07   0.000000e+00   2440s
  371111    2.5739698e+04   5.948115e+07   0.000000e+00   2446s
  371551    2.5739696e+04   2.353431e+08   0.000000e+00   2451s
  371991    2.5739693e+04   2.340159e+07   0.000000e+00   2456s
  372421    2.5739690e+04   1.351068e+07   0.000000e+00   2461s
  372851    2.5739688e+04   3.268592e+08   0.000000e+00   2466s
  373291    2.5739684e+04   2.422195e+07   0.000000e+00   2472s
  373571    2.5739683e+04   1.502584e+08   0.000000e+00   2475s
  374021    2.5739680e+04   2.162633e+07   0.000000e+00   2481s
  374481    2.5739678e+04   8.591077e+06   0.000000e+00   2486s
  374911    2.5739675e+04   1.363313e+08   0.000000e+00   2492s
  375201    2.5739674e+04   3.691120e+07   0.000000e+00   2495s
  375661    2.5739672e+04   1.123354e+07   0.000000e+00   2501s
  376111    2.5739669e+04   7.980812e+06   0.000000e+00   2506s
  376561    2.5739667e+04   1.064362e+07   0.000000e+00   2512s
  376861    2.5739666e+04   4.761913e+07   0.000000e+00   2515s
  377301    2.5739665e+04   9.081591e+07   0.000000e+00   2521s
  377741    2.5739663e+04   2.580668e+07   0.000000e+00   2527s
  378031    2.5739661e+04   1.993547e+07   0.000000e+00   2530s
  378501    2.5739658e+04   3.427272e+08   0.000000e+00   2536s
  378951    2.5739655e+04   2.291881e+07   0.000000e+00   2541s
  379241    2.5739654e+04   1.847597e+07   0.000000e+00   2545s
  379691    2.5739652e+04   2.132313e+07   0.000000e+00   2551s
  380141    2.5739650e+04   4.088724e+08   0.000000e+00   2557s
  380441    2.5739649e+04   1.332888e+07   0.000000e+00   2560s
  380891    2.5739647e+04   3.299965e+07   0.000000e+00   2566s
  381191    2.5739646e+04   4.989265e+07   0.000000e+00   2570s
  381661    2.5739643e+04   7.127431e+06   0.000000e+00   2576s
  382101    2.5739642e+04   3.185260e+07   0.000000e+00   2582s
  382401    2.5739641e+04   2.481876e+07   0.000000e+00   2586s
  382861    2.5739639e+04   8.088663e+07   0.000000e+00   2592s
  383181    2.5739638e+04   1.108829e+07   0.000000e+00   2596s
  383641    2.5739637e+04   9.028536e+06   0.000000e+00   2601s
  383931    2.5739635e+04   1.153961e+07   0.000000e+00   2605s
  384371    2.5739634e+04   4.057108e+06   0.000000e+00   2611s
  384671    2.5739633e+04   4.113281e+07   0.000000e+00   2615s
  385101    2.5739631e+04   2.960769e+06   0.000000e+00   2621s
  385551    2.5739629e+04   4.691724e+06   0.000000e+00   2627s
  385841    2.5739628e+04   1.093652e+08   0.000000e+00   2631s
  386261    2.5739626e+04   1.240198e+07   0.000000e+00   2636s
  386561    2.5739625e+04   1.446883e+07   0.000000e+00   2640s
  387001    2.5739623e+04   5.270192e+07   0.000000e+00   2646s
  387301    2.5739621e+04   2.411984e+07   0.000000e+00   2650s
  387741    2.5739619e+04   2.678392e+07   0.000000e+00   2656s
  388021    2.5739618e+04   2.174259e+07   0.000000e+00   2660s
  388441    2.5739616e+04   5.615761e+06   0.000000e+00   2666s
  388871    2.5739614e+04   3.104237e+06   0.000000e+00   2671s
  389161    2.5739613e+04   2.061548e+06   0.000000e+00   2675s
  389591    2.5739612e+04   1.301663e+07   0.000000e+00   2681s
  389851    2.5739611e+04   1.829165e+07   0.000000e+00   2685s
  390271    2.5739609e+04   5.387748e+06   0.000000e+00   2691s
  390701    2.5739608e+04   5.611643e+07   0.000000e+00   2697s
  391001    2.5739607e+04   3.163599e+07   0.000000e+00   2701s
  391291    2.5739605e+04   1.378042e+08   0.000000e+00   2705s
  391701    2.5739603e+04   9.590958e+07   0.000000e+00   2711s
  392011    2.5469611e+04   1.298521e+08   0.000000e+00   2715s
  392461    2.5469609e+04   4.165516e+06   0.000000e+00   2721s
  392761    2.5469608e+04   2.786163e+07   0.000000e+00   2726s
  393201    2.5469607e+04   4.773161e+07   0.000000e+00   2732s
  393501    2.5469605e+04   4.749056e+06   0.000000e+00   2736s
  393801    2.5469604e+04   4.849716e+07   0.000000e+00   2741s
  394111    2.5469603e+04   4.047140e+07   0.000000e+00   2745s
  394551    2.5469601e+04   2.229092e+07   0.000000e+00   2751s
  394851    2.5469600e+04   1.560554e+08   0.000000e+00   2756s
  395151    2.5469599e+04   6.844995e+06   0.000000e+00   2760s
  395601    2.5469597e+04   1.325518e+07   0.000000e+00   2767s
  395901    2.5469596e+04   4.466559e+07   0.000000e+00   2771s
  396201    2.5469595e+04   8.386081e+06   0.000000e+00   2775s
  396651    2.5469593e+04   1.727399e+07   0.000000e+00   2782s
  396931    2.5469592e+04   1.327411e+07   0.000000e+00   2786s
  397221    2.5469592e+04   1.326674e+08   0.000000e+00   2791s
  397641    2.5469590e+04   2.426191e+07   0.000000e+00   2797s
  397931    2.5469589e+04   7.166335e+06   0.000000e+00   2802s
  398231    2.5469588e+04   4.641430e+07   0.000000e+00   2806s
  398521    2.5469587e+04   1.666620e+08   0.000000e+00   2810s
  398961    2.5469585e+04   4.441016e+07   0.000000e+00   2817s
  399261    2.5469584e+04   1.669278e+07   0.000000e+00   2822s
  399581    2.5469583e+04   3.659644e+07   0.000000e+00   2826s
  399891    2.5469582e+04   6.818303e+07   0.000000e+00   2831s
  400191    2.5469581e+04   1.279688e+08   0.000000e+00   2836s
  400491    2.5469580e+04   2.512359e+07   0.000000e+00   2841s
  400801    2.5469578e+04   6.823124e+07   0.000000e+00   2845s
  401261    2.5469577e+04   4.386680e+07   0.000000e+00   2852s
  401561    2.5469575e+04   1.793676e+07   0.000000e+00   2857s
  401881    2.5469574e+04   3.097856e+06   0.000000e+00   2861s
  402181    2.5469573e+04   9.296763e+06   0.000000e+00   2866s
  402501    2.5469572e+04   4.515663e+06   0.000000e+00   2871s
  402801    2.5469571e+04   4.830300e+07   0.000000e+00   2876s
  403111    2.5469569e+04   6.403628e+07   0.000000e+00   2880s
  403421    2.5469568e+04   1.332661e+08   0.000000e+00   2885s
  403731    2.5469567e+04   4.655403e+07   0.000000e+00   2890s
  404191    2.5469565e+04   1.293380e+07   0.000000e+00   2897s
  404491    2.5469564e+04   4.245128e+06   0.000000e+00   2902s
  404801    2.5469563e+04   1.013243e+07   0.000000e+00   2907s
  405111    2.5469561e+04   1.513108e+07   0.000000e+00   2912s
  405431    2.5469560e+04   4.957780e+07   0.000000e+00   2917s
  405751    2.5469559e+04   6.231686e+07   0.000000e+00   2922s
  406071    2.5469558e+04   4.734276e+07   0.000000e+00   2928s
  406231    2.5469557e+04   2.483107e+08   0.000000e+00   2930s
  406551    2.5469556e+04   2.310675e+08   0.000000e+00   2935s
  406881    2.5469554e+04   1.664903e+07   0.000000e+00   2940s
  407201    2.5469553e+04   2.448414e+07   0.000000e+00   2946s
  407511    2.5469552e+04   6.018788e+08   0.000000e+00   2950s
  407831    2.5469551e+04   2.099262e+07   0.000000e+00   2956s
  408141    2.5469550e+04   4.917784e+06   0.000000e+00   2961s
  408461    2.5469549e+04   3.642040e+08   0.000000e+00   2965s
  408761    2.5469548e+04   1.179062e+07   0.000000e+00   2970s
  409071    2.5469547e+04   2.695429e+08   0.000000e+00   2975s
  409371    2.5469545e+04   5.365309e+07   0.000000e+00   2980s
  409671    2.5469544e+04   8.281903e+06   0.000000e+00   2985s
  410131    2.5469542e+04   8.353051e+07   0.000000e+00   2992s
  410421    2.5469541e+04   5.074708e+06   0.000000e+00   2997s
  410721    2.5469540e+04   1.694217e+07   0.000000e+00   3002s
  411021    2.5469539e+04   4.708918e+07   0.000000e+00   3007s
  411321    2.5469538e+04   7.265957e+08   0.000000e+00   3012s
  411621    2.5469537e+04   1.736466e+08   0.000000e+00   3017s
  411921    2.5469536e+04   1.560733e+07   0.000000e+00   3022s
  412231    2.5469535e+04   6.233238e+07   0.000000e+00   3027s
  412551    2.5469533e+04   3.897839e+07   0.000000e+00   3032s
  412861    2.5469532e+04   2.082179e+07   0.000000e+00   3037s
  413181    2.5469530e+04   6.260828e+07   0.000000e+00   3042s
  413491    2.5469529e+04   5.626761e+08   0.000000e+00   3047s
  413791    2.5469528e+04   7.033565e+07   0.000000e+00   3052s
  414091    2.5469528e+04   5.132792e+07   0.000000e+00   3057s
  414401    2.5469527e+04   1.050442e+08   0.000000e+00   3062s
  414701    2.5469525e+04   2.045270e+07   0.000000e+00   3067s
  415001    2.5469524e+04   5.701854e+06   0.000000e+00   3072s
  415321    2.5469523e+04   1.573537e+07   0.000000e+00   3077s
  415641    2.5469522e+04   5.554267e+06   0.000000e+00   3082s
  415801    2.5469521e+04   1.863523e+07   0.000000e+00   3085s
  416121    2.5469520e+04   2.796862e+07   0.000000e+00   3090s
  416451    2.5469519e+04   1.195180e+07   0.000000e+00   3095s
  416751    2.5469518e+04   1.120449e+07   0.000000e+00   3100s
  417051    2.5469517e+04   2.327713e+07   0.000000e+00   3106s
  417361    2.5469517e+04   2.369161e+07   0.000000e+00   3111s
  417671    2.5469516e+04   2.364033e+07   0.000000e+00   3116s
  417981    2.5469514e+04   2.828484e+07   0.000000e+00   3121s
  418301    2.5469513e+04   5.825457e+07   0.000000e+00   3126s
  418621    2.5469512e+04   2.550312e+07   0.000000e+00   3132s
  418941    2.5469511e+04   4.625562e+07   0.000000e+00   3137s
  419261    2.5469509e+04   1.849542e+07   0.000000e+00   3142s
  419571    2.5469508e+04   1.857681e+08   0.000000e+00   3147s
  419731    2.5469507e+04   3.163617e+07   0.000000e+00   3150s
  420041    2.5469506e+04   3.566192e+07   0.000000e+00   3155s
  420371    2.5469505e+04   6.846012e+07   0.000000e+00   3161s
  420691    2.5469503e+04   6.311756e+08   0.000000e+00   3166s
Warning: Markowitz tolerance tightened to 0.03125
  421021    2.5469501e+04   1.150843e+08   0.000000e+00   3171s
  421351    2.5469500e+04   3.378266e+07   0.000000e+00   3177s
  421681    2.5469498e+04   1.332044e+07   0.000000e+00   3182s
  422001    2.5469497e+04   4.569913e+08   0.000000e+00   3187s
  422161    2.5469497e+04   5.094624e+07   0.000000e+00   3190s
  422481    2.5469495e+04   2.211494e+08   0.000000e+00   3196s
  422791    2.5469494e+04   5.590180e+07   0.000000e+00   3201s
  423111    2.5469493e+04   2.177820e+08   0.000000e+00   3207s
  423441    2.5469491e+04   7.037045e+07   0.000000e+00   3212s
  423761    2.5469490e+04   1.954272e+08   0.000000e+00   3217s
  423921    2.5469489e+04   3.224383e+08   0.000000e+00   3220s
  424241    2.5469486e+04   4.839397e+07   0.000000e+00   3226s
  424561    2.5469484e+04   5.890287e+08   0.000000e+00   3231s
  424881    2.5469482e+04   3.337927e+08   0.000000e+00   3237s
  425201    2.5469480e+04   3.116248e+07   0.000000e+00   3242s
  425511    2.5469478e+04   8.818531e+07   0.000000e+00   3248s
  425671    2.5469477e+04   8.205928e+08   0.000000e+00   3250s
  426001    2.5469475e+04   1.055400e+07   0.000000e+00   3257s
  426171    2.5469474e+04   3.074590e+07   0.000000e+00   3261s
  426521    2.5469471e+04   5.173130e+07   0.000000e+00   3269s
  426691    2.5469470e+04   7.658325e+07   0.000000e+00   3273s
  426861    2.5469468e+04   6.818094e+09   0.000000e+00   3276s
  427041    2.5469466e+04   1.881555e+08   0.000000e+00   3280s
  427401    2.5469461e+04   1.777247e+08   0.000000e+00   3288s
  427571    2.5469458e+04   3.105633e+07   0.000000e+00   3291s
  427911    2.5469450e+04   3.167855e+08   0.000000e+00   3296s
  428261    2.5469431e+04   3.186160e+10   0.000000e+00   3302s
  428431    2.4899575e+04   9.756839e+07   0.000000e+00   3305s
  428761    2.4899570e+04   3.125303e+06   0.000000e+00   3311s
  429121    2.4899568e+04   3.863028e+06   0.000000e+00   3317s
  429291    2.4899568e+04   1.410875e+07   0.000000e+00   3320s
  429601    2.4899567e+04   3.238884e+06   0.000000e+00   3326s
  429931    2.4899566e+04   5.254054e+07   0.000000e+00   3332s
  430241    2.4899565e+04   4.874331e+07   0.000000e+00   3338s
  430401    2.4899564e+04   8.069444e+07   0.000000e+00   3341s
  430721    2.4899563e+04   2.580631e+07   0.000000e+00   3347s
  431031    2.4899562e+04   1.703154e+08   0.000000e+00   3353s
  431191    2.4899562e+04   2.144681e+08   0.000000e+00   3356s
  431521    2.4899561e+04   1.588419e+08   0.000000e+00   3362s
  431841    2.4899560e+04   1.126206e+07   0.000000e+00   3368s
  432011    2.4899559e+04   5.444069e+07   0.000000e+00   3371s
  432331    2.4899558e+04   2.537895e+07   0.000000e+00   3377s
  432501    2.4899558e+04   1.843178e+07   0.000000e+00   3381s
  432841    2.4899557e+04   3.122523e+07   0.000000e+00   3387s
  433161    2.4899556e+04   6.071307e+07   0.000000e+00   3393s
  433311    2.4899556e+04   1.438066e+07   0.000000e+00   3396s
  433641    2.4899555e+04   1.362069e+07   0.000000e+00   3402s
  433801    2.4899555e+04   1.567425e+07   0.000000e+00   3405s
  434121    2.4899554e+04   3.930814e+06   0.000000e+00   3411s
  434451    2.4899553e+04   1.383864e+08   0.000000e+00   3418s
  434621    2.4899552e+04   9.263994e+06   0.000000e+00   3421s
  434951    2.4899551e+04   5.868811e+06   0.000000e+00   3427s
  435271    2.4899551e+04   2.093273e+07   0.000000e+00   3433s
  435431    2.4899550e+04   3.017924e+07   0.000000e+00   3436s
  435741    2.4899550e+04   8.015138e+07   0.000000e+00   3442s
  436051    2.4899549e+04   6.380036e+07   0.000000e+00   3448s
  436211    2.4899549e+04   7.586526e+07   0.000000e+00   3451s
  436531    2.4899548e+04   3.580997e+07   0.000000e+00   3457s
  436691    2.4899548e+04   3.637163e+07   0.000000e+00   3460s
  437011    2.4899548e+04   2.219683e+07   0.000000e+00   3467s
  437181    2.4899547e+04   9.919002e+07   0.000000e+00   3470s
  437521    2.4899546e+04   4.766707e+08   0.000000e+00   3476s
  437841    2.4899546e+04   7.723758e+06   0.000000e+00   3483s
  438001    2.4899545e+04   1.559398e+08   0.000000e+00   3486s
  438351    2.4899545e+04   3.627254e+07   0.000000e+00   3492s
  438671    2.4899544e+04   1.673147e+07   0.000000e+00   3498s
  438831    2.4899543e+04   4.151401e+07   0.000000e+00   3501s
  439151    2.4899542e+04   5.605173e+06   0.000000e+00   3507s
  439311    2.4899542e+04   1.165013e+08   0.000000e+00   3510s
  439631    2.4899541e+04   2.855579e+07   0.000000e+00   3516s
  439971    2.4899540e+04   3.581151e+07   0.000000e+00   3522s
  440121    2.4899540e+04   2.983433e+09   0.000000e+00   3525s
  440441    2.4899539e+04   2.002510e+07   0.000000e+00   3532s
  440761    2.4899538e+04   3.429464e+07   0.000000e+00   3538s
  440921    2.4899538e+04   6.891482e+06   0.000000e+00   3541s
  441241    2.4899537e+04   4.522691e+07   0.000000e+00   3547s
  441401    2.4899536e+04   2.686370e+07   0.000000e+00   3550s
  441731    2.4899535e+04   3.751483e+07   0.000000e+00   3557s
  442061    2.4899535e+04   6.369503e+08   0.000000e+00   3563s
  442221    2.4899534e+04   3.425427e+07   0.000000e+00   3566s
  442541    2.4899533e+04   2.544440e+07   0.000000e+00   3572s
  442861    2.4899533e+04   1.772153e+06   0.000000e+00   3578s
  443021    2.4899533e+04   3.217684e+07   0.000000e+00   3581s
  443341    2.4899532e+04   6.523680e+07   0.000000e+00   3587s
  443501    2.4899532e+04   6.300488e+07   0.000000e+00   3590s
  443841    2.4899531e+04   2.705475e+07   0.000000e+00   3597s

Root relaxation: time limit, 444016 iterations, 3592.84 seconds

    Nodes    |    Current Node    |     Objective Bounds      |     Work
 Expl Unexpl |  Obj  Depth IntInf | Incumbent    BestBd   Gap | It/Node Time

     0     0          -    0      4680.00000 28200.0000   503%     - 3600s

Explored 0 nodes (444016 simplex iterations) in 3600.06 seconds
Thread count was 1 (of 40 available processors)

Solution count 1: 4680 

Time limit reached
Best objective 4.680000000000e+03, best bound 2.820000000000e+04, gap 502.5641%

----------

Best objective (UB): 28200.000
Best feasible solution (LB): 4680.000
Gap between the lower bound and upper bound: 502.564%

----------

Number of customers served: 39

Schedule for EV v0:
   [   0,  736) -> It remains parked at station s0.
   [ 736,  916) -> Service a request driving for customer c83 from s0 to s9.
   [ 916, tmax) -> It remains parked at station s9.

Schedule for EV v1:
   [   0,  912) -> It remains parked at station s0.
   [ 912, 1062) -> Service a request driving for customer c86 from s0 to s5.
   [1062, 1154) -> It remains parked at station s5.
   [1154, 1214) -> Service a request driving for customer c102 from s5 to s8.
   [1214, tmax) -> It remains parked at station s8.

Schedule for EV v2:
   [   0,  609) -> It remains parked at station s0.
   [ 609,  729) -> Service a request driving for customer c15 from s0 to s8.
   [ 729, tmax) -> It remains parked at station s8.

Schedule for EV v3:
   [   0,  914) -> It remains parked at station s0.
   [ 914, 1004) -> Service a request driving for customer c91 from s0 to s11.
   [1004, tmax) -> It remains parked at station s11.

Schedule for EV v4:
   [   0, 1025) -> It remains parked at station s0.
   [1025, 1085) -> Service a request driving for customer c9 from s0 to s7.
   [1085, tmax) -> It remains parked at station s7.

Schedule for EV v5:
   [   0, 1033) -> It remains parked at station s0.
   [1033, 1093) -> Service a request driving for customer c97 from s0 to s0.
   [1093, tmax) -> It remains parked at station s0.

Schedule for EV v6:
   [   0, tmax) -> It remains parked at station s0.

Schedule for EV v7:
   [   0, tmax) -> It remains parked at station s0.

Schedule for EV v8:
   [   0,  845) -> It remains parked at station s1.
   [ 845,  965) -> Service a request driving for customer c6 from s1 to s8.
   [ 965, tmax) -> It remains parked at station s8.

Schedule for EV v9:
   [   0,  853) -> It remains parked at station s1.
   [ 853,  973) -> Service a request driving for customer c17 from s1 to s3.
   [ 973, tmax) -> It remains parked at station s3.

Schedule for EV v10:
   [   0,  730) -> It remains parked at station s1.
   [ 730,  850) -> Service a request driving for customer c7 from s1 to s0.
   [ 850, 1087) -> It remains parked at station s0.
   [1087, 1147) -> Service a request driving for customer c7 from s0 to s1.
   [1147, 1273) -> It remains parked at station s1.
   [1273, 1363) -> Service a request driving for customer c74 from s1 to s4.
   [1363, tmax) -> It remains parked at station s4.

Schedule for EV v11:
   [   0, 1036) -> It remains parked at station s1.
   [1036, 1096) -> Service a request driving for customer c30 from s1 to s5.
   [1096, tmax) -> It remains parked at station s5.

Schedule for EV v12:
   [   0, tmax) -> It remains parked at station s1.

Schedule for EV v13:
   [   0, tmax) -> It remains parked at station s1.

Schedule for EV v14:
   [   0, tmax) -> It remains parked at station s1.

Schedule for EV v15:
   [   0, tmax) -> It remains parked at station s1.

Schedule for EV v16:
   [   0, tmax) -> It remains parked at station s1.

Schedule for EV v17:
   [   0,  552) -> It remains parked at station s2.
   [ 552,  642) -> Service a request driving for customer c27 from s2 to s11.
   [ 642, tmax) -> It remains parked at station s11.

Schedule for EV v18:
   [   0,  973) -> It remains parked at station s2.
   [ 973, 1063) -> Service a request driving for customer c81 from s2 to s11.
   [1063, tmax) -> It remains parked at station s11.

Schedule for EV v19:
   [   0, 1096) -> It remains parked at station s2.
   [1096, 1156) -> Service a request driving for customer c1 from s2 to s11.
   [1156, tmax) -> It remains parked at station s11.

Schedule for EV v20:
   [   0,  546) -> It remains parked at station s2.
   [ 546,  606) -> Service a request driving for customer c31 from s2 to s5.
   [ 606, tmax) -> It remains parked at station s5.

Schedule for EV v21:
   [   0,  606) -> It remains parked at station s3.
   [ 606,  666) -> Service a request driving for customer c105 from s3 to s4.
   [ 666, tmax) -> It remains parked at station s4.

Schedule for EV v22:
   [   0, tmax) -> It remains parked at station s3.

Schedule for EV v23:
   [   0, tmax) -> It remains parked at station s3.

Schedule for EV v24:
   [   0, tmax) -> It remains parked at station s3.

Schedule for EV v25:
   [   0, tmax) -> It remains parked at station s3.

Schedule for EV v26:
   [   0, tmax) -> It remains parked at station s3.

Schedule for EV v27:
   [   0, tmax) -> It remains parked at station s3.

Schedule for EV v28:
   [   0, 1267) -> It remains parked at station s4.
   [1267, 1567) -> Service a request driving for customer c89 from s4 to s6.
   [1567, tmax) -> It remains parked at station s6.

Schedule for EV v29:
   [   0, 1266) -> It remains parked at station s4.
   [1266, 1536) -> Service a request driving for customer c72 from s4 to s11.
   [1536, tmax) -> It remains parked at station s11.

Schedule for EV v30:
   [   0, 1027) -> It remains parked at station s4.
   [1027, 1237) -> Service a request driving for customer c25 from s4 to s3.
   [1237, tmax) -> It remains parked at station s3.

Schedule for EV v31:
   [   0,  974) -> It remains parked at station s4.
   [ 974, 1124) -> Service a request driving for customer c39 from s4 to s7.
   [1124, tmax) -> It remains parked at station s7.

Schedule for EV v32:
   [   0, 1085) -> It remains parked at station s4.
   [1085, 1205) -> Service a request driving for customer c80 from s4 to s11.
   [1205, tmax) -> It remains parked at station s11.

Schedule for EV v33:
   [   0, tmax) -> It remains parked at station s4.

Schedule for EV v34:
   [   0, tmax) -> It remains parked at station s4.

Schedule for EV v35:
   [   0, tmax) -> It remains parked at station s4.

Schedule for EV v36:
   [   0, tmax) -> It remains parked at station s4.

Schedule for EV v37:
   [   0,  555) -> It remains parked at station s5.
   [ 555,  735) -> Service a request driving for customer c61 from s5 to s0.
   [ 735, 1087) -> It remains parked at station s0.
   [1087, 1357) -> Service a request driving for customer c61 from s0 to s1.
   [1357, tmax) -> It remains parked at station s1.

Schedule for EV v38:
   [   0,  909) -> It remains parked at station s5.
   [ 909,  999) -> Service a request driving for customer c32 from s5 to s1.
   [ 999, 1387) -> It remains parked at station s1.
   [1387, 1417) -> Service a request driving for customer c32 from s1 to s1.
   [1417, tmax) -> It remains parked at station s1.

Schedule for EV v39:
   [   0, tmax) -> It remains parked at station s5.

Schedule for EV v40:
   [   0,  613) -> It remains parked at station s6.
   [ 613,  763) -> Service a request driving for customer c69 from s6 to s0.
   [ 763,  850) -> It remains parked at station s0.
   [ 850, 1000) -> Service a request driving for customer c73 from s0 to s1.
   [1000, tmax) -> It remains parked at station s1.

Schedule for EV v41:
   [   0, 1330) -> It remains parked at station s6.
   [1330, 1420) -> Service a request driving for customer c47 from s6 to s10.
   [1420, tmax) -> It remains parked at station s10.

Schedule for EV v42:
   [   0,  726) -> It remains parked at station s6.
   [ 726,  786) -> Service a request driving for customer c67 from s6 to s2.
   [ 786, tmax) -> It remains parked at station s2.

Schedule for EV v43:
   [   0,  915) -> It remains parked at station s6.
   [ 915,  975) -> Service a request driving for customer c98 from s6 to s0.
   [ 975, tmax) -> It remains parked at station s0.

Schedule for EV v44:
   [   0, tmax) -> It remains parked at station s6.

Schedule for EV v45:
   [   0, tmax) -> It remains parked at station s6.

Schedule for EV v46:
   [   0, tmax) -> It remains parked at station s6.

Schedule for EV v47:
   [   0, 1265) -> It remains parked at station s7.
   [1265, 1355) -> Service a request driving for customer c84 from s7 to s1.
   [1355, tmax) -> It remains parked at station s1.

Schedule for EV v48:
   [   0,  790) -> It remains parked at station s7.
   [ 790,  880) -> Service a request driving for customer c115 from s7 to s5.
   [ 880, tmax) -> It remains parked at station s5.

Schedule for EV v49:
   [   0,  605) -> It remains parked at station s7.
   [ 605,  665) -> Service a request driving for customer c96 from s7 to s4.
   [ 665, tmax) -> It remains parked at station s4.

Schedule for EV v50:
   [   0, tmax) -> It remains parked at station s7.

Schedule for EV v51:
   [   0, tmax) -> It remains parked at station s7.

Schedule for EV v52:
   [   0, tmax) -> It remains parked at station s7.

Schedule for EV v53:
   [   0, tmax) -> It remains parked at station s7.

Schedule for EV v54:
   [   0, tmax) -> It remains parked at station s7.

Schedule for EV v55:
   [   0, tmax) -> It remains parked at station s7.

Schedule for EV v56:
   [   0, tmax) -> It remains parked at station s8.

Schedule for EV v57:
   [   0, tmax) -> It remains parked at station s8.

Schedule for EV v58:
   [   0, tmax) -> It remains parked at station s8.

Schedule for EV v59:
   [   0,  550) -> It remains parked at station s9.
   [ 550,  580) -> Service a request driving for customer c41 from s9 to s11.
   [ 580, tmax) -> It remains parked at station s11.

Schedule for EV v60:
   [   0, tmax) -> It remains parked at station s9.

Schedule for EV v61:
   [   0, tmax) -> It remains parked at station s9.

Schedule for EV v62:
   [   0, tmax) -> It remains parked at station s9.

Schedule for EV v63:
   [   0, tmax) -> It remains parked at station s9.

Schedule for EV v64:
   [   0, tmax) -> It remains parked at station s9.

Schedule for EV v65:
   [   0, tmax) -> It remains parked at station s9.

Schedule for EV v66:
   [   0, tmax) -> It remains parked at station s9.

Schedule for EV v67:
   [   0, tmax) -> It remains parked at station s9.

Schedule for EV v68:
   [   0, tmax) -> It remains parked at station s9.

Schedule for EV v69:
   [   0, tmax) -> It remains parked at station s9.

Schedule for EV v70:
   [   0, tmax) -> It remains parked at station s10.

Schedule for EV v71:
   [   0, tmax) -> It remains parked at station s10.

Schedule for EV v72:
   [   0, tmax) -> It remains parked at station s10.

Schedule for EV v73:
   [   0, tmax) -> It remains parked at station s10.

Schedule for EV v74:
   [   0,  971) -> It remains parked at station s11.
   [ 971, 1211) -> Service a request driving for customer c76 from s11 to s0.
   [1211, tmax) -> It remains parked at station s0.

Schedule for EV v75:
   [   0,  851) -> It remains parked at station s11.
   [ 851, 1001) -> Service a request driving for customer c28 from s11 to s10.
   [1001, tmax) -> It remains parked at station s10.

Schedule for EV v76:
   [   0,  616) -> It remains parked at station s11.
   [ 616,  676) -> Service a request driving for customer c65 from s11 to s6.
   [ 676,  909) -> It remains parked at station s6.
   [ 909,  969) -> Service a request driving for customer c65 from s6 to s5.
   [ 969, 1036) -> It remains parked at station s5.
   [1036, 1096) -> Service a request driving for customer c75 from s5 to s3.
   [1096, tmax) -> It remains parked at station s3.

Schedule for EV v77:
   [   0,  854) -> It remains parked at station s11.
   [ 854,  884) -> Service a request driving for customer c18 from s11 to s1.
   [ 884, tmax) -> It remains parked at station s1.

Schedule for EV v78:
   [   0,  975) -> It remains parked at station s11.
   [ 975, 1005) -> Service a request driving for customer c95 from s11 to s9.
   [1005, tmax) -> It remains parked at station s9.

Schedule for EV v79:
   [   0, tmax) -> It remains parked at station s11.

Schedule for EV v80:
   [   0, tmax) -> It remains parked at station s11.

Schedule for EV v81:
   [   0, tmax) -> It remains parked at station s11.

Schedule for EV v82:
   [   0, tmax) -> It remains parked at station s11.

Schedule for EV v83:
   [   0, tmax) -> It remains parked at station s11.

Schedule for EV v84:
   [   0, tmax) -> It remains parked at station s11.

Schedule for EV v85:
   [   0, tmax) -> It remains parked at station s11.

Schedule for EV v86:
   [   0, tmax) -> It remains parked at station s11.

Schedule for EV v87:
   [   0, tmax) -> It remains parked at station s11.

Set of satisfied customers
   {c1, c6, c7, c9, c15, c17, c18, c25, c27, c28, c30, c31, c32, c39, c41, c47, c61, c65, c67, c69, c72, c73, c74, c75, c76, c80, c81, c83, c84, c86, c89, c91, c95, c96, c97, c98, c102, c105, c115}

