Academic license - for non-commercial use only
Gurobi Optimizer version 9.0.3 build v9.0.3rc0 (linux64)
Optimize a model with 84390 rows, 56585 columns and 295878 nonzeros
Model fingerprint: 0xa481129b
Variable types: 28730 continuous, 27855 integer (27855 binary)
Coefficient statistics:
  Matrix range     [1e+00, 4e+06]
  Objective range  [3e+01, 7e+02]
  Bounds range     [1e+00, 2e+06]
  RHS range        [1e+00, 2e+06]

Loaded user MIP start with objective 1260

Presolve removed 81753 rows and 54046 columns
Presolve time: 0.76s
Presolved: 2637 rows, 2539 columns, 23290 nonzeros
Variable types: 0 continuous, 2539 integer (1275 binary)

Root relaxation: objective 3.975000e+03, 2152 iterations, 0.18 seconds

    Nodes    |    Current Node    |     Objective Bounds      |     Work
 Expl Unexpl |  Obj  Depth IntInf | Incumbent    BestBd   Gap | It/Node Time

     0     0 3975.00000    0  330 1260.00000 3975.00000   215%     -    1s
     0     0 3915.00000    0  431 1260.00000 3915.00000   211%     -    1s
H    0     0                    3630.0000000 3915.00000  7.85%     -    1s
     0     0 3915.00000    0  383 3630.00000 3915.00000  7.85%     -    1s
     0     0 3900.00000    0  291 3630.00000 3900.00000  7.44%     -    1s
H    0     0                    3900.0000000 3900.00000  0.00%     -    1s
     0     0 3900.00000    0  289 3900.00000 3900.00000  0.00%     -    1s

Cutting planes:
  Gomory: 5
  Implied bound: 346
  MIR: 1
  Zero half: 1
  RLT: 3
  Relax-and-lift: 4

Explored 1 nodes (3828 simplex iterations) in 1.32 seconds
Thread count was 1 (of 40 available processors)

Solution count 3: 3900 3630 1260 

Optimal solution found (tolerance 1.00e-04)
Best objective 3.900000000000e+03, best bound 3.900000000000e+03, gap 0.0000%

----------

Best objective (UB): 3900.000
Best feasible solution (LB): 3900.000
Gap between the lower bound and upper bound: 0.000%

----------

Number of customers served: 18

Schedule for EV v0:
   [   0,  733) -> It remains parked at station s0, which was charging for charging.
   [ 733,  763) -> Service a request driving for customer c2 from s0 to s10.
   [ 763,  971) -> It remains parked at station s10, which was charging for charging.
   [ 971, 1001) -> Service a request driving for customer c30 from s10 to s11.
   [1001, 1271) -> It remains parked at station s11, which was charging for charging.
   [1271, 1331) -> Service a request driving for customer c30 from s11 to s7.
   [1331, 1625) -> It remains parked at station s7, which was charging for charging.

Schedule for EV v1:
   [   0,  668) -> It remains parked at station s0, which was charging for charging.
   [ 668,  788) -> Service a request driving for customer c19 from s0 to s7.
   [ 788,  853) -> It remains parked at station s7, which was charging for charging.
   [ 853,  913) -> Service a request driving for customer c19 from s7 to s2.
   [ 913,  970) -> It remains parked at station s2, which was charging for charging.
   [ 970, 1030) -> Service a request driving for customer c25 from s2 to s8.
   [1030, 1146) -> It remains parked at station s8, which was charging for charging.
   [1146, 1236) -> Service a request driving for customer c19 from s8 to s2.
   [1236, 1390) -> It remains parked at station s2, which was charging for charging.
   [1390, 1420) -> Service a request driving for customer c2 from s2 to s1.
   [1420, 1625) -> It remains parked at station s1, which was charging for charging.

Schedule for EV v2:
   [   0,  725) -> It remains parked at station s0, which was charging for charging.
   [ 725,  755) -> Service a request driving for customer c25 from s0 to s6.
   [ 755,  973) -> It remains parked at station s6, which was charging for charging.
   [ 973, 1093) -> Service a request driving for customer c34 from s6 to s6.
   [1093, 1625) -> It remains parked at station s6, which was charging for charging.

Schedule for EV v3:
   [   0,  845) -> It remains parked at station s2, which was charging for charging.
   [ 845, 1115) -> Service a request driving for customer c31 from s2 to s2.
   [1115, 1625) -> It remains parked at station s2, which was charging for charging.

Schedule for EV v4:
   [   0,  613) -> It remains parked at station s2, which was charging for charging.
   [ 613,  643) -> Service a request driving for customer c1 from s2 to s4.
   [ 643,  788) -> It remains parked at station s4, which was charging for charging.
   [ 788,  938) -> Service a request driving for customer c44 from s4 to s2.
   [ 938,  968) -> It remains parked at station s2, which was charging for charging.
   [ 968, 1298) -> Service a request driving for customer c4 from s2 to s11.
   [1298, 1333) -> It remains parked at station s11, which was charging for charging.
   [1333, 1483) -> Service a request driving for customer c45 from s11 to s1.
   [1483, 1625) -> It remains parked at station s1, which was charging for charging.

Schedule for EV v5:
   [   0,  547) -> It remains parked at station s3, which was charging for charging.
   [ 547,  817) -> Service a request driving for customer c30 from s3 to s4.
   [ 817, 1154) -> It remains parked at station s4, which was charging for charging.
   [1154, 1424) -> Service a request driving for customer c31 from s4 to s1.
   [1424, 1625) -> It remains parked at station s1, which was charging for charging.

Schedule for EV v6:
   [   0,  966) -> It remains parked at station s3, which was charging for charging.
   [ 966, 1176) -> Service a request driving for customer c48 from s3 to s11.
   [1176, 1208) -> It remains parked at station s11, which was charging for charging.
   [1208, 1238) -> Service a request driving for customer c39 from s11 to s0.
   [1238, 1271) -> It remains parked at station s0, which was charging for charging.
   [1271, 1361) -> Service a request driving for customer c29 from s0 to s8.
   [1361, 1625) -> It remains parked at station s8, which was charging for charging.

Schedule for EV v7:
   [   0,  606) -> It remains parked at station s4, which was charging for charging.
   [ 606,  846) -> Service a request driving for customer c34 from s4 to s0.
   [ 846, 1030) -> It remains parked at station s0, which was charging for charging.
   [1030, 1090) -> Service a request driving for customer c45 from s0 to s3.
   [1090, 1625) -> It remains parked at station s3, which was charging for charging.

Schedule for EV v8:
   [   0,  552) -> It remains parked at station s4, which was charging for charging.
   [ 552,  612) -> Service a request driving for customer c23 from s4 to s1.
   [ 612,  847) -> It remains parked at station s1, which was charging for charging.
   [ 847, 1027) -> Service a request driving for customer c2 from s1 to s3.
   [1027, 1089) -> It remains parked at station s3, which was charging for charging.
   [1089, 1269) -> Service a request driving for customer c2 from s3 to s1.
   [1269, 1333) -> It remains parked at station s1, which was charging for charging.
   [1333, 1423) -> Service a request driving for customer c0 from s1 to s6.
   [1423, 1625) -> It remains parked at station s6, which was charging for charging.

Schedule for EV v9:
   [   0,  976) -> It remains parked at station s7, which was charging for charging.
   [ 976, 1036) -> Service a request driving for customer c1 from s7 to s9.
   [1036, 1625) -> It remains parked at station s9, which was charging for charging.

Schedule for EV v10:
   [   0,  972) -> It remains parked at station s8, which was charging for charging.
   [ 972, 1062) -> Service a request driving for customer c16 from s8 to s1.
   [1062, 1207) -> It remains parked at station s1, which was charging for charging.
   [1207, 1267) -> Service a request driving for customer c45 from s1 to s5.
   [1267, 1625) -> It remains parked at station s5, which was charging for charging.

Schedule for EV v11:
   [   0, 1149) -> It remains parked at station s8, which was charging for charging.
   [1149, 1179) -> Service a request driving for customer c26 from s8 to s4.
   [1179, 1269) -> It remains parked at station s4, which was charging for charging.
   [1269, 1329) -> Service a request driving for customer c16 from s4 to s2.
   [1329, 1625) -> It remains parked at station s2, which was charging for charging.

Schedule for EV v12:
   [   0,  975) -> It remains parked at station s10, which was charging for charging.
   [ 975, 1275) -> Service a request driving for customer c38 from s10 to s3.
   [1275, 1625) -> It remains parked at station s3, which was charging for charging.

Schedule for EV v13:
   [   0, 1625) -> It remains parked at station s10, which was charging for charging.

Schedule for EV v14:
   [   0,  672) -> It remains parked at station s11, which was charging for charging.
   [ 672,  732) -> Service a request driving for customer c38 from s11 to s9.
   [ 732, 1625) -> It remains parked at station s9, which was charging for charging.

Set of satisfied customers
   {c0, c1, c2, c4, c16, c19, c23, c25, c26, c29, c30, c31, c34, c38, c39, c44, c45, c48}

