Academic license - for non-commercial use only
Gurobi Optimizer version 9.0.3 build v9.0.3rc0 (linux64)
Optimize a model with 98181 rows, 65740 columns and 352792 nonzeros
Model fingerprint: 0x26514ce2
Variable types: 33235 continuous, 32505 integer (32505 binary)
Coefficient statistics:
  Matrix range     [1e+00, 4e+06]
  Objective range  [3e+01, 6e+02]
  Bounds range     [1e+00, 2e+06]
  RHS range        [1e+00, 2e+06]

Loaded user MIP start with objective 1560

Presolve removed 94556 rows and 62328 columns
Presolve time: 1.07s
Presolved: 3625 rows, 3412 columns, 31823 nonzeros
Variable types: 2 continuous, 3410 integer (1663 binary)

Root relaxation: objective 5.670000e+03, 3769 iterations, 0.46 seconds

    Nodes    |    Current Node    |     Objective Bounds      |     Work
 Expl Unexpl |  Obj  Depth IntInf | Incumbent    BestBd   Gap | It/Node Time

     0     0 5670.00000    0  598 1560.00000 5670.00000   263%     -    1s
H    0     0                    3900.0000000 5670.00000  45.4%     -    1s
H    0     0                    5580.0000000 5670.00000  1.61%     -    1s
     0     0 5670.00000    0  557 5580.00000 5670.00000  1.61%     -    2s
     0     0 5610.00000    0  173 5580.00000 5610.00000  0.54%     -    2s
H    0     0                    5610.0000000 5610.00000  0.00%     -    2s
     0     0 5610.00000    0  173 5610.00000 5610.00000  0.00%     -    2s

Explored 1 nodes (7619 simplex iterations) in 2.55 seconds
Thread count was 1 (of 40 available processors)

Solution count 4: 5610 5580 3900 1560 

Optimal solution found (tolerance 1.00e-04)
Best objective 5.610000000000e+03, best bound 5.610000000000e+03, gap 0.0000%

----------

Best objective (UB): 5610.000
Best feasible solution (LB): 5610.000
Gap between the lower bound and upper bound: 0.000%

----------

Number of customers served: 23

Schedule for EV v0:
   [   0,  908) -> It remains parked at station s0, which was charging for charging.
   [ 908,  998) -> Service a request driving for customer c26 from s0 to s4.
   [ 998, 1028) -> It remains parked at station s4, which was charging for charging.
   [1028, 1088) -> Service a request driving for customer c51 from s4 to s0.
   [1088, 1095) -> It remains parked at station s0, which was charging for charging.
   [1095, 1335) -> Service a request driving for customer c42 from s0 to s7.
   [1335, 1754) -> It remains parked at station s7, which was charging for charging.

Schedule for EV v1:
   [   0,  795) -> It remains parked at station s0, which was charging for charging.
   [ 795,  855) -> Service a request driving for customer c19 from s0 to s1.
   [ 855,  968) -> It remains parked at station s1, which was charging for charging.
   [ 968, 1148) -> Service a request driving for customer c66 from s1 to s9.
   [1148, 1396) -> It remains parked at station s9, which was charging for charging.
   [1396, 1456) -> Service a request driving for customer c47 from s9 to s4.
   [1456, 1754) -> It remains parked at station s4, which was charging for charging.

Schedule for EV v2:
   [   0,  667) -> It remains parked at station s0, which was charging for charging.
   [ 667,  697) -> Service a request driving for customer c23 from s0 to s6.
   [ 697,  725) -> It remains parked at station s6, which was charging for charging.
   [ 725,  755) -> Service a request driving for customer c40 from s6 to s4.
   [ 755,  787) -> It remains parked at station s4, which was charging for charging.
   [ 787,  847) -> Service a request driving for customer c30 from s4 to s10.
   [ 847, 1754) -> It remains parked at station s10, which was charging for charging.

Schedule for EV v3:
   [   0,  795) -> It remains parked at station s2, which was charging for charging.
   [ 795,  885) -> Service a request driving for customer c4 from s2 to s11.
   [ 885, 1325) -> It remains parked at station s11, which was charging for charging.
   [1325, 1385) -> Service a request driving for customer c15 from s11 to s1.
   [1385, 1394) -> It remains parked at station s1, which was charging for charging.
   [1394, 1754) -> Service a request driving for customer c25 from s1 to s7.

Schedule for EV v4:
   [   0,  667) -> It remains parked at station s3, which was charging for charging.
   [ 667,  787) -> Service a request driving for customer c13 from s3 to s9.
   [ 787, 1025) -> It remains parked at station s9, which was charging for charging.
   [1025, 1385) -> Service a request driving for customer c54 from s9 to s3.
   [1385, 1754) -> It remains parked at station s3, which was charging for charging.

Schedule for EV v5:
   [   0,  732) -> It remains parked at station s4, which was charging for charging.
   [ 732,  972) -> Service a request driving for customer c54 from s4 to s5.
   [ 972, 1026) -> It remains parked at station s5, which was charging for charging.
   [1026, 1236) -> Service a request driving for customer c40 from s5 to s1.
   [1236, 1330) -> It remains parked at station s1, which was charging for charging.
   [1330, 1390) -> Service a request driving for customer c37 from s1 to s0.
   [1390, 1394) -> It remains parked at station s0, which was charging for charging.
   [1394, 1514) -> Service a request driving for customer c50 from s0 to s10.
   [1514, 1754) -> It remains parked at station s10, which was charging for charging.

Schedule for EV v6:
   [   0,  850) -> It remains parked at station s6, which was charging for charging.
   [ 850,  910) -> Service a request driving for customer c13 from s6 to s0.
   [ 910, 1035) -> It remains parked at station s0, which was charging for charging.
   [1035, 1215) -> Service a request driving for customer c14 from s0 to s1.
   [1215, 1333) -> It remains parked at station s1, which was charging for charging.
   [1333, 1633) -> Service a request driving for customer c59 from s1 to s1.
   [1633, 1754) -> It remains parked at station s1, which was charging for charging.

Schedule for EV v7:
   [   0,  845) -> It remains parked at station s7, which was charging for charging.
   [ 845,  905) -> Service a request driving for customer c58 from s7 to s4.
   [ 905, 1096) -> It remains parked at station s4, which was charging for charging.
   [1096, 1276) -> Service a request driving for customer c4 from s4 to s3.
   [1276, 1754) -> It remains parked at station s3, which was charging for charging.

Schedule for EV v8:
   [   0,  728) -> It remains parked at station s7, which was charging for charging.
   [ 728,  938) -> Service a request driving for customer c66 from s7 to s8.
   [ 938,  969) -> It remains parked at station s8, which was charging for charging.
   [ 969, 1029) -> Service a request driving for customer c55 from s8 to s1.
   [1029, 1267) -> It remains parked at station s1, which was charging for charging.
   [1267, 1447) -> Service a request driving for customer c30 from s1 to s1.
   [1447, 1754) -> It remains parked at station s1, which was charging for charging.

Schedule for EV v9:
   [   0,  426) -> It remains parked at station s8, which was charging for charging.
   [ 426,  486) -> Service a request driving for customer c15 from s8 to s1.
   [ 486,  551) -> It remains parked at station s1, which was charging for charging.
   [ 551,  641) -> Service a request driving for customer c52 from s1 to s1.
   [ 641,  851) -> It remains parked at station s1, which was charging for charging.
   [ 851, 1121) -> Service a request driving for customer c15 from s1 to s2.
   [1121, 1332) -> It remains parked at station s2, which was charging for charging.
   [1332, 1392) -> Service a request driving for customer c23 from s2 to s2.
   [1392, 1754) -> It remains parked at station s2, which was charging for charging.

Schedule for EV v10:
   [   0,  425) -> It remains parked at station s8, which was charging for charging.
   [ 425,  485) -> Service a request driving for customer c59 from s8 to s6.
   [ 485,  855) -> It remains parked at station s6, which was charging for charging.
   [ 855,  885) -> Service a request driving for customer c51 from s6 to s5.
   [ 885,  967) -> It remains parked at station s5, which was charging for charging.
   [ 967, 1327) -> Service a request driving for customer c50 from s5 to s4.
   [1327, 1754) -> It remains parked at station s4, which was charging for charging.

Schedule for EV v11:
   [   0,  850) -> It remains parked at station s10, which was charging for charging.
   [ 850, 1060) -> Service a request driving for customer c67 from s10 to s7.
   [1060, 1096) -> It remains parked at station s7, which was charging for charging.
   [1096, 1216) -> Service a request driving for customer c52 from s7 to s6.
   [1216, 1754) -> It remains parked at station s6, which was charging for charging.

Schedule for EV v12:
   [   0, 1754) -> It remains parked at station s10, which was charging for charging.

Schedule for EV v13:
   [   0,  849) -> It remains parked at station s11, which was charging for charging.
   [ 849, 1029) -> Service a request driving for customer c42 from s11 to s6.
   [1029, 1209) -> It remains parked at station s6, which was charging for charging.
   [1209, 1389) -> Service a request driving for customer c69 from s6 to s1.
   [1389, 1754) -> It remains parked at station s1, which was charging for charging.

Schedule for EV v14:
   [   0,  547) -> It remains parked at station s11, which was charging for charging.
   [ 547,  607) -> Service a request driving for customer c58 from s11 to s9.
   [ 607,  725) -> It remains parked at station s9, which was charging for charging.
   [ 725,  785) -> Service a request driving for customer c67 from s9 to s0.
   [ 785,  913) -> It remains parked at station s0, which was charging for charging.
   [ 913, 1123) -> Service a request driving for customer c47 from s0 to s1.
   [1123, 1754) -> It remains parked at station s1, which was charging for charging.

Set of satisfied customers
   {c4, c13, c14, c15, c19, c23, c25, c26, c30, c37, c40, c42, c47, c50, c51, c52, c54, c55, c58, c59, c66, c67, c69}

