Academic license - for non-commercial use only
Gurobi Optimizer version 9.0.3 build v9.0.3rc0 (linux64)
Optimize a model with 116871 rows, 78215 columns and 422798 nonzeros
Model fingerprint: 0x2f17a877
Variable types: 39485 continuous, 38730 integer (38730 binary)
Coefficient statistics:
  Matrix range     [1e+00, 4e+06]
  Objective range  [3e+01, 6e+02]
  Bounds range     [1e+00, 2e+06]
  RHS range        [1e+00, 2e+06]

Loaded user MIP start with objective 1590

Presolve removed 110797 rows and 72367 columns
Presolve time: 1.25s
Presolved: 6074 rows, 5848 columns, 57225 nonzeros
Variable types: 0 continuous, 5848 integer (3534 binary)

Root simplex log...

Iteration    Objective       Primal Inf.    Dual Inf.      Time
   11304    7.6149069e+03   4.569177e+04   0.000000e+00      5s
   14352    7.6107692e+03   0.000000e+00   0.000000e+00      6s

Root relaxation: objective 7.610769e+03, 14352 iterations, 5.15 seconds

    Nodes    |    Current Node    |     Objective Bounds      |     Work
 Expl Unexpl |  Obj  Depth IntInf | Incumbent    BestBd   Gap | It/Node Time

     0     0 7610.76923    0 1806 1590.00000 7610.76923   379%     -    8s
H    0     0                    5910.0000000 7610.76923  28.8%     -    8s
     0     0 7578.81060    0 1967 5910.00000 7578.81060  28.2%     -   10s
H    0     0                    6420.0000000 7578.81060  18.1%     -   10s
     0     0 7574.21326    0 1768 6420.00000 7574.21326  18.0%     -   13s
     0     0 7574.21326    0 1651 6420.00000 7574.21326  18.0%     -   13s
     0     0 7566.77191    0 1774 6420.00000 7566.77191  17.9%     -   15s
     0     0 7553.15752    0 1779 6420.00000 7553.15752  17.7%     -   18s
     0     0 7552.50011    0 1734 6420.00000 7552.50011  17.6%     -   19s
     0     0 7551.90869    0 1670 6420.00000 7551.90869  17.6%     -   20s
     0     0 7551.85791    0 1697 6420.00000 7551.85791  17.6%     -   20s
     0     0 7551.85791    0 1568 6420.00000 7551.85791  17.6%     -   20s
     0     0 7551.85791    0 1776 6420.00000 7551.85791  17.6%     -   21s
     0     0 7551.85791    0 1772 6420.00000 7551.85791  17.6%     -   21s
     0     0 7551.85791    0 1810 6420.00000 7551.85791  17.6%     -   22s
     0     0 7551.85791    0 1739 6420.00000 7551.85791  17.6%     -   23s
     0     0 7551.85791    0 1816 6420.00000 7551.85791  17.6%     -   25s
     0     0 7551.85791    0 1807 6420.00000 7551.85791  17.6%     -   26s
     0     2 7551.85791    0 1802 6420.00000 7551.85791  17.6%     -   31s
     7     9 7386.39344    5 1564 6420.00000 7551.85791  17.6%  1861   35s
H   27    16                    6750.0000000 7551.85791  11.9%  1034   39s
    30    15 7486.38893    1 1518 6750.00000 7547.51722  11.8%  1396   44s
    32    17 7429.77090    3 1717 6750.00000 7547.51722  11.8%  1373   45s
H   40    23                    7260.0000000 7547.51722  3.96%  1353   49s
    46    21 7530.12424    4 1638 7260.00000 7546.55757  3.95%  1219   50s
H   56    27                    7350.0000000 7546.55757  2.67%  1231   55s
    83    26     cutoff    5      7350.00000 7541.23664  2.60%  1052   60s
    87    28 7494.37500    7 1727 7350.00000 7530.12424  2.45%  1158   65s
   106    28 7425.00000    6 1249 7350.00000 7529.98987  2.45%  1107   70s
   124    28 infeasible    8      7350.00000 7516.92830  2.27%  1072   75s
*  155    18              21    7410.0000000 7500.00000  1.21%   962   79s
   161    16     cutoff   10      7410.00000 7500.00000  1.21%   931   80s
*  168     3              16    7500.0000000 7500.00000  0.00%   895   80s

Cutting planes:
  Gomory: 13
  Implied bound: 584
  Clique: 1
  MIR: 9
  StrongCG: 4
  Inf proof: 1
  Zero half: 4
  RLT: 115
  Relax-and-lift: 15

Explored 169 nodes (200396 simplex iterations) in 80.37 seconds
Thread count was 1 (of 40 available processors)

Solution count 8: 7500 7410 7350 ... 1590

Optimal solution found (tolerance 1.00e-04)
Best objective 7.500000000000e+03, best bound 7.500000000000e+03, gap 0.0000%

----------

Best objective (UB): 7500.000
Best feasible solution (LB): 7500.000
Gap between the lower bound and upper bound: 0.000%

----------

Number of customers served: 32

Schedule for EV v0:
   [   0,  606) -> It remains parked at station s0, which was charging for charging.
   [ 606,  666) -> Service a request driving for customer c31 from s0 to s0.
   [ 666,  669) -> It remains parked at station s0, which was charging for charging.
   [ 669,  729) -> Service a request driving for customer c18 from s0 to s1.
   [ 729,  845) -> It remains parked at station s1, which was charging for charging.
   [ 845,  875) -> Service a request driving for customer c24 from s1 to s6.
   [ 875, 1095) -> It remains parked at station s6, which was charging for charging.
   [1095, 1215) -> Service a request driving for customer c3 from s6 to s2.
   [1215, 1265) -> It remains parked at station s2, which was charging for charging.
   [1265, 1325) -> Service a request driving for customer c46 from s2 to s1.
   [1325, 1326) -> It remains parked at station s1, which was charging for charging.
   [1326, 1566) -> Service a request driving for customer c50 from s1 to s2.
   [1566, 1719) -> It remains parked at station s2, which was charging for charging.

Schedule for EV v1:
   [   0,  605) -> It remains parked at station s0, which was charging for charging.
   [ 605,  665) -> Service a request driving for customer c20 from s0 to s11.
   [ 665,  667) -> It remains parked at station s11, which was charging for charging.
   [ 667,  817) -> Service a request driving for customer c69 from s11 to s1.
   [ 817,  846) -> It remains parked at station s1, which was charging for charging.
   [ 846,  966) -> Service a request driving for customer c74 from s1 to s10.
   [ 966, 1029) -> It remains parked at station s10, which was charging for charging.
   [1029, 1149) -> Service a request driving for customer c33 from s10 to s3.
   [1149, 1152) -> It remains parked at station s3, which was charging for charging.
   [1152, 1512) -> Service a request driving for customer c34 from s3 to s1.
   [1512, 1719) -> It remains parked at station s1, which was charging for charging.

Schedule for EV v2:
   [   0,  666) -> It remains parked at station s0, which was charging for charging.
   [ 666,  726) -> Service a request driving for customer c21 from s0 to s1.
   [ 726, 1031) -> It remains parked at station s1, which was charging for charging.
   [1031, 1091) -> Service a request driving for customer c55 from s1 to s0.
   [1091, 1209) -> It remains parked at station s0, which was charging for charging.
   [1209, 1329) -> Service a request driving for customer c11 from s0 to s11.
   [1329, 1392) -> It remains parked at station s11, which was charging for charging.
   [1392, 1422) -> Service a request driving for customer c46 from s11 to s0.
   [1422, 1719) -> It remains parked at station s0, which was charging for charging.

Schedule for EV v3:
   [   0,  554) -> It remains parked at station s1, which was charging for charging.
   [ 554,  614) -> Service a request driving for customer c39 from s1 to s6.
   [ 614,  736) -> It remains parked at station s6, which was charging for charging.
   [ 736,  916) -> Service a request driving for customer c78 from s6 to s2.
   [ 916, 1094) -> It remains parked at station s2, which was charging for charging.
   [1094, 1214) -> Service a request driving for customer c37 from s2 to s1.
   [1214, 1394) -> Service a request driving for customer c12 from s1 to s5.
   [1394, 1719) -> It remains parked at station s5, which was charging for charging.

Schedule for EV v4:
   [   0,  670) -> It remains parked at station s2, which was charging for charging.
   [ 670,  730) -> Service a request driving for customer c55 from s2 to s4.
   [ 730,  786) -> It remains parked at station s4, which was charging for charging.
   [ 786, 1086) -> Service a request driving for customer c50 from s4 to s8.
   [1086, 1154) -> It remains parked at station s8, which was charging for charging.
   [1154, 1214) -> Service a request driving for customer c18 from s8 to s0.
   [1214, 1266) -> It remains parked at station s0, which was charging for charging.
   [1266, 1416) -> Service a request driving for customer c49 from s0 to s2.
   [1416, 1719) -> It remains parked at station s2, which was charging for charging.

Schedule for EV v5:
   [   0,  908) -> It remains parked at station s2, which was charging for charging.
   [ 908,  938) -> Service a request driving for customer c53 from s2 to s3.
   [ 938,  967) -> It remains parked at station s3, which was charging for charging.
   [ 967, 1027) -> Service a request driving for customer c37 from s3 to s3.
   [1027, 1089) -> It remains parked at station s3, which was charging for charging.
   [1089, 1269) -> Service a request driving for customer c64 from s3 to s11.
   [1269, 1327) -> It remains parked at station s11, which was charging for charging.
   [1327, 1387) -> Service a request driving for customer c29 from s11 to s2.
   [1387, 1391) -> It remains parked at station s2, which was charging for charging.
   [1391, 1421) -> Service a request driving for customer c1 from s2 to s5.
   [1421, 1719) -> It remains parked at station s5, which was charging for charging.

Schedule for EV v6:
   [   0,  910) -> It remains parked at station s3, which was charging for charging.
   [ 910,  970) -> Service a request driving for customer c21 from s3 to s2.
   [ 970, 1087) -> It remains parked at station s2, which was charging for charging.
   [1087, 1147) -> Service a request driving for customer c65 from s2 to s8.
   [1147, 1272) -> It remains parked at station s8, which was charging for charging.
   [1272, 1512) -> Service a request driving for customer c55 from s8 to s4.
   [1512, 1719) -> It remains parked at station s4, which was charging for charging.

Schedule for EV v7:
   [   0,  614) -> It remains parked at station s3, which was charging for charging.
   [ 614,  644) -> Service a request driving for customer c51 from s3 to s3.
   [ 644,  965) -> It remains parked at station s3, which was charging for charging.
   [ 965, 1325) -> Service a request driving for customer c1 from s3 to s8.
   [1325, 1389) -> It remains parked at station s8, which was charging for charging.
   [1389, 1479) -> Service a request driving for customer c11 from s8 to s9.
   [1479, 1719) -> It remains parked at station s9, which was charging for charging.

Schedule for EV v8:
   [   0,  730) -> It remains parked at station s3, which was charging for charging.
   [ 730,  880) -> Service a request driving for customer c13 from s3 to s1.
   [ 880,  969) -> It remains parked at station s1, which was charging for charging.
   [ 969, 1029) -> Service a request driving for customer c74 from s1 to s3.
   [1029, 1032) -> It remains parked at station s3, which was charging for charging.
   [1032, 1122) -> Service a request driving for customer c13 from s3 to s1.
   [1122, 1151) -> It remains parked at station s1, which was charging for charging.
   [1151, 1211) -> Service a request driving for customer c58 from s1 to s11.
   [1211, 1216) -> It remains parked at station s11, which was charging for charging.
   [1216, 1426) -> Service a request driving for customer c75 from s11 to s11.
   [1426, 1719) -> It remains parked at station s11, which was charging for charging.

Schedule for EV v9:
   [   0,  675) -> It remains parked at station s5, which was charging for charging.
   [ 675,  735) -> Service a request driving for customer c33 from s5 to s8.
   [ 735,  790) -> It remains parked at station s8, which was charging for charging.
   [ 790,  850) -> Service a request driving for customer c26 from s8 to s5.
   [ 850, 1089) -> It remains parked at station s5, which was charging for charging.
   [1089, 1389) -> Service a request driving for customer c39 from s5 to s3.
   [1389, 1719) -> It remains parked at station s3, which was charging for charging.

Schedule for EV v10:
   [   0,  849) -> It remains parked at station s7, which was charging for charging.
   [ 849,  909) -> Service a request driving for customer c12 from s7 to s0.
   [ 909, 1026) -> It remains parked at station s0, which was charging for charging.
   [1026, 1086) -> Service a request driving for customer c21 from s0 to s2.
   [1086, 1207) -> It remains parked at station s2, which was charging for charging.
   [1207, 1237) -> Service a request driving for customer c26 from s2 to s9.
   [1237, 1719) -> It remains parked at station s9, which was charging for charging.

Schedule for EV v11:
   [   0,  674) -> It remains parked at station s7, which was charging for charging.
   [ 674,  914) -> Service a request driving for customer c34 from s7 to s4.
   [ 914, 1092) -> It remains parked at station s4, which was charging for charging.
   [1092, 1272) -> Service a request driving for customer c51 from s4 to s6.
   [1272, 1392) -> It remains parked at station s6, which was charging for charging.
   [1392, 1572) -> Service a request driving for customer c29 from s6 to s11.
   [1572, 1719) -> It remains parked at station s11, which was charging for charging.

Schedule for EV v12:
   [   0,  847) -> It remains parked at station s9, which was charging for charging.
   [ 847, 1147) -> Service a request driving for customer c75 from s9 to s0.
   [1147, 1155) -> It remains parked at station s0, which was charging for charging.
   [1155, 1335) -> Service a request driving for customer c67 from s0 to s1.
   [1335, 1446) -> It remains parked at station s1, which was charging for charging.
   [1446, 1686) -> Service a request driving for customer c21 from s1 to s1.
   [1686, 1719) -> It remains parked at station s1, which was charging for charging.

Schedule for EV v13:
   [   0,  854) -> It remains parked at station s9, which was charging for charging.
   [ 854,  944) -> Service a request driving for customer c73 from s9 to s0.
   [ 944,  968) -> It remains parked at station s0, which was charging for charging.
   [ 968, 1148) -> Service a request driving for customer c73 from s0 to s8.
   [1148, 1268) -> It remains parked at station s8, which was charging for charging.
   [1268, 1568) -> Service a request driving for customer c3 from s8 to s10.
   [1568, 1719) -> It remains parked at station s10, which was charging for charging.

Schedule for EV v14:
   [   0,  486) -> It remains parked at station s11, which was charging for charging.
   [ 486,  546) -> Service a request driving for customer c25 from s11 to s8.
   [ 546,  673) -> It remains parked at station s8, which was charging for charging.
   [ 673,  823) -> Service a request driving for customer c53 from s8 to s5.
   [ 823,  853) -> It remains parked at station s5, which was charging for charging.
   [ 853, 1003) -> Service a request driving for customer c55 from s5 to s4.
   [1003, 1215) -> It remains parked at station s4, which was charging for charging.
   [1215, 1365) -> Service a request driving for customer c69 from s4 to s8.
   [1365, 1719) -> It remains parked at station s8, which was charging for charging.

Set of satisfied customers
   {c1, c3, c11, c12, c13, c18, c20, c21, c24, c25, c26, c29, c31, c33, c34, c37, c39, c46, c49, c50, c51, c53, c55, c58, c64, c65, c67, c69, c73, c74, c75, c78}

